digraph "benchmarks-true-state-lstar-3seeds/n_states=16-n_outputs=3-glitch_percent=0.1/1b158d01a6fd9ef323d8b942e377e56c/RealModel" {
s1 [label="s1|a", shape=record, style=rounded];
s2 [label="s2|c", shape=record, style=rounded];
s3 [label="s3|c", shape=record, style=rounded];
s4 [label="s4|a", shape=record, style=rounded];
s5 [label="s5|a", shape=record, style=rounded];
s6 [label="s6|a", shape=record, style=rounded];
s7 [label="s7|c", shape=record, style=rounded];
s8 [label="s8|b", shape=record, style=rounded];
s9 [label="s9|b", shape=record, style=rounded];
s10 [label="s10|c", shape=record, style=rounded];
s11 [label="s11|b", shape=record, style=rounded];
s12 [label="s12|c", shape=record, style=rounded];
s13 [label="s13|c", shape=record, style=rounded];
s14 [label="s14|c", shape=record, style=rounded];
s15 [label="s15|c", shape=record, style=rounded];
s16 [label="s16|c", shape=record, style=rounded];
s1 -> s7  [label="x"];
s1 -> s12  [label="y"];
s1 -> s14  [label="z"];
s2 -> s1  [label="x"];
s2 -> s2  [label="y"];
s2 -> s4  [label="z"];
s3 -> s1  [label="x"];
s3 -> s14  [label="y"];
s3 -> s14  [label="z"];
s4 -> s7  [label="x"];
s4 -> s12  [label="y"];
s4 -> s4  [label="z"];
s5 -> s15  [label="x"];
s5 -> s16  [label="y"];
s5 -> s4  [label="z"];
s6 -> s15  [label="x"];
s6 -> s7  [label="y"];
s6 -> s1  [label="z"];
s7 -> s8  [label="x"];
s7 -> s10  [label="y"];
s7 -> s6  [label="z"];
s8 -> s5  [label="x"];
s8 -> s15  [label="y"];
s8 -> s9  [label="z"];
s9 -> s2  [label="x"];
s9 -> s16  [label="y"];
s9 -> s4  [label="z"];
s10 -> s12  [label="x"];
s10 -> s10  [label="y"];
s10 -> s12  [label="z"];
s11 -> s16  [label="x"];
s11 -> s6  [label="y"];
s11 -> s12  [label="z"];
s12 -> s13  [label="x"];
s12 -> s2  [label="y"];
s12 -> s16  [label="z"];
s13 -> s15  [label="x"];
s13 -> s6  [label="y"];
s13 -> s16  [label="z"];
s14 -> s3  [label="x"];
s14 -> s4  [label="y"];
s14 -> s11  [label="z"];
s15 -> s15  [label="x"];
s15 -> s1  [label="y"];
s15 -> s14  [label="z"];
s16 -> s4  [label="x"];
s16 -> s6  [label="y"];
s16 -> s15  [label="z"];
__start0 [label="", shape=none];
__start0 -> s1  [label=""];
}
