digraph "benchmarks-true-state-lstar-songp/n_states=13-n_outputs=5-glitch_percent=0.05-pmstrat='lsu'/d5a5744e4e5491ddc9c7555ebe7dbf4f/alergiaLearned" {
q0 [label="a"];
q1 [label="d"];
q2 [label="d"];
q3 [label="a"];
q4 [label="e"];
q5 [label="c"];
q6 [label="b"];
q7 [label="a"];
q8 [label="c"];
q0 -> q1  [label="z:0.9811320754716981"];
q0 -> q4  [label="z:0.018867924528301886"];
q0 -> q2  [label="y:0.9285714285714286"];
q0 -> q4  [label="y:0.03571428571428571"];
q0 -> q5  [label="y:0.03571428571428571"];
q0 -> q3  [label="x:0.9661016949152542"];
q0 -> q6  [label="x:0.03389830508474576"];
q1 -> q7  [label="x:0.5384615384615384"];
q1 -> q4  [label="x:0.46153846153846156"];
q1 -> q4  [label="y:0.6071428571428571"];
q1 -> q6  [label="y:0.21428571428571427"];
q1 -> q0  [label="y:0.17857142857142858"];
q1 -> q4  [label="z:0.5555555555555556"];
q1 -> q5  [label="z:0.037037037037037035"];
q1 -> q6  [label="z:0.18518518518518517"];
q1 -> q1  [label="z:0.2222222222222222"];
q2 -> q6  [label="x:0.9333333333333333"];
q2 -> q5  [label="x:0.06666666666666667"];
q2 -> q4  [label="x:0.0"];
q2 -> q8  [label="y:1.0"];
q2 -> q6  [label="y:0.0"];
q2 -> q1  [label="z:1.0"];
q3 -> q4  [label="x:1.0"];
q3 -> q1  [label="y:0.9444444444444444"];
q3 -> q6  [label="y:0.05555555555555555"];
q3 -> q5  [label="z:1.0"];
q4 -> q2  [label="z:0.7142857142857143"];
q4 -> q4  [label="z:0.23809523809523808"];
q4 -> q0  [label="z:0.047619047619047616"];
q4 -> q5  [label="y:0.75"];
q4 -> q6  [label="y:0.25"];
q4 -> q5  [label="x:0.8235294117647058"];
q4 -> q4  [label="x:0.17647058823529413"];
q5 -> q2  [label="x:1.0"];
q5 -> q4  [label="y:0.7777777777777778"];
q5 -> q5  [label="y:0.2222222222222222"];
q5 -> q1  [label="z:0.8888888888888888"];
q5 -> q0  [label="z:0.1111111111111111"];
q6 -> q6  [label="z:1.0"];
q6 -> q1  [label="x:0.125"];
q6 -> q5  [label="x:0.875"];
q6 -> q4  [label="y:1.0"];
q7 -> q0  [label="x:1.0"];
q7 -> q6  [label="y:1.0"];
q7 -> q5  [label="z:1.0"];
q8 -> q1  [label="x:1.0"];
q8 -> q5  [label="y:1.0"];
q8 -> q0  [label="z:1.0"];
__start0 [label="", shape=none];
__start0 -> q0  [label=""];
}
