digraph "benchmarks-true-state-lstar-3seeds/n_states=3-n_outputs=3-glitch_percent=0.1/faf7125d04afc91b27abed17721b3b34/pmsatLearned-N3-STOC" {
0 [label="0|a", shape=record, style=rounded];
1 [label="1|b", shape=record, style=rounded];
2 [label="2|c", shape=record, style=rounded];
0 -> 0  [label="x (7)"];
0 -> 1  [label="y (6)"];
0 -> 0  [label="z (6)"];
1 -> 0  [label="z (8)"];
1 -> 0  [label="y (19)"];
1 -> 2  [label="x (19)"];
1 -> 1  [label="!z [1]"];
1 -> 1  [label="!y [1]"];
2 -> 1  [label="x (5)"];
2 -> 1  [label="y (5)"];
2 -> 1  [label="z (4)"];
__start0 [label="", shape=none];
__start0 -> 1  [label=""];
}
