digraph "benchmarks-true-state-lstar-songp/n_states=12-n_outputs=7-glitch_percent=0.01-pmstrat='rc2'/8d5ad8b2ce49157af1cb7ad1a5abe92d/pmsatLearned-N12" {
0 [label="0|a", shape=record, style=rounded];
1 [label="1|b", shape=record, style=rounded];
2 [label="2|c", shape=record, style=rounded];
3 [label="3|d", shape=record, style=rounded];
4 [label="4|f", shape=record, style=rounded];
5 [label="5|g", shape=record, style=rounded];
6 [label="6|g", shape=record, style=rounded];
7 [label="7|a", shape=record, style=rounded];
8 [label="8|f", shape=record, style=rounded];
9 [label="9|c", shape=record, style=rounded];
10 [label="10|d", shape=record, style=rounded];
11 [label="11|f", shape=record, style=rounded];
0 -> 9  [label="z"];
0 -> 11  [label="y"];
0 -> 7  [label="x"];
1 -> 8  [label="x"];
1 -> 4  [label="y"];
1 -> 2  [label="z"];
2 -> 9  [label="x"];
2 -> 4  [label="y"];
2 -> 11  [label="z"];
3 -> 5  [label="x"];
3 -> 11  [label="y"];
3 -> 1  [label="z"];
4 -> 0  [label="x"];
4 -> 4  [label="y"];
4 -> 0  [label="z"];
5 -> 9  [label="x"];
5 -> 2  [label="y"];
5 -> 4  [label="z"];
6 -> 9  [label="x"];
6 -> 0  [label="y"];
6 -> 5  [label="z"];
7 -> 5  [label="x"];
7 -> 2  [label="y"];
7 -> 1  [label="z"];
8 -> 5  [label="x"];
8 -> 4  [label="y"];
8 -> 2  [label="z"];
9 -> 4  [label="x"];
9 -> 10  [label="y"];
9 -> 9  [label="z"];
10 -> 4  [label="x"];
10 -> 1  [label="y"];
10 -> 1  [label="z"];
11 -> 3  [label="x"];
11 -> 8  [label="y"];
11 -> 6  [label="z"];
__start0 [label="", shape=none];
__start0 -> 0  [label=""];
}
