digraph "benchmarks-true-state-lstar-3seeds/n_states=9-n_outputs=9-glitch_percent=0.01/202027e4369b392f9796cac063642a48/alergiaLearned" {
q0 [label="b"];
q1 [label="i"];
q2 [label="a"];
q3 [label="a"];
q4 [label="g"];
q5 [label="c"];
q6 [label="a"];
q7 [label="d"];
q0 -> q1  [label="z:1.0"];
q0 -> q2  [label="y:1.0"];
q0 -> q3  [label="x:0.9811320754716981"];
q0 -> q4  [label="x:0.018867924528301886"];
q1 -> q1  [label="x:1.0"];
q1 -> q2  [label="y:1.0"];
q1 -> q5  [label="z:0.5"];
q1 -> q4  [label="z:0.5"];
q2 -> q6  [label="x:0.8260869565217391"];
q2 -> q5  [label="x:0.13043478260869565"];
q2 -> q4  [label="x:0.043478260869565216"];
q2 -> q1  [label="y:0.8260869565217391"];
q2 -> q2  [label="y:0.13043478260869565"];
q2 -> q7  [label="y:0.043478260869565216"];
q2 -> q4  [label="z:0.6363636363636364"];
q2 -> q2  [label="z:0.2727272727272727"];
q2 -> q5  [label="z:0.09090909090909091"];
q3 -> q4  [label="x:1.0"];
q3 -> q7  [label="y:1.0"];
q3 -> q5  [label="z:1.0"];
q4 -> q2  [label="z:1.0"];
q4 -> q2  [label="x:1.0"];
q4 -> q2  [label="y:1.0"];
q5 -> q4  [label="x:1.0"];
q5 -> q1  [label="y:1.0"];
q5 -> q7  [label="z:1.0"];
q6 -> q5  [label="x:1.0"];
q6 -> q2  [label="y:1.0"];
q6 -> q2  [label="z:1.0"];
q7 -> q4  [label="x:1.0"];
q7 -> q2  [label="y:1.0"];
q7 -> q2  [label="z:1.0"];
__start0 [label="", shape=none];
__start0 -> q0  [label=""];
}
