digraph "benchmarks-true-state-lstar-3seeds/n_states=5-n_outputs=4-glitch_percent=0.1/a2c4de3f99a4faa5e92a209aa2e45c23/pmsatLearned-N5-STOC" {
0 [label="0|b", shape=record, style=rounded];
1 [label="1|c", shape=record, style=rounded];
2 [label="2|b", shape=record, style=rounded];
3 [label="3|b", shape=record, style=rounded];
4 [label="4|b", shape=record, style=rounded];
0 -> 3  [label="z (37)"];
0 -> 2  [label="y (27)"];
0 -> 1  [label="x (62)"];
0 -> 3  [label="!x [1]"];
0 -> 0  [label="!x [3]"];
1 -> 4  [label="x (31)"];
1 -> 1  [label="y (9)"];
1 -> 2  [label="z (11)"];
1 -> 4  [label="!z [1]"];
1 -> 1  [label="!x [1]"];
2 -> 2  [label="x (20)"];
2 -> 3  [label="y (9)"];
2 -> 2  [label="z (13)"];
3 -> 0  [label="x (19)"];
3 -> 0  [label="z (9)"];
3 -> 0  [label="y (9)"];
3 -> 1  [label="!x [1]"];
4 -> 1  [label="x (10)"];
4 -> 3  [label="y (6)"];
4 -> 0  [label="z (8)"];
__start0 [label="", shape=none];
__start0 -> 0  [label=""];
}
