digraph "benchmarks-true-state-lstar-rc10seeds/n_states=14-n_outputs=5-glitch_percent=0.01/2a6138b904347d29b12b9abdfaed1afb/pmsatLearned_NOP-N14" {
0 [label="0|c", shape=record, style=rounded];
1 [label="1|c", shape=record, style=rounded];
2 [label="2|a", shape=record, style=rounded];
3 [label="3|a", shape=record, style=rounded];
4 [label="4|a", shape=record, style=rounded];
5 [label="5|d", shape=record, style=rounded];
6 [label="6|d", shape=record, style=rounded];
7 [label="7|a", shape=record, style=rounded];
8 [label="8|c", shape=record, style=rounded];
9 [label="9|a", shape=record, style=rounded];
10 [label="10|c", shape=record, style=rounded];
11 [label="11|c", shape=record, style=rounded];
12 [label="12|d", shape=record, style=rounded];
13 [label="13|a", shape=record, style=rounded];
0 -> 1  [label="x"];
0 -> 12  [label="y"];
0 -> 8  [label="z"];
1 -> 10  [label="z"];
1 -> 13  [label="y"];
1 -> 8  [label="x"];
2 -> 10  [label="x"];
2 -> 9  [label="z"];
2 -> 0  [label="y"];
3 -> 0  [label="x"];
3 -> 5  [label="y"];
3 -> 1  [label="z"];
4 -> 10  [label="x"];
4 -> 8  [label="y"];
4 -> 8  [label="z"];
5 -> 12  [label="x"];
5 -> 6  [label="y"];
5 -> 0  [label="z"];
6 -> 9  [label="x"];
6 -> 4  [label="y"];
6 -> 2  [label="z"];
7 -> 3  [label="x"];
7 -> 8  [label="y"];
7 -> 10  [label="z"];
8 -> 5  [label="x"];
8 -> 11  [label="y"];
8 -> 0  [label="z"];
9 -> 9  [label="x"];
9 -> 8  [label="y"];
9 -> 5  [label="z"];
10 -> 4  [label="x"];
10 -> 2  [label="y"];
10 -> 6  [label="z"];
11 -> 12  [label="x"];
11 -> 9  [label="y"];
11 -> 1  [label="z"];
12 -> 4  [label="x"];
12 -> 13  [label="y"];
12 -> 2  [label="z"];
13 -> 7  [label="x"];
13 -> 9  [label="y"];
13 -> 3  [label="z"];
__start0 [label="", shape=none];
__start0 -> 1  [label=""];
}
