digraph "benchmarks-true-state-lstar-3seeds/n_states=16-n_outputs=8-glitch_percent=0.02/9d363b6a91feb1434cb23a90b5f5c18b/pmsatLearned-N16" {
0 [label="0|b", shape=record, style=rounded];
1 [label="1|c", shape=record, style=rounded];
2 [label="2|d", shape=record, style=rounded];
3 [label="3|e", shape=record, style=rounded];
4 [label="4|f", shape=record, style=rounded];
5 [label="5|h", shape=record, style=rounded];
6 [label="6|f", shape=record, style=rounded];
7 [label="7|f", shape=record, style=rounded];
8 [label="8|h", shape=record, style=rounded];
9 [label="9|b", shape=record, style=rounded];
10 [label="10|f", shape=record, style=rounded];
11 [label="11|d", shape=record, style=rounded];
12 [label="12|b", shape=record, style=rounded];
13 [label="13|f", shape=record, style=rounded];
14 [label="14|d", shape=record, style=rounded];
15 [label="15|f", shape=record, style=rounded];
0 -> 9  [label="y"];
0 -> 11  [label="x"];
0 -> 15  [label="z"];
1 -> 12  [label="x"];
1 -> 10  [label="y"];
1 -> 11  [label="z"];
2 -> 4  [label="y"];
2 -> 5  [label="z"];
2 -> 5  [label="x"];
3 -> 13  [label="x"];
3 -> 2  [label="y"];
3 -> 15  [label="z"];
4 -> 8  [label="x"];
4 -> 2  [label="y"];
4 -> 9  [label="z"];
5 -> 11  [label="z"];
5 -> 6  [label="y"];
5 -> 8  [label="x"];
6 -> 14  [label="x"];
6 -> 7  [label="y"];
6 -> 9  [label="z"];
7 -> 12  [label="x"];
7 -> 13  [label="z"];
7 -> 14  [label="y"];
8 -> 13  [label="x"];
8 -> 10  [label="y"];
8 -> 1  [label="z"];
9 -> 14  [label="x"];
9 -> 2  [label="y"];
9 -> 13  [label="z"];
10 -> 11  [label="x"];
10 -> 13  [label="y"];
10 -> 14  [label="z"];
11 -> 4  [label="x"];
11 -> 15  [label="y"];
11 -> 2  [label="z"];
12 -> 7  [label="x"];
12 -> 14  [label="y"];
12 -> 8  [label="z"];
13 -> 3  [label="x"];
13 -> 12  [label="y"];
13 -> 0  [label="z"];
14 -> 10  [label="x"];
14 -> 8  [label="y"];
14 -> 11  [label="z"];
15 -> 6  [label="x"];
15 -> 4  [label="y"];
15 -> 8  [label="z"];
__start0 [label="", shape=none];
__start0 -> 5  [label=""];
}
