digraph "benchmarks-true-state-lstar-3seeds/n_states=14-n_outputs=2-glitch_percent=0.02/74204a4bde211233b8595f216d3eb977/pmsatLearned-N14-STOC" {
0 [label="0|a", shape=record, style=rounded];
1 [label="1|b", shape=record, style=rounded];
2 [label="2|b", shape=record, style=rounded];
3 [label="3|a", shape=record, style=rounded];
4 [label="4|a", shape=record, style=rounded];
5 [label="5|a", shape=record, style=rounded];
6 [label="6|b", shape=record, style=rounded];
7 [label="7|a", shape=record, style=rounded];
8 [label="8|b", shape=record, style=rounded];
9 [label="9|b", shape=record, style=rounded];
10 [label="10|b", shape=record, style=rounded];
11 [label="11|b", shape=record, style=rounded];
12 [label="12|b", shape=record, style=rounded];
13 [label="13|b", shape=record, style=rounded];
0 -> 9  [label="x (25)"];
0 -> 13  [label="y (13)"];
0 -> 5  [label="z (9)"];
1 -> 7  [label="z (81)"];
1 -> 5  [label="y (81)"];
1 -> 6  [label="x (106)"];
1 -> 9  [label="!y [1]"];
1 -> 11  [label="!x [1]"];
2 -> 0  [label="x (8)"];
2 -> 0  [label="y (7)"];
2 -> 13  [label="z (6)"];
3 -> 0  [label="x (13)"];
3 -> 1  [label="y (8)"];
3 -> 10  [label="z (9)"];
4 -> 9  [label="x (42)"];
4 -> 7  [label="y (17)"];
4 -> 13  [label="z (9)"];
4 -> 5  [label="!y [1]"];
5 -> 12  [label="x (42)"];
5 -> 8  [label="y (31)"];
5 -> 3  [label="z (28)"];
5 -> 0  [label="!x [1]"];
6 -> 4  [label="x (55)"];
6 -> 2  [label="y (27)"];
6 -> 0  [label="z (31)"];
6 -> 11  [label="!z [1]"];
7 -> 11  [label="x (32)"];
7 -> 13  [label="y (24)"];
7 -> 10  [label="z (26)"];
7 -> 11  [label="!y [1]"];
8 -> 12  [label="x (15)"];
8 -> 3  [label="y (9)"];
8 -> 6  [label="z (8)"];
9 -> 4  [label="x (40)"];
9 -> 5  [label="y (23)"];
9 -> 6  [label="z (9)"];
10 -> 5  [label="x (12)"];
10 -> 6  [label="y (8)"];
10 -> 8  [label="z (7)"];
11 -> 13  [label="x (16)"];
11 -> 4  [label="y (9)"];
11 -> 13  [label="z (6)"];
12 -> 9  [label="x (24)"];
12 -> 3  [label="y (17)"];
12 -> 12  [label="z (9)"];
13 -> 9  [label="x (23)"];
13 -> 8  [label="y (17)"];
13 -> 5  [label="z (13)"];
__start0 [label="", shape=none];
__start0 -> 1  [label=""];
}
