digraph "benchmarks-true-state-lstar-rc10seeds/n_states=12-n_outputs=9-glitch_percent=0.0/f4f41a9e09cfc4342046204f23e17df2/pmsatLearned_NOP-N12-STOC" {
0 [label="0|b", shape=record, style=rounded];
1 [label="1|b", shape=record, style=rounded];
2 [label="2|e", shape=record, style=rounded];
3 [label="3|b", shape=record, style=rounded];
4 [label="4|h", shape=record, style=rounded];
5 [label="5|e", shape=record, style=rounded];
6 [label="6|a", shape=record, style=rounded];
7 [label="7|g", shape=record, style=rounded];
8 [label="8|f", shape=record, style=rounded];
9 [label="9|e", shape=record, style=rounded];
10 [label="10|h", shape=record, style=rounded];
11 [label="11|a", shape=record, style=rounded];
0 -> 1  [label="x (6)"];
0 -> 1  [label="y (6)"];
0 -> 0  [label="z (6)"];
1 -> 8  [label="x (10)"];
1 -> 7  [label="y (10)"];
1 -> 2  [label="z (10)"];
2 -> 6  [label="z (44)"];
2 -> 10  [label="y (56)"];
2 -> 9  [label="x (56)"];
3 -> 9  [label="x (6)"];
3 -> 9  [label="y (6)"];
3 -> 8  [label="z (6)"];
4 -> 8  [label="x (6)"];
4 -> 10  [label="y (6)"];
4 -> 1  [label="z (6)"];
5 -> 2  [label="x (5)"];
5 -> 2  [label="y (5)"];
5 -> 10  [label="z (5)"];
6 -> 3  [label="x (17)"];
6 -> 0  [label="y (17)"];
6 -> 1  [label="z (5)"];
7 -> 8  [label="x (8)"];
7 -> 7  [label="y (8)"];
7 -> 4  [label="z (8)"];
8 -> 9  [label="x (9)"];
8 -> 3  [label="y (9)"];
8 -> 9  [label="z (9)"];
9 -> 7  [label="x (22)"];
9 -> 4  [label="y (22)"];
9 -> 5  [label="z (22)"];
10 -> 8  [label="x (19)"];
10 -> 11  [label="y (19)"];
10 -> 1  [label="z (19)"];
11 -> 1  [label="x (5)"];
11 -> 9  [label="y (5)"];
11 -> 7  [label="z (5)"];
__start0 [label="", shape=none];
__start0 -> 2  [label=""];
}
