digraph "benchmarks-true-state-lstar-3seeds/n_states=14-n_outputs=3-glitch_percent=0.02/86d8c415a2bb4bfc4437868c247d31bb/rpniGroundTruth" {
s0 [label="s0|a", shape=record, style=rounded];
s1 [label="s1|c", shape=record, style=rounded];
s2 [label="s2|c", shape=record, style=rounded];
s3 [label="s3|c", shape=record, style=rounded];
s4 [label="s4|c", shape=record, style=rounded];
s5 [label="s5|a", shape=record, style=rounded];
s6 [label="s6|a", shape=record, style=rounded];
s7 [label="s7|a", shape=record, style=rounded];
s8 [label="s8|c", shape=record, style=rounded];
s9 [label="s9|c", shape=record, style=rounded];
s10 [label="s10|b", shape=record, style=rounded];
s11 [label="s11|c", shape=record, style=rounded];
s12 [label="s12|b", shape=record, style=rounded];
s13 [label="s13|b", shape=record, style=rounded];
s0 -> s1  [label="y"];
s0 -> s2  [label="z"];
s0 -> s3  [label="x"];
s1 -> s4  [label="z"];
s1 -> s5  [label="y"];
s1 -> s6  [label="x"];
s2 -> s7  [label="y"];
s2 -> s8  [label="z"];
s2 -> s9  [label="x"];
s3 -> s10  [label="z"];
s3 -> s11  [label="x"];
s3 -> s12  [label="y"];
s4 -> s6  [label="x"];
s4 -> s1  [label="z"];
s4 -> s1  [label="y"];
s5 -> s1  [label="y"];
s5 -> s10  [label="z"];
s5 -> s11  [label="x"];
s6 -> s1  [label="y"];
s6 -> s12  [label="x"];
s6 -> s1  [label="z"];
s7 -> s0  [label="z"];
s7 -> s9  [label="x"];
s7 -> s12  [label="y"];
s8 -> s11  [label="z"];
s8 -> s0  [label="x"];
s8 -> s4  [label="y"];
s9 -> s0  [label="x"];
s9 -> s12  [label="y"];
s9 -> s11  [label="z"];
s10 -> s3  [label="x"];
s10 -> s5  [label="z"];
s10 -> s7  [label="y"];
s11 -> s12  [label="y"];
s11 -> s10  [label="z"];
s11 -> s13  [label="x"];
s12 -> s5  [label="z"];
s12 -> s11  [label="x"];
s12 -> s9  [label="y"];
s13 -> s11  [label="y"];
s13 -> s1  [label="x"];
s13 -> s8  [label="z"];
__start0 [label="", shape=none];
__start0 -> s0  [label=""];
}
