digraph "benchmarks-true-state-lstar-3seeds/n_states=7-n_outputs=4-glitch_percent=0.0/f24caaaebb48e6c7ced9fe26b6e6f2c8/alergiaLearned" {
q0 [label="a"];
q1 [label="d"];
q2 [label="b"];
q3 [label="d"];
q4 [label="c"];
q0 -> q1  [label="z:1.0"];
q0 -> q2  [label="y:1.0"];
q0 -> q3  [label="x:1.0"];
q1 -> q4  [label="x:0.75"];
q1 -> q2  [label="x:0.25"];
q1 -> q2  [label="y:0.75"];
q1 -> q4  [label="y:0.25"];
q1 -> q2  [label="z:0.75"];
q1 -> q4  [label="z:0.25"];
q2 -> q2  [label="x:1.0"];
q2 -> q4  [label="y:0.5333333333333333"];
q2 -> q2  [label="y:0.4666666666666667"];
q2 -> q1  [label="z:1.0"];
q3 -> q2  [label="x:1.0"];
q3 -> q4  [label="y:1.0"];
q3 -> q4  [label="z:1.0"];
q4 -> q1  [label="x:0.5833333333333334"];
q4 -> q2  [label="x:0.4166666666666667"];
q4 -> q1  [label="y:0.5833333333333334"];
q4 -> q0  [label="y:0.4166666666666667"];
q4 -> q4  [label="z:0.5833333333333334"];
q4 -> q1  [label="z:0.4166666666666667"];
__start0 [label="", shape=none];
__start0 -> q0  [label=""];
}
