digraph "benchmarks-true-state-lstar-3seeds/n_states=5-n_outputs=3-glitch_percent=0.05/f4b85085b59f183f739fca9c2d2e9471/alergiaLearned" {
q0 [label="c"];
q1 [label="b"];
q2 [label="c"];
q3 [label="c"];
q4 [label="a"];
q0 -> q1  [label="z:0.9615384615384616"];
q0 -> q0  [label="z:0.038461538461538464"];
q0 -> q2  [label="y:0.9230769230769231"];
q0 -> q1  [label="y:0.07692307692307693"];
q0 -> q3  [label="x:0.8936170212765957"];
q0 -> q1  [label="x:0.02127659574468085"];
q0 -> q4  [label="x:0.0851063829787234"];
q1 -> q1  [label="x:1.0"];
q1 -> q2  [label="y:1.0"];
q1 -> q2  [label="z:0.8571428571428571"];
q1 -> q1  [label="z:0.14285714285714285"];
q2 -> q0  [label="x:1.0"];
q2 -> q0  [label="y:1.0"];
q2 -> q1  [label="z:0.8571428571428571"];
q2 -> q0  [label="z:0.14285714285714285"];
q3 -> q4  [label="x:1.0"];
q3 -> q1  [label="y:0.8333333333333334"];
q3 -> q0  [label="y:0.16666666666666666"];
q3 -> q1  [label="z:1.0"];
q4 -> q2  [label="x:1.0"];
q4 -> q1  [label="y:1.0"];
q4 -> q0  [label="z:1.0"];
__start0 [label="", shape=none];
__start0 -> q0  [label=""];
}
