digraph alergiaLearned {
q0 [label="b"];
q1 [label="e"];
q2 [label="d"];
q3 [label="d"];
q4 [label="a"];
q5 [label="a"];
q6 [label="d"];
q7 [label="d"];
q8 [label="c"];
q9 [label="e"];
q10 [label="b"];
q11 [label="a"];
q12 [label="a"];
q0 -> q1  [label="z:1.0"];
q0 -> q2  [label="y:1.0"];
q0 -> q3  [label="x:1.0"];
q1 -> q4  [label="x:1.0"];
q1 -> q5  [label="y:1.0"];
q1 -> q6  [label="z:0.9565217391304348"];
q1 -> q1  [label="z:0.043478260869565216"];
q2 -> q7  [label="x:0.8181818181818182"];
q2 -> q1  [label="x:0.12727272727272726"];
q2 -> q0  [label="x:0.05454545454545454"];
q2 -> q8  [label="y:0.6666666666666666"];
q2 -> q2  [label="y:0.21212121212121213"];
q2 -> q0  [label="y:0.12121212121212122"];
q2 -> q6  [label="z:0.967741935483871"];
q2 -> q8  [label="z:0.03225806451612903"];
q3 -> q9  [label="x:0.9032258064516129"];
q3 -> q2  [label="x:0.0967741935483871"];
q3 -> q10  [label="y:0.9545454545454546"];
q3 -> q2  [label="y:0.045454545454545456"];
q3 -> q6  [label="z:0.9523809523809523"];
q3 -> q1  [label="z:0.047619047619047616"];
q4 -> q7  [label="x:0.7857142857142857"];
q4 -> q4  [label="x:0.21428571428571427"];
q4 -> q10  [label="y:0.8571428571428571"];
q4 -> q4  [label="y:0.14285714285714285"];
q4 -> q1  [label="y:0.0"];
q4 -> q8  [label="z:0.8571428571428571"];
q4 -> q2  [label="z:0.14285714285714285"];
q4 -> q1  [label="z:0.0"];
q5 -> q11  [label="x:1.0"];
q5 -> q2  [label="y:1.0"];
q5 -> q3  [label="z:1.0"];
q6 -> q10  [label="x:0.6086956521739131"];
q6 -> q6  [label="x:0.391304347826087"];
q6 -> q10  [label="y:0.21428571428571427"];
q6 -> q2  [label="y:0.7857142857142857"];
q6 -> q1  [label="z:0.41379310344827586"];
q6 -> q8  [label="z:0.3103448275862069"];
q6 -> q2  [label="z:0.27586206896551724"];
q7 -> q6  [label="x:0.95"];
q7 -> q0  [label="x:0.05"];
q7 -> q1  [label="x:0.0"];
q7 -> q6  [label="y:1.0"];
q7 -> q2  [label="z:0.875"];
q7 -> q1  [label="z:0.125"];
q8 -> q6  [label="x:1.0"];
q8 -> q2  [label="y:1.0"];
q8 -> q10  [label="z:1.0"];
q9 -> q12  [label="x:1.0"];
q9 -> q4  [label="y:1.0"];
q9 -> q2  [label="z:1.0"];
q10 -> q7  [label="x:0.95"];
q10 -> q0  [label="x:0.05"];
q10 -> q2  [label="y:0.9090909090909091"];
q10 -> q0  [label="y:0.09090909090909091"];
q10 -> q0  [label="z:1.0"];
q10 -> q1  [label="z:0.0"];
q11 -> q6  [label="x:1.0"];
q11 -> q12  [label="y:1.0"];
q11 -> q2  [label="z:1.0"];
q12 -> q4  [label="x:1.0"];
q12 -> q1  [label="y:1.0"];
q12 -> q1  [label="z:1.0"];
__start0 [label="", shape=none];
__start0 -> q0  [label=""];
}
