digraph "benchmarks-true-state-lstar-rc10seeds/n_states=15-n_outputs=9-glitch_percent=0.05/6a43c0d7840e6004802fec15dfa7784f/pmsatLearned_NOP-N15" {
0 [label="0|a", shape=record, style=rounded];
1 [label="1|i", shape=record, style=rounded];
2 [label="2|d", shape=record, style=rounded];
3 [label="3|h", shape=record, style=rounded];
4 [label="4|a", shape=record, style=rounded];
5 [label="5|c", shape=record, style=rounded];
6 [label="6|c", shape=record, style=rounded];
7 [label="7|i", shape=record, style=rounded];
8 [label="8|h", shape=record, style=rounded];
9 [label="9|e", shape=record, style=rounded];
10 [label="10|f", shape=record, style=rounded];
11 [label="11|f", shape=record, style=rounded];
12 [label="12|a", shape=record, style=rounded];
13 [label="13|c", shape=record, style=rounded];
14 [label="14|h", shape=record, style=rounded];
0 -> 9  [label="x"];
0 -> 10  [label="y"];
0 -> 0  [label="z"];
1 -> 14  [label="x"];
1 -> 14  [label="y"];
1 -> 12  [label="z"];
2 -> 11  [label="z"];
2 -> 12  [label="y"];
2 -> 3  [label="x"];
3 -> 13  [label="x"];
3 -> 14  [label="y"];
3 -> 0  [label="z"];
4 -> 6  [label="y"];
4 -> 4  [label="z"];
4 -> 11  [label="x"];
5 -> 12  [label="x"];
5 -> 10  [label="y"];
5 -> 4  [label="z"];
6 -> 8  [label="x"];
6 -> 5  [label="y"];
6 -> 7  [label="z"];
7 -> 9  [label="z"];
7 -> 3  [label="x"];
7 -> 2  [label="y"];
8 -> 10  [label="y"];
8 -> 9  [label="z"];
8 -> 8  [label="x"];
9 -> 12  [label="x"];
9 -> 5  [label="z"];
9 -> 8  [label="y"];
10 -> 7  [label="x"];
10 -> 9  [label="y"];
10 -> 2  [label="z"];
11 -> 5  [label="x"];
11 -> 9  [label="y"];
11 -> 4  [label="z"];
12 -> 1  [label="x"];
12 -> 8  [label="y"];
12 -> 10  [label="z"];
13 -> 7  [label="y"];
13 -> 11  [label="z"];
13 -> 6  [label="x"];
14 -> 1  [label="x"];
14 -> 7  [label="y"];
14 -> 3  [label="z"];
__start0 [label="", shape=none];
__start0 -> 2  [label=""];
}
