digraph "benchmarks-true-state-lstar-rc10seeds/n_states=16-n_outputs=4-glitch_percent=0.02/94e5a404c215da8a466f696552f18d9d/pmsatLearned_NOP-N16" {
0 [label="0|a", shape=record, style=rounded];
1 [label="1|b", shape=record, style=rounded];
2 [label="2|a", shape=record, style=rounded];
3 [label="3|a", shape=record, style=rounded];
4 [label="4|c", shape=record, style=rounded];
5 [label="5|b", shape=record, style=rounded];
6 [label="6|c", shape=record, style=rounded];
7 [label="7|a", shape=record, style=rounded];
8 [label="8|a", shape=record, style=rounded];
9 [label="9|b", shape=record, style=rounded];
10 [label="10|a", shape=record, style=rounded];
11 [label="11|a", shape=record, style=rounded];
12 [label="12|d", shape=record, style=rounded];
13 [label="13|c", shape=record, style=rounded];
14 [label="14|d", shape=record, style=rounded];
15 [label="15|a", shape=record, style=rounded];
0 -> 2  [label="z"];
0 -> 13  [label="y"];
0 -> 6  [label="x"];
1 -> 2  [label="x"];
1 -> 13  [label="y"];
1 -> 5  [label="z"];
2 -> 7  [label="x"];
2 -> 11  [label="y"];
2 -> 14  [label="z"];
3 -> 2  [label="x"];
3 -> 8  [label="y"];
3 -> 6  [label="z"];
4 -> 9  [label="x"];
4 -> 1  [label="y"];
4 -> 8  [label="z"];
5 -> 9  [label="x"];
5 -> 15  [label="y"];
5 -> 3  [label="z"];
6 -> 9  [label="x"];
6 -> 1  [label="y"];
6 -> 4  [label="z"];
7 -> 10  [label="x"];
7 -> 15  [label="y"];
7 -> 8  [label="z"];
8 -> 15  [label="x"];
8 -> 7  [label="y"];
8 -> 6  [label="z"];
9 -> 3  [label="x"];
9 -> 5  [label="y"];
9 -> 10  [label="z"];
10 -> 0  [label="x"];
10 -> 11  [label="z"];
10 -> 3  [label="y"];
11 -> 11  [label="x"];
11 -> 9  [label="y"];
11 -> 1  [label="z"];
12 -> 3  [label="x"];
12 -> 6  [label="y"];
12 -> 11  [label="z"];
13 -> 8  [label="x"];
13 -> 12  [label="y"];
13 -> 15  [label="z"];
14 -> 3  [label="x"];
14 -> 1  [label="y"];
14 -> 3  [label="z"];
15 -> 1  [label="x"];
15 -> 9  [label="z"];
15 -> 2  [label="y"];
__start0 [label="", shape=none];
__start0 -> 0  [label=""];
}
