digraph "benchmarks-true-state-lstar-rc10seeds/n_states=9-n_outputs=2-glitch_percent=0.02/1dc8479f02d5373c82e3879cdd6e298d/pmsatLearned_NOP-N9-STOC" {
0 [label="0|b", shape=record, style=rounded];
1 [label="1|b", shape=record, style=rounded];
2 [label="2|a", shape=record, style=rounded];
3 [label="3|b", shape=record, style=rounded];
4 [label="4|b", shape=record, style=rounded];
5 [label="5|b", shape=record, style=rounded];
6 [label="6|a", shape=record, style=rounded];
7 [label="7|b", shape=record, style=rounded];
8 [label="8|a", shape=record, style=rounded];
0 -> 5  [label="x (15)"];
0 -> 3  [label="y (14)"];
0 -> 6  [label="z (14)"];
1 -> 5  [label="z (33)"];
1 -> 4  [label="y (71)"];
1 -> 8  [label="x (89)"];
1 -> 2  [label="!y [1]"];
2 -> 0  [label="x (6)"];
2 -> 4  [label="y (12)"];
2 -> 1  [label="z (8)"];
3 -> 0  [label="x (10)"];
3 -> 4  [label="y (22)"];
3 -> 0  [label="z (14)"];
4 -> 6  [label="x (39)"];
4 -> 2  [label="y (40)"];
4 -> 5  [label="z (12)"];
4 -> 0  [label="!x [1]"];
5 -> 6  [label="x (16)"];
5 -> 5  [label="y (24)"];
5 -> 7  [label="z (16)"];
6 -> 3  [label="x (13)"];
6 -> 3  [label="y (12)"];
6 -> 4  [label="z (15)"];
7 -> 1  [label="y (12)"];
7 -> 5  [label="x (11)"];
7 -> 1  [label="z (10)"];
8 -> 3  [label="x (27)"];
8 -> 7  [label="y (25)"];
8 -> 0  [label="z (27)"];
__start0 [label="", shape=none];
__start0 -> 1  [label=""];
}
