digraph "benchmarks-true-state-lstar-3seeds/n_states=9-n_outputs=4-glitch_percent=0.1/76ce21c3c891d0f4f16a00a12f12e5f2/alergiaLearned" {
q0 [label="c"];
q1 [label="b"];
q2 [label="c"];
q3 [label="d"];
q4 [label="a"];
q5 [label="d"];
q0 -> q1  [label="z:0.9"];
q0 -> q0  [label="z:0.05"];
q0 -> q5  [label="z:0.05"];
q0 -> q2  [label="x:0.9333333333333333"];
q0 -> q1  [label="x:0.013333333333333334"];
q0 -> q3  [label="x:0.013333333333333334"];
q0 -> q4  [label="x:0.04"];
q0 -> q3  [label="y:0.9444444444444444"];
q0 -> q4  [label="y:0.05555555555555555"];
q1 -> q4  [label="y:1.0"];
q1 -> q3  [label="z:0.6"];
q1 -> q1  [label="z:0.4"];
q1 -> q2  [label="x:0.625"];
q1 -> q1  [label="x:0.375"];
q2 -> q4  [label="x:0.9642857142857143"];
q2 -> q0  [label="x:0.03571428571428571"];
q2 -> q5  [label="z:0.88"];
q2 -> q1  [label="z:0.04"];
q2 -> q0  [label="z:0.08"];
q2 -> q5  [label="y:0.9411764705882353"];
q2 -> q1  [label="y:0.058823529411764705"];
q3 -> q1  [label="x:0.8333333333333334"];
q3 -> q0  [label="x:0.03333333333333333"];
q3 -> q3  [label="x:0.13333333333333333"];
q3 -> q0  [label="z:0.75"];
q3 -> q1  [label="z:0.25"];
q3 -> q4  [label="y:0.9523809523809523"];
q3 -> q1  [label="y:0.047619047619047616"];
q4 -> q3  [label="x:0.64"];
q4 -> q4  [label="x:0.36"];
q4 -> q3  [label="z:0.42857142857142855"];
q4 -> q2  [label="z:0.5714285714285714"];
q4 -> q1  [label="y:0.6153846153846154"];
q4 -> q3  [label="y:0.38461538461538464"];
q5 -> q0  [label="x:0.14285714285714285"];
q5 -> q1  [label="x:0.5714285714285714"];
q5 -> q3  [label="x:0.2857142857142857"];
q5 -> q4  [label="y:0.5454545454545454"];
q5 -> q1  [label="y:0.45454545454545453"];
q5 -> q0  [label="z:0.4444444444444444"];
q5 -> q1  [label="z:0.5555555555555556"];
__start0 [label="", shape=none];
__start0 -> q0  [label=""];
}
