digraph "benchmarks-true-state-lstar-rc10seeds/n_states=7-n_outputs=2-glitch_percent=0.0/50f9ddb946dea31832436be999867d0f/pmsatLearned_NOP-N7-STOC" {
0 [label="0|b", shape=record, style=rounded];
1 [label="1|b", shape=record, style=rounded];
2 [label="2|b", shape=record, style=rounded];
3 [label="3|b", shape=record, style=rounded];
4 [label="4|b", shape=record, style=rounded];
5 [label="5|b", shape=record, style=rounded];
6 [label="6|a", shape=record, style=rounded];
0 -> 5  [label="x (13)"];
0 -> 4  [label="y (28)"];
0 -> 6  [label="z (28)"];
1 -> 6  [label="z (40)"];
1 -> 2  [label="y (42)"];
1 -> 5  [label="x (106)"];
2 -> 1  [label="x (16)"];
2 -> 0  [label="y (24)"];
2 -> 2  [label="z (27)"];
3 -> 6  [label="x (11)"];
3 -> 5  [label="y (16)"];
3 -> 5  [label="z (12)"];
4 -> 1  [label="x (13)"];
4 -> 2  [label="y (27)"];
4 -> 0  [label="z (30)"];
5 -> 4  [label="x (43)"];
5 -> 0  [label="y (49)"];
5 -> 3  [label="z (44)"];
6 -> 4  [label="x (13)"];
6 -> 3  [label="y (16)"];
6 -> 5  [label="z (12)"];
__start0 [label="", shape=none];
__start0 -> 1  [label=""];
}
