digraph "benchmarks-true-state-lstar-3seeds/n_states=16-n_outputs=9-glitch_percent=0.02/1c8ffd57230914ee3b8ba740f30e3140/alergiaLearned" {
q0 [label="f"];
q1 [label="a"];
q2 [label="g"];
q3 [label="b"];
q4 [label="i"];
q5 [label="a"];
q6 [label="e"];
q7 [label="f"];
q8 [label="b"];
q9 [label="h"];
q10 [label="g"];
q0 -> q1  [label="z:0.9814814814814815"];
q0 -> q4  [label="z:0.018518518518518517"];
q0 -> q2  [label="y:1.0"];
q0 -> q3  [label="x:0.9887640449438202"];
q0 -> q5  [label="x:0.011235955056179775"];
q1 -> q5  [label="x:0.6956521739130435"];
q1 -> q6  [label="x:0.17391304347826086"];
q1 -> q9  [label="x:0.13043478260869565"];
q1 -> q6  [label="y:0.9047619047619048"];
q1 -> q2  [label="y:0.09523809523809523"];
q1 -> q6  [label="z:0.7391304347826086"];
q1 -> q2  [label="z:0.13043478260869565"];
q1 -> q4  [label="z:0.13043478260869565"];
q2 -> q2  [label="x:0.7037037037037037"];
q2 -> q9  [label="x:0.2962962962962963"];
q2 -> q4  [label="x:0.0"];
q2 -> q7  [label="y:0.6785714285714286"];
q2 -> q1  [label="y:0.2857142857142857"];
q2 -> q6  [label="y:0.03571428571428571"];
q2 -> q4  [label="z:0.9642857142857143"];
q2 -> q1  [label="z:0.03571428571428571"];
q3 -> q5  [label="x:0.9622641509433962"];
q3 -> q9  [label="x:0.018867924528301886"];
q3 -> q8  [label="x:0.018867924528301886"];
q3 -> q8  [label="y:1.0"];
q3 -> q2  [label="y:0.0"];
q3 -> q4  [label="z:1.0"];
q3 -> q1  [label="z:0.0"];
q4 -> q4  [label="x:0.5"];
q4 -> q6  [label="x:0.5"];
q4 -> q4  [label="y:1.0"];
q4 -> q1  [label="z:0.5333333333333333"];
q4 -> q8  [label="z:0.4666666666666667"];
q5 -> q10  [label="z:0.7272727272727273"];
q5 -> q4  [label="z:0.22727272727272727"];
q5 -> q1  [label="z:0.045454545454545456"];
q5 -> q6  [label="y:0.22727272727272727"];
q5 -> q10  [label="y:0.7727272727272727"];
q5 -> q6  [label="x:0.21052631578947367"];
q5 -> q9  [label="x:0.7894736842105263"];
q6 -> q3  [label="x:0.4"];
q6 -> q4  [label="x:0.6"];
q6 -> q2  [label="y:1.0"];
q6 -> q2  [label="z:1.0"];
q7 -> q2  [label="x:1.0"];
q7 -> q1  [label="y:0.8"];
q7 -> q6  [label="y:0.2"];
q7 -> q2  [label="z:1.0"];
q8 -> q2  [label="x:1.0"];
q8 -> q2  [label="y:1.0"];
q8 -> q1  [label="z:1.0"];
q9 -> q6  [label="y:1.0"];
q9 -> q3  [label="x:1.0"];
q9 -> q2  [label="z:1.0"];
q10 -> q6  [label="y:0.5"];
q10 -> q2  [label="y:0.5"];
q10 -> q4  [label="x:0.5"];
q10 -> q1  [label="x:0.5"];
q10 -> q1  [label="z:0.4444444444444444"];
q10 -> q4  [label="z:0.5555555555555556"];
__start0 [label="", shape=none];
__start0 -> q0  [label=""];
}
