digraph "benchmarks-true-state-lstar-3seeds/n_states=17-n_outputs=8-glitch_percent=0.05/cc853133eb8ea9b747dd54863bd3da67/alergiaLearned" {
q0 [label="b"];
q1 [label="a"];
q2 [label="d"];
q3 [label="c"];
q4 [label="e"];
q5 [label="f"];
q6 [label="h"];
q7 [label="b"];
q8 [label="a"];
q9 [label="g"];
q10 [label="a"];
q11 [label="a"];
q0 -> q1  [label="z:0.9130434782608695"];
q0 -> q5  [label="z:0.014492753623188406"];
q0 -> q6  [label="z:0.028985507246376812"];
q0 -> q7  [label="z:0.028985507246376812"];
q0 -> q3  [label="z:0.014492753623188406"];
q0 -> q1  [label="x:0.007352941176470588"];
q0 -> q4  [label="x:0.9926470588235294"];
q0 -> q2  [label="x:0.0"];
q0 -> q2  [label="y:0.9130434782608695"];
q0 -> q3  [label="y:0.014492753623188406"];
q0 -> q0  [label="y:0.028985507246376812"];
q0 -> q1  [label="y:0.043478260869565216"];
q1 -> q7  [label="y:0.8076923076923077"];
q1 -> q1  [label="y:0.11538461538461539"];
q1 -> q5  [label="y:0.038461538461538464"];
q1 -> q2  [label="y:0.038461538461538464"];
q1 -> q6  [label="z:0.75"];
q1 -> q2  [label="z:0.14285714285714285"];
q1 -> q4  [label="z:0.03571428571428571"];
q1 -> q1  [label="z:0.03571428571428571"];
q1 -> q3  [label="z:0.03571428571428571"];
q1 -> q3  [label="x:0.07142857142857142"];
q1 -> q8  [label="x:0.8095238095238095"];
q1 -> q9  [label="x:0.11904761904761904"];
q2 -> q9  [label="x:0.9655172413793104"];
q2 -> q4  [label="x:0.034482758620689655"];
q2 -> q7  [label="z:0.9545454545454546"];
q2 -> q1  [label="z:0.045454545454545456"];
q2 -> q3  [label="y:0.9583333333333334"];
q2 -> q8  [label="y:0.041666666666666664"];
q3 -> q1  [label="x:0.96"];
q3 -> q9  [label="x:0.04"];
q3 -> q3  [label="y:0.38461538461538464"];
q3 -> q4  [label="y:0.6153846153846154"];
q3 -> q1  [label="z:0.42857142857142855"];
q3 -> q2  [label="z:0.5714285714285714"];
q4 -> q10  [label="x:0.9871794871794872"];
q4 -> q9  [label="x:0.01282051282051282"];
q4 -> q11  [label="y:0.925"];
q4 -> q5  [label="y:0.05"];
q4 -> q2  [label="y:0.025"];
q4 -> q5  [label="z:1.0"];
q5 -> q0  [label="z:0.8461538461538461"];
q5 -> q3  [label="z:0.07692307692307693"];
q5 -> q1  [label="z:0.07692307692307693"];
q5 -> q11  [label="x:1.0"];
q5 -> q1  [label="y:1.0"];
q6 -> q8  [label="z:1.0"];
q6 -> q1  [label="y:1.0"];
q6 -> q6  [label="x:1.0"];
q7 -> q8  [label="z:0.4"];
q7 -> q3  [label="z:0.6"];
q7 -> q7  [label="y:0.5454545454545454"];
q7 -> q1  [label="y:0.45454545454545453"];
q7 -> q3  [label="x:0.46153846153846156"];
q7 -> q2  [label="x:0.5384615384615384"];
q8 -> q11  [label="x:0.7391304347826086"];
q8 -> q9  [label="x:0.17391304347826086"];
q8 -> q3  [label="x:0.08695652173913043"];
q8 -> q1  [label="y:1.0"];
q8 -> q5  [label="y:0.0"];
q8 -> q2  [label="z:0.45454545454545453"];
q8 -> q4  [label="z:0.5454545454545454"];
q9 -> q9  [label="z:0.5384615384615384"];
q9 -> q4  [label="z:0.46153846153846156"];
q9 -> q4  [label="x:0.5238095238095238"];
q9 -> q8  [label="x:0.047619047619047616"];
q9 -> q0  [label="x:0.42857142857142855"];
q9 -> q1  [label="y:0.36363636363636365"];
q9 -> q6  [label="y:0.6363636363636364"];
q10 -> q3  [label="x:1.0"];
q10 -> q5  [label="y:0.88"];
q10 -> q1  [label="y:0.04"];
q10 -> q4  [label="y:0.08"];
q10 -> q8  [label="z:0.9047619047619048"];
q10 -> q2  [label="z:0.09523809523809523"];
q11 -> q9  [label="x:0.75"];
q11 -> q3  [label="x:0.16666666666666666"];
q11 -> q1  [label="x:0.08333333333333333"];
q11 -> q2  [label="y:0.7777777777777778"];
q11 -> q5  [label="y:0.1111111111111111"];
q11 -> q1  [label="y:0.1111111111111111"];
q11 -> q3  [label="z:0.75"];
q11 -> q6  [label="z:0.125"];
q11 -> q2  [label="z:0.125"];
__start0 [label="", shape=none];
__start0 -> q0  [label=""];
}
