digraph "benchmarks-true-state-lstar-3seeds/n_states=11-n_outputs=9-glitch_percent=0.01/dfbe3e9a578a94bf99a12e72b4780915/pmsatLearned-N11-STOC" {
0 [label="0|a", shape=record, style=rounded];
1 [label="1|b", shape=record, style=rounded];
2 [label="2|c", shape=record, style=rounded];
3 [label="3|d", shape=record, style=rounded];
4 [label="4|e", shape=record, style=rounded];
5 [label="5|g", shape=record, style=rounded];
6 [label="6|i", shape=record, style=rounded];
7 [label="7|g", shape=record, style=rounded];
8 [label="8|d", shape=record, style=rounded];
9 [label="9|b", shape=record, style=rounded];
10 [label="10|i", shape=record, style=rounded];
0 -> 6  [label="y (6)"];
0 -> 0  [label="z (6)"];
0 -> 10  [label="x (5)"];
1 -> 10  [label="x (18)"];
1 -> 7  [label="y (6)"];
1 -> 6  [label="z (6)"];
2 -> 7  [label="x (8)"];
2 -> 2  [label="y (8)"];
2 -> 8  [label="z (8)"];
3 -> 6  [label="x (6)"];
3 -> 8  [label="y (6)"];
3 -> 6  [label="z (5)"];
4 -> 9  [label="x (7)"];
4 -> 5  [label="z (7)"];
4 -> 2  [label="y (6)"];
5 -> 1  [label="z (30)"];
5 -> 6  [label="y (54)"];
5 -> 9  [label="x (53)"];
5 -> 8  [label="!z [1]"];
6 -> 8  [label="x (23)"];
6 -> 4  [label="y (23)"];
6 -> 7  [label="z (23)"];
7 -> 7  [label="x (9)"];
7 -> 3  [label="y (9)"];
7 -> 6  [label="z (9)"];
8 -> 2  [label="x (7)"];
8 -> 7  [label="y (7)"];
8 -> 6  [label="z (8)"];
9 -> 2  [label="x (18)"];
9 -> 3  [label="z (17)"];
9 -> 0  [label="y (17)"];
10 -> 4  [label="x (6)"];
10 -> 4  [label="y (6)"];
10 -> 1  [label="z (6)"];
__start0 [label="", shape=none];
__start0 -> 5  [label=""];
}
