digraph "benchmarks-true-state-lstar-3seeds/n_states=10-n_outputs=9-glitch_percent=0.02/492566955bc7fde5a021405ce28b0998/pmsatLearned-N10" {
0 [label="0|b", shape=record, style=rounded];
1 [label="1|e", shape=record, style=rounded];
2 [label="2|f", shape=record, style=rounded];
3 [label="3|g", shape=record, style=rounded];
4 [label="4|h", shape=record, style=rounded];
5 [label="5|i", shape=record, style=rounded];
6 [label="6|i", shape=record, style=rounded];
7 [label="7|f", shape=record, style=rounded];
8 [label="8|g", shape=record, style=rounded];
9 [label="9|g", shape=record, style=rounded];
0 -> 8  [label="x"];
0 -> 5  [label="y"];
0 -> 4  [label="z"];
1 -> 7  [label="x"];
1 -> 7  [label="y"];
1 -> 9  [label="z"];
2 -> 6  [label="z"];
2 -> 3  [label="y"];
2 -> 0  [label="x"];
3 -> 1  [label="x"];
3 -> 9  [label="y"];
3 -> 7  [label="z"];
4 -> 5  [label="x"];
4 -> 2  [label="y"];
4 -> 3  [label="z"];
5 -> 3  [label="x"];
5 -> 7  [label="y"];
5 -> 6  [label="z"];
6 -> 7  [label="x"];
6 -> 9  [label="y"];
6 -> 1  [label="z"];
7 -> 5  [label="x"];
7 -> 5  [label="y"];
7 -> 2  [label="z"];
8 -> 5  [label="x"];
8 -> 5  [label="y"];
8 -> 3  [label="z"];
9 -> 7  [label="x"];
9 -> 9  [label="z"];
9 -> 3  [label="y"];
__start0 [label="", shape=none];
__start0 -> 2  [label=""];
}
