digraph "benchmarks-true-state-lstar-songp/n_states=8-n_outputs=8-glitch_percent=0.1-pmstrat='fm'/767e764a546efcd6974fe769f27de569/alergiaLearned" {
q0 [label="a"];
q1 [label="h"];
q2 [label="e"];
q3 [label="b"];
q4 [label="f"];
q5 [label="c"];
q0 -> q1  [label="z:1.0"];
q0 -> q2  [label="y:0.8235294117647058"];
q0 -> q4  [label="y:0.14705882352941177"];
q0 -> q1  [label="y:0.029411764705882353"];
q0 -> q3  [label="x:0.9347826086956522"];
q0 -> q5  [label="x:0.043478260869565216"];
q0 -> q1  [label="x:0.021739130434782608"];
q1 -> q0  [label="x:0.2777777777777778"];
q1 -> q3  [label="x:0.05555555555555555"];
q1 -> q1  [label="x:0.6111111111111112"];
q1 -> q5  [label="x:0.05555555555555555"];
q1 -> q2  [label="y:0.3333333333333333"];
q1 -> q5  [label="y:0.5333333333333333"];
q1 -> q4  [label="y:0.13333333333333333"];
q1 -> q2  [label="z:0.7058823529411765"];
q1 -> q5  [label="z:0.29411764705882354"];
q2 -> q5  [label="x:1.0"];
q2 -> q1  [label="y:1.0"];
q2 -> q5  [label="z:1.0"];
q3 -> q1  [label="z:0.9230769230769231"];
q3 -> q5  [label="z:0.07692307692307693"];
q3 -> q4  [label="y:1.0"];
q3 -> q1  [label="x:1.0"];
q4 -> q5  [label="z:1.0"];
q4 -> q5  [label="x:1.0"];
q4 -> q1  [label="y:1.0"];
q5 -> q1  [label="x:1.0"];
q5 -> q0  [label="z:1.0"];
q5 -> q2  [label="y:1.0"];
__start0 [label="", shape=none];
__start0 -> q0  [label=""];
}
