digraph "benchmarks-true-state-lstar-rc10seeds/n_states=8-n_outputs=4-glitch_percent=0.0/626078950ce99e63bdaa5fc4bb9c6b28/pmsatLearned_NOP-N8-STOC" {
0 [label="0|a", shape=record, style=rounded];
1 [label="1|c", shape=record, style=rounded];
2 [label="2|c", shape=record, style=rounded];
3 [label="3|a", shape=record, style=rounded];
4 [label="4|c", shape=record, style=rounded];
5 [label="5|a", shape=record, style=rounded];
6 [label="6|d", shape=record, style=rounded];
7 [label="7|a", shape=record, style=rounded];
0 -> 1  [label="z (23)"];
0 -> 3  [label="y (39)"];
0 -> 6  [label="x (85)"];
1 -> 7  [label="x (14)"];
1 -> 6  [label="y (8)"];
1 -> 1  [label="z (8)"];
2 -> 5  [label="x (13)"];
2 -> 5  [label="y (8)"];
2 -> 3  [label="z (8)"];
3 -> 7  [label="x (30)"];
3 -> 5  [label="y (9)"];
3 -> 0  [label="z (9)"];
4 -> 3  [label="x (7)"];
4 -> 2  [label="y (6)"];
4 -> 5  [label="z (6)"];
5 -> 0  [label="x (24)"];
5 -> 5  [label="y (11)"];
5 -> 7  [label="z (11)"];
6 -> 2  [label="x (27)"];
6 -> 4  [label="y (22)"];
6 -> 5  [label="z (26)"];
7 -> 1  [label="x (19)"];
7 -> 2  [label="y (8)"];
7 -> 3  [label="z (8)"];
__start0 [label="", shape=none];
__start0 -> 0  [label=""];
}
