digraph "benchmarks-true-state-lstar-3seeds/n_states=11-n_outputs=9-glitch_percent=0.01/b79cefb50838a56fbee139f3d6ce73a7/pmsatLearned-N11-STOC" {
0 [label="0|b", shape=record, style=rounded];
1 [label="1|d", shape=record, style=rounded];
2 [label="2|e", shape=record, style=rounded];
3 [label="3|f", shape=record, style=rounded];
4 [label="4|h", shape=record, style=rounded];
5 [label="5|i", shape=record, style=rounded];
6 [label="6|f", shape=record, style=rounded];
7 [label="7|i", shape=record, style=rounded];
8 [label="8|d", shape=record, style=rounded];
9 [label="9|f", shape=record, style=rounded];
10 [label="10|h", shape=record, style=rounded];
0 -> 3  [label="x (8)"];
0 -> 5  [label="y (8)"];
0 -> 0  [label="z (8)"];
1 -> 1  [label="x (9)"];
1 -> 7  [label="y (9)"];
1 -> 9  [label="z (9)"];
2 -> 2  [label="x (8)"];
2 -> 1  [label="z (8)"];
2 -> 2  [label="y (7)"];
3 -> 8  [label="x (8)"];
3 -> 7  [label="y (8)"];
3 -> 10  [label="z (8)"];
4 -> 6  [label="z (30)"];
4 -> 10  [label="y (53)"];
4 -> 9  [label="x (54)"];
4 -> 3  [label="!z [1]"];
5 -> 1  [label="x (7)"];
5 -> 0  [label="y (7)"];
5 -> 5  [label="z (7)"];
6 -> 1  [label="x (17)"];
6 -> 3  [label="y (5)"];
6 -> 1  [label="z (5)"];
7 -> 8  [label="y (7)"];
7 -> 3  [label="z (7)"];
7 -> 4  [label="x (6)"];
8 -> 10  [label="x (7)"];
8 -> 0  [label="y (7)"];
8 -> 2  [label="z (7)"];
9 -> 5  [label="x (18)"];
9 -> 2  [label="y (18)"];
9 -> 0  [label="z (18)"];
10 -> 7  [label="x (18)"];
10 -> 8  [label="y (19)"];
10 -> 3  [label="z (18)"];
__start0 [label="", shape=none];
__start0 -> 4  [label=""];
}
