digraph "benchmarks-true-state-lstar-3seeds/n_states=11-n_outputs=9-glitch_percent=0.01/b79cefb50838a56fbee139f3d6ce73a7/RealModel" {
s1 [label="s1|h", shape=record, style=rounded];
s2 [label="s2|e", shape=record, style=rounded];
s3 [label="s3|f", shape=record, style=rounded];
s4 [label="s4|d", shape=record, style=rounded];
s5 [label="s5|h", shape=record, style=rounded];
s6 [label="s6|f", shape=record, style=rounded];
s7 [label="s7|b", shape=record, style=rounded];
s8 [label="s8|i", shape=record, style=rounded];
s9 [label="s9|f", shape=record, style=rounded];
s10 [label="s10|d", shape=record, style=rounded];
s11 [label="s11|i", shape=record, style=rounded];
s1 -> s3  [label="x"];
s1 -> s5  [label="y"];
s1 -> s9  [label="z"];
s2 -> s2  [label="x"];
s2 -> s2  [label="y"];
s2 -> s10  [label="z"];
s3 -> s11  [label="x"];
s3 -> s2  [label="y"];
s3 -> s7  [label="z"];
s4 -> s5  [label="x"];
s4 -> s7  [label="y"];
s4 -> s2  [label="z"];
s5 -> s8  [label="x"];
s5 -> s4  [label="y"];
s5 -> s6  [label="z"];
s6 -> s4  [label="x"];
s6 -> s8  [label="y"];
s6 -> s5  [label="z"];
s7 -> s6  [label="x"];
s7 -> s11  [label="y"];
s7 -> s7  [label="z"];
s8 -> s1  [label="x"];
s8 -> s4  [label="y"];
s8 -> s6  [label="z"];
s9 -> s10  [label="x"];
s9 -> s6  [label="y"];
s9 -> s10  [label="z"];
s10 -> s10  [label="x"];
s10 -> s8  [label="y"];
s10 -> s3  [label="z"];
s11 -> s10  [label="x"];
s11 -> s7  [label="y"];
s11 -> s11  [label="z"];
__start0 [label="", shape=none];
__start0 -> s1  [label=""];
}
