digraph "benchmarks-true-state-lstar-songp/n_states=4-n_outputs=2-glitch_percent=0.1-pmstrat='lsu'/4346e5d424c4fdd3052e393dea9f7cff/pmsatLearned-N4" {
0 [label="0|a", shape=record, style=rounded];
1 [label="1|b", shape=record, style=rounded];
2 [label="2|a", shape=record, style=rounded];
3 [label="3|b", shape=record, style=rounded];
0 -> 1  [label="z"];
0 -> 3  [label="y"];
0 -> 2  [label="x"];
1 -> 3  [label="x"];
1 -> 0  [label="y"];
1 -> 0  [label="z"];
2 -> 1  [label="x"];
2 -> 0  [label="y"];
2 -> 1  [label="z"];
3 -> 2  [label="x"];
3 -> 1  [label="z"];
3 -> 1  [label="y"];
__start0 [label="", shape=none];
__start0 -> 0  [label=""];
}
