digraph "benchmarks-true-state-lstar-3seeds/n_states=6-n_outputs=2-glitch_percent=0.05/3692f9498388ae1c4f789e46e58bd211/pmsatLearned-N6" {
0 [label="0|a", shape=record, style=rounded];
1 [label="1|b", shape=record, style=rounded];
2 [label="2|a", shape=record, style=rounded];
3 [label="3|b", shape=record, style=rounded];
4 [label="4|b", shape=record, style=rounded];
5 [label="5|a", shape=record, style=rounded];
0 -> 2  [label="x"];
0 -> 5  [label="y"];
0 -> 0  [label="z"];
1 -> 3  [label="z"];
1 -> 2  [label="y"];
1 -> 4  [label="x"];
2 -> 3  [label="x"];
2 -> 3  [label="y"];
2 -> 2  [label="z"];
3 -> 5  [label="x"];
3 -> 2  [label="y"];
3 -> 1  [label="z"];
4 -> 5  [label="x"];
4 -> 0  [label="y"];
4 -> 3  [label="z"];
5 -> 1  [label="x"];
5 -> 5  [label="y"];
5 -> 1  [label="z"];
__start0 [label="", shape=none];
__start0 -> 1  [label=""];
}
