digraph "pmsatLearned-N8-STOC" {
0 [label="0|a", shape=record, style=rounded];
1 [label="1|c", shape=record, style=rounded];
2 [label="2|d", shape=record, style=rounded];
3 [label="3|e", shape=record, style=rounded];
4 [label="4|d", shape=record, style=rounded];
5 [label="5|e", shape=record, style=rounded];
6 [label="6|d", shape=record, style=rounded];
7 [label="7|d", shape=record, style=rounded];
0 -> 0  [label="x (194)"];
0 -> 4  [label="y (208)"];
0 -> 2  [label="z (218)"];
0 -> 4  [label="!z [1]"];
0 -> 6  [label="!y [1]"];
1 -> 7  [label="x (236)"];
1 -> 5  [label="y (243)"];
1 -> 1  [label="z (215)"];
1 -> 2  [label="!x [1]"];
1 -> 6  [label="!z [1]"];
2 -> 0  [label="z (246)"];
2 -> 1  [label="y (219)"];
2 -> 3  [label="x (284)"];
2 -> 2  [label="!z [2]"];
2 -> 2  [label="!x [2]"];
2 -> 6  [label="!x [1]"];
2 -> 1  [label="!z [4]"];
2 -> 7  [label="!x [1] t1"];
2 -> 4  [label="!x [1] t2"];
2 -> 4  [label="!z [1]"];
3 -> 6  [label="x (98)"];
3 -> 5  [label="y (93)"];
3 -> 4  [label="z (72)"];
3 -> 4  [label="!x [1]"];
3 -> 1  [label="!y [1]"];
4 -> 0  [label="x (120)"];
4 -> 1  [label="y (112)"];
4 -> 6  [label="z (126)"];
4 -> 1  [label="!z [1]"];
5 -> 6  [label="x (94)"];
5 -> 7  [label="y (112)"];
5 -> 6  [label="z (88)"];
6 -> 4  [label="x (131)"];
6 -> 1  [label="y (106)"];
6 -> 7  [label="z (118)"];
6 -> 5  [label="!y [1]"];
7 -> 1  [label="x (122)"];
7 -> 2  [label="y (143)"];
7 -> 0  [label="z (145)"];
7 -> 2  [label="!z [1]"];
7 -> 2  [label="!x [1]"];
__start0 [label="", shape=none];
__start0 -> 2  [label=""];
}
