digraph "benchmarks-true-state-lstar-3seeds/n_states=5-n_outputs=3-glitch_percent=0.0/5a078195074db232e31fae040a0882d4/pmsatLearned-N5-STOC" {
0 [label="0|a", shape=record, style=rounded];
1 [label="1|b", shape=record, style=rounded];
2 [label="2|c", shape=record, style=rounded];
3 [label="3|b", shape=record, style=rounded];
4 [label="4|c", shape=record, style=rounded];
0 -> 1  [label="x (7)"];
0 -> 1  [label="y (7)"];
0 -> 3  [label="z (7)"];
1 -> 0  [label="z (20)"];
1 -> 4  [label="y (20)"];
1 -> 2  [label="x (32)"];
2 -> 3  [label="x (21)"];
2 -> 0  [label="y (9)"];
2 -> 2  [label="z (9)"];
3 -> 2  [label="x (6)"];
3 -> 2  [label="y (6)"];
3 -> 1  [label="z (6)"];
4 -> 0  [label="x (6)"];
4 -> 4  [label="y (6)"];
4 -> 2  [label="z (6)"];
__start0 [label="", shape=none];
__start0 -> 1  [label=""];
}
