digraph "benchmarks-true-state-lstar-3seeds/n_states=9-n_outputs=5-glitch_percent=0.05/ae52f584ae9f8f41556e5d15d8f0db10/pmsatLearned-N9-STOC" {
0 [label="0|b", shape=record, style=rounded];
1 [label="1|c", shape=record, style=rounded];
2 [label="2|d", shape=record, style=rounded];
3 [label="3|e", shape=record, style=rounded];
4 [label="4|e", shape=record, style=rounded];
5 [label="5|c", shape=record, style=rounded];
6 [label="6|e", shape=record, style=rounded];
7 [label="7|e", shape=record, style=rounded];
8 [label="8|b", shape=record, style=rounded];
0 -> 7  [label="x (18)"];
0 -> 1  [label="y (21)"];
0 -> 2  [label="z (8)"];
0 -> 2  [label="!y [1]"];
1 -> 7  [label="x (7)"];
1 -> 1  [label="z (7)"];
1 -> 1  [label="y (5)"];
2 -> 2  [label="x (9)"];
2 -> 0  [label="z (8)"];
2 -> 2  [label="y (7)"];
3 -> 2  [label="z (17)"];
3 -> 2  [label="!y [1]"];
3 -> 0  [label="y (39)"];
3 -> 6  [label="x (54)"];
3 -> 0  [label="!z [1]"];
3 -> 5  [label="!x [1]"];
4 -> 0  [label="x (7)"];
4 -> 8  [label="y (6)"];
4 -> 0  [label="z (5)"];
5 -> 6  [label="y (7)"];
5 -> 3  [label="z (6)"];
5 -> 8  [label="x (5)"];
6 -> 5  [label="x (16)"];
6 -> 8  [label="y (17)"];
6 -> 4  [label="z (18)"];
6 -> 0  [label="!x [1]"];
6 -> 0  [label="!z [1]"];
7 -> 0  [label="x (4)"];
7 -> 2  [label="z (6)"];
7 -> 3  [label="y (6)"];
8 -> 5  [label="x (7)"];
8 -> 4  [label="y (6)"];
8 -> 5  [label="z (7)"];
__start0 [label="", shape=none];
__start0 -> 3  [label=""];
}
