digraph "benchmarks-true-state-lstar-3seeds/n_states=8-n_outputs=5-glitch_percent=0.0/b84e4cde6e7d07c7420ac6e3ee72f204/pmsatLearned-N8-STOC" {
0 [label="0|a", shape=record, style=rounded];
1 [label="1|c", shape=record, style=rounded];
2 [label="2|d", shape=record, style=rounded];
3 [label="3|c", shape=record, style=rounded];
4 [label="4|c", shape=record, style=rounded];
5 [label="5|c", shape=record, style=rounded];
6 [label="6|a", shape=record, style=rounded];
7 [label="7|d", shape=record, style=rounded];
0 -> 6  [label="x (5)"];
0 -> 3  [label="y (5)"];
0 -> 3  [label="z (5)"];
1 -> 2  [label="z (20)"];
1 -> 3  [label="y (32)"];
1 -> 7  [label="x (56)"];
2 -> 2  [label="x (9)"];
2 -> 6  [label="y (9)"];
2 -> 2  [label="z (9)"];
3 -> 0  [label="x (20)"];
3 -> 1  [label="y (8)"];
3 -> 7  [label="z (8)"];
4 -> 4  [label="x (7)"];
4 -> 2  [label="y (7)"];
4 -> 1  [label="z (7)"];
5 -> 5  [label="x (6)"];
5 -> 4  [label="y (6)"];
5 -> 7  [label="z (6)"];
6 -> 1  [label="x (7)"];
6 -> 2  [label="y (7)"];
6 -> 3  [label="z (7)"];
7 -> 5  [label="x (19)"];
7 -> 4  [label="y (19)"];
7 -> 6  [label="z (19)"];
__start0 [label="", shape=none];
__start0 -> 1  [label=""];
}
