digraph "benchmarks-true-state-lstar-songp/n_states=10-n_outputs=8-glitch_percent=0.02-pmstrat='rc2'/2886986c86f9e3c6943d444a59d0a0e4/alergiaLearned" {
q0 [label="a"];
q1 [label="f"];
q2 [label="a"];
q3 [label="h"];
q4 [label="e"];
q5 [label="c"];
q6 [label="b"];
q7 [label="g"];
q8 [label="h"];
q0 -> q1  [label="z:0.95"];
q0 -> q2  [label="z:0.05"];
q0 -> q3  [label="z:0.0"];
q0 -> q2  [label="y:0.9824561403508771"];
q0 -> q7  [label="y:0.017543859649122806"];
q0 -> q3  [label="x:0.9824561403508771"];
q0 -> q6  [label="x:0.017543859649122806"];
q1 -> q4  [label="x:1.0"];
q1 -> q5  [label="y:1.0"];
q1 -> q0  [label="z:1.0"];
q2 -> q6  [label="x:1.0"];
q2 -> q7  [label="y:1.0"];
q2 -> q8  [label="z:1.0"];
q3 -> q5  [label="x:0.9444444444444444"];
q3 -> q7  [label="x:0.05555555555555555"];
q3 -> q4  [label="y:1.0"];
q3 -> q1  [label="y:0.0"];
q3 -> q8  [label="z:1.0"];
q3 -> q1  [label="z:0.0"];
q4 -> q7  [label="x:1.0"];
q4 -> q0  [label="y:1.0"];
q4 -> q1  [label="z:1.0"];
q5 -> q3  [label="x:1.0"];
q5 -> q5  [label="y:1.0"];
q5 -> q3  [label="z:1.0"];
q6 -> q4  [label="x:1.0"];
q6 -> q0  [label="y:1.0"];
q6 -> q7  [label="z:1.0"];
q7 -> q0  [label="x:1.0"];
q7 -> q5  [label="y:1.0"];
q7 -> q0  [label="z:1.0"];
q8 -> q5  [label="x:0.5454545454545454"];
q8 -> q7  [label="x:0.45454545454545453"];
q8 -> q1  [label="y:0.5"];
q8 -> q5  [label="y:0.5"];
q8 -> q1  [label="z:0.5555555555555556"];
q8 -> q3  [label="z:0.4444444444444444"];
__start0 [label="", shape=none];
__start0 -> q0  [label=""];
}
