digraph "benchmarks-true-state-lstar-3seeds/n_states=12-n_outputs=8-glitch_percent=0.1/03c36803da98e734c229202e812bdfe3/alergiaLearned" {
q0 [label="g"];
q1 [label="b"];
q2 [label="a"];
q3 [label="c"];
q4 [label="e"];
q5 [label="d"];
q6 [label="b"];
q7 [label="a"];
q8 [label="g"];
q0 -> q1  [label="z:0.9512195121951219"];
q0 -> q0  [label="z:0.04878048780487805"];
q0 -> q2  [label="x:0.9642857142857143"];
q0 -> q6  [label="x:0.03571428571428571"];
q0 -> q3  [label="y:0.034482758620689655"];
q0 -> q4  [label="y:0.9137931034482759"];
q0 -> q5  [label="y:0.05172413793103448"];
q1 -> q2  [label="z:0.6"];
q1 -> q5  [label="z:0.2"];
q1 -> q0  [label="z:0.2"];
q1 -> q3  [label="y:0.9444444444444444"];
q1 -> q5  [label="y:0.05555555555555555"];
q1 -> q7  [label="x:0.9375"];
q1 -> q5  [label="x:0.0625"];
q2 -> q6  [label="x:0.8333333333333334"];
q2 -> q5  [label="x:0.05555555555555555"];
q2 -> q3  [label="x:0.1111111111111111"];
q2 -> q0  [label="x:0.0"];
q2 -> q5  [label="z:0.9473684210526315"];
q2 -> q1  [label="z:0.05263157894736842"];
q2 -> q3  [label="y:1.0"];
q3 -> q6  [label="z:0.5454545454545454"];
q3 -> q0  [label="z:0.45454545454545453"];
q3 -> q3  [label="x:0.5"];
q3 -> q1  [label="x:0.5"];
q3 -> q0  [label="y:0.5384615384615384"];
q3 -> q2  [label="y:0.46153846153846156"];
q4 -> q8  [label="x:0.9444444444444444"];
q4 -> q4  [label="x:0.05555555555555555"];
q4 -> q5  [label="y:0.8666666666666667"];
q4 -> q2  [label="y:0.13333333333333333"];
q4 -> q6  [label="z:0.95"];
q4 -> q0  [label="z:0.05"];
q5 -> q6  [label="z:1.0"];
q5 -> q4  [label="x:0.7"];
q5 -> q5  [label="x:0.3"];
q5 -> q4  [label="y:0.36363636363636365"];
q5 -> q2  [label="y:0.5454545454545454"];
q5 -> q5  [label="y:0.09090909090909091"];
q6 -> q1  [label="y:0.4444444444444444"];
q6 -> q5  [label="y:0.5555555555555556"];
q6 -> q3  [label="x:0.375"];
q6 -> q5  [label="x:0.625"];
q6 -> q1  [label="z:0.5"];
q6 -> q0  [label="z:0.5"];
q7 -> q8  [label="x:0.8333333333333334"];
q7 -> q3  [label="x:0.16666666666666666"];
q7 -> q3  [label="y:1.0"];
q7 -> q5  [label="z:1.0"];
q8 -> q6  [label="x:0.8"];
q8 -> q3  [label="x:0.2"];
q8 -> q5  [label="y:1.0"];
q8 -> q0  [label="z:1.0"];
__start0 [label="", shape=none];
__start0 -> q0  [label=""];
}
