digraph "benchmarks-true-state-lstar-3seeds/n_states=13-n_outputs=6-glitch_percent=0.02/37a116a4af0f4176b9793f587df3cd06/RealModel" {
s1 [label="s1|d", shape=record, style=rounded];
s2 [label="s2|c", shape=record, style=rounded];
s3 [label="s3|c", shape=record, style=rounded];
s4 [label="s4|f", shape=record, style=rounded];
s5 [label="s5|b", shape=record, style=rounded];
s6 [label="s6|f", shape=record, style=rounded];
s7 [label="s7|d", shape=record, style=rounded];
s8 [label="s8|c", shape=record, style=rounded];
s9 [label="s9|a", shape=record, style=rounded];
s10 [label="s10|e", shape=record, style=rounded];
s11 [label="s11|c", shape=record, style=rounded];
s12 [label="s12|b", shape=record, style=rounded];
s13 [label="s13|f", shape=record, style=rounded];
s1 -> s10  [label="x"];
s1 -> s3  [label="y"];
s1 -> s5  [label="z"];
s2 -> s4  [label="x"];
s2 -> s8  [label="y"];
s2 -> s5  [label="z"];
s3 -> s8  [label="x"];
s3 -> s6  [label="y"];
s3 -> s11  [label="z"];
s4 -> s12  [label="x"];
s4 -> s10  [label="y"];
s4 -> s6  [label="z"];
s5 -> s2  [label="x"];
s5 -> s13  [label="y"];
s5 -> s12  [label="z"];
s6 -> s6  [label="x"];
s6 -> s5  [label="y"];
s6 -> s13  [label="z"];
s7 -> s13  [label="x"];
s7 -> s12  [label="y"];
s7 -> s11  [label="z"];
s8 -> s7  [label="x"];
s8 -> s1  [label="y"];
s8 -> s4  [label="z"];
s9 -> s11  [label="x"];
s9 -> s2  [label="y"];
s9 -> s2  [label="z"];
s10 -> s9  [label="x"];
s10 -> s4  [label="y"];
s10 -> s7  [label="z"];
s11 -> s7  [label="x"];
s11 -> s12  [label="y"];
s11 -> s2  [label="z"];
s12 -> s3  [label="x"];
s12 -> s5  [label="y"];
s12 -> s10  [label="z"];
s13 -> s12  [label="x"];
s13 -> s10  [label="y"];
s13 -> s8  [label="z"];
__start0 [label="", shape=none];
__start0 -> s1  [label=""];
}
