digraph "benchmarks-true-state-lstar-3seeds/n_states=7-n_outputs=7-glitch_percent=0.05/5718ae19da93d3cfce16aa1f46c7ec9e/alergiaLearned" {
q0 [label="a"];
q1 [label="d"];
q2 [label="c"];
q3 [label="g"];
q4 [label="e"];
q5 [label="a"];
q0 -> q1  [label="z:0.95"];
q0 -> q2  [label="z:0.05"];
q0 -> q2  [label="y:0.9"];
q0 -> q3  [label="y:0.05"];
q0 -> q0  [label="y:0.05"];
q0 -> q3  [label="x:0.9464285714285714"];
q0 -> q0  [label="x:0.05357142857142857"];
q1 -> q3  [label="x:1.0"];
q1 -> q2  [label="y:1.0"];
q1 -> q2  [label="z:1.0"];
q2 -> q0  [label="x:0.42857142857142855"];
q2 -> q1  [label="x:0.5714285714285714"];
q2 -> q0  [label="z:0.42857142857142855"];
q2 -> q1  [label="z:0.5714285714285714"];
q2 -> q3  [label="y:0.46153846153846156"];
q2 -> q2  [label="y:0.5384615384615384"];
q3 -> q4  [label="x:0.95"];
q3 -> q5  [label="x:0.05"];
q3 -> q2  [label="y:1.0"];
q3 -> q5  [label="z:1.0"];
q4 -> q2  [label="x:1.0"];
q4 -> q4  [label="y:1.0"];
q4 -> q2  [label="z:1.0"];
q5 -> q0  [label="x:1.0"];
q5 -> q0  [label="y:1.0"];
q5 -> q2  [label="z:0.8"];
q5 -> q0  [label="z:0.2"];
__start0 [label="", shape=none];
__start0 -> q0  [label=""];
}
