digraph "benchmarks-true-state-lstar-3seeds/n_states=10-n_outputs=3-glitch_percent=0.0/bf64c6fc99b69cb6a5b0b924ebf23521/alergiaLearned" {
q0 [label="c"];
q1 [label="c"];
q2 [label="a"];
q3 [label="b"];
q4 [label="b"];
q5 [label="c"];
q6 [label="b"];
q7 [label="c"];
q8 [label="c"];
q0 -> q1  [label="z:0.9666666666666667"];
q0 -> q3  [label="z:0.03333333333333333"];
q0 -> q2  [label="y:0.9693877551020408"];
q0 -> q4  [label="y:0.030612244897959183"];
q0 -> q3  [label="x:1.0"];
q1 -> q0  [label="x:0.6363636363636364"];
q1 -> q4  [label="x:0.36363636363636365"];
q1 -> q4  [label="y:0.9354838709677419"];
q1 -> q0  [label="y:0.06451612903225806"];
q1 -> q0  [label="z:0.9411764705882353"];
q1 -> q3  [label="z:0.058823529411764705"];
q2 -> q1  [label="x:1.0"];
q2 -> q5  [label="y:1.0"];
q2 -> q6  [label="z:1.0"];
q3 -> q4  [label="x:1.0"];
q3 -> q7  [label="y:0.9722222222222222"];
q3 -> q2  [label="y:0.027777777777777776"];
q3 -> q8  [label="z:1.0"];
q4 -> q4  [label="x:1.0"];
q4 -> q1  [label="y:0.6904761904761905"];
q4 -> q2  [label="y:0.30952380952380953"];
q4 -> q0  [label="z:0.8571428571428571"];
q4 -> q3  [label="z:0.14285714285714285"];
q5 -> q0  [label="x:1.0"];
q5 -> q6  [label="y:1.0"];
q5 -> q1  [label="z:1.0"];
q6 -> q4  [label="x:1.0"];
q6 -> q2  [label="y:1.0"];
q6 -> q3  [label="z:1.0"];
q7 -> q1  [label="x:1.0"];
q7 -> q1  [label="y:1.0"];
q7 -> q4  [label="z:1.0"];
q8 -> q4  [label="x:1.0"];
q8 -> q4  [label="y:1.0"];
q8 -> q3  [label="z:1.0"];
__start0 [label="", shape=none];
__start0 -> q0  [label=""];
}
