digraph "benchmarks-true-state-lstar-3seeds/n_states=12-n_outputs=6-glitch_percent=0.05/8a3b285ab293b3dd2d80841acae66dee/pmsatLearned-N12" {
0 [label="0|a", shape=record, style=rounded];
1 [label="1|b", shape=record, style=rounded];
2 [label="2|c", shape=record, style=rounded];
3 [label="3|d", shape=record, style=rounded];
4 [label="4|e", shape=record, style=rounded];
5 [label="5|f", shape=record, style=rounded];
6 [label="6|b", shape=record, style=rounded];
7 [label="7|b", shape=record, style=rounded];
8 [label="8|a", shape=record, style=rounded];
9 [label="9|a", shape=record, style=rounded];
10 [label="10|d", shape=record, style=rounded];
11 [label="11|e", shape=record, style=rounded];
0 -> 4  [label="y"];
0 -> 11  [label="z"];
0 -> 8  [label="x"];
1 -> 11  [label="x"];
1 -> 1  [label="y"];
1 -> 9  [label="z"];
2 -> 2  [label="x"];
2 -> 11  [label="y"];
2 -> 8  [label="z"];
3 -> 5  [label="z"];
3 -> 11  [label="y"];
3 -> 7  [label="x"];
4 -> 5  [label="x"];
4 -> 5  [label="y"];
4 -> 4  [label="z"];
5 -> 9  [label="x"];
5 -> 4  [label="y"];
5 -> 1  [label="z"];
6 -> 3  [label="x"];
6 -> 1  [label="y"];
6 -> 10  [label="z"];
7 -> 1  [label="x"];
7 -> 2  [label="z"];
7 -> 0  [label="y"];
8 -> 11  [label="x"];
8 -> 7  [label="y"];
8 -> 9  [label="z"];
9 -> 11  [label="x"];
9 -> 6  [label="y"];
9 -> 6  [label="z"];
10 -> 11  [label="x"];
10 -> 9  [label="y"];
10 -> 1  [label="z"];
11 -> 10  [label="x"];
11 -> 8  [label="y"];
11 -> 6  [label="z"];
__start0 [label="", shape=none];
__start0 -> 3  [label=""];
}
