digraph "benchmarks-true-state-lstar-rc10seeds/n_states=9-n_outputs=4-glitch_percent=0.0/524e4905f073e6f42c4bccc9dd3ed79e/pmsatLearned_NOP-N9-STOC" {
0 [label="0|d", shape=record, style=rounded];
1 [label="1|a", shape=record, style=rounded];
2 [label="2|a", shape=record, style=rounded];
3 [label="3|b", shape=record, style=rounded];
4 [label="4|a", shape=record, style=rounded];
5 [label="5|b", shape=record, style=rounded];
6 [label="6|a", shape=record, style=rounded];
7 [label="7|c", shape=record, style=rounded];
8 [label="8|d", shape=record, style=rounded];
0 -> 6  [label="z (17)"];
0 -> 7  [label="y (41)"];
0 -> 8  [label="x (53)"];
1 -> 4  [label="x (10)"];
1 -> 5  [label="y (10)"];
1 -> 2  [label="z (10)"];
2 -> 7  [label="x (8)"];
2 -> 1  [label="y (8)"];
2 -> 3  [label="z (8)"];
3 -> 1  [label="x (6)"];
3 -> 1  [label="y (6)"];
3 -> 8  [label="z (6)"];
4 -> 1  [label="x (7)"];
4 -> 7  [label="y (7)"];
4 -> 8  [label="z (7)"];
5 -> 6  [label="x (6)"];
5 -> 8  [label="y (6)"];
5 -> 2  [label="z (6)"];
6 -> 1  [label="x (7)"];
6 -> 2  [label="y (7)"];
6 -> 6  [label="z (7)"];
7 -> 2  [label="x (19)"];
7 -> 5  [label="y (19)"];
7 -> 4  [label="z (7)"];
8 -> 3  [label="x (20)"];
8 -> 4  [label="y (20)"];
8 -> 1  [label="z (20)"];
__start0 [label="", shape=none];
__start0 -> 0  [label=""];
}
