digraph "benchmarks-true-state-lstar-3seeds/n_states=17-n_outputs=3-glitch_percent=0.0/fd189716ab56d6ea6042669f983b8776/pmsatLearned-N17" {
0 [label="0|a", shape=record, style=rounded];
1 [label="1|b", shape=record, style=rounded];
2 [label="2|c", shape=record, style=rounded];
3 [label="3|c", shape=record, style=rounded];
4 [label="4|c", shape=record, style=rounded];
5 [label="5|c", shape=record, style=rounded];
6 [label="6|c", shape=record, style=rounded];
7 [label="7|a", shape=record, style=rounded];
8 [label="8|a", shape=record, style=rounded];
9 [label="9|b", shape=record, style=rounded];
10 [label="10|b", shape=record, style=rounded];
11 [label="11|c", shape=record, style=rounded];
12 [label="12|a", shape=record, style=rounded];
13 [label="13|c", shape=record, style=rounded];
14 [label="14|c", shape=record, style=rounded];
15 [label="15|b", shape=record, style=rounded];
16 [label="16|c", shape=record, style=rounded];
0 -> 12  [label="z"];
0 -> 10  [label="y"];
0 -> 5  [label="x"];
1 -> 6  [label="x"];
1 -> 4  [label="y"];
1 -> 6  [label="z"];
2 -> 8  [label="x"];
2 -> 3  [label="y"];
2 -> 12  [label="z"];
3 -> 0  [label="x"];
3 -> 2  [label="y"];
3 -> 13  [label="z"];
4 -> 8  [label="x"];
4 -> 1  [label="y"];
4 -> 4  [label="z"];
5 -> 11  [label="x"];
5 -> 1  [label="y"];
5 -> 13  [label="z"];
6 -> 1  [label="x"];
6 -> 11  [label="y"];
6 -> 4  [label="z"];
7 -> 2  [label="x"];
7 -> 6  [label="y"];
7 -> 14  [label="z"];
8 -> 3  [label="x"];
8 -> 0  [label="y"];
8 -> 13  [label="z"];
9 -> 14  [label="x"];
9 -> 4  [label="y"];
9 -> 3  [label="z"];
10 -> 8  [label="x"];
10 -> 16  [label="y"];
10 -> 14  [label="z"];
11 -> 4  [label="x"];
11 -> 3  [label="y"];
11 -> 15  [label="z"];
12 -> 7  [label="x"];
12 -> 2  [label="y"];
12 -> 9  [label="z"];
13 -> 0  [label="x"];
13 -> 4  [label="y"];
13 -> 12  [label="z"];
14 -> 4  [label="x"];
14 -> 0  [label="y"];
14 -> 2  [label="z"];
15 -> 3  [label="x"];
15 -> 1  [label="y"];
15 -> 8  [label="z"];
16 -> 8  [label="x"];
16 -> 8  [label="y"];
16 -> 12  [label="z"];
__start0 [label="", shape=none];
__start0 -> 0  [label=""];
}
