digraph "benchmarks-true-state-lstar-3seeds/n_states=13-n_outputs=7-glitch_percent=0.01/5388aa831ca31238d10c7cd6aa8b3764/pmsatLearned-N13" {
0 [label="0|b", shape=record, style=rounded];
1 [label="1|c", shape=record, style=rounded];
2 [label="2|d", shape=record, style=rounded];
3 [label="3|e", shape=record, style=rounded];
4 [label="4|f", shape=record, style=rounded];
5 [label="5|g", shape=record, style=rounded];
6 [label="6|e", shape=record, style=rounded];
7 [label="7|c", shape=record, style=rounded];
8 [label="8|g", shape=record, style=rounded];
9 [label="9|f", shape=record, style=rounded];
10 [label="10|b", shape=record, style=rounded];
11 [label="11|e", shape=record, style=rounded];
12 [label="12|e", shape=record, style=rounded];
0 -> 10  [label="x"];
0 -> 11  [label="y"];
0 -> 4  [label="z"];
1 -> 0  [label="x"];
1 -> 9  [label="y"];
1 -> 4  [label="z"];
2 -> 11  [label="x"];
2 -> 8  [label="y"];
2 -> 11  [label="z"];
3 -> 10  [label="z"];
3 -> 9  [label="y"];
3 -> 12  [label="x"];
4 -> 8  [label="x"];
4 -> 6  [label="y"];
4 -> 9  [label="z"];
5 -> 10  [label="x"];
5 -> 5  [label="y"];
5 -> 4  [label="z"];
6 -> 9  [label="x"];
6 -> 4  [label="y"];
6 -> 3  [label="z"];
7 -> 1  [label="x"];
7 -> 12  [label="y"];
7 -> 9  [label="z"];
8 -> 1  [label="x"];
8 -> 7  [label="y"];
8 -> 1  [label="z"];
9 -> 4  [label="x"];
9 -> 2  [label="y"];
9 -> 7  [label="z"];
10 -> 6  [label="x"];
10 -> 1  [label="y"];
10 -> 0  [label="z"];
11 -> 10  [label="x"];
11 -> 10  [label="y"];
11 -> 3  [label="z"];
12 -> 8  [label="x"];
12 -> 5  [label="y"];
12 -> 11  [label="z"];
__start0 [label="", shape=none];
__start0 -> 3  [label=""];
}
