digraph "benchmarks-true-state-lstar-3seeds/n_states=2-n_outputs=2-glitch_percent=0.1/cecd68fc72513c11938de89a4512fe08/alergiaLearned" {
q0 [label="a"];
q1 [label="b"];
q0 -> q1  [label="z:1.0"];
q0 -> q0  [label="y:1.0"];
q0 -> q1  [label="x:0.9444444444444444"];
q0 -> q0  [label="x:0.05555555555555555"];
q1 -> q0  [label="x:1.0"];
q1 -> q0  [label="y:1.0"];
q1 -> q1  [label="z:1.0"];
__start0 [label="", shape=none];
__start0 -> q0  [label=""];
}
