digraph "benchmarks-true-state-lstar-3seeds/n_states=16-n_outputs=7-glitch_percent=0.1/c887a35fd767d85c95cc529f9ddfd16a/pmsatLearned-N16" {
0 [label="0|b", shape=record, style=rounded];
1 [label="1|c", shape=record, style=rounded];
2 [label="2|d", shape=record, style=rounded];
3 [label="3|e", shape=record, style=rounded];
4 [label="4|f", shape=record, style=rounded];
5 [label="5|g", shape=record, style=rounded];
6 [label="6|b", shape=record, style=rounded];
7 [label="7|e", shape=record, style=rounded];
8 [label="8|g", shape=record, style=rounded];
9 [label="9|g", shape=record, style=rounded];
10 [label="10|d", shape=record, style=rounded];
11 [label="11|b", shape=record, style=rounded];
12 [label="12|e", shape=record, style=rounded];
13 [label="13|e", shape=record, style=rounded];
14 [label="14|b", shape=record, style=rounded];
15 [label="15|g", shape=record, style=rounded];
0 -> 1  [label="z"];
0 -> 3  [label="y"];
0 -> 2  [label="x"];
1 -> 5  [label="y"];
1 -> 7  [label="z"];
1 -> 14  [label="x"];
2 -> 9  [label="y"];
2 -> 4  [label="z"];
2 -> 10  [label="x"];
3 -> 15  [label="y"];
3 -> 13  [label="z"];
3 -> 11  [label="x"];
4 -> 3  [label="x"];
4 -> 15  [label="y"];
4 -> 10  [label="z"];
5 -> 12  [label="x"];
5 -> 12  [label="y"];
5 -> 9  [label="z"];
6 -> 10  [label="z"];
6 -> 11  [label="x"];
6 -> 15  [label="y"];
7 -> 15  [label="x"];
7 -> 4  [label="z"];
7 -> 13  [label="y"];
8 -> 5  [label="z"];
8 -> 0  [label="x"];
8 -> 12  [label="y"];
9 -> 4  [label="x"];
9 -> 14  [label="y"];
9 -> 8  [label="z"];
10 -> 6  [label="x"];
10 -> 12  [label="y"];
10 -> 8  [label="z"];
11 -> 9  [label="x"];
11 -> 0  [label="y"];
11 -> 10  [label="z"];
12 -> 4  [label="x"];
12 -> 10  [label="z"];
12 -> 13  [label="y"];
13 -> 5  [label="x"];
13 -> 13  [label="y"];
13 -> 13  [label="z"];
14 -> 14  [label="x"];
14 -> 0  [label="z"];
14 -> 10  [label="y"];
15 -> 14  [label="x"];
15 -> 4  [label="y"];
15 -> 0  [label="z"];
__start0 [label="", shape=none];
__start0 -> 0  [label=""];
}
