digraph "benchmarks-true-state-lstar-3seeds/n_states=15-n_outputs=7-glitch_percent=0.02/d06f9673534dd5bdb84a7d7ae3a43d07/pmsatLearned-N15" {
0 [label="0|a", shape=record, style=rounded];
1 [label="1|c", shape=record, style=rounded];
2 [label="2|d", shape=record, style=rounded];
3 [label="3|e", shape=record, style=rounded];
4 [label="4|g", shape=record, style=rounded];
5 [label="5|d", shape=record, style=rounded];
6 [label="6|d", shape=record, style=rounded];
7 [label="7|e", shape=record, style=rounded];
8 [label="8|d", shape=record, style=rounded];
9 [label="9|a", shape=record, style=rounded];
10 [label="10|c", shape=record, style=rounded];
11 [label="11|e", shape=record, style=rounded];
12 [label="12|c", shape=record, style=rounded];
13 [label="13|e", shape=record, style=rounded];
14 [label="14|d", shape=record, style=rounded];
0 -> 2  [label="x"];
0 -> 6  [label="y"];
0 -> 10  [label="z"];
1 -> 7  [label="z"];
1 -> 0  [label="y"];
1 -> 11  [label="x"];
2 -> 3  [label="x"];
2 -> 14  [label="y"];
2 -> 3  [label="z"];
3 -> 3  [label="x"];
3 -> 0  [label="y"];
3 -> 13  [label="z"];
4 -> 3  [label="x"];
4 -> 11  [label="y"];
4 -> 11  [label="z"];
5 -> 6  [label="x"];
5 -> 1  [label="y"];
5 -> 8  [label="z"];
6 -> 13  [label="x"];
6 -> 14  [label="y"];
6 -> 9  [label="z"];
7 -> 9  [label="x"];
7 -> 5  [label="y"];
7 -> 3  [label="z"];
8 -> 12  [label="x"];
8 -> 14  [label="y"];
8 -> 10  [label="z"];
9 -> 4  [label="x"];
9 -> 11  [label="y"];
9 -> 6  [label="z"];
10 -> 7  [label="y"];
10 -> 9  [label="z"];
10 -> 7  [label="x"];
11 -> 8  [label="x"];
11 -> 13  [label="y"];
11 -> 4  [label="z"];
12 -> 14  [label="x"];
12 -> 12  [label="y"];
12 -> 13  [label="z"];
13 -> 7  [label="x"];
13 -> 1  [label="y"];
13 -> 13  [label="z"];
14 -> 13  [label="x"];
14 -> 4  [label="y"];
14 -> 2  [label="z"];
__start0 [label="", shape=none];
__start0 -> 1  [label=""];
}
