digraph "benchmarks-true-state-lstar-3seeds/n_states=15-n_outputs=9-glitch_percent=0.0/ceb4374335d7840dd51353d2e317b472/pmsatLearned-N15" {
0 [label="0|b", shape=record, style=rounded];
1 [label="1|c", shape=record, style=rounded];
2 [label="2|d", shape=record, style=rounded];
3 [label="3|e", shape=record, style=rounded];
4 [label="4|f", shape=record, style=rounded];
5 [label="5|g", shape=record, style=rounded];
6 [label="6|h", shape=record, style=rounded];
7 [label="7|i", shape=record, style=rounded];
8 [label="8|i", shape=record, style=rounded];
9 [label="9|d", shape=record, style=rounded];
10 [label="10|c", shape=record, style=rounded];
11 [label="11|c", shape=record, style=rounded];
12 [label="12|d", shape=record, style=rounded];
13 [label="13|i", shape=record, style=rounded];
14 [label="14|i", shape=record, style=rounded];
0 -> 9  [label="x"];
0 -> 12  [label="y"];
0 -> 10  [label="z"];
1 -> 3  [label="x"];
1 -> 4  [label="y"];
1 -> 10  [label="z"];
2 -> 0  [label="x"];
2 -> 14  [label="y"];
2 -> 6  [label="z"];
3 -> 0  [label="x"];
3 -> 3  [label="y"];
3 -> 4  [label="z"];
4 -> 2  [label="x"];
4 -> 14  [label="y"];
4 -> 8  [label="z"];
5 -> 9  [label="x"];
5 -> 9  [label="y"];
5 -> 1  [label="z"];
6 -> 8  [label="x"];
6 -> 9  [label="y"];
6 -> 3  [label="z"];
7 -> 11  [label="z"];
7 -> 1  [label="y"];
7 -> 2  [label="x"];
8 -> 9  [label="x"];
8 -> 8  [label="y"];
8 -> 11  [label="z"];
9 -> 13  [label="x"];
9 -> 10  [label="y"];
9 -> 14  [label="z"];
10 -> 8  [label="x"];
10 -> 11  [label="y"];
10 -> 7  [label="z"];
11 -> 5  [label="x"];
11 -> 8  [label="y"];
11 -> 13  [label="z"];
12 -> 13  [label="x"];
12 -> 6  [label="y"];
12 -> 2  [label="z"];
13 -> 10  [label="x"];
13 -> 3  [label="y"];
13 -> 11  [label="z"];
14 -> 7  [label="x"];
14 -> 0  [label="y"];
14 -> 5  [label="z"];
__start0 [label="", shape=none];
__start0 -> 7  [label=""];
}
