digraph "benchmarks-true-state-lstar-3seeds/n_states=17-n_outputs=4-glitch_percent=0.02/bd3ab03de6e6340d7b6ab92f228d91fc/alergiaLearned" {
q0 [label="c"];
q1 [label="c"];
q2 [label="c"];
q3 [label="d"];
q4 [label="a"];
q5 [label="d"];
q6 [label="c"];
q0 -> q1  [label="z:0.9705882352941176"];
q0 -> q3  [label="z:0.014705882352941176"];
q0 -> q4  [label="z:0.014705882352941176"];
q0 -> q2  [label="y:0.9846153846153847"];
q0 -> q4  [label="y:0.015384615384615385"];
q0 -> q3  [label="x:0.9772727272727273"];
q0 -> q4  [label="x:0.015151515151515152"];
q0 -> q1  [label="x:0.007575757575757576"];
q1 -> q4  [label="x:0.9310344827586207"];
q1 -> q1  [label="x:0.0"];
q1 -> q5  [label="x:0.06896551724137931"];
q1 -> q5  [label="y:0.9583333333333334"];
q1 -> q0  [label="y:0.041666666666666664"];
q1 -> q5  [label="z:1.0"];
q1 -> q4  [label="z:0.0"];
q2 -> q6  [label="x:1.0"];
q2 -> q5  [label="y:1.0"];
q2 -> q4  [label="z:1.0"];
q3 -> q4  [label="x:0.9864864864864865"];
q3 -> q3  [label="x:0.013513513513513514"];
q3 -> q4  [label="z:0.9523809523809523"];
q3 -> q0  [label="z:0.047619047619047616"];
q3 -> q4  [label="y:1.0"];
q4 -> q4  [label="x:0.4835164835164835"];
q4 -> q1  [label="x:0.10989010989010989"];
q4 -> q5  [label="x:0.4065934065934066"];
q4 -> q5  [label="z:0.7068965517241379"];
q4 -> q1  [label="z:0.15517241379310345"];
q4 -> q4  [label="z:0.13793103448275862"];
q4 -> q4  [label="y:0.39622641509433965"];
q4 -> q6  [label="y:0.4528301886792453"];
q4 -> q5  [label="y:0.1509433962264151"];
q5 -> q5  [label="x:0.6808510638297872"];
q5 -> q4  [label="x:0.19148936170212766"];
q5 -> q2  [label="x:0.1276595744680851"];
q5 -> q4  [label="y:0.64"];
q5 -> q5  [label="y:0.36"];
q5 -> q4  [label="z:0.64"];
q5 -> q5  [label="z:0.28"];
q5 -> q0  [label="z:0.08"];
q6 -> q4  [label="x:0.5"];
q6 -> q5  [label="x:0.5"];
q6 -> q1  [label="y:0.5"];
q6 -> q5  [label="y:0.5"];
q6 -> q4  [label="z:0.5"];
q6 -> q5  [label="z:0.5"];
__start0 [label="", shape=none];
__start0 -> q0  [label=""];
}
