digraph "benchmarks-true-state-lstar-rc10seeds/n_states=9-n_outputs=8-glitch_percent=0.0/99f20361e67d61dfd460e74d6a437522/pmsatLearned_NOP-N9-STOC" {
0 [label="0|g", shape=record, style=rounded];
1 [label="1|f", shape=record, style=rounded];
2 [label="2|a", shape=record, style=rounded];
3 [label="3|f", shape=record, style=rounded];
4 [label="4|b", shape=record, style=rounded];
5 [label="5|e", shape=record, style=rounded];
6 [label="6|h", shape=record, style=rounded];
7 [label="7|g", shape=record, style=rounded];
8 [label="8|g", shape=record, style=rounded];
0 -> 2  [label="x (6)"];
0 -> 2  [label="y (6)"];
0 -> 5  [label="z (6)"];
1 -> 6  [label="x (5)"];
1 -> 3  [label="y (5)"];
1 -> 0  [label="z (5)"];
2 -> 5  [label="x (9)"];
2 -> 2  [label="y (9)"];
2 -> 6  [label="z (9)"];
3 -> 4  [label="z (19)"];
3 -> 7  [label="y (43)"];
3 -> 8  [label="x (55)"];
4 -> 7  [label="x (5)"];
4 -> 6  [label="y (5)"];
4 -> 6  [label="z (5)"];
5 -> 2  [label="x (10)"];
5 -> 5  [label="y (10)"];
5 -> 5  [label="z (10)"];
6 -> 8  [label="x (10)"];
6 -> 6  [label="y (10)"];
6 -> 3  [label="z (10)"];
7 -> 2  [label="x (18)"];
7 -> 1  [label="y (18)"];
7 -> 5  [label="z (6)"];
8 -> 0  [label="x (18)"];
8 -> 6  [label="y (18)"];
8 -> 5  [label="z (18)"];
__start0 [label="", shape=none];
__start0 -> 3  [label=""];
}
