digraph "benchmarks-true-state-lstar-3seeds/n_states=12-n_outputs=9-glitch_percent=0.0/314965535b9e22d20886e6ba08b26d3b/rpniGroundTruth" {
s0 [label="s0|b", shape=record, style=rounded];
s1 [label="s1|i", shape=record, style=rounded];
s2 [label="s2|g", shape=record, style=rounded];
s3 [label="s3|a", shape=record, style=rounded];
s4 [label="s4|a", shape=record, style=rounded];
s5 [label="s5|f", shape=record, style=rounded];
s6 [label="s6|b", shape=record, style=rounded];
s7 [label="s7|a", shape=record, style=rounded];
s8 [label="s8|c", shape=record, style=rounded];
s9 [label="s9|a", shape=record, style=rounded];
s10 [label="s10|d", shape=record, style=rounded];
s11 [label="s11|i", shape=record, style=rounded];
s0 -> s1  [label="y"];
s0 -> s2  [label="x"];
s0 -> s3  [label="z"];
s1 -> s4  [label="x"];
s1 -> s5  [label="y"];
s1 -> s6  [label="z"];
s2 -> s7  [label="x"];
s2 -> s8  [label="z"];
s2 -> s9  [label="y"];
s3 -> s10  [label="y"];
s3 -> s11  [label="x"];
s3 -> s4  [label="z"];
s4 -> s11  [label="x"];
s4 -> s8  [label="z"];
s4 -> s10  [label="y"];
s5 -> s9  [label="x"];
s5 -> s7  [label="y"];
s5 -> s3  [label="z"];
s6 -> s4  [label="y"];
s6 -> s2  [label="z"];
s6 -> s1  [label="x"];
s7 -> s2  [label="z"];
s7 -> s7  [label="x"];
s7 -> s7  [label="y"];
s8 -> s6  [label="y"];
s8 -> s2  [label="z"];
s8 -> s9  [label="x"];
s9 -> s7  [label="x"];
s9 -> s3  [label="y"];
s9 -> s3  [label="z"];
s10 -> s8  [label="y"];
s10 -> s7  [label="z"];
s10 -> s6  [label="x"];
s11 -> s2  [label="z"];
s11 -> s8  [label="y"];
s11 -> s6  [label="x"];
__start0 [label="", shape=none];
__start0 -> s0  [label=""];
}
