digraph "benchmarks-true-state-lstar-rc10seeds/n_states=11-n_outputs=6-glitch_percent=0.0/49f67b8dea96f41469897804374b4ab2/pmsatLearned_NOP-N11" {
0 [label="0|d", shape=record, style=rounded];
1 [label="1|c", shape=record, style=rounded];
2 [label="2|d", shape=record, style=rounded];
3 [label="3|c", shape=record, style=rounded];
4 [label="4|d", shape=record, style=rounded];
5 [label="5|e", shape=record, style=rounded];
6 [label="6|d", shape=record, style=rounded];
7 [label="7|a", shape=record, style=rounded];
8 [label="8|e", shape=record, style=rounded];
9 [label="9|e", shape=record, style=rounded];
10 [label="10|c", shape=record, style=rounded];
0 -> 5  [label="x"];
0 -> 5  [label="y"];
0 -> 8  [label="z"];
1 -> 5  [label="z"];
1 -> 7  [label="y"];
1 -> 2  [label="x"];
2 -> 3  [label="x"];
2 -> 0  [label="y"];
2 -> 9  [label="z"];
3 -> 10  [label="x"];
3 -> 9  [label="y"];
3 -> 9  [label="z"];
4 -> 5  [label="x"];
4 -> 8  [label="y"];
4 -> 8  [label="z"];
5 -> 8  [label="x"];
5 -> 8  [label="y"];
5 -> 6  [label="z"];
6 -> 6  [label="x"];
6 -> 9  [label="y"];
6 -> 9  [label="z"];
7 -> 4  [label="x"];
7 -> 10  [label="y"];
7 -> 6  [label="z"];
8 -> 1  [label="x"];
8 -> 0  [label="y"];
8 -> 8  [label="z"];
9 -> 3  [label="x"];
9 -> 9  [label="y"];
9 -> 1  [label="z"];
10 -> 6  [label="x"];
10 -> 8  [label="y"];
10 -> 5  [label="z"];
__start0 [label="", shape=none];
__start0 -> 1  [label=""];
}
