digraph "benchmarks-true-state-lstar-songp/n_states=15-n_outputs=6-glitch_percent=0.05-pmstrat='fm'/2dc8d95a06d2ee32a1a7196053917549/pmsatLearned-N15-STOC" {
0 [label="0|a", shape=record, style=rounded];
1 [label="1|b", shape=record, style=rounded];
2 [label="2|c", shape=record, style=rounded];
3 [label="3|d", shape=record, style=rounded];
4 [label="4|e", shape=record, style=rounded];
5 [label="5|f", shape=record, style=rounded];
6 [label="6|e", shape=record, style=rounded];
7 [label="7|e", shape=record, style=rounded];
8 [label="8|a", shape=record, style=rounded];
9 [label="9|f", shape=record, style=rounded];
10 [label="10|d", shape=record, style=rounded];
11 [label="11|d", shape=record, style=rounded];
12 [label="12|f", shape=record, style=rounded];
13 [label="13|c", shape=record, style=rounded];
14 [label="14|a", shape=record, style=rounded];
0 -> 9  [label="z (51)"];
0 -> 3  [label="y (56)"];
0 -> 12  [label="x (77)"];
0 -> 1  [label="!x [3]"];
0 -> 2  [label="!z [2]"];
0 -> 11  [label="!z [1]"];
0 -> 4  [label="!y [1]"];
1 -> 0  [label="x (5)"];
1 -> 5  [label="y (5)"];
1 -> 0  [label="z (5)"];
2 -> 2  [label="x (8)"];
2 -> 0  [label="y (7)"];
2 -> 11  [label="z (7)"];
3 -> 6  [label="x (17)"];
3 -> 5  [label="y (18)"];
3 -> 2  [label="z (13)"];
3 -> 11  [label="!z [2]"];
3 -> 14  [label="!x [1]"];
3 -> 13  [label="!z [1]"];
4 -> 8  [label="x (5)"];
4 -> 0  [label="y (3)"];
4 -> 12  [label="z (6)"];
5 -> 5  [label="y (9)"];
5 -> 9  [label="z (10)"];
5 -> 11  [label="x (9)"];
6 -> 11  [label="x (5)"];
6 -> 8  [label="y (5)"];
6 -> 10  [label="z (5)"];
7 -> 14  [label="x (5)"];
7 -> 14  [label="y (6)"];
7 -> 11  [label="z (6)"];
8 -> 10  [label="x (8)"];
8 -> 7  [label="y (8)"];
8 -> 2  [label="z (6)"];
9 -> 1  [label="x (16)"];
9 -> 10  [label="y (15)"];
9 -> 8  [label="z (18)"];
9 -> 0  [label="!x [1]"];
10 -> 5  [label="y (6)"];
10 -> 14  [label="x (6)"];
10 -> 10  [label="z (6)"];
11 -> 5  [label="x (10)"];
11 -> 4  [label="y (8)"];
11 -> 9  [label="z (9)"];
12 -> 14  [label="x (41)"];
12 -> 4  [label="y (16)"];
12 -> 11  [label="z (15)"];
12 -> 9  [label="!z [1]"];
12 -> 7  [label="!y [1]"];
13 -> 11  [label="y (6)"];
13 -> 8  [label="x (5)"];
13 -> 2  [label="z (5)"];
14 -> 13  [label="x (21)"];
14 -> 7  [label="y (17)"];
14 -> 5  [label="z (8)"];
14 -> 14  [label="!x [1]"];
__start0 [label="", shape=none];
__start0 -> 0  [label=""];
}
