digraph "benchmarks-true-state-lstar-3seeds/n_states=6-n_outputs=3-glitch_percent=0.01/9e0c6ea3a673b2192dc85abdfe68cd0a/alergiaLearned" {
q0 [label="b"];
q1 [label="c"];
q2 [label="a"];
q3 [label="b"];
q4 [label="b"];
q0 -> q1  [label="z:0.9090909090909091"];
q0 -> q2  [label="z:0.09090909090909091"];
q0 -> q2  [label="y:0.9545454545454546"];
q0 -> q0  [label="y:0.045454545454545456"];
q0 -> q3  [label="x:0.9574468085106383"];
q0 -> q1  [label="x:0.02127659574468085"];
q0 -> q2  [label="x:0.02127659574468085"];
q1 -> q0  [label="x:0.5"];
q1 -> q1  [label="x:0.5"];
q1 -> q0  [label="y:0.5"];
q1 -> q1  [label="y:0.5"];
q1 -> q0  [label="z:0.9166666666666666"];
q1 -> q1  [label="z:0.08333333333333333"];
q2 -> q1  [label="x:1.0"];
q2 -> q1  [label="y:1.0"];
q2 -> q0  [label="z:1.0"];
q3 -> q1  [label="x:1.0"];
q3 -> q4  [label="y:1.0"];
q3 -> q2  [label="z:1.0"];
q4 -> q2  [label="x:1.0"];
q4 -> q0  [label="y:1.0"];
q4 -> q2  [label="z:1.0"];
__start0 [label="", shape=none];
__start0 -> q0  [label=""];
}
