digraph "benchmarks-true-state-lstar-3seeds/n_states=7-n_outputs=2-glitch_percent=0.02/739143eafa64934cee4934ad2eddfa37/rpniGroundTruth" {
s0 [label="s0|a", shape=record, style=rounded];
s1 [label="s1|b", shape=record, style=rounded];
s2 [label="s2|a", shape=record, style=rounded];
s3 [label="s3|a", shape=record, style=rounded];
s4 [label="s4|b", shape=record, style=rounded];
s5 [label="s5|a", shape=record, style=rounded];
s6 [label="s6|b", shape=record, style=rounded];
s0 -> s1  [label="z"];
s0 -> s2  [label="y"];
s0 -> s3  [label="x"];
s1 -> s1  [label="y"];
s1 -> s4  [label="x"];
s1 -> s2  [label="z"];
s2 -> s4  [label="y"];
s2 -> s3  [label="x"];
s2 -> s1  [label="z"];
s3 -> s4  [label="x"];
s3 -> s5  [label="z"];
s3 -> s6  [label="y"];
s4 -> s0  [label="x"];
s4 -> s5  [label="z"];
s4 -> s6  [label="y"];
s5 -> s2  [label="y"];
s5 -> s5  [label="x"];
s5 -> s1  [label="z"];
s6 -> s2  [label="z"];
s6 -> s0  [label="y"];
s6 -> s6  [label="x"];
__start0 [label="", shape=none];
__start0 -> s0  [label=""];
}
