digraph "benchmarks-true-state-lstar-3seeds/n_states=15-n_outputs=2-glitch_percent=0.01/415294f83b9cfe5289eab2cb607caa1a/pmsatLearned-N15-STOC" {
0 [label="0|a", shape=record, style=rounded];
1 [label="1|b", shape=record, style=rounded];
2 [label="2|b", shape=record, style=rounded];
3 [label="3|b", shape=record, style=rounded];
4 [label="4|a", shape=record, style=rounded];
5 [label="5|b", shape=record, style=rounded];
6 [label="6|a", shape=record, style=rounded];
7 [label="7|b", shape=record, style=rounded];
8 [label="8|a", shape=record, style=rounded];
9 [label="9|a", shape=record, style=rounded];
10 [label="10|b", shape=record, style=rounded];
11 [label="11|b", shape=record, style=rounded];
12 [label="12|b", shape=record, style=rounded];
13 [label="13|b", shape=record, style=rounded];
14 [label="14|b", shape=record, style=rounded];
0 -> 2  [label="x (43)"];
0 -> 10  [label="y (36)"];
0 -> 13  [label="z (39)"];
1 -> 0  [label="z (97)"];
1 -> 5  [label="y (104)"];
1 -> 4  [label="x (143)"];
1 -> 11  [label="!x [1]"];
2 -> 14  [label="x (27)"];
2 -> 1  [label="y (17)"];
2 -> 3  [label="z (18)"];
3 -> 6  [label="x (14)"];
3 -> 2  [label="y (11)"];
3 -> 13  [label="z (11)"];
4 -> 11  [label="x (81)"];
4 -> 14  [label="y (37)"];
4 -> 8  [label="z (33)"];
4 -> 2  [label="!y [1]"];
5 -> 7  [label="x (43)"];
5 -> 12  [label="y (50)"];
5 -> 9  [label="z (34)"];
6 -> 0  [label="x (30)"];
6 -> 8  [label="y (17)"];
6 -> 2  [label="z (20)"];
7 -> 6  [label="x (36)"];
7 -> 5  [label="y (19)"];
7 -> 4  [label="z (28)"];
8 -> 7  [label="x (13)"];
8 -> 5  [label="y (16)"];
8 -> 7  [label="z (8)"];
9 -> 2  [label="x (18)"];
9 -> 9  [label="y (21)"];
9 -> 14  [label="z (11)"];
10 -> 7  [label="x (13)"];
10 -> 0  [label="y (20)"];
10 -> 7  [label="z (9)"];
11 -> 3  [label="x (35)"];
11 -> 6  [label="y (30)"];
11 -> 6  [label="z (11)"];
12 -> 12  [label="x (25)"];
12 -> 12  [label="y (21)"];
12 -> 4  [label="z (13)"];
13 -> 5  [label="x (12)"];
13 -> 10  [label="y (14)"];
13 -> 6  [label="z (9)"];
14 -> 7  [label="x (25)"];
14 -> 9  [label="y (15)"];
14 -> 9  [label="z (13)"];
__start0 [label="", shape=none];
__start0 -> 1  [label=""];
}
