digraph "benchmarks-true-state-lstar-3seeds/n_states=14-n_outputs=6-glitch_percent=0.0/4492ac989216ceb8d6930b73b485ae54/RealModel" {
s1 [label="s1|c", shape=record, style=rounded];
s2 [label="s2|d", shape=record, style=rounded];
s3 [label="s3|d", shape=record, style=rounded];
s4 [label="s4|c", shape=record, style=rounded];
s5 [label="s5|a", shape=record, style=rounded];
s6 [label="s6|c", shape=record, style=rounded];
s7 [label="s7|c", shape=record, style=rounded];
s8 [label="s8|a", shape=record, style=rounded];
s9 [label="s9|a", shape=record, style=rounded];
s10 [label="s10|d", shape=record, style=rounded];
s11 [label="s11|a", shape=record, style=rounded];
s12 [label="s12|a", shape=record, style=rounded];
s13 [label="s13|c", shape=record, style=rounded];
s14 [label="s14|a", shape=record, style=rounded];
s1 -> s6  [label="x"];
s1 -> s14  [label="y"];
s1 -> s13  [label="z"];
s2 -> s3  [label="x"];
s2 -> s10  [label="y"];
s2 -> s7  [label="z"];
s3 -> s9  [label="x"];
s3 -> s14  [label="y"];
s3 -> s11  [label="z"];
s4 -> s3  [label="x"];
s4 -> s12  [label="y"];
s4 -> s1  [label="z"];
s5 -> s7  [label="x"];
s5 -> s2  [label="y"];
s5 -> s1  [label="z"];
s6 -> s2  [label="x"];
s6 -> s4  [label="y"];
s6 -> s7  [label="z"];
s7 -> s1  [label="x"];
s7 -> s3  [label="y"];
s7 -> s6  [label="z"];
s8 -> s5  [label="x"];
s8 -> s6  [label="y"];
s8 -> s13  [label="z"];
s9 -> s13  [label="x"];
s9 -> s6  [label="y"];
s9 -> s6  [label="z"];
s10 -> s12  [label="x"];
s10 -> s9  [label="y"];
s10 -> s11  [label="z"];
s11 -> s13  [label="x"];
s11 -> s7  [label="y"];
s11 -> s12  [label="z"];
s12 -> s12  [label="x"];
s12 -> s6  [label="y"];
s12 -> s2  [label="z"];
s13 -> s9  [label="x"];
s13 -> s11  [label="y"];
s13 -> s10  [label="z"];
s14 -> s8  [label="x"];
s14 -> s12  [label="y"];
s14 -> s5  [label="z"];
__start0 [label="", shape=none];
__start0 -> s1  [label=""];
}
