digraph "benchmarks-true-state-lstar-3seeds/n_states=16-n_outputs=4-glitch_percent=0.0/fc75a1f764435c9c0ae8076e3d39fe61/pmsatLearned-N16" {
0 [label="0|a", shape=record, style=rounded];
1 [label="1|b", shape=record, style=rounded];
2 [label="2|c", shape=record, style=rounded];
3 [label="3|d", shape=record, style=rounded];
4 [label="4|b", shape=record, style=rounded];
5 [label="5|b", shape=record, style=rounded];
6 [label="6|d", shape=record, style=rounded];
7 [label="7|c", shape=record, style=rounded];
8 [label="8|a", shape=record, style=rounded];
9 [label="9|c", shape=record, style=rounded];
10 [label="10|a", shape=record, style=rounded];
11 [label="11|d", shape=record, style=rounded];
12 [label="12|c", shape=record, style=rounded];
13 [label="13|d", shape=record, style=rounded];
14 [label="14|b", shape=record, style=rounded];
15 [label="15|c", shape=record, style=rounded];
0 -> 0  [label="x"];
0 -> 2  [label="y"];
0 -> 4  [label="z"];
1 -> 10  [label="z"];
1 -> 6  [label="y"];
1 -> 5  [label="x"];
2 -> 4  [label="x"];
2 -> 13  [label="y"];
2 -> 0  [label="z"];
3 -> 2  [label="x"];
3 -> 13  [label="y"];
3 -> 11  [label="z"];
4 -> 0  [label="x"];
4 -> 1  [label="y"];
4 -> 10  [label="z"];
5 -> 12  [label="x"];
5 -> 9  [label="y"];
5 -> 2  [label="z"];
6 -> 7  [label="x"];
6 -> 11  [label="y"];
6 -> 3  [label="z"];
7 -> 1  [label="x"];
7 -> 10  [label="y"];
7 -> 10  [label="z"];
8 -> 10  [label="x"];
8 -> 9  [label="y"];
8 -> 7  [label="z"];
9 -> 1  [label="x"];
9 -> 5  [label="y"];
9 -> 4  [label="z"];
10 -> 0  [label="x"];
10 -> 4  [label="y"];
10 -> 14  [label="z"];
11 -> 3  [label="x"];
11 -> 11  [label="y"];
11 -> 4  [label="z"];
12 -> 15  [label="x"];
12 -> 13  [label="y"];
12 -> 8  [label="z"];
13 -> 15  [label="x"];
13 -> 10  [label="y"];
13 -> 14  [label="z"];
14 -> 5  [label="x"];
14 -> 2  [label="y"];
14 -> 4  [label="z"];
15 -> 6  [label="x"];
15 -> 0  [label="y"];
15 -> 1  [label="z"];
__start0 [label="", shape=none];
__start0 -> 1  [label=""];
}
