digraph "benchmarks-true-state-lstar-3seeds/n_states=2-n_outputs=2-glitch_percent=0.01/ffd66c70bb7f6e11a91ad6fc75a3eae4/rpniGroundTruth" {
s0 [label="s0|b", shape=record, style=rounded];
s1 [label="s1|a", shape=record, style=rounded];
s0 -> s0  [label="y"];
s0 -> s1  [label="x"];
s0 -> s1  [label="z"];
s1 -> s0  [label="z"];
s1 -> s0  [label="x"];
s1 -> s0  [label="y"];
__start0 [label="", shape=none];
__start0 -> s0  [label=""];
}
