digraph "benchmarks-true-state-lstar-rc10seeds/n_states=12-n_outputs=5-glitch_percent=0.02/be49aa86be0506ceee04a72a90aacf5d/pmsatLearned_NOP-N12-STOC" {
0 [label="0|a", shape=record, style=rounded];
1 [label="1|c", shape=record, style=rounded];
2 [label="2|d", shape=record, style=rounded];
3 [label="3|e", shape=record, style=rounded];
4 [label="4|e", shape=record, style=rounded];
5 [label="5|a", shape=record, style=rounded];
6 [label="6|c", shape=record, style=rounded];
7 [label="7|a", shape=record, style=rounded];
8 [label="8|d", shape=record, style=rounded];
9 [label="9|c", shape=record, style=rounded];
10 [label="10|a", shape=record, style=rounded];
11 [label="11|b", shape=record, style=rounded];
0 -> 2  [label="z (41)"];
0 -> 11  [label="y (51)"];
0 -> 1  [label="x (55)"];
0 -> 4  [label="!y [1]"];
0 -> 10  [label="!z [1]"];
1 -> 3  [label="x (18)"];
1 -> 9  [label="y (20)"];
1 -> 5  [label="z (18)"];
1 -> 11  [label="!z [1]"];
2 -> 8  [label="x (19)"];
2 -> 7  [label="y (19)"];
2 -> 2  [label="z (8)"];
2 -> 10  [label="!x [1]"];
3 -> 8  [label="x (7)"];
3 -> 1  [label="y (7)"];
3 -> 4  [label="z (7)"];
4 -> 0  [label="x (8)"];
4 -> 11  [label="y (9)"];
4 -> 4  [label="z (9)"];
5 -> 3  [label="x (5)"];
5 -> 6  [label="y (6)"];
5 -> 11  [label="z (4)"];
6 -> 4  [label="x (7)"];
6 -> 9  [label="y (6)"];
6 -> 9  [label="z (7)"];
7 -> 9  [label="x (7)"];
7 -> 6  [label="y (6)"];
7 -> 7  [label="z (7)"];
8 -> 10  [label="x (5)"];
8 -> 11  [label="y (6)"];
8 -> 1  [label="z (6)"];
9 -> 2  [label="x (9)"];
9 -> 4  [label="y (9)"];
9 -> 3  [label="z (9)"];
10 -> 2  [label="x (6)"];
10 -> 7  [label="y (5)"];
10 -> 9  [label="z (6)"];
11 -> 6  [label="x (19)"];
11 -> 4  [label="y (18)"];
11 -> 10  [label="z (18)"];
11 -> 7  [label="!y [1]"];
11 -> 5  [label="!x [1]"];
__start0 [label="", shape=none];
__start0 -> 0  [label=""];
}
