digraph "benchmarks-true-state-lstar-3seeds/n_states=13-n_outputs=8-glitch_percent=0.0/22b38c4bccd14ee13f68ef0aa27eb083/pmsatLearned-N13" {
0 [label="0|a", shape=record, style=rounded];
1 [label="1|b", shape=record, style=rounded];
2 [label="2|c", shape=record, style=rounded];
3 [label="3|d", shape=record, style=rounded];
4 [label="4|e", shape=record, style=rounded];
5 [label="5|g", shape=record, style=rounded];
6 [label="6|b", shape=record, style=rounded];
7 [label="7|g", shape=record, style=rounded];
8 [label="8|b", shape=record, style=rounded];
9 [label="9|d", shape=record, style=rounded];
10 [label="10|c", shape=record, style=rounded];
11 [label="11|a", shape=record, style=rounded];
12 [label="12|e", shape=record, style=rounded];
0 -> 8  [label="x"];
0 -> 3  [label="y"];
0 -> 12  [label="z"];
1 -> 3  [label="x"];
1 -> 10  [label="y"];
1 -> 7  [label="z"];
2 -> 4  [label="x"];
2 -> 5  [label="y"];
2 -> 5  [label="z"];
3 -> 1  [label="x"];
3 -> 1  [label="y"];
3 -> 0  [label="z"];
4 -> 6  [label="x"];
4 -> 0  [label="y"];
4 -> 7  [label="z"];
5 -> 9  [label="z"];
5 -> 10  [label="y"];
5 -> 4  [label="x"];
6 -> 6  [label="x"];
6 -> 8  [label="y"];
6 -> 11  [label="z"];
7 -> 8  [label="x"];
7 -> 1  [label="y"];
7 -> 3  [label="z"];
8 -> 5  [label="x"];
8 -> 12  [label="y"];
8 -> 0  [label="z"];
9 -> 1  [label="x"];
9 -> 2  [label="y"];
9 -> 3  [label="z"];
10 -> 8  [label="x"];
10 -> 12  [label="y"];
10 -> 11  [label="z"];
11 -> 7  [label="x"];
11 -> 7  [label="y"];
11 -> 2  [label="z"];
12 -> 8  [label="x"];
12 -> 9  [label="y"];
12 -> 9  [label="z"];
__start0 [label="", shape=none];
__start0 -> 5  [label=""];
}
