digraph "benchmarks-true-state-lstar-3seeds/n_states=13-n_outputs=7-glitch_percent=0.05/06a31100695d62d04e65568568d1df88/RealModel" {
s1 [label="s1|a", shape=record, style=rounded];
s2 [label="s2|d", shape=record, style=rounded];
s3 [label="s3|a", shape=record, style=rounded];
s4 [label="s4|e", shape=record, style=rounded];
s5 [label="s5|e", shape=record, style=rounded];
s6 [label="s6|g", shape=record, style=rounded];
s7 [label="s7|b", shape=record, style=rounded];
s8 [label="s8|f", shape=record, style=rounded];
s9 [label="s9|e", shape=record, style=rounded];
s10 [label="s10|b", shape=record, style=rounded];
s11 [label="s11|e", shape=record, style=rounded];
s12 [label="s12|e", shape=record, style=rounded];
s13 [label="s13|g", shape=record, style=rounded];
s1 -> s2  [label="x"];
s1 -> s3  [label="y"];
s1 -> s5  [label="z"];
s2 -> s10  [label="x"];
s2 -> s4  [label="y"];
s2 -> s13  [label="z"];
s3 -> s6  [label="x"];
s3 -> s8  [label="y"];
s3 -> s11  [label="z"];
s4 -> s6  [label="x"];
s4 -> s3  [label="y"];
s4 -> s8  [label="z"];
s5 -> s12  [label="x"];
s5 -> s9  [label="y"];
s5 -> s7  [label="z"];
s6 -> s12  [label="x"];
s6 -> s12  [label="y"];
s6 -> s9  [label="z"];
s7 -> s10  [label="x"];
s7 -> s6  [label="y"];
s7 -> s2  [label="z"];
s8 -> s10  [label="x"];
s8 -> s2  [label="y"];
s8 -> s7  [label="z"];
s9 -> s5  [label="x"];
s9 -> s3  [label="y"];
s9 -> s2  [label="z"];
s10 -> s7  [label="x"];
s10 -> s12  [label="y"];
s10 -> s8  [label="z"];
s11 -> s4  [label="x"];
s11 -> s6  [label="y"];
s11 -> s9  [label="z"];
s12 -> s8  [label="x"];
s12 -> s13  [label="y"];
s12 -> s12  [label="z"];
s13 -> s8  [label="x"];
s13 -> s2  [label="y"];
s13 -> s8  [label="z"];
__start0 [label="", shape=none];
__start0 -> s1  [label=""];
}
