digraph "benchmarks-true-state-lstar-songp/n_states=6-n_outputs=2-glitch_percent=0.01-pmstrat='rc2'/520f99f0eb9542867c7c5c3ac5eb70e2/alergiaLearned" {
q0 [label="a"];
q1 [label="b"];
q2 [label="a"];
q3 [label="b"];
q0 -> q1  [label="z:0.95"];
q0 -> q0  [label="z:0.05"];
q0 -> q2  [label="y:0.95"];
q0 -> q1  [label="y:0.05"];
q0 -> q3  [label="x:1.0"];
q1 -> q1  [label="x:0.6111111111111112"];
q1 -> q0  [label="x:0.3888888888888889"];
q1 -> q1  [label="y:0.4444444444444444"];
q1 -> q0  [label="y:0.5555555555555556"];
q1 -> q1  [label="z:0.5882352941176471"];
q1 -> q0  [label="z:0.4117647058823529"];
q2 -> q0  [label="x:0.5"];
q2 -> q1  [label="x:0.5"];
q2 -> q1  [label="y:1.0"];
q2 -> q1  [label="z:0.5"];
q2 -> q0  [label="z:0.5"];
q3 -> q1  [label="x:1.0"];
q3 -> q2  [label="y:1.0"];
q3 -> q1  [label="z:1.0"];
__start0 [label="", shape=none];
__start0 -> q0  [label=""];
}
