digraph "benchmarks-true-state-lstar-3seeds/n_states=8-n_outputs=6-glitch_percent=0.05/5bc6041216b4e1d99151a1e5fa738843/pmsatLearned-N8-STOC" {
0 [label="0|a", shape=record, style=rounded];
1 [label="1|b", shape=record, style=rounded];
2 [label="2|d", shape=record, style=rounded];
3 [label="3|e", shape=record, style=rounded];
4 [label="4|f", shape=record, style=rounded];
5 [label="5|a", shape=record, style=rounded];
6 [label="6|e", shape=record, style=rounded];
7 [label="7|e", shape=record, style=rounded];
0 -> 3  [label="z (20)"];
0 -> 4  [label="y (30)"];
0 -> 5  [label="x (53)"];
0 -> 2  [label="!x [1]"];
1 -> 2  [label="x (7)"];
1 -> 4  [label="y (7)"];
1 -> 7  [label="z (6)"];
1 -> 0  [label="!y [1]"];
2 -> 4  [label="y (8)"];
2 -> 3  [label="z (7)"];
2 -> 2  [label="x (7)"];
3 -> 5  [label="x (9)"];
3 -> 6  [label="y (9)"];
3 -> 1  [label="z (8)"];
4 -> 1  [label="x (18)"];
4 -> 0  [label="y (7)"];
4 -> 0  [label="z (7)"];
5 -> 2  [label="x (18)"];
5 -> 7  [label="y (16)"];
5 -> 6  [label="z (19)"];
5 -> 5  [label="!y [1]"];
5 -> 1  [label="!x [1]"];
6 -> 3  [label="x (5)"];
6 -> 3  [label="z (3)"];
6 -> 2  [label="y (5)"];
6 -> 1  [label="!z [1]"];
7 -> 1  [label="x (5)"];
7 -> 3  [label="z (5)"];
7 -> 5  [label="y (3)"];
__start0 [label="", shape=none];
__start0 -> 0  [label=""];
}
