digraph "benchmarks-true-state-lstar-3seeds/n_states=5-n_outputs=3-glitch_percent=0.0/abe596986c23b1f6748abb9f0127c007/alergiaLearned" {
q0 [label="c"];
q1 [label="b"];
q2 [label="c"];
q3 [label="c"];
q4 [label="a"];
q0 -> q1  [label="z:1.0"];
q0 -> q2  [label="y:0.9259259259259259"];
q0 -> q1  [label="y:0.07407407407407407"];
q0 -> q3  [label="x:0.9183673469387755"];
q0 -> q4  [label="x:0.08163265306122448"];
q1 -> q1  [label="x:1.0"];
q1 -> q2  [label="y:1.0"];
q1 -> q2  [label="z:1.0"];
q2 -> q0  [label="x:1.0"];
q2 -> q0  [label="y:1.0"];
q2 -> q1  [label="z:1.0"];
q3 -> q4  [label="x:1.0"];
q3 -> q1  [label="y:1.0"];
q3 -> q1  [label="z:1.0"];
q4 -> q2  [label="x:1.0"];
q4 -> q1  [label="y:1.0"];
q4 -> q0  [label="z:1.0"];
__start0 [label="", shape=none];
__start0 -> q0  [label=""];
}
