digraph "benchmarks-true-state-lstar-3seeds/n_states=13-n_outputs=2-glitch_percent=0.05/66d19286e30fcd710ab8f5d1264a3681/pmsatLearned-N13-STOC" {
0 [label="0|a", shape=record, style=rounded];
1 [label="1|b", shape=record, style=rounded];
2 [label="2|b", shape=record, style=rounded];
3 [label="3|b", shape=record, style=rounded];
4 [label="4|b", shape=record, style=rounded];
5 [label="5|b", shape=record, style=rounded];
6 [label="6|a", shape=record, style=rounded];
7 [label="7|b", shape=record, style=rounded];
8 [label="8|a", shape=record, style=rounded];
9 [label="9|b", shape=record, style=rounded];
10 [label="10|a", shape=record, style=rounded];
11 [label="11|b", shape=record, style=rounded];
12 [label="12|a", shape=record, style=rounded];
0 -> 11  [label="y (13)"];
0 -> 4  [label="z (25)"];
0 -> 11  [label="x (30)"];
1 -> 2  [label="z (96)"];
1 -> 5  [label="y (57)"];
1 -> 9  [label="x (137)"];
1 -> 7  [label="!x [3]"];
1 -> 0  [label="!x [4]"];
1 -> 6  [label="!y [2]"];
1 -> 5  [label="!z [1]"];
2 -> 0  [label="x (44)"];
2 -> 6  [label="y (30)"];
2 -> 3  [label="z (34)"];
2 -> 2  [label="!x [1]"];
3 -> 6  [label="y (8)"];
3 -> 8  [label="z (10)"];
3 -> 8  [label="x (16)"];
4 -> 11  [label="x (32)"];
4 -> 4  [label="y (11)"];
4 -> 0  [label="z (18)"];
5 -> 4  [label="x (53)"];
5 -> 11  [label="y (16)"];
5 -> 7  [label="z (19)"];
5 -> 0  [label="!x [1]"];
6 -> 5  [label="x (13)"];
6 -> 0  [label="y (9)"];
6 -> 0  [label="z (11)"];
7 -> 1  [label="y (8)"];
7 -> 2  [label="x (20)"];
7 -> 4  [label="z (11)"];
8 -> 10  [label="z (13)"];
8 -> 9  [label="x (22)"];
8 -> 11  [label="y (25)"];
8 -> 9  [label="!z [1]"];
9 -> 12  [label="y (30)"];
9 -> 8  [label="z (54)"];
9 -> 7  [label="!x [1]"];
9 -> 10  [label="x (55)"];
9 -> 5  [label="!x [2]"];
9 -> 5  [label="!y [1]"];
9 -> 4  [label="!z [1]"];
10 -> 5  [label="y (12)"];
10 -> 3  [label="z (12)"];
10 -> 7  [label="x (31)"];
11 -> 5  [label="z (36)"];
11 -> 11  [label="x (38)"];
11 -> 2  [label="y (9)"];
12 -> 0  [label="x (10)"];
12 -> 1  [label="y (7)"];
12 -> 5  [label="z (8)"];
12 -> 2  [label="!x [2]"];
__start0 [label="", shape=none];
__start0 -> 1  [label=""];
}
