digraph "benchmarks-true-state-lstar-3seeds/n_states=10-n_outputs=7-glitch_percent=0.0/702c40081fec1387b7fd4c53b76e78b2/pmsatLearned-N10" {
0 [label="0|a", shape=record, style=rounded];
1 [label="1|b", shape=record, style=rounded];
2 [label="2|c", shape=record, style=rounded];
3 [label="3|d", shape=record, style=rounded];
4 [label="4|e", shape=record, style=rounded];
5 [label="5|f", shape=record, style=rounded];
6 [label="6|g", shape=record, style=rounded];
7 [label="7|a", shape=record, style=rounded];
8 [label="8|c", shape=record, style=rounded];
9 [label="9|d", shape=record, style=rounded];
0 -> 2  [label="x"];
0 -> 1  [label="y"];
0 -> 8  [label="z"];
1 -> 7  [label="x"];
1 -> 8  [label="y"];
1 -> 9  [label="z"];
2 -> 1  [label="z"];
2 -> 7  [label="y"];
2 -> 4  [label="x"];
3 -> 0  [label="x"];
3 -> 1  [label="y"];
3 -> 8  [label="z"];
4 -> 5  [label="x"];
4 -> 6  [label="y"];
4 -> 9  [label="z"];
5 -> 2  [label="x"];
5 -> 4  [label="y"];
5 -> 0  [label="z"];
6 -> 5  [label="x"];
6 -> 5  [label="y"];
6 -> 9  [label="z"];
7 -> 8  [label="x"];
7 -> 0  [label="y"];
7 -> 3  [label="z"];
8 -> 9  [label="x"];
8 -> 8  [label="y"];
8 -> 0  [label="z"];
9 -> 4  [label="x"];
9 -> 3  [label="y"];
9 -> 9  [label="z"];
__start0 [label="", shape=none];
__start0 -> 2  [label=""];
}
