digraph "benchmarks-true-state-lstar-3seeds/n_states=9-n_outputs=9-glitch_percent=0.05/89d74ac613febe57190fc7c8beb18f48/pmsatLearned-N9-STOC" {
0 [label="0|a", shape=record, style=rounded];
1 [label="1|c", shape=record, style=rounded];
2 [label="2|e", shape=record, style=rounded];
3 [label="3|f", shape=record, style=rounded];
4 [label="4|g", shape=record, style=rounded];
5 [label="5|h", shape=record, style=rounded];
6 [label="6|i", shape=record, style=rounded];
7 [label="7|a", shape=record, style=rounded];
8 [label="8|c", shape=record, style=rounded];
0 -> 6  [label="x (9)"];
0 -> 1  [label="y (8)"];
0 -> 5  [label="z (9)"];
1 -> 3  [label="x (20)"];
1 -> 0  [label="y (19)"];
1 -> 4  [label="z (18)"];
1 -> 1  [label="!y [2]"];
2 -> 6  [label="z (16)"];
2 -> 8  [label="y (38)"];
2 -> 0  [label="!x [2]"];
2 -> 1  [label="x (53)"];
2 -> 4  [label="!z [1]"];
2 -> 5  [label="!y [1]"];
2 -> 3  [label="!x [1]"];
3 -> 5  [label="x (6)"];
3 -> 7  [label="y (6)"];
3 -> 6  [label="z (6)"];
4 -> 3  [label="x (5)"];
4 -> 1  [label="y (3)"];
4 -> 1  [label="z (5)"];
5 -> 0  [label="x (7)"];
5 -> 7  [label="y (7)"];
5 -> 0  [label="z (7)"];
6 -> 0  [label="x (6)"];
6 -> 1  [label="y (7)"];
6 -> 2  [label="z (6)"];
7 -> 0  [label="x (8)"];
7 -> 7  [label="y (8)"];
7 -> 2  [label="z (6)"];
8 -> 5  [label="y (17)"];
8 -> 8  [label="z (5)"];
8 -> 7  [label="x (14)"];
8 -> 2  [label="!z [2]"];
__start0 [label="", shape=none];
__start0 -> 2  [label=""];
}
