digraph "benchmarks-true-state-lstar-3seeds/n_states=9-n_outputs=3-glitch_percent=0.0/e05baa7b90976672cca352efd3e33306/pmsatLearned-N9-STOC" {
0 [label="0|a", shape=record, style=rounded];
1 [label="1|b", shape=record, style=rounded];
2 [label="2|c", shape=record, style=rounded];
3 [label="3|a", shape=record, style=rounded];
4 [label="4|b", shape=record, style=rounded];
5 [label="5|b", shape=record, style=rounded];
6 [label="6|c", shape=record, style=rounded];
7 [label="7|b", shape=record, style=rounded];
8 [label="8|b", shape=record, style=rounded];
0 -> 8  [label="x (9)"];
0 -> 6  [label="y (7)"];
0 -> 5  [label="z (7)"];
1 -> 3  [label="z (22)"];
1 -> 7  [label="y (52)"];
1 -> 4  [label="x (74)"];
2 -> 2  [label="x (17)"];
2 -> 0  [label="y (19)"];
2 -> 4  [label="z (11)"];
3 -> 2  [label="x (7)"];
3 -> 6  [label="y (6)"];
3 -> 6  [label="z (6)"];
4 -> 5  [label="x (29)"];
4 -> 8  [label="y (35)"];
4 -> 6  [label="z (24)"];
5 -> 8  [label="x (9)"];
5 -> 2  [label="y (12)"];
5 -> 4  [label="z (7)"];
6 -> 4  [label="x (15)"];
6 -> 1  [label="y (10)"];
6 -> 6  [label="z (10)"];
7 -> 2  [label="x (22)"];
7 -> 0  [label="y (21)"];
7 -> 2  [label="z (6)"];
8 -> 8  [label="x (19)"];
8 -> 8  [label="y (23)"];
8 -> 2  [label="z (10)"];
__start0 [label="", shape=none];
__start0 -> 1  [label=""];
}
