digraph "benchmarks-true-state-lstar-rc10seeds/n_states=9-n_outputs=4-glitch_percent=0.05/84c95edd7111240d7805e64c1ac60032/pmsatLearned_NOP-N9-STOC" {
0 [label="0|d", shape=record, style=rounded];
1 [label="1|a", shape=record, style=rounded];
2 [label="2|c", shape=record, style=rounded];
3 [label="3|d", shape=record, style=rounded];
4 [label="4|b", shape=record, style=rounded];
5 [label="5|b", shape=record, style=rounded];
6 [label="6|a", shape=record, style=rounded];
7 [label="7|b", shape=record, style=rounded];
8 [label="8|a", shape=record, style=rounded];
0 -> 6  [label="x (4)"];
0 -> 6  [label="y (4)"];
0 -> 7  [label="z (6)"];
1 -> 4  [label="x (5)"];
1 -> 5  [label="y (6)"];
1 -> 8  [label="z (6)"];
2 -> 4  [label="x (9)"];
2 -> 3  [label="y (10)"];
2 -> 2  [label="z (10)"];
3 -> 4  [label="z (19)"];
3 -> 5  [label="y (40)"];
3 -> 7  [label="!z [1]"];
3 -> 8  [label="x (50)"];
3 -> 8  [label="!y [1]"];
3 -> 1  [label="!x [1]"];
4 -> 2  [label="x (8)"];
4 -> 8  [label="y (7)"];
4 -> 2  [label="z (7)"];
4 -> 2  [label="!y [1]"];
4 -> 4  [label="!x [1]"];
5 -> 2  [label="x (18)"];
5 -> 0  [label="y (17)"];
5 -> 2  [label="z (4)"];
5 -> 5  [label="!x [1]"];
6 -> 1  [label="x (7)"];
6 -> 8  [label="y (7)"];
6 -> 8  [label="z (5)"];
7 -> 4  [label="x (4)"];
7 -> 2  [label="y (4)"];
7 -> 8  [label="z (6)"];
7 -> 2  [label="!z [1]"];
8 -> 1  [label="x (20)"];
8 -> 6  [label="y (19)"];
8 -> 7  [label="z (18)"];
8 -> 2  [label="!y [1]"];
8 -> 4  [label="!x [1]"];
__start0 [label="", shape=none];
__start0 -> 3  [label=""];
}
