digraph "benchmarks-true-state-lstar-rc10seeds/n_states=6-n_outputs=4-glitch_percent=0.05/cded03cc7b2f50875819eb4a4336337e/pmsatLearned_NOP-N6-STOC" {
0 [label="0|d", shape=record, style=rounded];
1 [label="1|c", shape=record, style=rounded];
2 [label="2|a", shape=record, style=rounded];
3 [label="3|d", shape=record, style=rounded];
4 [label="4|a", shape=record, style=rounded];
5 [label="5|c", shape=record, style=rounded];
0 -> 4  [label="x (15)"];
0 -> 2  [label="y (16)"];
0 -> 5  [label="z (5)"];
0 -> 1  [label="!x [1]"];
1 -> 3  [label="z (20)"];
1 -> 5  [label="y (20)"];
1 -> 0  [label="x (43)"];
1 -> 2  [label="!x [3]"];
2 -> 4  [label="x (5)"];
2 -> 4  [label="y (6)"];
2 -> 5  [label="z (5)"];
3 -> 3  [label="x (6)"];
3 -> 5  [label="y (4)"];
3 -> 5  [label="z (7)"];
4 -> 4  [label="y (6)"];
4 -> 1  [label="z (8)"];
4 -> 1  [label="x (7)"];
4 -> 3  [label="!z [1]"];
5 -> 4  [label="x (8)"];
5 -> 1  [label="y (9)"];
5 -> 1  [label="z (8)"];
__start0 [label="", shape=none];
__start0 -> 1  [label=""];
}
