digraph "benchmarks-true-state-lstar-songp/n_states=13-n_outputs=8-glitch_percent=0.01-pmstrat='rc2'/bf0f5b5456c109c2fda3d69b8c48b2d0/pmsatLearned-N13" {
0 [label="0|a", shape=record, style=rounded];
1 [label="1|b", shape=record, style=rounded];
2 [label="2|c", shape=record, style=rounded];
3 [label="3|e", shape=record, style=rounded];
4 [label="4|f", shape=record, style=rounded];
5 [label="5|g", shape=record, style=rounded];
6 [label="6|h", shape=record, style=rounded];
7 [label="7|g", shape=record, style=rounded];
8 [label="8|g", shape=record, style=rounded];
9 [label="9|a", shape=record, style=rounded];
10 [label="10|f", shape=record, style=rounded];
11 [label="11|h", shape=record, style=rounded];
12 [label="12|h", shape=record, style=rounded];
0 -> 4  [label="z"];
0 -> 3  [label="y"];
0 -> 12  [label="x"];
1 -> 7  [label="x"];
1 -> 2  [label="y"];
1 -> 11  [label="z"];
2 -> 2  [label="x"];
2 -> 4  [label="y"];
2 -> 4  [label="z"];
3 -> 2  [label="x"];
3 -> 9  [label="y"];
3 -> 5  [label="z"];
4 -> 6  [label="x"];
4 -> 10  [label="y"];
4 -> 7  [label="z"];
5 -> 3  [label="x"];
5 -> 7  [label="y"];
5 -> 10  [label="z"];
6 -> 10  [label="x"];
6 -> 10  [label="y"];
6 -> 0  [label="z"];
7 -> 5  [label="x"];
7 -> 10  [label="y"];
7 -> 8  [label="z"];
8 -> 3  [label="x"];
8 -> 0  [label="y"];
8 -> 7  [label="z"];
9 -> 3  [label="x"];
9 -> 9  [label="y"];
9 -> 7  [label="z"];
10 -> 3  [label="x"];
10 -> 7  [label="y"];
10 -> 6  [label="z"];
11 -> 0  [label="x"];
11 -> 2  [label="y"];
11 -> 0  [label="z"];
12 -> 1  [label="x"];
12 -> 8  [label="y"];
12 -> 11  [label="z"];
__start0 [label="", shape=none];
__start0 -> 0  [label=""];
}
