digraph "benchmarks-true-state-lstar-3seeds/n_states=5-n_outputs=4-glitch_percent=0.05/347b4fae1336ccd38a47a9ebb8642a85/pmsatLearned-N5-STOC" {
0 [label="0|a", shape=record, style=rounded];
1 [label="1|c", shape=record, style=rounded];
2 [label="2|d", shape=record, style=rounded];
3 [label="3|d", shape=record, style=rounded];
4 [label="4|c", shape=record, style=rounded];
0 -> 1  [label="x (5)"];
0 -> 3  [label="y (6)"];
0 -> 2  [label="z (4)"];
1 -> 3  [label="z (21)"];
1 -> 2  [label="y (22)"];
1 -> 4  [label="x (32)"];
1 -> 0  [label="!z [1]"];
1 -> 1  [label="!x [2]"];
1 -> 0  [label="!x [1]"];
2 -> 1  [label="x (8)"];
2 -> 1  [label="z (7)"];
2 -> 2  [label="y (7)"];
3 -> 2  [label="x (6)"];
3 -> 1  [label="y (6)"];
3 -> 0  [label="z (5)"];
4 -> 0  [label="x (15)"];
4 -> 4  [label="y (6)"];
4 -> 1  [label="z (6)"];
__start0 [label="", shape=none];
__start0 -> 1  [label=""];
}
