digraph "benchmarks-true-state-lstar-rc10seeds/n_states=6-n_outputs=3-glitch_percent=0.0/d4158730b32dab31230e14ab72af6090/pmsatLearned_NOP-N6" {
0 [label="0|a", shape=record, style=rounded];
1 [label="1|b", shape=record, style=rounded];
2 [label="2|c", shape=record, style=rounded];
3 [label="3|c", shape=record, style=rounded];
4 [label="4|a", shape=record, style=rounded];
5 [label="5|c", shape=record, style=rounded];
0 -> 3  [label="x"];
0 -> 4  [label="y"];
0 -> 1  [label="z"];
1 -> 2  [label="z"];
1 -> 5  [label="y"];
1 -> 0  [label="x"];
2 -> 3  [label="x"];
2 -> 0  [label="y"];
2 -> 4  [label="z"];
3 -> 5  [label="x"];
3 -> 4  [label="y"];
3 -> 4  [label="z"];
4 -> 2  [label="x"];
4 -> 0  [label="y"];
4 -> 2  [label="z"];
5 -> 0  [label="x"];
5 -> 1  [label="y"];
5 -> 1  [label="z"];
__start0 [label="", shape=none];
__start0 -> 1  [label=""];
}
