digraph "benchmarks-true-state-lstar-3seeds/n_states=9-n_outputs=7-glitch_percent=0.05/7dbba60acc547cef2dcd38ae7ac5c161/rpniGroundTruth" {
s0 [label="s0|d", shape=record, style=rounded];
s1 [label="s1|d", shape=record, style=rounded];
s2 [label="s2|f", shape=record, style=rounded];
s3 [label="s3|g", shape=record, style=rounded];
s4 [label="s4|b", shape=record, style=rounded];
s5 [label="s5|g", shape=record, style=rounded];
s6 [label="s6|f", shape=record, style=rounded];
s7 [label="s7|c", shape=record, style=rounded];
s8 [label="s8|c", shape=record, style=rounded];
s0 -> s1  [label="z"];
s0 -> s2  [label="x"];
s0 -> s3  [label="y"];
s1 -> s4  [label="y"];
s1 -> s4  [label="z"];
s1 -> s3  [label="x"];
s2 -> s5  [label="z"];
s2 -> s6  [label="x"];
s2 -> s7  [label="y"];
s3 -> s4  [label="y"];
s3 -> s4  [label="z"];
s3 -> s8  [label="x"];
s4 -> s3  [label="z"];
s4 -> s2  [label="y"];
s4 -> s6  [label="x"];
s5 -> s4  [label="y"];
s5 -> s3  [label="x"];
s5 -> s2  [label="z"];
s6 -> s7  [label="x"];
s6 -> s3  [label="z"];
s6 -> s7  [label="y"];
s7 -> s3  [label="z"];
s7 -> s2  [label="y"];
s7 -> s4  [label="x"];
s8 -> s7  [label="y"];
s8 -> s4  [label="z"];
s8 -> s0  [label="x"];
__start0 [label="", shape=none];
__start0 -> s0  [label=""];
}
