digraph "benchmarks-true-state-lstar-3seeds/n_states=11-n_outputs=4-glitch_percent=0.01/ec16a562cfd5884424a82e9c2f3aafc1/RealModel" {
s1 [label="s1|d", shape=record, style=rounded];
s2 [label="s2|a", shape=record, style=rounded];
s3 [label="s3|b", shape=record, style=rounded];
s4 [label="s4|d", shape=record, style=rounded];
s5 [label="s5|b", shape=record, style=rounded];
s6 [label="s6|c", shape=record, style=rounded];
s7 [label="s7|a", shape=record, style=rounded];
s8 [label="s8|b", shape=record, style=rounded];
s9 [label="s9|a", shape=record, style=rounded];
s10 [label="s10|a", shape=record, style=rounded];
s11 [label="s11|a", shape=record, style=rounded];
s1 -> s4  [label="x"];
s1 -> s11  [label="y"];
s1 -> s7  [label="z"];
s2 -> s8  [label="x"];
s2 -> s4  [label="y"];
s2 -> s4  [label="z"];
s3 -> s7  [label="x"];
s3 -> s2  [label="y"];
s3 -> s8  [label="z"];
s4 -> s9  [label="x"];
s4 -> s10  [label="y"];
s4 -> s6  [label="z"];
s5 -> s5  [label="x"];
s5 -> s1  [label="y"];
s5 -> s6  [label="z"];
s6 -> s10  [label="x"];
s6 -> s2  [label="y"];
s6 -> s5  [label="z"];
s7 -> s2  [label="x"];
s7 -> s2  [label="y"];
s7 -> s6  [label="z"];
s8 -> s6  [label="x"];
s8 -> s2  [label="y"];
s8 -> s11  [label="z"];
s9 -> s5  [label="x"];
s9 -> s10  [label="y"];
s9 -> s3  [label="z"];
s10 -> s2  [label="x"];
s10 -> s9  [label="y"];
s10 -> s2  [label="z"];
s11 -> s8  [label="x"];
s11 -> s5  [label="y"];
s11 -> s3  [label="z"];
__start0 [label="", shape=none];
__start0 -> s1  [label=""];
}
