digraph "benchmarks-true-state-lstar-songp/n_states=12-n_outputs=5-glitch_percent=0.1-pmstrat='lsu'/5dd24f9f2626f88c148a6caa3ba59b7f/alergiaLearned" {
q0 [label="a"];
q1 [label="d"];
q2 [label="c"];
q3 [label="e"];
q4 [label="e"];
q5 [label="b"];
q6 [label="a"];
q7 [label="d"];
q8 [label="e"];
q0 -> q1  [label="z:0.8444444444444444"];
q0 -> q2  [label="z:0.022222222222222223"];
q0 -> q0  [label="z:0.044444444444444446"];
q0 -> q5  [label="z:0.08888888888888889"];
q0 -> q3  [label="y:0.8793103448275862"];
q0 -> q1  [label="y:0.034482758620689655"];
q0 -> q2  [label="y:0.06896551724137931"];
q0 -> q0  [label="y:0.017241379310344827"];
q0 -> q4  [label="x:0.9591836734693877"];
q0 -> q5  [label="x:0.02040816326530612"];
q0 -> q2  [label="x:0.02040816326530612"];
q1 -> q6  [label="x:0.8461538461538461"];
q1 -> q5  [label="x:0.07692307692307693"];
q1 -> q1  [label="x:0.07692307692307693"];
q1 -> q7  [label="y:0.6666666666666666"];
q1 -> q8  [label="y:0.3333333333333333"];
q1 -> q2  [label="z:0.6363636363636364"];
q1 -> q0  [label="z:0.36363636363636365"];
q2 -> q2  [label="z:0.46153846153846156"];
q2 -> q8  [label="z:0.5384615384615384"];
q2 -> q1  [label="y:1.0"];
q2 -> q5  [label="x:1.0"];
q3 -> q2  [label="x:0.9166666666666666"];
q3 -> q5  [label="x:0.08333333333333333"];
q3 -> q3  [label="x:0.0"];
q3 -> q1  [label="y:0.9473684210526315"];
q3 -> q8  [label="y:0.05263157894736842"];
q3 -> q2  [label="y:0.0"];
q3 -> q6  [label="z:0.8823529411764706"];
q3 -> q5  [label="z:0.058823529411764705"];
q3 -> q2  [label="z:0.058823529411764705"];
q3 -> q3  [label="z:0.0"];
q4 -> q8  [label="x:0.9444444444444444"];
q4 -> q5  [label="x:0.05555555555555555"];
q4 -> q2  [label="y:1.0"];
q4 -> q5  [label="z:1.0"];
q5 -> q2  [label="y:1.0"];
q5 -> q1  [label="x:1.0"];
q5 -> q3  [label="z:1.0"];
q6 -> q2  [label="x:0.4"];
q6 -> q3  [label="x:0.1"];
q6 -> q5  [label="x:0.5"];
q6 -> q2  [label="z:0.5"];
q6 -> q1  [label="z:0.2"];
q6 -> q5  [label="z:0.3"];
q6 -> q2  [label="y:0.3333333333333333"];
q6 -> q1  [label="y:0.1111111111111111"];
q6 -> q3  [label="y:0.1111111111111111"];
q6 -> q0  [label="y:0.4444444444444444"];
q7 -> q1  [label="x:1.0"];
q7 -> q3  [label="y:1.0"];
q7 -> q2  [label="z:1.0"];
q8 -> q5  [label="x:1.0"];
q8 -> q1  [label="y:1.0"];
q8 -> q3  [label="z:1.0"];
__start0 [label="", shape=none];
__start0 -> q0  [label=""];
}
