digraph alergiaLearned {
q0 [label="e"];
q1 [label="d"];
q2 [label="c"];
q3 [label="c"];
q4 [label="b"];
q5 [label="a"];
q6 [label="e"];
q0 -> q1  [label="z:0.9"];
q0 -> q5  [label="z:0.1"];
q0 -> q2  [label="y:1.0"];
q0 -> q3  [label="x:1.0"];
q1 -> q0  [label="x:1.0"];
q1 -> q4  [label="y:1.0"];
q1 -> q5  [label="z:0.7142857142857143"];
q1 -> q1  [label="z:0.2857142857142857"];
q2 -> q5  [label="x:0.9545454545454546"];
q2 -> q2  [label="x:0.045454545454545456"];
q2 -> q0  [label="y:1.0"];
q2 -> q0  [label="z:0.6666666666666666"];
q2 -> q4  [label="z:0.3333333333333333"];
q3 -> q5  [label="x:1.0"];
q3 -> q6  [label="y:1.0"];
q3 -> q4  [label="z:1.0"];
q4 -> q2  [label="x:1.0"];
q4 -> q2  [label="y:1.0"];
q4 -> q0  [label="z:1.0"];
q5 -> q0  [label="x:0.5"];
q5 -> q2  [label="x:0.5"];
q5 -> q0  [label="y:0.5"];
q5 -> q4  [label="y:0.5"];
q5 -> q0  [label="z:0.5"];
q5 -> q2  [label="z:0.5"];
q6 -> q2  [label="x:1.0"];
q6 -> q2  [label="y:1.0"];
q6 -> q5  [label="z:1.0"];
__start0 [label="", shape=none];
__start0 -> q0  [label=""];
}
