digraph "benchmarks-true-state-lstar-songp/n_states=13-n_outputs=8-glitch_percent=0.02-pmstrat='fm'/e998cceb420c9282d01d80d1f3ddceac/pmsatLearned-N13-STOC" {
0 [label="0|a", shape=record, style=rounded];
1 [label="1|b", shape=record, style=rounded];
2 [label="2|c", shape=record, style=rounded];
3 [label="3|e", shape=record, style=rounded];
4 [label="4|f", shape=record, style=rounded];
5 [label="5|g", shape=record, style=rounded];
6 [label="6|h", shape=record, style=rounded];
7 [label="7|h", shape=record, style=rounded];
8 [label="8|h", shape=record, style=rounded];
9 [label="9|f", shape=record, style=rounded];
10 [label="10|g", shape=record, style=rounded];
11 [label="11|a", shape=record, style=rounded];
12 [label="12|g", shape=record, style=rounded];
0 -> 9  [label="z (57)"];
0 -> 3  [label="y (55)"];
0 -> 6  [label="x (56)"];
0 -> 2  [label="!x [2]"];
1 -> 5  [label="x (5)"];
1 -> 2  [label="y (5)"];
1 -> 8  [label="z (5)"];
2 -> 2  [label="x (8)"];
2 -> 9  [label="y (8)"];
2 -> 9  [label="z (7)"];
3 -> 2  [label="x (18)"];
3 -> 11  [label="y (21)"];
3 -> 10  [label="z (21)"];
3 -> 9  [label="!z [1]"];
4 -> 3  [label="x (9)"];
4 -> 5  [label="y (8)"];
4 -> 7  [label="z (8)"];
5 -> 10  [label="x (9)"];
5 -> 4  [label="y (9)"];
5 -> 12  [label="z (10)"];
6 -> 1  [label="x (17)"];
6 -> 12  [label="y (17)"];
6 -> 8  [label="z (16)"];
6 -> 2  [label="!y [1]"];
7 -> 4  [label="x (6)"];
7 -> 4  [label="y (6)"];
7 -> 0  [label="z (6)"];
8 -> 0  [label="x (6)"];
8 -> 2  [label="y (5)"];
8 -> 0  [label="z (6)"];
9 -> 7  [label="x (19)"];
9 -> 4  [label="y (19)"];
9 -> 5  [label="z (19)"];
10 -> 3  [label="x (6)"];
10 -> 5  [label="y (6)"];
10 -> 4  [label="z (4)"];
10 -> 6  [label="!z [1]"];
11 -> 3  [label="x (6)"];
11 -> 11  [label="y (6)"];
11 -> 5  [label="z (6)"];
12 -> 3  [label="x (6)"];
12 -> 0  [label="y (6)"];
12 -> 5  [label="z (6)"];
__start0 [label="", shape=none];
__start0 -> 0  [label=""];
}
