digraph "benchmarks-true-state-lstar-rc10seeds/n_states=9-n_outputs=2-glitch_percent=0.05/03f4c672d1308c7b2a2e4d36036cfe6d/pmsatLearned_NOP-N9-STOC" {
0 [label="0|a", shape=record, style=rounded];
1 [label="1|a", shape=record, style=rounded];
2 [label="2|a", shape=record, style=rounded];
3 [label="3|a", shape=record, style=rounded];
4 [label="4|a", shape=record, style=rounded];
5 [label="5|a", shape=record, style=rounded];
6 [label="6|a", shape=record, style=rounded];
7 [label="7|b", shape=record, style=rounded];
8 [label="8|b", shape=record, style=rounded];
0 -> 6  [label="z (42)"];
0 -> 8  [label="y (44)"];
0 -> 7  [label="x (84)"];
0 -> 6  [label="!y [1]"];
0 -> 0  [label="!x [1]"];
0 -> 5  [label="!y [2]"];
0 -> 1  [label="!x [2]"];
1 -> 4  [label="x (22)"];
1 -> 8  [label="y (19)"];
1 -> 7  [label="z (7)"];
2 -> 8  [label="x (18)"];
2 -> 6  [label="y (12)"];
2 -> 5  [label="z (9)"];
3 -> 5  [label="x (11)"];
3 -> 7  [label="y (7)"];
3 -> 2  [label="z (8)"];
4 -> 1  [label="x (27)"];
4 -> 3  [label="y (15)"];
4 -> 2  [label="z (8)"];
5 -> 6  [label="x (19)"];
5 -> 4  [label="y (15)"];
5 -> 7  [label="z (9)"];
6 -> 4  [label="x (18)"];
6 -> 2  [label="y (29)"];
6 -> 6  [label="z (9)"];
6 -> 8  [label="!z [1]"];
7 -> 5  [label="x (34)"];
7 -> 1  [label="y (29)"];
7 -> 4  [label="z (27)"];
7 -> 2  [label="!x [1]"];
7 -> 1  [label="!z [2]"];
7 -> 0  [label="!z [1]"];
8 -> 2  [label="x (17)"];
8 -> 3  [label="y (27)"];
8 -> 1  [label="z (8)"];
8 -> 8  [label="!x [2]"];
8 -> 5  [label="!x [1]"];
8 -> 7  [label="!y [1]"];
__start0 [label="", shape=none];
__start0 -> 0  [label=""];
}
