digraph "benchmarks-true-state-lstar-rc10seeds/n_states=7-n_outputs=2-glitch_percent=0.0/d570a3dad6af8baab4b20314e34640c9/pmsatLearned_NOP-N7" {
0 [label="0|a", shape=record, style=rounded];
1 [label="1|b", shape=record, style=rounded];
2 [label="2|a", shape=record, style=rounded];
3 [label="3|a", shape=record, style=rounded];
4 [label="4|a", shape=record, style=rounded];
5 [label="5|b", shape=record, style=rounded];
6 [label="6|b", shape=record, style=rounded];
0 -> 5  [label="z"];
0 -> 3  [label="y"];
0 -> 2  [label="x"];
1 -> 0  [label="x"];
1 -> 6  [label="y"];
1 -> 4  [label="z"];
2 -> 1  [label="x"];
2 -> 6  [label="y"];
2 -> 4  [label="z"];
3 -> 2  [label="x"];
3 -> 1  [label="y"];
3 -> 5  [label="z"];
4 -> 4  [label="x"];
4 -> 3  [label="y"];
4 -> 5  [label="z"];
5 -> 1  [label="x"];
5 -> 5  [label="y"];
5 -> 3  [label="z"];
6 -> 6  [label="x"];
6 -> 0  [label="y"];
6 -> 3  [label="z"];
__start0 [label="", shape=none];
__start0 -> 0  [label=""];
}
