digraph "benchmarks-true-state-lstar-rc10seeds/n_states=7-n_outputs=2-glitch_percent=0.0/d570a3dad6af8baab4b20314e34640c9/pmsatLearned_NOP-N7-STOC" {
0 [label="0|a", shape=record, style=rounded];
1 [label="1|b", shape=record, style=rounded];
2 [label="2|a", shape=record, style=rounded];
3 [label="3|a", shape=record, style=rounded];
4 [label="4|a", shape=record, style=rounded];
5 [label="5|b", shape=record, style=rounded];
6 [label="6|b", shape=record, style=rounded];
0 -> 5  [label="z (23)"];
0 -> 3  [label="y (23)"];
0 -> 2  [label="x (79)"];
1 -> 0  [label="x (17)"];
1 -> 6  [label="y (8)"];
1 -> 4  [label="z (8)"];
2 -> 1  [label="x (32)"];
2 -> 6  [label="y (22)"];
2 -> 4  [label="z (26)"];
3 -> 2  [label="x (13)"];
3 -> 1  [label="y (9)"];
3 -> 5  [label="z (9)"];
4 -> 4  [label="x (22)"];
4 -> 3  [label="y (8)"];
4 -> 5  [label="z (8)"];
5 -> 1  [label="x (13)"];
5 -> 5  [label="y (9)"];
5 -> 3  [label="z (9)"];
6 -> 6  [label="x (14)"];
6 -> 0  [label="y (8)"];
6 -> 3  [label="z (8)"];
__start0 [label="", shape=none];
__start0 -> 0  [label=""];
}
