digraph "benchmarks-true-state-lstar-3seeds/n_states=15-n_outputs=8-glitch_percent=0.01/357aca3f521616f3a2f412a7c451ca92/pmsatLearned-N15" {
0 [label="0|a", shape=record, style=rounded];
1 [label="1|b", shape=record, style=rounded];
2 [label="2|e", shape=record, style=rounded];
3 [label="3|f", shape=record, style=rounded];
4 [label="4|g", shape=record, style=rounded];
5 [label="5|h", shape=record, style=rounded];
6 [label="6|g", shape=record, style=rounded];
7 [label="7|g", shape=record, style=rounded];
8 [label="8|a", shape=record, style=rounded];
9 [label="9|e", shape=record, style=rounded];
10 [label="10|f", shape=record, style=rounded];
11 [label="11|g", shape=record, style=rounded];
12 [label="12|b", shape=record, style=rounded];
13 [label="13|h", shape=record, style=rounded];
14 [label="14|a", shape=record, style=rounded];
0 -> 2  [label="x"];
0 -> 4  [label="y"];
0 -> 2  [label="z"];
1 -> 9  [label="x"];
1 -> 1  [label="y"];
1 -> 5  [label="z"];
2 -> 8  [label="x"];
2 -> 4  [label="y"];
2 -> 14  [label="z"];
3 -> 12  [label="z"];
3 -> 4  [label="y"];
3 -> 14  [label="x"];
4 -> 2  [label="x"];
4 -> 13  [label="y"];
4 -> 1  [label="z"];
5 -> 2  [label="x"];
5 -> 1  [label="y"];
5 -> 1  [label="z"];
6 -> 8  [label="x"];
6 -> 9  [label="y"];
6 -> 10  [label="z"];
7 -> 6  [label="x"];
7 -> 8  [label="y"];
7 -> 8  [label="z"];
8 -> 0  [label="y"];
8 -> 9  [label="z"];
8 -> 12  [label="x"];
9 -> 5  [label="x"];
9 -> 3  [label="y"];
9 -> 6  [label="z"];
10 -> 4  [label="x"];
10 -> 11  [label="y"];
10 -> 8  [label="z"];
11 -> 2  [label="x"];
11 -> 12  [label="y"];
11 -> 2  [label="z"];
12 -> 9  [label="x"];
12 -> 11  [label="y"];
12 -> 10  [label="z"];
13 -> 13  [label="x"];
13 -> 13  [label="y"];
13 -> 14  [label="z"];
14 -> 7  [label="x"];
14 -> 5  [label="y"];
14 -> 0  [label="z"];
__start0 [label="", shape=none];
__start0 -> 3  [label=""];
}
