digraph "benchmarks-true-state-lstar-3seeds/n_states=15-n_outputs=9-glitch_percent=0.05/ea85b96ae89a7408bee6f9c54fd59672/alergiaLearned" {
q0 [label="b"];
q1 [label="a"];
q2 [label="f"];
q3 [label="c"];
q4 [label="g"];
q5 [label="i"];
q6 [label="a"];
q7 [label="b"];
q8 [label="d"];
q9 [label="a"];
q0 -> q1  [label="z:0.96"];
q0 -> q5  [label="z:0.02"];
q0 -> q0  [label="z:0.02"];
q0 -> q2  [label="y:0.896551724137931"];
q0 -> q4  [label="y:0.06896551724137931"];
q0 -> q6  [label="y:0.034482758620689655"];
q0 -> q3  [label="x:0.935064935064935"];
q0 -> q1  [label="x:0.05194805194805195"];
q0 -> q7  [label="x:0.012987012987012988"];
q1 -> q6  [label="x:0.7777777777777778"];
q1 -> q5  [label="x:0.1111111111111111"];
q1 -> q0  [label="x:0.0"];
q1 -> q3  [label="x:0.1111111111111111"];
q1 -> q4  [label="y:0.8235294117647058"];
q1 -> q3  [label="y:0.0"];
q1 -> q5  [label="y:0.17647058823529413"];
q1 -> q5  [label="z:0.7391304347826086"];
q1 -> q6  [label="z:0.17391304347826086"];
q1 -> q8  [label="z:0.08695652173913043"];
q2 -> q7  [label="x:1.0"];
q2 -> q8  [label="y:0.9411764705882353"];
q2 -> q4  [label="y:0.058823529411764705"];
q2 -> q6  [label="z:0.9411764705882353"];
q2 -> q4  [label="z:0.058823529411764705"];
q3 -> q9  [label="x:1.0"];
q3 -> q3  [label="z:0.75"];
q3 -> q1  [label="z:0.041666666666666664"];
q3 -> q5  [label="z:0.20833333333333334"];
q3 -> q6  [label="y:0.9545454545454546"];
q3 -> q5  [label="y:0.045454545454545456"];
q4 -> q3  [label="z:1.0"];
q4 -> q5  [label="x:1.0"];
q4 -> q5  [label="y:1.0"];
q5 -> q1  [label="x:0.3333333333333333"];
q5 -> q3  [label="x:0.3888888888888889"];
q5 -> q8  [label="x:0.2777777777777778"];
q5 -> q1  [label="y:0.3684210526315789"];
q5 -> q4  [label="y:0.3684210526315789"];
q5 -> q0  [label="y:0.2631578947368421"];
q5 -> q8  [label="z:0.29411764705882354"];
q5 -> q7  [label="z:0.4117647058823529"];
q5 -> q6  [label="z:0.29411764705882354"];
q6 -> q1  [label="y:0.4117647058823529"];
q6 -> q5  [label="y:0.29411764705882354"];
q6 -> q3  [label="y:0.29411764705882354"];
q6 -> q4  [label="y:0.0"];
q6 -> q3  [label="x:0.625"];
q6 -> q0  [label="x:0.3125"];
q6 -> q5  [label="x:0.0625"];
q6 -> q1  [label="x:0.0"];
q6 -> q6  [label="z:0.9166666666666666"];
q6 -> q8  [label="z:0.08333333333333333"];
q6 -> q5  [label="z:0.0"];
q7 -> q7  [label="z:1.0"];
q7 -> q1  [label="x:1.0"];
q7 -> q4  [label="y:1.0"];
q8 -> q5  [label="y:1.0"];
q8 -> q3  [label="x:0.8571428571428571"];
q8 -> q1  [label="x:0.14285714285714285"];
q8 -> q4  [label="z:1.0"];
q9 -> q5  [label="x:1.0"];
q9 -> q5  [label="y:1.0"];
q9 -> q8  [label="z:0.8"];
q9 -> q1  [label="z:0.2"];
__start0 [label="", shape=none];
__start0 -> q0  [label=""];
}
