digraph "benchmarks-true-state-lstar-3seeds/n_states=13-n_outputs=5-glitch_percent=0.02/6734079809e94228df2eb8754506f525/pmsatLearned-N13-STOC" {
0 [label="0|a", shape=record, style=rounded];
1 [label="1|c", shape=record, style=rounded];
2 [label="2|d", shape=record, style=rounded];
3 [label="3|c", shape=record, style=rounded];
4 [label="4|d", shape=record, style=rounded];
5 [label="5|d", shape=record, style=rounded];
6 [label="6|a", shape=record, style=rounded];
7 [label="7|a", shape=record, style=rounded];
8 [label="8|c", shape=record, style=rounded];
9 [label="9|c", shape=record, style=rounded];
10 [label="10|a", shape=record, style=rounded];
11 [label="11|c", shape=record, style=rounded];
12 [label="12|a", shape=record, style=rounded];
0 -> 3  [label="x (6)"];
0 -> 12  [label="y (6)"];
0 -> 12  [label="z (5)"];
1 -> 4  [label="z (54)"];
1 -> 3  [label="y (55)"];
1 -> 5  [label="x (54)"];
1 -> 1  [label="!z [1]"];
1 -> 6  [label="!y [1]"];
2 -> 4  [label="x (6)"];
2 -> 1  [label="y (6)"];
2 -> 9  [label="z (6)"];
3 -> 9  [label="x (20)"];
3 -> 8  [label="y (20)"];
3 -> 2  [label="z (21)"];
4 -> 12  [label="x (19)"];
4 -> 0  [label="y (17)"];
4 -> 11  [label="z (18)"];
4 -> 6  [label="!z [1]"];
5 -> 10  [label="x (19)"];
5 -> 6  [label="y (18)"];
5 -> 7  [label="z (18)"];
5 -> 4  [label="!x [1]"];
6 -> 12  [label="x (5)"];
6 -> 3  [label="y (6)"];
6 -> 1  [label="z (5)"];
7 -> 5  [label="x (6)"];
7 -> 8  [label="y (7)"];
7 -> 10  [label="z (7)"];
8 -> 8  [label="x (8)"];
8 -> 4  [label="y (10)"];
8 -> 3  [label="z (10)"];
9 -> 8  [label="x (8)"];
9 -> 9  [label="y (8)"];
9 -> 12  [label="z (8)"];
10 -> 2  [label="x (6)"];
10 -> 3  [label="y (6)"];
10 -> 5  [label="z (6)"];
11 -> 7  [label="x (5)"];
11 -> 0  [label="y (5)"];
11 -> 7  [label="z (5)"];
12 -> 8  [label="x (9)"];
12 -> 8  [label="y (8)"];
12 -> 9  [label="z (8)"];
__start0 [label="", shape=none];
__start0 -> 1  [label=""];
}
