digraph "benchmarks-true-state-lstar-songp/n_states=17-n_outputs=2-glitch_percent=0.01-pmstrat='rc2'/fa673674802999d4b71de9af505e5155/alergiaLearned" {
q0 [label="a"];
q1 [label="a"];
q2 [label="b"];
q3 [label="a"];
q4 [label="b"];
q5 [label="b"];
q6 [label="a"];
q7 [label="a"];
q8 [label="b"];
q9 [label="a"];
q10 [label="b"];
q0 -> q1  [label="z:0.9896907216494846"];
q0 -> q2  [label="z:0.010309278350515464"];
q0 -> q2  [label="y:1.0"];
q0 -> q0  [label="y:0.0"];
q0 -> q3  [label="x:0.9644670050761421"];
q0 -> q4  [label="x:0.03553299492385787"];
q1 -> q4  [label="x:1.0"];
q1 -> q5  [label="y:1.0"];
q1 -> q6  [label="z:1.0"];
q2 -> q4  [label="x:0.9833333333333333"];
q2 -> q1  [label="x:0.016666666666666666"];
q2 -> q6  [label="y:0.926829268292683"];
q2 -> q2  [label="y:0.07317073170731707"];
q2 -> q5  [label="z:0.8787878787878788"];
q2 -> q0  [label="z:0.12121212121212122"];
q3 -> q7  [label="x:0.9523809523809523"];
q3 -> q4  [label="x:0.047619047619047616"];
q3 -> q4  [label="y:1.0"];
q3 -> q8  [label="z:1.0"];
q4 -> q0  [label="x:0.8942307692307693"];
q4 -> q2  [label="x:0.10576923076923077"];
q4 -> q2  [label="y:0.8571428571428571"];
q4 -> q3  [label="y:0.14285714285714285"];
q4 -> q1  [label="z:0.6923076923076923"];
q4 -> q5  [label="z:0.3076923076923077"];
q5 -> q4  [label="x:1.0"];
q5 -> q5  [label="y:0.6363636363636364"];
q5 -> q6  [label="y:0.36363636363636365"];
q5 -> q9  [label="z:1.0"];
q6 -> q2  [label="x:0.96875"];
q6 -> q0  [label="x:0.03125"];
q6 -> q6  [label="y:0.8947368421052632"];
q6 -> q2  [label="y:0.10526315789473684"];
q6 -> q1  [label="z:0.5882352941176471"];
q6 -> q4  [label="z:0.4117647058823529"];
q7 -> q5  [label="x:1.0"];
q7 -> q10  [label="y:1.0"];
q7 -> q9  [label="z:0.8888888888888888"];
q7 -> q4  [label="z:0.1111111111111111"];
q8 -> q2  [label="x:1.0"];
q8 -> q9  [label="y:1.0"];
q8 -> q1  [label="z:1.0"];
q9 -> q6  [label="x:0.7916666666666666"];
q9 -> q2  [label="x:0.20833333333333334"];
q9 -> q0  [label="y:1.0"];
q9 -> q0  [label="z:0.9"];
q9 -> q2  [label="z:0.1"];
q10 -> q2  [label="x:1.0"];
q10 -> q0  [label="y:0.875"];
q10 -> q2  [label="y:0.125"];
q10 -> q10  [label="z:0.875"];
q10 -> q0  [label="z:0.125"];
__start0 [label="", shape=none];
__start0 -> q0  [label=""];
}
