digraph "benchmarks-true-state-lstar-3seeds/n_states=14-n_outputs=8-glitch_percent=0.02/512840dc0890db775226adc89f2add13/alergiaLearned" {
q0 [label="f"];
q1 [label="a"];
q2 [label="a"];
q3 [label="e"];
q4 [label="f"];
q5 [label="b"];
q6 [label="g"];
q7 [label="e"];
q8 [label="h"];
q9 [label="a"];
q0 -> q1  [label="z:0.9818181818181818"];
q0 -> q3  [label="z:0.01818181818181818"];
q0 -> q2  [label="y:0.9818181818181818"];
q0 -> q4  [label="y:0.01818181818181818"];
q0 -> q3  [label="x:0.9848484848484849"];
q0 -> q5  [label="x:0.015151515151515152"];
q1 -> q6  [label="x:0.8181818181818182"];
q1 -> q5  [label="x:0.09090909090909091"];
q1 -> q8  [label="x:0.09090909090909091"];
q1 -> q7  [label="y:0.782608695652174"];
q1 -> q0  [label="y:0.21739130434782608"];
q1 -> q6  [label="z:0.8695652173913043"];
q1 -> q1  [label="z:0.13043478260869565"];
q2 -> q8  [label="x:1.0"];
q2 -> q4  [label="y:1.0"];
q2 -> q9  [label="z:1.0"];
q3 -> q5  [label="x:0.8484848484848485"];
q3 -> q6  [label="x:0.15151515151515152"];
q3 -> q6  [label="y:1.0"];
q3 -> q5  [label="z:0.76"];
q3 -> q3  [label="z:0.08"];
q3 -> q1  [label="z:0.16"];
q4 -> q8  [label="x:1.0"];
q4 -> q1  [label="y:1.0"];
q4 -> q3  [label="z:1.0"];
q5 -> q2  [label="y:0.5"];
q5 -> q3  [label="y:0.5"];
q5 -> q3  [label="z:0.4166666666666667"];
q5 -> q1  [label="z:0.5833333333333334"];
q5 -> q6  [label="x:1.0"];
q6 -> q3  [label="x:0.24"];
q6 -> q1  [label="x:0.2"];
q6 -> q8  [label="x:0.08"];
q6 -> q5  [label="x:0.48"];
q6 -> q5  [label="y:0.4782608695652174"];
q6 -> q3  [label="y:0.2608695652173913"];
q6 -> q1  [label="y:0.2608695652173913"];
q6 -> q3  [label="z:0.7727272727272727"];
q6 -> q0  [label="z:0.22727272727272727"];
q7 -> q6  [label="x:1.0"];
q7 -> q6  [label="y:1.0"];
q7 -> q1  [label="z:1.0"];
q8 -> q6  [label="x:1.0"];
q8 -> q1  [label="y:1.0"];
q8 -> q8  [label="z:1.0"];
q9 -> q5  [label="x:1.0"];
q9 -> q0  [label="y:1.0"];
q9 -> q6  [label="z:1.0"];
__start0 [label="", shape=none];
__start0 -> q0  [label=""];
}
