digraph "benchmarks-true-state-lstar-rc10seeds/n_states=7-n_outputs=7-glitch_percent=0.05/f2d800288d05182297b14a46960a661c/pmsatLearned_NOP-N7" {
0 [label="0|g", shape=record, style=rounded];
1 [label="1|f", shape=record, style=rounded];
2 [label="2|d", shape=record, style=rounded];
3 [label="3|c", shape=record, style=rounded];
4 [label="4|b", shape=record, style=rounded];
5 [label="5|c", shape=record, style=rounded];
6 [label="6|f", shape=record, style=rounded];
0 -> 0  [label="x"];
0 -> 3  [label="y"];
0 -> 6  [label="z"];
1 -> 6  [label="x"];
1 -> 4  [label="y"];
1 -> 3  [label="z"];
2 -> 0  [label="z"];
2 -> 5  [label="y"];
2 -> 1  [label="x"];
3 -> 6  [label="x"];
3 -> 3  [label="y"];
3 -> 1  [label="z"];
4 -> 0  [label="x"];
4 -> 0  [label="y"];
4 -> 2  [label="z"];
5 -> 4  [label="x"];
5 -> 1  [label="y"];
5 -> 2  [label="z"];
6 -> 2  [label="x"];
6 -> 3  [label="y"];
6 -> 3  [label="z"];
__start0 [label="", shape=none];
__start0 -> 2  [label=""];
}
