digraph alergiaLearned {
q0 [label="a"];
q1 [label="e"];
q2 [label="b"];
q3 [label="d"];
q4 [label="e"];
q5 [label="d"];
q6 [label="b"];
q7 [label="c"];
q8 [label="a"];
q9 [label="c"];
q0 -> q1  [label="z:0.9"];
q0 -> q7  [label="z:0.1"];
q0 -> q2  [label="y:0.9830508474576272"];
q0 -> q0  [label="y:0.01694915254237288"];
q0 -> q3  [label="x:0.9285714285714286"];
q0 -> q2  [label="x:0.07142857142857142"];
q1 -> q4  [label="x:0.8947368421052632"];
q1 -> q2  [label="x:0.05263157894736842"];
q1 -> q3  [label="x:0.05263157894736842"];
q1 -> q5  [label="y:0.8947368421052632"];
q1 -> q0  [label="y:0.05263157894736842"];
q1 -> q2  [label="y:0.05263157894736842"];
q1 -> q6  [label="z:0.9473684210526315"];
q1 -> q0  [label="z:0.05263157894736842"];
q2 -> q7  [label="x:0.782608695652174"];
q2 -> q6  [label="x:0.21739130434782608"];
q2 -> q8  [label="y:0.72"];
q2 -> q2  [label="y:0.04"];
q2 -> q3  [label="y:0.24"];
q2 -> q8  [label="z:0.72"];
q2 -> q3  [label="z:0.24"];
q2 -> q6  [label="z:0.04"];
q3 -> q9  [label="x:0.9111111111111111"];
q3 -> q0  [label="x:0.08888888888888889"];
q3 -> q4  [label="y:0.7727272727272727"];
q3 -> q3  [label="y:0.22727272727272727"];
q3 -> q8  [label="z:0.7727272727272727"];
q3 -> q1  [label="z:0.22727272727272727"];
q4 -> q2  [label="x:0.5"];
q4 -> q3  [label="x:0.5"];
q4 -> q0  [label="y:0.5"];
q4 -> q2  [label="y:0.5"];
q4 -> q2  [label="z:0.5"];
q4 -> q0  [label="z:0.5"];
q5 -> q0  [label="x:1.0"];
q5 -> q3  [label="y:1.0"];
q5 -> q1  [label="z:1.0"];
q6 -> q2  [label="x:1.0"];
q6 -> q7  [label="y:0.5"];
q6 -> q3  [label="y:0.5"];
q6 -> q1  [label="z:0.5"];
q6 -> q3  [label="z:0.5"];
q7 -> q7  [label="x:0.5333333333333333"];
q7 -> q2  [label="x:0.4666666666666667"];
q7 -> q0  [label="y:0.4666666666666667"];
q7 -> q7  [label="y:0.5333333333333333"];
q7 -> q0  [label="z:0.5384615384615384"];
q7 -> q3  [label="z:0.07692307692307693"];
q7 -> q2  [label="z:0.38461538461538464"];
q8 -> q7  [label="x:0.3333333333333333"];
q8 -> q2  [label="x:0.6666666666666666"];
q8 -> q0  [label="y:0.6666666666666666"];
q8 -> q2  [label="y:0.3333333333333333"];
q8 -> q0  [label="z:0.3333333333333333"];
q8 -> q7  [label="z:0.6666666666666666"];
q9 -> q6  [label="x:1.0"];
q9 -> q7  [label="y:1.0"];
q9 -> q3  [label="z:1.0"];
__start0 [label="", shape=none];
__start0 -> q0  [label=""];
}
