digraph "pmsatLearned-N15-STOC" {
0 [label="0|a", shape=record, style=rounded];
1 [label="1|b", shape=record, style=rounded];
2 [label="2|c", shape=record, style=rounded];
3 [label="3|d", shape=record, style=rounded];
4 [label="4|e", shape=record, style=rounded];
5 [label="5|c", shape=record, style=rounded];
6 [label="6|a", shape=record, style=rounded];
7 [label="7|e", shape=record, style=rounded];
8 [label="8|c", shape=record, style=rounded];
9 [label="9|b", shape=record, style=rounded];
10 [label="10|e", shape=record, style=rounded];
11 [label="11|b", shape=record, style=rounded];
12 [label="12|d", shape=record, style=rounded];
13 [label="13|a", shape=record, style=rounded];
14 [label="14|a", shape=record, style=rounded];
0 -> 4  [label="z (54)"];
0 -> 1  [label="y (54)"];
0 -> 12  [label="x (78)"];
1 -> 8  [label="x (20)"];
1 -> 6  [label="y (20)"];
1 -> 14  [label="z (20)"];
1 -> 1  [label="!y [1]"];
2 -> 0  [label="!y [1]"];
2 -> 1  [label="x (7)"];
2 -> 8  [label="y (8)"];
2 -> 1  [label="z (6)"];
3 -> 14  [label="x (10)"];
3 -> 3  [label="y (10)"];
3 -> 10  [label="z (10)"];
4 -> 10  [label="x (17)"];
4 -> 3  [label="y (17)"];
4 -> 11  [label="z (17)"];
5 -> 9  [label="x (18)"];
5 -> 2  [label="y (18)"];
5 -> 3  [label="z (6)"];
6 -> 8  [label="x (5)"];
6 -> 14  [label="y (5)"];
6 -> 14  [label="z (5)"];
7 -> 3  [label="x (6)"];
7 -> 9  [label="y (6)"];
7 -> 14  [label="z (6)"];
8 -> 2  [label="x (9)"];
8 -> 0  [label="y (7)"];
8 -> 14  [label="z (8)"];
8 -> 1  [label="!z [1]"];
9 -> 9  [label="x (14)"];
9 -> 9  [label="!z [1]"];
9 -> 3  [label="y (12)"];
9 -> 3  [label="z (12)"];
10 -> 9  [label="x (6)"];
10 -> 13  [label="y (6)"];
10 -> 9  [label="z (6)"];
11 -> 1  [label="x (5)"];
11 -> 5  [label="y (5)"];
11 -> 7  [label="z (5)"];
12 -> 5  [label="x (41)"];
12 -> 7  [label="y (17)"];
12 -> 13  [label="z (17)"];
13 -> 9  [label="x (6)"];
13 -> 14  [label="y (6)"];
13 -> 2  [label="z (6)"];
14 -> 9  [label="x (11)"];
14 -> 9  [label="y (11)"];
14 -> 8  [label="z (11)"];
__start0 [label="", shape=none];
__start0 -> 0  [label=""];
}
