digraph "benchmarks-true-state-lstar-3seeds/n_states=11-n_outputs=7-glitch_percent=0.01/4e61aed03f1c1333b4781ceab5444d6b/pmsatLearned-N11-STOC" {
0 [label="0|b", shape=record, style=rounded];
1 [label="1|c", shape=record, style=rounded];
2 [label="2|d", shape=record, style=rounded];
3 [label="3|e", shape=record, style=rounded];
4 [label="4|f", shape=record, style=rounded];
5 [label="5|g", shape=record, style=rounded];
6 [label="6|e", shape=record, style=rounded];
7 [label="7|f", shape=record, style=rounded];
8 [label="8|f", shape=record, style=rounded];
9 [label="9|e", shape=record, style=rounded];
10 [label="10|d", shape=record, style=rounded];
0 -> 4  [label="x (20)"];
0 -> 3  [label="y (8)"];
0 -> 7  [label="z (8)"];
1 -> 7  [label="x (5)"];
1 -> 9  [label="y (5)"];
1 -> 8  [label="z (5)"];
2 -> 6  [label="x (8)"];
2 -> 0  [label="y (8)"];
2 -> 5  [label="z (8)"];
3 -> 0  [label="z (31)"];
3 -> 5  [label="y (54)"];
3 -> 9  [label="x (55)"];
3 -> 2  [label="!z [1]"];
4 -> 8  [label="x (6)"];
4 -> 9  [label="y (6)"];
4 -> 10  [label="z (6)"];
5 -> 1  [label="x (18)"];
5 -> 8  [label="y (18)"];
5 -> 2  [label="z (17)"];
6 -> 2  [label="x (5)"];
6 -> 4  [label="y (6)"];
6 -> 2  [label="z (6)"];
7 -> 7  [label="x (9)"];
7 -> 9  [label="y (9)"];
7 -> 8  [label="z (9)"];
8 -> 10  [label="x (8)"];
8 -> 3  [label="y (7)"];
8 -> 7  [label="z (8)"];
9 -> 6  [label="x (19)"];
9 -> 10  [label="y (19)"];
9 -> 7  [label="z (20)"];
9 -> 2  [label="!x [1]"];
10 -> 2  [label="x (7)"];
10 -> 0  [label="y (7)"];
10 -> 0  [label="z (7)"];
__start0 [label="", shape=none];
__start0 -> 3  [label=""];
}
