digraph "benchmarks-true-state-lstar-3seeds/n_states=12-n_outputs=3-glitch_percent=0.1/b157c429e5fc05d587456929982d1c04/alergiaLearned" {
q0 [label="b"];
q1 [label="b"];
q2 [label="c"];
q3 [label="a"];
q4 [label="a"];
q5 [label="b"];
q6 [label="c"];
q0 -> q1  [label="z:0.8163265306122449"];
q0 -> q2  [label="z:0.1836734693877551"];
q0 -> q0  [label="x:0.09523809523809523"];
q0 -> q3  [label="x:0.9047619047619048"];
q0 -> q0  [label="y:0.0625"];
q0 -> q2  [label="y:0.90625"];
q0 -> q4  [label="y:0.03125"];
q1 -> q2  [label="z:1.0"];
q1 -> q5  [label="y:0.9411764705882353"];
q1 -> q6  [label="y:0.058823529411764705"];
q1 -> q5  [label="x:0.9230769230769231"];
q1 -> q3  [label="x:0.07692307692307693"];
q2 -> q5  [label="x:0.8148148148148148"];
q2 -> q3  [label="x:0.18518518518518517"];
q2 -> q3  [label="y:0.6428571428571429"];
q2 -> q0  [label="y:0.35714285714285715"];
q2 -> q2  [label="z:0.5714285714285714"];
q2 -> q3  [label="z:0.19047619047619047"];
q2 -> q0  [label="z:0.23809523809523808"];
q3 -> q3  [label="x:0.6451612903225806"];
q3 -> q0  [label="x:0.1935483870967742"];
q3 -> q2  [label="x:0.16129032258064516"];
q3 -> q2  [label="y:1.0"];
q3 -> q0  [label="z:0.8076923076923077"];
q3 -> q2  [label="z:0.19230769230769232"];
q4 -> q0  [label="x:1.0"];
q5 -> q2  [label="z:0.42857142857142855"];
q5 -> q0  [label="z:0.5714285714285714"];
q5 -> q3  [label="y:0.45454545454545453"];
q5 -> q6  [label="y:0.18181818181818182"];
q5 -> q0  [label="y:0.36363636363636365"];
q5 -> q3  [label="x:0.6428571428571429"];
q5 -> q0  [label="x:0.35714285714285715"];
q6 -> q3  [label="x:1.0"];
q6 -> q3  [label="z:1.0"];
__start0 [label="", shape=none];
__start0 -> q0  [label=""];
}
