digraph "benchmarks-true-state-lstar-3seeds/n_states=11-n_outputs=6-glitch_percent=0.05/2edaec0469c9c15f347c9b87d1a6a5c2/alergiaLearned" {
q0 [label="a"];
q1 [label="f"];
q2 [label="a"];
q3 [label="e"];
q4 [label="c"];
q5 [label="d"];
q6 [label="a"];
q7 [label="f"];
q0 -> q1  [label="z:0.9411764705882353"];
q0 -> q3  [label="z:0.058823529411764705"];
q0 -> q2  [label="y:0.9622641509433962"];
q0 -> q4  [label="y:0.03773584905660377"];
q0 -> q3  [label="x:0.95"];
q0 -> q4  [label="x:0.05"];
q1 -> q5  [label="x:1.0"];
q1 -> q3  [label="y:1.0"];
q1 -> q0  [label="z:1.0"];
q2 -> q4  [label="x:0.8666666666666667"];
q2 -> q7  [label="x:0.06666666666666667"];
q2 -> q5  [label="x:0.06666666666666667"];
q2 -> q6  [label="y:1.0"];
q2 -> q3  [label="z:0.9333333333333333"];
q2 -> q0  [label="z:0.06666666666666667"];
q3 -> q7  [label="x:1.0"];
q3 -> q4  [label="y:0.72"];
q3 -> q0  [label="y:0.28"];
q3 -> q6  [label="z:1.0"];
q4 -> q0  [label="z:0.45454545454545453"];
q4 -> q3  [label="z:0.5454545454545454"];
q4 -> q3  [label="x:1.0"];
q4 -> q0  [label="y:0.5"];
q4 -> q3  [label="y:0.5"];
q5 -> q1  [label="x:1.0"];
q5 -> q4  [label="y:1.0"];
q5 -> q0  [label="z:1.0"];
q6 -> q0  [label="x:0.4444444444444444"];
q6 -> q3  [label="x:0.5555555555555556"];
q6 -> q4  [label="x:0.0"];
q6 -> q1  [label="y:0.4444444444444444"];
q6 -> q4  [label="y:0.5555555555555556"];
q6 -> q0  [label="y:0.0"];
q6 -> q3  [label="z:0.45454545454545453"];
q6 -> q1  [label="z:0.5454545454545454"];
q7 -> q4  [label="z:1.0"];
q7 -> q0  [label="x:1.0"];
q7 -> q5  [label="y:1.0"];
__start0 [label="", shape=none];
__start0 -> q0  [label=""];
}
