digraph "benchmarks-true-state-lstar-3seeds/n_states=7-n_outputs=7-glitch_percent=0.02/93e1605b26b2fa1d7fc777547e80c637/RealModel" {
s1 [label="s1|e", shape=record, style=rounded];
s2 [label="s2|g", shape=record, style=rounded];
s3 [label="s3|b", shape=record, style=rounded];
s4 [label="s4|d", shape=record, style=rounded];
s5 [label="s5|e", shape=record, style=rounded];
s6 [label="s6|f", shape=record, style=rounded];
s7 [label="s7|d", shape=record, style=rounded];
s1 -> s7  [label="x"];
s1 -> s6  [label="y"];
s1 -> s4  [label="z"];
s2 -> s2  [label="x"];
s2 -> s4  [label="y"];
s2 -> s2  [label="z"];
s3 -> s2  [label="x"];
s3 -> s1  [label="y"];
s3 -> s3  [label="z"];
s4 -> s3  [label="x"];
s4 -> s6  [label="y"];
s4 -> s2  [label="z"];
s5 -> s3  [label="x"];
s5 -> s6  [label="y"];
s5 -> s1  [label="z"];
s6 -> s7  [label="x"];
s6 -> s1  [label="y"];
s6 -> s2  [label="z"];
s7 -> s5  [label="x"];
s7 -> s3  [label="y"];
s7 -> s2  [label="z"];
__start0 [label="", shape=none];
__start0 -> s1  [label=""];
}
