digraph "benchmarks-true-state-lstar-3seeds/n_states=14-n_outputs=5-glitch_percent=0.1/4b314dfb82266f9231953059a47dcb8c/alergiaLearned" {
q0 [label="e"];
q1 [label="d"];
q2 [label="b"];
q3 [label="b"];
q4 [label="c"];
q5 [label="d"];
q6 [label="a"];
q7 [label="e"];
q8 [label="e"];
q9 [label="b"];
q0 -> q1  [label="z:0.9137931034482759"];
q0 -> q4  [label="z:0.06896551724137931"];
q0 -> q2  [label="z:0.017241379310344827"];
q0 -> q2  [label="y:0.9433962264150944"];
q0 -> q0  [label="y:0.03773584905660377"];
q0 -> q6  [label="y:0.018867924528301886"];
q0 -> q4  [label="y:0.0"];
q0 -> q3  [label="x:0.8656716417910447"];
q0 -> q5  [label="x:0.05970149253731343"];
q0 -> q6  [label="x:0.029850746268656716"];
q0 -> q4  [label="x:0.04477611940298507"];
q1 -> q2  [label="x:0.6818181818181818"];
q1 -> q1  [label="x:0.2727272727272727"];
q1 -> q4  [label="x:0.045454545454545456"];
q1 -> q7  [label="y:0.8333333333333334"];
q1 -> q3  [label="y:0.05555555555555555"];
q1 -> q6  [label="y:0.1111111111111111"];
q1 -> q4  [label="z:0.75"];
q1 -> q0  [label="z:0.05"];
q1 -> q2  [label="z:0.2"];
q2 -> q6  [label="x:0.6818181818181818"];
q2 -> q1  [label="x:0.3181818181818182"];
q2 -> q7  [label="y:0.7272727272727273"];
q2 -> q3  [label="y:0.22727272727272727"];
q2 -> q6  [label="y:0.045454545454545456"];
q2 -> q4  [label="z:0.6818181818181818"];
q2 -> q0  [label="z:0.22727272727272727"];
q2 -> q1  [label="z:0.09090909090909091"];
q3 -> q5  [label="x:0.9629629629629629"];
q3 -> q4  [label="x:0.037037037037037035"];
q3 -> q6  [label="y:1.0"];
q3 -> q5  [label="z:0.875"];
q3 -> q8  [label="z:0.125"];
q4 -> q0  [label="y:0.5"];
q4 -> q6  [label="y:0.08333333333333333"];
q4 -> q2  [label="y:0.4166666666666667"];
q4 -> q4  [label="y:0.0"];
q4 -> q0  [label="x:0.5714285714285714"];
q4 -> q1  [label="x:0.42857142857142855"];
q4 -> q6  [label="x:0.0"];
q4 -> q0  [label="z:0.5714285714285714"];
q4 -> q3  [label="z:0.35714285714285715"];
q4 -> q1  [label="z:0.07142857142857142"];
q5 -> q4  [label="x:0.75"];
q5 -> q6  [label="x:0.0625"];
q5 -> q1  [label="x:0.1875"];
q5 -> q6  [label="y:0.36363636363636365"];
q5 -> q4  [label="y:0.09090909090909091"];
q5 -> q1  [label="y:0.5454545454545454"];
q5 -> q2  [label="z:1.0"];
q6 -> q6  [label="z:0.6"];
q6 -> q7  [label="z:0.4"];
q6 -> q9  [label="y:0.5454545454545454"];
q6 -> q0  [label="y:0.45454545454545453"];
q6 -> q2  [label="x:0.5833333333333334"];
q6 -> q4  [label="x:0.4166666666666667"];
q7 -> q4  [label="z:0.4444444444444444"];
q7 -> q2  [label="z:0.1111111111111111"];
q7 -> q1  [label="z:0.4444444444444444"];
q7 -> q2  [label="y:0.4444444444444444"];
q7 -> q4  [label="y:0.4444444444444444"];
q7 -> q1  [label="y:0.1111111111111111"];
q7 -> q5  [label="x:0.16666666666666666"];
q7 -> q4  [label="x:0.8333333333333334"];
q8 -> q1  [label="z:1.0"];
q9 -> q0  [label="z:1.0"];
q9 -> q1  [label="x:1.0"];
q9 -> q2  [label="y:1.0"];
__start0 [label="", shape=none];
__start0 -> q0  [label=""];
}
