digraph "benchmarks-true-state-lstar-3seeds/n_states=16-n_outputs=4-glitch_percent=0.01/95d6eaf32cc99ca92d745411a6bf945a/pmsatLearned-N16-STOC" {
0 [label="0|a", shape=record, style=rounded];
1 [label="1|b", shape=record, style=rounded];
2 [label="2|c", shape=record, style=rounded];
3 [label="3|d", shape=record, style=rounded];
4 [label="4|a", shape=record, style=rounded];
5 [label="5|d", shape=record, style=rounded];
6 [label="6|c", shape=record, style=rounded];
7 [label="7|a", shape=record, style=rounded];
8 [label="8|a", shape=record, style=rounded];
9 [label="9|a", shape=record, style=rounded];
10 [label="10|b", shape=record, style=rounded];
11 [label="11|a", shape=record, style=rounded];
12 [label="12|c", shape=record, style=rounded];
13 [label="13|a", shape=record, style=rounded];
14 [label="14|b", shape=record, style=rounded];
15 [label="15|a", shape=record, style=rounded];
0 -> 7  [label="z (66)"];
0 -> 2  [label="y (68)"];
0 -> 12  [label="x (119)"];
0 -> 9  [label="!z [1]"];
0 -> 2  [label="!x [1]"];
1 -> 8  [label="x (39)"];
1 -> 10  [label="y (25)"];
1 -> 11  [label="z (25)"];
2 -> 4  [label="x (27)"];
2 -> 5  [label="y (22)"];
2 -> 15  [label="z (21)"];
2 -> 8  [label="!y [1]"];
3 -> 8  [label="x (7)"];
3 -> 14  [label="y (6)"];
3 -> 8  [label="z (6)"];
4 -> 15  [label="x (16)"];
4 -> 13  [label="y (9)"];
4 -> 12  [label="z (9)"];
5 -> 8  [label="x (7)"];
5 -> 12  [label="y (5)"];
5 -> 9  [label="z (6)"];
5 -> 2  [label="!y [1]"];
6 -> 1  [label="x (9)"];
6 -> 14  [label="y (7)"];
6 -> 4  [label="z (6)"];
7 -> 13  [label="x (37)"];
7 -> 9  [label="y (21)"];
7 -> 3  [label="z (23)"];
7 -> 14  [label="!z [1]"];
8 -> 7  [label="x (34)"];
8 -> 4  [label="y (11)"];
8 -> 6  [label="z (11)"];
9 -> 9  [label="x (17)"];
9 -> 1  [label="y (9)"];
9 -> 14  [label="z (8)"];
10 -> 1  [label="x (9)"];
10 -> 15  [label="y (7)"];
10 -> 8  [label="z (8)"];
11 -> 0  [label="x (11)"];
11 -> 8  [label="y (7)"];
11 -> 9  [label="z (7)"];
12 -> 1  [label="x (75)"];
12 -> 14  [label="y (22)"];
12 -> 6  [label="z (23)"];
12 -> 10  [label="!y [1]"];
13 -> 11  [label="x (12)"];
13 -> 15  [label="y (7)"];
13 -> 4  [label="z (7)"];
14 -> 8  [label="x (18)"];
14 -> 2  [label="y (10)"];
14 -> 10  [label="z (10)"];
15 -> 14  [label="x (18)"];
15 -> 1  [label="z (9)"];
15 -> 7  [label="y (8)"];
__start0 [label="", shape=none];
__start0 -> 0  [label=""];
}
