digraph "pmsatLearned-N13-STOC" {
0 [label="0|a", shape=record, style=rounded];
1 [label="1|b", shape=record, style=rounded];
2 [label="2|c", shape=record, style=rounded];
3 [label="3|d", shape=record, style=rounded];
4 [label="4|e", shape=record, style=rounded];
5 [label="5|e", shape=record, style=rounded];
6 [label="6|e", shape=record, style=rounded];
7 [label="7|e", shape=record, style=rounded];
8 [label="8|a", shape=record, style=rounded];
9 [label="9|e", shape=record, style=rounded];
10 [label="10|b", shape=record, style=rounded];
11 [label="11|c", shape=record, style=rounded];
12 [label="12|d", shape=record, style=rounded];
0 -> 2  [label="x (5)"];
0 -> 3  [label="y (5)"];
0 -> 3  [label="z (5)"];
1 -> 4  [label="z (55)"];
1 -> 11  [label="y (56)"];
1 -> 6  [label="x (56)"];
2 -> 9  [label="y (10)"];
2 -> 5  [label="z (10)"];
2 -> 2  [label="x (9)"];
3 -> 2  [label="x (8)"];
3 -> 6  [label="y (7)"];
3 -> 1  [label="z (8)"];
4 -> 0  [label="x (18)"];
4 -> 9  [label="y (18)"];
4 -> 7  [label="z (18)"];
5 -> 11  [label="x (7)"];
5 -> 7  [label="y (7)"];
5 -> 6  [label="z (7)"];
6 -> 12  [label="x (20)"];
6 -> 2  [label="y (19)"];
6 -> 3  [label="z (20)"];
6 -> 2  [label="!x [1]"];
7 -> 7  [label="x (7)"];
7 -> 5  [label="y (7)"];
7 -> 4  [label="z (7)"];
8 -> 11  [label="x (6)"];
8 -> 2  [label="y (6)"];
8 -> 1  [label="z (6)"];
9 -> 12  [label="x (6)"];
9 -> 2  [label="y (6)"];
9 -> 6  [label="z (5)"];
10 -> 12  [label="x (5)"];
10 -> 12  [label="z (5)"];
10 -> 3  [label="y (4)"];
11 -> 8  [label="x (19)"];
11 -> 5  [label="y (19)"];
11 -> 10  [label="z (18)"];
11 -> 12  [label="!y [1]"];
12 -> 12  [label="x (9)"];
12 -> 1  [label="y (8)"];
12 -> 8  [label="z (9)"];
12 -> 5  [label="!z [1]"];
__start0 [label="", shape=none];
__start0 -> 1  [label=""];
}
