digraph "benchmarks-true-state-lstar-songp/n_states=4-n_outputs=3-glitch_percent=0.02-pmstrat='rc2'/16bdfbe571494eafb2fc7676c6f6c8df/pmsatLearned-N4-STOC" {
0 [label="0|a", shape=record, style=rounded];
1 [label="1|b", shape=record, style=rounded];
2 [label="2|c", shape=record, style=rounded];
3 [label="3|a", shape=record, style=rounded];
0 -> 1  [label="z (18)"];
0 -> 3  [label="y (20)"];
0 -> 2  [label="x (18)"];
1 -> 3  [label="x (6)"];
1 -> 1  [label="y (6)"];
1 -> 0  [label="z (6)"];
2 -> 3  [label="x (6)"];
2 -> 3  [label="y (5)"];
2 -> 0  [label="z (5)"];
2 -> 1  [label="!z [1]"];
3 -> 3  [label="x (10)"];
3 -> 2  [label="y (10)"];
3 -> 3  [label="z (10)"];
__start0 [label="", shape=none];
__start0 -> 0  [label=""];
}
