digraph "benchmarks-true-state-lstar-songp/n_states=10-n_outputs=5-glitch_percent=0.0-pmstrat='rc2'/6034669d7ddc19eb043145e37656d0e4/pmsatLearned-N10" {
0 [label="0|a", shape=record, style=rounded];
1 [label="1|b", shape=record, style=rounded];
2 [label="2|c", shape=record, style=rounded];
3 [label="3|d", shape=record, style=rounded];
4 [label="4|e", shape=record, style=rounded];
5 [label="5|c", shape=record, style=rounded];
6 [label="6|a", shape=record, style=rounded];
7 [label="7|d", shape=record, style=rounded];
8 [label="8|e", shape=record, style=rounded];
9 [label="9|d", shape=record, style=rounded];
0 -> 7  [label="z"];
0 -> 3  [label="y"];
0 -> 5  [label="x"];
1 -> 7  [label="x"];
1 -> 5  [label="y"];
1 -> 0  [label="z"];
2 -> 1  [label="x"];
2 -> 5  [label="y"];
2 -> 1  [label="z"];
3 -> 9  [label="x"];
3 -> 1  [label="y"];
3 -> 6  [label="z"];
4 -> 7  [label="x"];
4 -> 8  [label="y"];
4 -> 3  [label="z"];
5 -> 2  [label="x"];
5 -> 8  [label="y"];
5 -> 4  [label="z"];
6 -> 8  [label="x"];
6 -> 0  [label="y"];
6 -> 1  [label="z"];
7 -> 5  [label="x"];
7 -> 5  [label="y"];
7 -> 7  [label="z"];
8 -> 3  [label="x"];
8 -> 4  [label="y"];
8 -> 1  [label="z"];
9 -> 2  [label="x"];
9 -> 8  [label="y"];
9 -> 1  [label="z"];
__start0 [label="", shape=none];
__start0 -> 0  [label=""];
}
