digraph "benchmarks-true-state-lstar-3seeds/n_states=6-n_outputs=6-glitch_percent=0.01/e016a1f54acc9acd18880f82ae75f01a/alergiaLearned" {
q0 [label="b"];
q1 [label="e"];
q2 [label="b"];
q3 [label="b"];
q4 [label="e"];
q0 -> q1  [label="z:0.7586206896551724"];
q0 -> q0  [label="z:0.2413793103448276"];
q0 -> q2  [label="y:0.9166666666666666"];
q0 -> q1  [label="y:0.08333333333333333"];
q0 -> q3  [label="x:1.0"];
q1 -> q1  [label="x:1.0"];
q1 -> q0  [label="y:1.0"];
q1 -> q2  [label="z:1.0"];
q2 -> q2  [label="x:1.0"];
q2 -> q1  [label="y:0.65"];
q2 -> q0  [label="y:0.35"];
q2 -> q0  [label="z:0.9090909090909091"];
q2 -> q1  [label="z:0.09090909090909091"];
q3 -> q0  [label="x:1.0"];
q3 -> q4  [label="y:0.9285714285714286"];
q3 -> q0  [label="y:0.07142857142857142"];
q3 -> q2  [label="z:0.8571428571428571"];
q3 -> q1  [label="z:0.14285714285714285"];
q4 -> q2  [label="x:1.0"];
q4 -> q1  [label="y:1.0"];
q4 -> q0  [label="z:1.0"];
__start0 [label="", shape=none];
__start0 -> q0  [label=""];
}
