digraph "benchmarks-true-state-lstar-3seeds/n_states=6-n_outputs=6-glitch_percent=0.01/e016a1f54acc9acd18880f82ae75f01a/pmsatLearned-N6" {
0 [label="0|b", shape=record, style=rounded];
1 [label="1|e", shape=record, style=rounded];
2 [label="2|e", shape=record, style=rounded];
3 [label="3|b", shape=record, style=rounded];
4 [label="4|b", shape=record, style=rounded];
5 [label="5|b", shape=record, style=rounded];
0 -> 1  [label="z"];
0 -> 4  [label="y"];
0 -> 5  [label="x"];
1 -> 1  [label="x"];
1 -> 4  [label="y"];
1 -> 5  [label="z"];
2 -> 3  [label="x"];
2 -> 1  [label="y"];
2 -> 0  [label="z"];
3 -> 0  [label="x"];
3 -> 0  [label="y"];
3 -> 0  [label="z"];
4 -> 5  [label="x"];
4 -> 1  [label="y"];
4 -> 4  [label="z"];
5 -> 3  [label="x"];
5 -> 2  [label="y"];
5 -> 3  [label="z"];
__start0 [label="", shape=none];
__start0 -> 0  [label=""];
}
