digraph "benchmarks-true-state-lstar-3seeds/n_states=16-n_outputs=7-glitch_percent=0.0/466d87990c2514cd43eaddf3d7e36a15/RealModel" {
s1 [label="s1|a", shape=record, style=rounded];
s2 [label="s2|d", shape=record, style=rounded];
s3 [label="s3|a", shape=record, style=rounded];
s4 [label="s4|e", shape=record, style=rounded];
s5 [label="s5|e", shape=record, style=rounded];
s6 [label="s6|g", shape=record, style=rounded];
s7 [label="s7|b", shape=record, style=rounded];
s8 [label="s8|f", shape=record, style=rounded];
s9 [label="s9|e", shape=record, style=rounded];
s10 [label="s10|b", shape=record, style=rounded];
s11 [label="s11|e", shape=record, style=rounded];
s12 [label="s12|e", shape=record, style=rounded];
s13 [label="s13|g", shape=record, style=rounded];
s14 [label="s14|a", shape=record, style=rounded];
s15 [label="s15|a", shape=record, style=rounded];
s16 [label="s16|a", shape=record, style=rounded];
s1 -> s14  [label="x"];
s1 -> s7  [label="y"];
s1 -> s13  [label="z"];
s2 -> s12  [label="x"];
s2 -> s9  [label="y"];
s2 -> s5  [label="z"];
s3 -> s5  [label="x"];
s3 -> s16  [label="y"];
s3 -> s15  [label="z"];
s4 -> s6  [label="x"];
s4 -> s13  [label="y"];
s4 -> s10  [label="z"];
s5 -> s6  [label="x"];
s5 -> s12  [label="y"];
s5 -> s6  [label="z"];
s6 -> s3  [label="x"];
s6 -> s15  [label="y"];
s6 -> s4  [label="z"];
s7 -> s16  [label="x"];
s7 -> s10  [label="y"];
s7 -> s11  [label="z"];
s8 -> s11  [label="x"];
s8 -> s15  [label="y"];
s8 -> s13  [label="z"];
s9 -> s10  [label="x"];
s9 -> s4  [label="y"];
s9 -> s12  [label="z"];
s10 -> s15  [label="x"];
s10 -> s9  [label="y"];
s10 -> s5  [label="z"];
s11 -> s4  [label="x"];
s11 -> s12  [label="y"];
s11 -> s3  [label="z"];
s12 -> s8  [label="x"];
s12 -> s11  [label="y"];
s12 -> s3  [label="z"];
s13 -> s8  [label="x"];
s13 -> s4  [label="y"];
s13 -> s15  [label="z"];
s14 -> s2  [label="x"];
s14 -> s3  [label="y"];
s14 -> s6  [label="z"];
s15 -> s12  [label="x"];
s15 -> s7  [label="y"];
s15 -> s4  [label="z"];
s16 -> s14  [label="x"];
s16 -> s8  [label="y"];
s16 -> s11  [label="z"];
__start0 [label="", shape=none];
__start0 -> s1  [label=""];
}
