digraph "benchmarks-true-state-lstar-3seeds/n_states=17-n_outputs=4-glitch_percent=0.01/da878d8109fbd61d4b1baa37cf482fac/rpniGroundTruth" {
s0 [label="s0|c", shape=record, style=rounded];
s1 [label="s1|b", shape=record, style=rounded];
s2 [label="s2|b", shape=record, style=rounded];
s3 [label="s3|d", shape=record, style=rounded];
s4 [label="s4|d", shape=record, style=rounded];
s5 [label="s5|b", shape=record, style=rounded];
s6 [label="s6|a", shape=record, style=rounded];
s7 [label="s7|a", shape=record, style=rounded];
s8 [label="s8|b", shape=record, style=rounded];
s9 [label="s9|b", shape=record, style=rounded];
s10 [label="s10|b", shape=record, style=rounded];
s11 [label="s11|b", shape=record, style=rounded];
s12 [label="s12|d", shape=record, style=rounded];
s13 [label="s13|b", shape=record, style=rounded];
s14 [label="s14|a", shape=record, style=rounded];
s15 [label="s15|c", shape=record, style=rounded];
s16 [label="s16|d", shape=record, style=rounded];
s0 -> s1  [label="z"];
s0 -> s2  [label="x"];
s0 -> s3  [label="y"];
s1 -> s4  [label="x"];
s1 -> s5  [label="z"];
s1 -> s6  [label="y"];
s2 -> s7  [label="x"];
s2 -> s8  [label="z"];
s2 -> s9  [label="y"];
s3 -> s10  [label="x"];
s3 -> s11  [label="z"];
s3 -> s12  [label="y"];
s4 -> s6  [label="x"];
s4 -> s2  [label="z"];
s4 -> s2  [label="y"];
s5 -> s1  [label="y"];
s5 -> s6  [label="x"];
s5 -> s13  [label="z"];
s6 -> s1  [label="z"];
s6 -> s14  [label="x"];
s6 -> s3  [label="y"];
s7 -> s15  [label="x"];
s7 -> s13  [label="z"];
s7 -> s14  [label="y"];
s8 -> s3  [label="x"];
s8 -> s11  [label="y"];
s8 -> s13  [label="z"];
s9 -> s16  [label="x"];
s9 -> s5  [label="z"];
s9 -> s0  [label="y"];
s10 -> s16  [label="z"];
s10 -> s8  [label="y"];
s10 -> s9  [label="x"];
s11 -> s5  [label="z"];
s11 -> s2  [label="x"];
s11 -> s5  [label="y"];
s12 -> s0  [label="y"];
s12 -> s11  [label="z"];
s12 -> s4  [label="x"];
s13 -> s0  [label="x"];
s13 -> s6  [label="z"];
s13 -> s16  [label="y"];
s14 -> s1  [label="z"];
s14 -> s13  [label="y"];
s14 -> s13  [label="x"];
s15 -> s2  [label="x"];
s15 -> s11  [label="z"];
s15 -> s0  [label="y"];
s16 -> s4  [label="y"];
s16 -> s13  [label="x"];
s16 -> s3  [label="z"];
__start0 [label="", shape=none];
__start0 -> s0  [label=""];
}
