digraph "benchmarks-true-state-lstar-3seeds/n_states=7-n_outputs=6-glitch_percent=0.05/f4105e62a09adfc7fd8dcc22d7df685d/rpniGroundTruth" {
s0 [label="s0|c", shape=record, style=rounded];
s1 [label="s1|c", shape=record, style=rounded];
s2 [label="s2|e", shape=record, style=rounded];
s3 [label="s3|e", shape=record, style=rounded];
s4 [label="s4|d", shape=record, style=rounded];
s5 [label="s5|d", shape=record, style=rounded];
s6 [label="s6|a", shape=record, style=rounded];
s0 -> s1  [label="y"];
s0 -> s2  [label="z"];
s0 -> s3  [label="x"];
s1 -> s2  [label="x"];
s1 -> s0  [label="z"];
s1 -> s0  [label="y"];
s2 -> s1  [label="z"];
s2 -> s4  [label="y"];
s2 -> s0  [label="x"];
s3 -> s5  [label="z"];
s3 -> s4  [label="x"];
s3 -> s6  [label="y"];
s4 -> s2  [label="y"];
s4 -> s5  [label="z"];
s4 -> s3  [label="x"];
s5 -> s6  [label="z"];
s5 -> s3  [label="y"];
s5 -> s5  [label="x"];
s6 -> s1  [label="y"];
s6 -> s4  [label="z"];
s6 -> s0  [label="x"];
__start0 [label="", shape=none];
__start0 -> s0  [label=""];
}
