digraph "benchmarks-true-state-lstar-rc10seeds/n_states=15-n_outputs=4-glitch_percent=0.01/260804191df5252687262697c4496786/pmsatLearned_NOP-N15" {
0 [label="0|a", shape=record, style=rounded];
1 [label="1|b", shape=record, style=rounded];
2 [label="2|c", shape=record, style=rounded];
3 [label="3|b", shape=record, style=rounded];
4 [label="4|b", shape=record, style=rounded];
5 [label="5|b", shape=record, style=rounded];
6 [label="6|b", shape=record, style=rounded];
7 [label="7|b", shape=record, style=rounded];
8 [label="8|a", shape=record, style=rounded];
9 [label="9|b", shape=record, style=rounded];
10 [label="10|d", shape=record, style=rounded];
11 [label="11|d", shape=record, style=rounded];
12 [label="12|b", shape=record, style=rounded];
13 [label="13|d", shape=record, style=rounded];
14 [label="14|c", shape=record, style=rounded];
0 -> 8  [label="x"];
0 -> 9  [label="y"];
0 -> 8  [label="z"];
1 -> 12  [label="x"];
1 -> 3  [label="y"];
1 -> 9  [label="z"];
2 -> 1  [label="z"];
2 -> 11  [label="y"];
2 -> 14  [label="x"];
3 -> 13  [label="x"];
3 -> 12  [label="y"];
3 -> 12  [label="z"];
4 -> 3  [label="x"];
4 -> 2  [label="y"];
4 -> 8  [label="z"];
5 -> 2  [label="x"];
5 -> 7  [label="y"];
5 -> 6  [label="z"];
6 -> 10  [label="x"];
6 -> 3  [label="y"];
6 -> 14  [label="z"];
7 -> 5  [label="x"];
7 -> 10  [label="y"];
7 -> 12  [label="z"];
8 -> 7  [label="x"];
8 -> 3  [label="y"];
8 -> 4  [label="z"];
9 -> 13  [label="x"];
9 -> 9  [label="y"];
9 -> 10  [label="z"];
10 -> 10  [label="x"];
10 -> 9  [label="y"];
10 -> 10  [label="z"];
11 -> 0  [label="x"];
11 -> 6  [label="y"];
11 -> 8  [label="z"];
12 -> 14  [label="x"];
12 -> 1  [label="y"];
12 -> 4  [label="z"];
13 -> 1  [label="x"];
13 -> 10  [label="y"];
13 -> 10  [label="z"];
14 -> 7  [label="x"];
14 -> 13  [label="y"];
14 -> 4  [label="z"];
__start0 [label="", shape=none];
__start0 -> 2  [label=""];
}
