digraph "benchmarks-true-state-lstar-3seeds/n_states=17-n_outputs=7-glitch_percent=0.1/d02dc97ea4bfd03e16d9ce38dbc5ffd1/alergiaLearned" {
q0 [label="c"];
q1 [label="c"];
q2 [label="a"];
q3 [label="d"];
q4 [label="e"];
q5 [label="f"];
q6 [label="a"];
q7 [label="c"];
q8 [label="d"];
q9 [label="d"];
q10 [label="g"];
q11 [label="e"];
q12 [label="a"];
q13 [label="d"];
q14 [label="e"];
q0 -> q1  [label="z:0.8939393939393939"];
q0 -> q3  [label="z:0.030303030303030304"];
q0 -> q5  [label="z:0.06060606060606061"];
q0 -> q6  [label="z:0.015151515151515152"];
q0 -> q2  [label="y:0.9242424242424242"];
q0 -> q3  [label="y:0.015151515151515152"];
q0 -> q4  [label="y:0.030303030303030304"];
q0 -> q0  [label="y:0.030303030303030304"];
q0 -> q3  [label="x:0.9117647058823529"];
q0 -> q4  [label="x:0.04411764705882353"];
q0 -> q2  [label="x:0.029411764705882353"];
q0 -> q5  [label="x:0.014705882352941176"];
q1 -> q4  [label="x:0.9047619047619048"];
q1 -> q5  [label="x:0.09523809523809523"];
q1 -> q7  [label="y:0.9130434782608695"];
q1 -> q3  [label="y:0.043478260869565216"];
q1 -> q4  [label="y:0.043478260869565216"];
q1 -> q5  [label="z:0.9090909090909091"];
q1 -> q1  [label="z:0.045454545454545456"];
q1 -> q10  [label="z:0.045454545454545456"];
q2 -> q8  [label="x:0.8275862068965517"];
q2 -> q2  [label="x:0.06896551724137931"];
q2 -> q4  [label="x:0.10344827586206896"];
q2 -> q9  [label="y:0.8461538461538461"];
q2 -> q4  [label="y:0.038461538461538464"];
q2 -> q7  [label="y:0.11538461538461539"];
q2 -> q8  [label="z:0.8695652173913043"];
q2 -> q4  [label="z:0.043478260869565216"];
q2 -> q2  [label="z:0.08695652173913043"];
q3 -> q10  [label="z:0.9090909090909091"];
q3 -> q2  [label="z:0.09090909090909091"];
q3 -> q11  [label="y:0.9743589743589743"];
q3 -> q0  [label="y:0.02564102564102564"];
q3 -> q12  [label="x:0.8904109589041096"];
q3 -> q3  [label="x:0.0547945205479452"];
q3 -> q4  [label="x:0.0547945205479452"];
q4 -> q3  [label="y:0.4583333333333333"];
q4 -> q4  [label="y:0.125"];
q4 -> q2  [label="y:0.375"];
q4 -> q0  [label="y:0.041666666666666664"];
q4 -> q1  [label="x:0.23529411764705882"];
q4 -> q6  [label="x:0.17647058823529413"];
q4 -> q4  [label="x:0.35294117647058826"];
q4 -> q5  [label="x:0.23529411764705882"];
q4 -> q0  [label="z:0.5833333333333334"];
q4 -> q2  [label="z:0.2916666666666667"];
q4 -> q4  [label="z:0.125"];
q5 -> q4  [label="x:1.0"];
q5 -> q3  [label="y:1.0"];
q5 -> q0  [label="z:1.0"];
q6 -> q4  [label="x:1.0"];
q6 -> q7  [label="y:1.0"];
q6 -> q2  [label="z:1.0"];
q7 -> q5  [label="x:0.9"];
q7 -> q3  [label="x:0.1"];
q7 -> q4  [label="y:1.0"];
q7 -> q10  [label="z:1.0"];
q8 -> q2  [label="x:0.75"];
q8 -> q4  [label="x:0.25"];
q8 -> q3  [label="y:0.42857142857142855"];
q8 -> q4  [label="y:0.5714285714285714"];
q8 -> q8  [label="z:0.5"];
q8 -> q4  [label="z:0.25"];
q8 -> q0  [label="z:0.125"];
q8 -> q2  [label="z:0.125"];
q9 -> q2  [label="z:1.0"];
q9 -> q4  [label="x:1.0"];
q9 -> q4  [label="y:0.8"];
q9 -> q2  [label="y:0.2"];
q10 -> q9  [label="x:1.0"];
q10 -> q1  [label="y:1.0"];
q10 -> q1  [label="z:1.0"];
q11 -> q4  [label="z:0.8333333333333334"];
q11 -> q10  [label="z:0.16666666666666666"];
q11 -> q4  [label="y:1.0"];
q11 -> q6  [label="x:0.9444444444444444"];
q11 -> q5  [label="x:0.05555555555555555"];
q12 -> q13  [label="x:1.0"];
q12 -> q4  [label="z:1.0"];
q12 -> q4  [label="y:1.0"];
q13 -> q14  [label="x:1.0"];
q13 -> q4  [label="y:1.0"];
q13 -> q2  [label="z:0.8333333333333334"];
q13 -> q4  [label="z:0.16666666666666666"];
q14 -> q5  [label="x:1.0"];
__start0 [label="", shape=none];
__start0 -> q0  [label=""];
}
