digraph "pmsatLearned-N10-STOC" {
0 [label="0|a", shape=record, style=rounded];
1 [label="1|b", shape=record, style=rounded];
2 [label="2|c", shape=record, style=rounded];
3 [label="3|d", shape=record, style=rounded];
4 [label="4|e", shape=record, style=rounded];
5 [label="5|a", shape=record, style=rounded];
6 [label="6|c", shape=record, style=rounded];
7 [label="7|a", shape=record, style=rounded];
8 [label="8|a", shape=record, style=rounded];
9 [label="9|e", shape=record, style=rounded];
0 -> 5  [label="x (16)"];
0 -> 9  [label="y (18)"];
0 -> 8  [label="z (18)"];
0 -> 5  [label="!z [1]"];
1 -> 4  [label="x (7)"];
1 -> 8  [label="y (8)"];
1 -> 2  [label="z (8)"];
2 -> 1  [label="z (22)"];
2 -> 0  [label="y (56)"];
2 -> 7  [label="x (57)"];
3 -> 7  [label="x (7)"];
3 -> 1  [label="y (7)"];
3 -> 5  [label="z (7)"];
4 -> 7  [label="x (8)"];
4 -> 8  [label="y (8)"];
4 -> 2  [label="z (7)"];
4 -> 1  [label="!z [1]"];
5 -> 5  [label="x (8)"];
5 -> 2  [label="y (7)"];
5 -> 4  [label="z (7)"];
6 -> 7  [label="x (5)"];
6 -> 2  [label="y (5)"];
6 -> 7  [label="z (5)"];
7 -> 3  [label="x (21)"];
7 -> 6  [label="y (21)"];
7 -> 4  [label="z (21)"];
8 -> 3  [label="x (8)"];
8 -> 4  [label="y (8)"];
8 -> 1  [label="z (8)"];
8 -> 5  [label="!x [1]"];
9 -> 3  [label="x (5)"];
9 -> 0  [label="y (5)"];
9 -> 8  [label="z (5)"];
__start0 [label="", shape=none];
__start0 -> 2  [label=""];
}
