digraph "benchmarks-true-state-lstar-3seeds/n_states=11-n_outputs=7-glitch_percent=0.01/d75f4b35341abe56865e126205978dae/alergiaLearned" {
q0 [label="c"];
q1 [label="e"];
q2 [label="a"];
q3 [label="d"];
q4 [label="c"];
q5 [label="e"];
q6 [label="d"];
q7 [label="d"];
q0 -> q1  [label="z:1.0"];
q0 -> q2  [label="y:0.9868421052631579"];
q0 -> q3  [label="y:0.013157894736842105"];
q0 -> q5  [label="y:0.0"];
q0 -> q3  [label="x:0.9855072463768116"];
q0 -> q4  [label="x:0.014492753623188406"];
q1 -> q5  [label="x:1.0"];
q1 -> q0  [label="x:0.0"];
q1 -> q5  [label="y:1.0"];
q1 -> q3  [label="z:1.0"];
q1 -> q0  [label="z:0.0"];
q2 -> q6  [label="x:1.0"];
q2 -> q4  [label="y:1.0"];
q2 -> q6  [label="z:1.0"];
q3 -> q4  [label="x:0.7241379310344828"];
q3 -> q3  [label="x:0.10344827586206896"];
q3 -> q1  [label="x:0.1724137931034483"];
q3 -> q7  [label="y:0.7419354838709677"];
q3 -> q5  [label="y:0.25806451612903225"];
q3 -> q5  [label="z:1.0"];
q4 -> q4  [label="x:0.46153846153846156"];
q4 -> q3  [label="x:0.5384615384615384"];
q4 -> q5  [label="y:1.0"];
q4 -> q1  [label="z:1.0"];
q5 -> q0  [label="x:0.9736842105263158"];
q5 -> q1  [label="x:0.02631578947368421"];
q5 -> q5  [label="z:0.631578947368421"];
q5 -> q0  [label="z:0.3684210526315789"];
q5 -> q3  [label="y:0.6666666666666666"];
q5 -> q5  [label="y:0.3333333333333333"];
q6 -> q1  [label="x:0.5"];
q6 -> q3  [label="x:0.5"];
q6 -> q5  [label="y:1.0"];
q6 -> q5  [label="z:1.0"];
q7 -> q1  [label="x:1.0"];
q7 -> q1  [label="y:1.0"];
q7 -> q5  [label="z:1.0"];
__start0 [label="", shape=none];
__start0 -> q0  [label=""];
}
