digraph RealModel {
s1 [label="s1|d", shape=record, style=rounded];
s2 [label="s2|e", shape=record, style=rounded];
s3 [label="s3|c", shape=record, style=rounded];
s4 [label="s4|c", shape=record, style=rounded];
s5 [label="s5|b", shape=record, style=rounded];
s6 [label="s6|b", shape=record, style=rounded];
s7 [label="s7|a", shape=record, style=rounded];
s8 [label="s8|c", shape=record, style=rounded];
s9 [label="s9|e", shape=record, style=rounded];
s10 [label="s10|d", shape=record, style=rounded];
s1 -> s3  [label="x"];
s1 -> s8  [label="y"];
s1 -> s7  [label="z"];
s2 -> s9  [label="x"];
s2 -> s10  [label="y"];
s2 -> s2  [label="z"];
s3 -> s9  [label="x"];
s3 -> s2  [label="y"];
s3 -> s10  [label="z"];
s4 -> s4  [label="x"];
s4 -> s4  [label="y"];
s4 -> s7  [label="z"];
s5 -> s7  [label="x"];
s5 -> s5  [label="y"];
s5 -> s6  [label="z"];
s6 -> s2  [label="x"];
s6 -> s5  [label="y"];
s6 -> s4  [label="z"];
s7 -> s3  [label="x"];
s7 -> s3  [label="y"];
s7 -> s4  [label="z"];
s8 -> s4  [label="x"];
s8 -> s6  [label="y"];
s8 -> s5  [label="z"];
s9 -> s1  [label="x"];
s9 -> s2  [label="y"];
s9 -> s3  [label="z"];
s10 -> s7  [label="x"];
s10 -> s2  [label="y"];
s10 -> s5  [label="z"];
__start0 [label="", shape=none];
__start0 -> s1  [label=""];
}
