digraph "benchmarks-true-state-lstar-3seeds/n_states=10-n_outputs=9-glitch_percent=0.05/e1afe7e6b849c349a479ea93dcdfdbb9/RealModel" {
s1 [label="s1|b", shape=record, style=rounded];
s2 [label="s2|f", shape=record, style=rounded];
s3 [label="s3|g", shape=record, style=rounded];
s4 [label="s4|b", shape=record, style=rounded];
s5 [label="s5|f", shape=record, style=rounded];
s6 [label="s6|i", shape=record, style=rounded];
s7 [label="s7|i", shape=record, style=rounded];
s8 [label="s8|a", shape=record, style=rounded];
s9 [label="s9|a", shape=record, style=rounded];
s10 [label="s10|e", shape=record, style=rounded];
s1 -> s4  [label="x"];
s1 -> s10  [label="y"];
s1 -> s8  [label="z"];
s2 -> s3  [label="x"];
s2 -> s2  [label="y"];
s2 -> s7  [label="z"];
s3 -> s2  [label="x"];
s3 -> s10  [label="y"];
s3 -> s5  [label="z"];
s4 -> s2  [label="x"];
s4 -> s9  [label="y"];
s4 -> s5  [label="z"];
s5 -> s5  [label="x"];
s5 -> s7  [label="y"];
s5 -> s10  [label="z"];
s6 -> s9  [label="x"];
s6 -> s10  [label="y"];
s6 -> s4  [label="z"];
s7 -> s10  [label="x"];
s7 -> s1  [label="y"];
s7 -> s7  [label="z"];
s8 -> s7  [label="x"];
s8 -> s1  [label="y"];
s8 -> s4  [label="z"];
s9 -> s7  [label="x"];
s9 -> s6  [label="y"];
s9 -> s6  [label="z"];
s10 -> s7  [label="x"];
s10 -> s6  [label="y"];
s10 -> s3  [label="z"];
__start0 [label="", shape=none];
__start0 -> s1  [label=""];
}
