digraph "benchmarks-true-state-lstar-songp/n_states=10-n_outputs=4-glitch_percent=0.0-pmstrat='fm'/d9e86d5c8393d9231afa675433f01329/pmsatLearned-N10-STOC" {
0 [label="0|a", shape=record, style=rounded];
1 [label="1|b", shape=record, style=rounded];
2 [label="2|c", shape=record, style=rounded];
3 [label="3|d", shape=record, style=rounded];
4 [label="4|d", shape=record, style=rounded];
5 [label="5|a", shape=record, style=rounded];
6 [label="6|d", shape=record, style=rounded];
7 [label="7|d", shape=record, style=rounded];
8 [label="8|a", shape=record, style=rounded];
9 [label="9|c", shape=record, style=rounded];
0 -> 9  [label="z (20)"];
0 -> 5  [label="y (56)"];
0 -> 6  [label="x (56)"];
1 -> 3  [label="x (10)"];
1 -> 1  [label="y (10)"];
1 -> 6  [label="z (10)"];
2 -> 7  [label="x (7)"];
2 -> 5  [label="y (7)"];
2 -> 9  [label="z (7)"];
3 -> 1  [label="x (6)"];
3 -> 9  [label="y (6)"];
3 -> 9  [label="z (6)"];
4 -> 7  [label="x (5)"];
4 -> 1  [label="y (5)"];
4 -> 6  [label="z (5)"];
5 -> 8  [label="x (19)"];
5 -> 7  [label="y (19)"];
5 -> 3  [label="z (19)"];
6 -> 1  [label="x (19)"];
6 -> 2  [label="y (19)"];
6 -> 4  [label="z (19)"];
7 -> 0  [label="x (8)"];
7 -> 1  [label="y (8)"];
7 -> 0  [label="z (8)"];
8 -> 2  [label="x (5)"];
8 -> 0  [label="y (5)"];
8 -> 7  [label="z (5)"];
9 -> 2  [label="x (8)"];
9 -> 1  [label="y (8)"];
9 -> 5  [label="z (8)"];
__start0 [label="", shape=none];
__start0 -> 0  [label=""];
}
