digraph "benchmarks-true-state-lstar-songp/n_states=5-n_outputs=3-glitch_percent=0.01-pmstrat='fm'/9dfdd09e4614da8cc9f00207a42bcc26/pmsatLearned-N5-STOC" {
0 [label="0|a", shape=record, style=rounded];
1 [label="1|b", shape=record, style=rounded];
2 [label="2|c", shape=record, style=rounded];
3 [label="3|a", shape=record, style=rounded];
4 [label="4|b", shape=record, style=rounded];
0 -> 1  [label="z (19)"];
0 -> 4  [label="y (17)"];
0 -> 3  [label="x (30)"];
1 -> 3  [label="x (5)"];
1 -> 4  [label="y (5)"];
1 -> 2  [label="z (5)"];
1 -> 3  [label="!y [1]"];
2 -> 4  [label="x (6)"];
2 -> 4  [label="y (6)"];
2 -> 3  [label="z (6)"];
3 -> 2  [label="x (20)"];
3 -> 4  [label="y (8)"];
3 -> 3  [label="z (8)"];
4 -> 4  [label="x (11)"];
4 -> 0  [label="y (10)"];
4 -> 4  [label="z (10)"];
__start0 [label="", shape=none];
__start0 -> 0  [label=""];
}
