digraph "benchmarks-true-state-lstar-3seeds/n_states=11-n_outputs=8-glitch_percent=0.02/f715340e408f7052601ae08fd0bcb22b/alergiaLearned" {
q0 [label="e"];
q1 [label="h"];
q2 [label="a"];
q3 [label="g"];
q4 [label="c"];
q5 [label="f"];
q6 [label="g"];
q7 [label="a"];
q0 -> q1  [label="z:0.9666666666666667"];
q0 -> q4  [label="z:0.03333333333333333"];
q0 -> q2  [label="y:0.9814814814814815"];
q0 -> q3  [label="y:0.018518518518518517"];
q0 -> q3  [label="x:1.0"];
q1 -> q5  [label="x:1.0"];
q1 -> q1  [label="y:1.0"];
q1 -> q4  [label="z:1.0"];
q2 -> q5  [label="x:0.9"];
q2 -> q4  [label="x:0.05"];
q2 -> q3  [label="x:0.05"];
q2 -> q6  [label="y:0.9444444444444444"];
q2 -> q1  [label="y:0.05555555555555555"];
q2 -> q7  [label="z:0.9473684210526315"];
q2 -> q1  [label="z:0.05263157894736842"];
q3 -> q4  [label="x:1.0"];
q3 -> q4  [label="y:1.0"];
q3 -> q5  [label="y:0.0"];
q3 -> q4  [label="z:1.0"];
q3 -> q2  [label="z:0.0"];
q4 -> q3  [label="z:0.38095238095238093"];
q4 -> q4  [label="z:0.6190476190476191"];
q4 -> q5  [label="x:0.36363636363636365"];
q4 -> q4  [label="x:0.36363636363636365"];
q4 -> q2  [label="x:0.2727272727272727"];
q4 -> q5  [label="y:0.38095238095238093"];
q4 -> q4  [label="y:0.3333333333333333"];
q4 -> q0  [label="y:0.2857142857142857"];
q5 -> q4  [label="x:1.0"];
q5 -> q3  [label="y:0.5833333333333334"];
q5 -> q2  [label="y:0.4166666666666667"];
q5 -> q5  [label="z:0.5833333333333334"];
q5 -> q4  [label="z:0.4166666666666667"];
q6 -> q5  [label="y:1.0"];
q6 -> q2  [label="z:1.0"];
q6 -> q4  [label="x:1.0"];
q7 -> q3  [label="x:1.0"];
q7 -> q1  [label="y:1.0"];
q7 -> q1  [label="z:1.0"];
__start0 [label="", shape=none];
__start0 -> q0  [label=""];
}
