digraph "benchmarks-true-state-lstar-songp/n_states=10-n_outputs=6-glitch_percent=0.01-pmstrat='fm'/496fb5f5f383dc11112d517fd8596e9b/pmsatLearned-N10-STOC" {
0 [label="0|a", shape=record, style=rounded];
1 [label="1|b", shape=record, style=rounded];
2 [label="2|c", shape=record, style=rounded];
3 [label="3|d", shape=record, style=rounded];
4 [label="4|f", shape=record, style=rounded];
5 [label="5|c", shape=record, style=rounded];
6 [label="6|f", shape=record, style=rounded];
7 [label="7|d", shape=record, style=rounded];
8 [label="8|a", shape=record, style=rounded];
9 [label="9|f", shape=record, style=rounded];
0 -> 6  [label="z (19)"];
0 -> 2  [label="y (55)"];
0 -> 8  [label="x (54)"];
0 -> 5  [label="!x [1]"];
1 -> 7  [label="x (5)"];
1 -> 9  [label="y (5)"];
1 -> 6  [label="z (5)"];
2 -> 4  [label="x (21)"];
2 -> 1  [label="y (21)"];
2 -> 9  [label="z (21)"];
3 -> 4  [label="x (6)"];
3 -> 9  [label="y (6)"];
3 -> 6  [label="z (6)"];
4 -> 7  [label="x (6)"];
4 -> 8  [label="y (6)"];
4 -> 3  [label="z (6)"];
5 -> 2  [label="x (5)"];
5 -> 6  [label="y (5)"];
5 -> 9  [label="z (5)"];
6 -> 9  [label="x (8)"];
6 -> 0  [label="y (8)"];
6 -> 2  [label="z (8)"];
7 -> 2  [label="x (8)"];
7 -> 9  [label="y (7)"];
7 -> 8  [label="z (8)"];
7 -> 0  [label="!y [1]"];
8 -> 5  [label="x (18)"];
8 -> 7  [label="y (19)"];
8 -> 3  [label="z (18)"];
9 -> 2  [label="x (10)"];
9 -> 0  [label="y (9)"];
9 -> 7  [label="z (10)"];
__start0 [label="", shape=none];
__start0 -> 0  [label=""];
}
