digraph "benchmarks-true-state-lstar-rc10seeds/n_states=12-n_outputs=5-glitch_percent=0.01/4ca6ea13565932800521c0ae2b0637e8/pmsatLearned_NOP-N12" {
0 [label="0|d", shape=record, style=rounded];
1 [label="1|b", shape=record, style=rounded];
2 [label="2|c", shape=record, style=rounded];
3 [label="3|b", shape=record, style=rounded];
4 [label="4|d", shape=record, style=rounded];
5 [label="5|a", shape=record, style=rounded];
6 [label="6|a", shape=record, style=rounded];
7 [label="7|d", shape=record, style=rounded];
8 [label="8|c", shape=record, style=rounded];
9 [label="9|b", shape=record, style=rounded];
10 [label="10|c", shape=record, style=rounded];
11 [label="11|e", shape=record, style=rounded];
0 -> 6  [label="x"];
0 -> 4  [label="y"];
0 -> 5  [label="z"];
1 -> 1  [label="x"];
1 -> 10  [label="y"];
1 -> 3  [label="z"];
2 -> 11  [label="z"];
2 -> 6  [label="y"];
2 -> 9  [label="x"];
3 -> 11  [label="x"];
3 -> 11  [label="y"];
3 -> 5  [label="z"];
4 -> 9  [label="x"];
4 -> 1  [label="y"];
4 -> 9  [label="z"];
5 -> 3  [label="x"];
5 -> 5  [label="y"];
5 -> 6  [label="z"];
6 -> 0  [label="x"];
6 -> 10  [label="y"];
6 -> 3  [label="z"];
7 -> 2  [label="x"];
7 -> 4  [label="y"];
7 -> 5  [label="z"];
8 -> 11  [label="y"];
8 -> 10  [label="z"];
8 -> 8  [label="x"];
9 -> 1  [label="x"];
9 -> 5  [label="y"];
9 -> 7  [label="z"];
10 -> 1  [label="x"];
10 -> 0  [label="y"];
10 -> 9  [label="z"];
11 -> 4  [label="x"];
11 -> 8  [label="y"];
11 -> 7  [label="z"];
__start0 [label="", shape=none];
__start0 -> 2  [label=""];
}
