digraph "benchmarks-true-state-lstar-rc10seeds/n_states=14-n_outputs=6-glitch_percent=0.05/b69312477e54f410178967f9186ae09d/pmsatLearned_NOP-N14" {
0 [label="0|d", shape=record, style=rounded];
1 [label="1|c", shape=record, style=rounded];
2 [label="2|c", shape=record, style=rounded];
3 [label="3|c", shape=record, style=rounded];
4 [label="4|a", shape=record, style=rounded];
5 [label="5|a", shape=record, style=rounded];
6 [label="6|c", shape=record, style=rounded];
7 [label="7|a", shape=record, style=rounded];
8 [label="8|c", shape=record, style=rounded];
9 [label="9|d", shape=record, style=rounded];
10 [label="10|d", shape=record, style=rounded];
11 [label="11|a", shape=record, style=rounded];
12 [label="12|a", shape=record, style=rounded];
13 [label="13|a", shape=record, style=rounded];
0 -> 12  [label="z"];
0 -> 7  [label="x"];
0 -> 13  [label="y"];
1 -> 3  [label="z"];
1 -> 13  [label="y"];
1 -> 8  [label="x"];
2 -> 4  [label="y"];
2 -> 1  [label="z"];
2 -> 0  [label="x"];
3 -> 7  [label="x"];
3 -> 12  [label="y"];
3 -> 10  [label="z"];
4 -> 8  [label="y"];
4 -> 9  [label="z"];
4 -> 4  [label="x"];
5 -> 11  [label="x"];
5 -> 8  [label="y"];
5 -> 3  [label="z"];
6 -> 1  [label="x"];
6 -> 0  [label="y"];
6 -> 8  [label="z"];
7 -> 3  [label="x"];
7 -> 8  [label="y"];
7 -> 8  [label="z"];
8 -> 9  [label="x"];
8 -> 6  [label="z"];
8 -> 2  [label="y"];
9 -> 0  [label="x"];
9 -> 10  [label="y"];
9 -> 1  [label="z"];
10 -> 4  [label="x"];
10 -> 7  [label="y"];
10 -> 7  [label="z"];
11 -> 6  [label="x"];
11 -> 9  [label="y"];
11 -> 1  [label="z"];
12 -> 3  [label="x"];
12 -> 4  [label="z"];
12 -> 6  [label="y"];
13 -> 5  [label="x"];
13 -> 11  [label="z"];
13 -> 4  [label="y"];
__start0 [label="", shape=none];
__start0 -> 1  [label=""];
}
