digraph "benchmarks-true-state-lstar-3seeds/n_states=16-n_outputs=4-glitch_percent=0.01/1025044f867befc254c797ea11ddd6cc/alergiaLearned" {
q0 [label="c"];
q1 [label="d"];
q2 [label="c"];
q3 [label="a"];
q4 [label="d"];
q5 [label="b"];
q6 [label="b"];
q7 [label="a"];
q0 -> q1  [label="z:1.0"];
q0 -> q2  [label="y:1.0"];
q0 -> q3  [label="x:1.0"];
q1 -> q4  [label="x:0.6923076923076923"];
q1 -> q5  [label="x:0.038461538461538464"];
q1 -> q0  [label="x:0.2692307692307692"];
q1 -> q5  [label="y:1.0"];
q1 -> q5  [label="z:0.9629629629629629"];
q1 -> q3  [label="z:0.037037037037037035"];
q2 -> q5  [label="x:1.0"];
q2 -> q5  [label="y:1.0"];
q2 -> q5  [label="z:0.9444444444444444"];
q2 -> q1  [label="z:0.05555555555555555"];
q3 -> q6  [label="x:0.9818181818181818"];
q3 -> q0  [label="x:0.01818181818181818"];
q3 -> q3  [label="x:0.0"];
q3 -> q7  [label="y:0.9047619047619048"];
q3 -> q5  [label="y:0.047619047619047616"];
q3 -> q4  [label="y:0.047619047619047616"];
q3 -> q5  [label="z:1.0"];
q3 -> q1  [label="z:0.0"];
q4 -> q5  [label="x:0.8333333333333334"];
q4 -> q0  [label="x:0.16666666666666666"];
q4 -> q5  [label="y:1.0"];
q4 -> q7  [label="z:1.0"];
q5 -> q5  [label="x:0.5555555555555556"];
q5 -> q1  [label="x:0.13333333333333333"];
q5 -> q0  [label="x:0.28888888888888886"];
q5 -> q3  [label="x:0.022222222222222223"];
q5 -> q5  [label="y:0.8695652173913043"];
q5 -> q1  [label="y:0.13043478260869565"];
q5 -> q3  [label="z:0.30434782608695654"];
q5 -> q5  [label="z:0.30434782608695654"];
q5 -> q1  [label="z:0.21739130434782608"];
q5 -> q0  [label="z:0.17391304347826086"];
q6 -> q7  [label="x:1.0"];
q6 -> q1  [label="y:1.0"];
q6 -> q5  [label="z:1.0"];
q7 -> q3  [label="x:0.5454545454545454"];
q7 -> q5  [label="x:0.45454545454545453"];
q7 -> q1  [label="y:0.5454545454545454"];
q7 -> q5  [label="y:0.45454545454545453"];
q7 -> q1  [label="z:0.5454545454545454"];
q7 -> q5  [label="z:0.45454545454545453"];
__start0 [label="", shape=none];
__start0 -> q0  [label=""];
}
