digraph alergiaLearned {
q0 [label="c"];
q1 [label="b"];
q2 [label="a"];
q3 [label="a"];
q4 [label="e"];
q5 [label="a"];
q6 [label="d"];
q7 [label="c"];
q0 -> q1  [label="z:1.0"];
q0 -> q2  [label="y:1.0"];
q0 -> q3  [label="x:1.0"];
q1 -> q4  [label="x:1.0"];
q1 -> q2  [label="y:1.0"];
q1 -> q0  [label="z:1.0"];
q2 -> q3  [label="x:0.782608695652174"];
q2 -> q6  [label="x:0.21739130434782608"];
q2 -> q4  [label="y:0.7916666666666666"];
q2 -> q2  [label="y:0.041666666666666664"];
q2 -> q0  [label="y:0.16666666666666666"];
q2 -> q5  [label="z:0.7391304347826086"];
q2 -> q1  [label="z:0.08695652173913043"];
q2 -> q4  [label="z:0.17391304347826086"];
q3 -> q6  [label="x:0.7391304347826086"];
q3 -> q3  [label="x:0.2608695652173913"];
q3 -> q7  [label="y:1.0"];
q3 -> q4  [label="z:1.0"];
q4 -> q2  [label="x:0.6153846153846154"];
q4 -> q6  [label="x:0.38461538461538464"];
q4 -> q2  [label="y:1.0"];
q4 -> q0  [label="z:0.5833333333333334"];
q4 -> q2  [label="z:0.4166666666666667"];
q4 -> q4  [label="z:0.0"];
q5 -> q6  [label="x:1.0"];
q5 -> q4  [label="y:1.0"];
q5 -> q1  [label="z:1.0"];
q6 -> q2  [label="x:1.0"];
q6 -> q1  [label="y:1.0"];
q6 -> q2  [label="z:1.0"];
q7 -> q2  [label="x:1.0"];
q7 -> q0  [label="y:0.8333333333333334"];
q7 -> q2  [label="y:0.16666666666666666"];
q7 -> q2  [label="z:0.8333333333333334"];
q7 -> q1  [label="z:0.16666666666666666"];
__start0 [label="", shape=none];
__start0 -> q0  [label=""];
}
