digraph "benchmarks-true-state-lstar-3seeds/n_states=3-n_outputs=3-glitch_percent=0.01/f2c904308d0722a6b45d91b3383d2d27/pmsatLearned-N3-STOC" {
0 [label="0|a", shape=record, style=rounded];
1 [label="1|b", shape=record, style=rounded];
2 [label="2|b", shape=record, style=rounded];
0 -> 0  [label="x (7)"];
0 -> 2  [label="y (7)"];
0 -> 1  [label="z (7)"];
1 -> 1  [label="z (7)"];
1 -> 0  [label="x (20)"];
1 -> 2  [label="y (20)"];
2 -> 1  [label="x (7)"];
2 -> 2  [label="y (7)"];
2 -> 0  [label="z (7)"];
__start0 [label="", shape=none];
__start0 -> 1  [label=""];
}
