digraph "benchmarks-true-state-lstar-3seeds/n_states=14-n_outputs=6-glitch_percent=0.01/5fef88cf0b5263cd950bc0afe4fedc5a/RealModel" {
s1 [label="s1|c", shape=record, style=rounded];
s2 [label="s2|a", shape=record, style=rounded];
s3 [label="s3|f", shape=record, style=rounded];
s4 [label="s4|e", shape=record, style=rounded];
s5 [label="s5|d", shape=record, style=rounded];
s6 [label="s6|c", shape=record, style=rounded];
s7 [label="s7|d", shape=record, style=rounded];
s8 [label="s8|a", shape=record, style=rounded];
s9 [label="s9|b", shape=record, style=rounded];
s10 [label="s10|b", shape=record, style=rounded];
s11 [label="s11|d", shape=record, style=rounded];
s12 [label="s12|b", shape=record, style=rounded];
s13 [label="s13|c", shape=record, style=rounded];
s14 [label="s14|d", shape=record, style=rounded];
s1 -> s12  [label="x"];
s1 -> s2  [label="y"];
s1 -> s3  [label="z"];
s2 -> s4  [label="x"];
s2 -> s6  [label="y"];
s2 -> s5  [label="z"];
s3 -> s8  [label="x"];
s3 -> s7  [label="y"];
s3 -> s11  [label="z"];
s4 -> s1  [label="x"];
s4 -> s10  [label="y"];
s4 -> s7  [label="z"];
s5 -> s11  [label="x"];
s5 -> s6  [label="y"];
s5 -> s9  [label="z"];
s6 -> s2  [label="x"];
s6 -> s10  [label="y"];
s6 -> s7  [label="z"];
s7 -> s9  [label="x"];
s7 -> s11  [label="y"];
s7 -> s9  [label="z"];
s8 -> s3  [label="x"];
s8 -> s3  [label="y"];
s8 -> s7  [label="z"];
s9 -> s2  [label="x"];
s9 -> s6  [label="y"];
s9 -> s3  [label="z"];
s10 -> s8  [label="x"];
s10 -> s13  [label="y"];
s10 -> s8  [label="z"];
s11 -> s12  [label="x"];
s11 -> s3  [label="y"];
s11 -> s5  [label="z"];
s12 -> s13  [label="x"];
s12 -> s10  [label="y"];
s12 -> s14  [label="z"];
s13 -> s9  [label="x"];
s13 -> s11  [label="y"];
s13 -> s5  [label="z"];
s14 -> s7  [label="x"];
s14 -> s2  [label="y"];
s14 -> s14  [label="z"];
__start0 [label="", shape=none];
__start0 -> s1  [label=""];
}
