digraph "benchmarks-true-state-lstar-rc10seeds/n_states=9-n_outputs=4-glitch_percent=0.05/e38dbb1f853f9e5a00df8f96d89090c0/pmsatLearned_NOP-N9-STOC" {
0 [label="0|a", shape=record, style=rounded];
1 [label="1|a", shape=record, style=rounded];
2 [label="2|b", shape=record, style=rounded];
3 [label="3|a", shape=record, style=rounded];
4 [label="4|d", shape=record, style=rounded];
5 [label="5|c", shape=record, style=rounded];
6 [label="6|c", shape=record, style=rounded];
7 [label="7|c", shape=record, style=rounded];
8 [label="8|a", shape=record, style=rounded];
0 -> 5  [label="z (17)"];
0 -> 8  [label="y (38)"];
0 -> 2  [label="x (56)"];
0 -> 0  [label="!y [1]"];
0 -> 8  [label="!z [1]"];
0 -> 6  [label="!x [1]"];
1 -> 8  [label="x (8)"];
1 -> 0  [label="y (8)"];
1 -> 8  [label="z (7)"];
2 -> 7  [label="x (20)"];
2 -> 3  [label="y (19)"];
2 -> 1  [label="z (20)"];
3 -> 6  [label="z (6)"];
3 -> 1  [label="x (6)"];
3 -> 1  [label="y (7)"];
4 -> 6  [label="x (4)"];
4 -> 2  [label="y (6)"];
4 -> 2  [label="z (5)"];
4 -> 6  [label="!z [1]"];
5 -> 0  [label="x (6)"];
5 -> 1  [label="y (6)"];
5 -> 4  [label="z (7)"];
6 -> 3  [label="y (4)"];
6 -> 5  [label="z (6)"];
6 -> 2  [label="x (5)"];
7 -> 5  [label="x (4)"];
7 -> 8  [label="y (5)"];
7 -> 8  [label="z (5)"];
7 -> 0  [label="!x [1]"];
8 -> 6  [label="x (19)"];
8 -> 4  [label="y (20)"];
8 -> 8  [label="z (9)"];
8 -> 8  [label="!y [1]"];
__start0 [label="", shape=none];
__start0 -> 0  [label=""];
}
