digraph "benchmarks-true-state-lstar-songp/n_states=5-n_outputs=2-glitch_percent=0.0-pmstrat='fm'/a5f9324af59a1a684cfb9d41590d5661/pmsatLearned-N5-STOC" {
0 [label="0|a", shape=record, style=rounded];
1 [label="1|b", shape=record, style=rounded];
2 [label="2|b", shape=record, style=rounded];
3 [label="3|b", shape=record, style=rounded];
4 [label="4|a", shape=record, style=rounded];
0 -> 1  [label="z (19)"];
0 -> 2  [label="y (19)"];
0 -> 3  [label="x (31)"];
1 -> 1  [label="x (9)"];
1 -> 2  [label="y (9)"];
1 -> 2  [label="z (9)"];
2 -> 1  [label="x (8)"];
2 -> 4  [label="y (8)"];
2 -> 1  [label="z (8)"];
3 -> 4  [label="x (18)"];
3 -> 1  [label="y (6)"];
3 -> 2  [label="z (6)"];
4 -> 3  [label="x (6)"];
4 -> 0  [label="y (6)"];
4 -> 0  [label="z (6)"];
__start0 [label="", shape=none];
__start0 -> 0  [label=""];
}
