digraph "benchmarks-true-state-lstar-rc10seeds/n_states=17-n_outputs=8-glitch_percent=0.02/63900299e11a25fa1f98c41fe5cfeefb/pmsatLearned_NOP-N17" {
0 [label="0|h", shape=record, style=rounded];
1 [label="1|g", shape=record, style=rounded];
2 [label="2|e", shape=record, style=rounded];
3 [label="3|g", shape=record, style=rounded];
4 [label="4|c", shape=record, style=rounded];
5 [label="5|f", shape=record, style=rounded];
6 [label="6|a", shape=record, style=rounded];
7 [label="7|a", shape=record, style=rounded];
8 [label="8|c", shape=record, style=rounded];
9 [label="9|a", shape=record, style=rounded];
10 [label="10|g", shape=record, style=rounded];
11 [label="11|f", shape=record, style=rounded];
12 [label="12|a", shape=record, style=rounded];
13 [label="13|c", shape=record, style=rounded];
14 [label="14|h", shape=record, style=rounded];
15 [label="15|h", shape=record, style=rounded];
16 [label="16|a", shape=record, style=rounded];
0 -> 11  [label="x"];
0 -> 14  [label="y"];
0 -> 6  [label="z"];
1 -> 0  [label="x"];
1 -> 3  [label="y"];
1 -> 4  [label="z"];
2 -> 3  [label="z"];
2 -> 0  [label="y"];
2 -> 10  [label="x"];
3 -> 13  [label="x"];
3 -> 12  [label="y"];
3 -> 5  [label="z"];
4 -> 13  [label="x"];
4 -> 4  [label="y"];
4 -> 9  [label="z"];
5 -> 7  [label="x"];
5 -> 5  [label="y"];
5 -> 7  [label="z"];
6 -> 9  [label="x"];
6 -> 2  [label="y"];
6 -> 4  [label="z"];
7 -> 1  [label="x"];
7 -> 4  [label="y"];
7 -> 9  [label="z"];
8 -> 16  [label="x"];
8 -> 6  [label="y"];
8 -> 6  [label="z"];
9 -> 0  [label="x"];
9 -> 7  [label="y"];
9 -> 4  [label="z"];
10 -> 7  [label="x"];
10 -> 16  [label="y"];
10 -> 8  [label="z"];
11 -> 7  [label="x"];
11 -> 10  [label="y"];
11 -> 0  [label="z"];
12 -> 14  [label="x"];
12 -> 1  [label="y"];
12 -> 3  [label="z"];
13 -> 2  [label="x"];
13 -> 4  [label="y"];
13 -> 6  [label="z"];
14 -> 11  [label="x"];
14 -> 7  [label="y"];
14 -> 9  [label="z"];
15 -> 3  [label="x"];
15 -> 6  [label="y"];
15 -> 8  [label="z"];
16 -> 15  [label="x"];
16 -> 3  [label="y"];
16 -> 3  [label="z"];
__start0 [label="", shape=none];
__start0 -> 2  [label=""];
}
