digraph "benchmarks-true-state-lstar-3seeds/n_states=7-n_outputs=5-glitch_percent=0.01/9ef4629d9e978b491e835560517504c8/alergiaLearned" {
q0 [label="d"];
q1 [label="c"];
q2 [label="b"];
q3 [label="c"];
q4 [label="a"];
q5 [label="d"];
q0 -> q1  [label="z:1.0"];
q0 -> q0  [label="z:0.0"];
q0 -> q2  [label="y:1.0"];
q0 -> q1  [label="y:0.0"];
q0 -> q3  [label="x:1.0"];
q0 -> q2  [label="x:0.0"];
q1 -> q1  [label="x:0.9375"];
q1 -> q4  [label="x:0.0625"];
q1 -> q1  [label="y:0.625"];
q1 -> q0  [label="y:0.375"];
q1 -> q1  [label="z:0.5625"];
q1 -> q0  [label="z:0.4375"];
q2 -> q1  [label="x:1.0"];
q2 -> q4  [label="y:1.0"];
q2 -> q0  [label="z:1.0"];
q3 -> q4  [label="x:1.0"];
q3 -> q1  [label="y:1.0"];
q3 -> q5  [label="z:1.0"];
q4 -> q1  [label="x:1.0"];
q4 -> q0  [label="y:0.8333333333333334"];
q4 -> q2  [label="y:0.16666666666666666"];
q4 -> q4  [label="z:1.0"];
q5 -> q2  [label="x:1.0"];
q5 -> q1  [label="y:1.0"];
q5 -> q0  [label="z:1.0"];
__start0 [label="", shape=none];
__start0 -> q0  [label=""];
}
