digraph "benchmarks-true-state-lstar-rc10seeds/n_states=7-n_outputs=4-glitch_percent=0.0/f24caaaebb48e6c7ced9fe26b6e6f2c8/pmsatLearned_NOP-N7-STOC" {
0 [label="0|a", shape=record, style=rounded];
1 [label="1|c", shape=record, style=rounded];
2 [label="2|d", shape=record, style=rounded];
3 [label="3|b", shape=record, style=rounded];
4 [label="4|d", shape=record, style=rounded];
5 [label="5|b", shape=record, style=rounded];
6 [label="6|c", shape=record, style=rounded];
0 -> 4  [label="z (18)"];
0 -> 3  [label="y (18)"];
0 -> 2  [label="x (54)"];
1 -> 2  [label="x (7)"];
1 -> 4  [label="y (7)"];
1 -> 6  [label="z (7)"];
2 -> 5  [label="x (20)"];
2 -> 6  [label="y (20)"];
2 -> 1  [label="z (20)"];
3 -> 3  [label="x (9)"];
3 -> 1  [label="y (9)"];
3 -> 2  [label="z (9)"];
4 -> 1  [label="x (7)"];
4 -> 5  [label="y (7)"];
4 -> 5  [label="z (7)"];
5 -> 3  [label="x (7)"];
5 -> 3  [label="y (7)"];
5 -> 2  [label="z (7)"];
6 -> 3  [label="x (6)"];
6 -> 0  [label="y (6)"];
6 -> 4  [label="z (6)"];
__start0 [label="", shape=none];
__start0 -> 0  [label=""];
}
