digraph "benchmarks-true-state-lstar-rc10seeds/n_states=15-n_outputs=4-glitch_percent=0.01/3f5737d3dfdf42feee43ddc605e2a3a9/pmsatLearned_NOP-N15" {
0 [label="0|c", shape=record, style=rounded];
1 [label="1|c", shape=record, style=rounded];
2 [label="2|c", shape=record, style=rounded];
3 [label="3|d", shape=record, style=rounded];
4 [label="4|c", shape=record, style=rounded];
5 [label="5|c", shape=record, style=rounded];
6 [label="6|a", shape=record, style=rounded];
7 [label="7|b", shape=record, style=rounded];
8 [label="8|c", shape=record, style=rounded];
9 [label="9|a", shape=record, style=rounded];
10 [label="10|c", shape=record, style=rounded];
11 [label="11|b", shape=record, style=rounded];
12 [label="12|b", shape=record, style=rounded];
13 [label="13|d", shape=record, style=rounded];
14 [label="14|a", shape=record, style=rounded];
0 -> 8  [label="x"];
0 -> 13  [label="y"];
0 -> 1  [label="z"];
1 -> 2  [label="x"];
1 -> 13  [label="y"];
1 -> 9  [label="z"];
2 -> 11  [label="x"];
2 -> 0  [label="y"];
2 -> 4  [label="z"];
3 -> 10  [label="z"];
3 -> 2  [label="y"];
3 -> 13  [label="x"];
4 -> 5  [label="x"];
4 -> 14  [label="y"];
4 -> 8  [label="z"];
5 -> 1  [label="x"];
5 -> 6  [label="y"];
5 -> 5  [label="z"];
6 -> 4  [label="x"];
6 -> 0  [label="y"];
6 -> 4  [label="z"];
7 -> 0  [label="x"];
7 -> 6  [label="y"];
7 -> 7  [label="z"];
8 -> 14  [label="x"];
8 -> 1  [label="y"];
8 -> 5  [label="z"];
9 -> 10  [label="x"];
9 -> 13  [label="y"];
9 -> 14  [label="z"];
10 -> 9  [label="x"];
10 -> 12  [label="y"];
10 -> 7  [label="z"];
11 -> 0  [label="x"];
11 -> 11  [label="y"];
11 -> 1  [label="z"];
12 -> 11  [label="x"];
12 -> 12  [label="y"];
12 -> 14  [label="z"];
13 -> 14  [label="x"];
13 -> 1  [label="y"];
13 -> 5  [label="z"];
14 -> 8  [label="x"];
14 -> 6  [label="y"];
14 -> 11  [label="z"];
__start0 [label="", shape=none];
__start0 -> 3  [label=""];
}
