digraph "benchmarks-true-state-lstar-3seeds/n_states=14-n_outputs=4-glitch_percent=0.01/d5e70fc8acf6655276d127468f30352b/pmsatLearned-N14-STOC" {
0 [label="0|a", shape=record, style=rounded];
1 [label="1|b", shape=record, style=rounded];
2 [label="2|c", shape=record, style=rounded];
3 [label="3|d", shape=record, style=rounded];
4 [label="4|a", shape=record, style=rounded];
5 [label="5|d", shape=record, style=rounded];
6 [label="6|c", shape=record, style=rounded];
7 [label="7|a", shape=record, style=rounded];
8 [label="8|b", shape=record, style=rounded];
9 [label="9|a", shape=record, style=rounded];
10 [label="10|c", shape=record, style=rounded];
11 [label="11|d", shape=record, style=rounded];
12 [label="12|b", shape=record, style=rounded];
13 [label="13|d", shape=record, style=rounded];
0 -> 13  [label="x (6)"];
0 -> 11  [label="y (6)"];
0 -> 3  [label="z (6)"];
1 -> 4  [label="x (31)"];
1 -> 7  [label="y (19)"];
1 -> 10  [label="z (19)"];
2 -> 6  [label="z (54)"];
2 -> 8  [label="y (53)"];
2 -> 1  [label="x (66)"];
2 -> 3  [label="!x [1]"];
3 -> 4  [label="x (6)"];
3 -> 1  [label="y (6)"];
3 -> 12  [label="z (6)"];
4 -> 11  [label="x (20)"];
4 -> 9  [label="y (8)"];
4 -> 8  [label="z (8)"];
5 -> 5  [label="x (8)"];
5 -> 6  [label="y (7)"];
5 -> 5  [label="z (8)"];
6 -> 0  [label="y (19)"];
6 -> 13  [label="z (19)"];
6 -> 5  [label="x (17)"];
6 -> 6  [label="!y [1]"];
7 -> 12  [label="x (6)"];
7 -> 4  [label="y (7)"];
7 -> 0  [label="z (7)"];
8 -> 3  [label="x (17)"];
8 -> 12  [label="y (18)"];
8 -> 9  [label="z (17)"];
9 -> 11  [label="x (7)"];
9 -> 11  [label="y (7)"];
9 -> 12  [label="z (7)"];
10 -> 2  [label="x (5)"];
10 -> 1  [label="y (5)"];
10 -> 12  [label="z (5)"];
11 -> 9  [label="x (9)"];
11 -> 13  [label="y (9)"];
11 -> 12  [label="z (9)"];
12 -> 6  [label="x (10)"];
12 -> 7  [label="y (10)"];
12 -> 5  [label="z (10)"];
13 -> 4  [label="x (7)"];
13 -> 7  [label="y (7)"];
13 -> 11  [label="z (7)"];
__start0 [label="", shape=none];
__start0 -> 2  [label=""];
}
