digraph "benchmarks-true-state-lstar-rc10seeds/n_states=10-n_outputs=3-glitch_percent=0.0/b1c112ed638b8cc8680ae6eb06f87a21/pmsatLearned_NOP-N10-STOC" {
0 [label="0|b", shape=record, style=rounded];
1 [label="1|b", shape=record, style=rounded];
2 [label="2|a", shape=record, style=rounded];
3 [label="3|b", shape=record, style=rounded];
4 [label="4|c", shape=record, style=rounded];
5 [label="5|b", shape=record, style=rounded];
6 [label="6|c", shape=record, style=rounded];
7 [label="7|c", shape=record, style=rounded];
8 [label="8|b", shape=record, style=rounded];
9 [label="9|b", shape=record, style=rounded];
0 -> 1  [label="x (9)"];
0 -> 4  [label="y (7)"];
0 -> 6  [label="z (8)"];
1 -> 9  [label="z (33)"];
1 -> 2  [label="y (85)"];
1 -> 3  [label="x (87)"];
2 -> 0  [label="x (26)"];
2 -> 4  [label="y (29)"];
2 -> 8  [label="z (26)"];
3 -> 6  [label="x (32)"];
3 -> 5  [label="y (26)"];
3 -> 7  [label="z (29)"];
4 -> 6  [label="x (28)"];
4 -> 9  [label="y (12)"];
4 -> 6  [label="z (22)"];
5 -> 7  [label="x (8)"];
5 -> 4  [label="y (7)"];
5 -> 4  [label="z (8)"];
6 -> 9  [label="x (47)"];
6 -> 8  [label="y (12)"];
6 -> 7  [label="z (18)"];
7 -> 6  [label="x (33)"];
7 -> 3  [label="y (11)"];
7 -> 7  [label="z (17)"];
8 -> 4  [label="x (11)"];
8 -> 9  [label="y (8)"];
8 -> 7  [label="z (10)"];
9 -> 4  [label="x (26)"];
9 -> 1  [label="y (10)"];
9 -> 6  [label="z (14)"];
__start0 [label="", shape=none];
__start0 -> 1  [label=""];
}
