digraph "benchmarks-true-state-lstar-rc10seeds/n_states=13-n_outputs=7-glitch_percent=0.05/0771ef84614d4edb64648897adc218ba/pmsatLearned_NOP-N13" {
0 [label="0|a", shape=record, style=rounded];
1 [label="1|f", shape=record, style=rounded];
2 [label="2|c", shape=record, style=rounded];
3 [label="3|d", shape=record, style=rounded];
4 [label="4|c", shape=record, style=rounded];
5 [label="5|f", shape=record, style=rounded];
6 [label="6|e", shape=record, style=rounded];
7 [label="7|g", shape=record, style=rounded];
8 [label="8|g", shape=record, style=rounded];
9 [label="9|d", shape=record, style=rounded];
10 [label="10|b", shape=record, style=rounded];
11 [label="11|c", shape=record, style=rounded];
12 [label="12|c", shape=record, style=rounded];
0 -> 6  [label="z"];
0 -> 9  [label="y"];
0 -> 2  [label="x"];
1 -> 12  [label="x"];
1 -> 10  [label="y"];
1 -> 5  [label="z"];
2 -> 4  [label="x"];
2 -> 5  [label="y"];
2 -> 6  [label="z"];
3 -> 0  [label="z"];
3 -> 4  [label="y"];
3 -> 1  [label="x"];
4 -> 7  [label="x"];
4 -> 8  [label="y"];
4 -> 11  [label="z"];
5 -> 7  [label="x"];
5 -> 6  [label="y"];
5 -> 11  [label="z"];
6 -> 1  [label="x"];
6 -> 6  [label="y"];
6 -> 11  [label="z"];
7 -> 10  [label="x"];
7 -> 4  [label="y"];
7 -> 6  [label="z"];
8 -> 0  [label="x"];
8 -> 5  [label="y"];
8 -> 3  [label="z"];
9 -> 7  [label="x"];
9 -> 9  [label="z"];
9 -> 2  [label="y"];
10 -> 5  [label="x"];
10 -> 0  [label="y"];
10 -> 7  [label="z"];
11 -> 11  [label="x"];
11 -> 10  [label="y"];
11 -> 1  [label="z"];
12 -> 10  [label="x"];
12 -> 11  [label="y"];
12 -> 11  [label="z"];
__start0 [label="", shape=none];
__start0 -> 3  [label=""];
}
