digraph "benchmarks-true-state-lstar-3seeds/n_states=9-n_outputs=5-glitch_percent=0.1/634943aceef7d4aebdee2ae565374984/pmsatLearned-N9" {
0 [label="0|a", shape=record, style=rounded];
1 [label="1|c", shape=record, style=rounded];
2 [label="2|d", shape=record, style=rounded];
3 [label="3|e", shape=record, style=rounded];
4 [label="4|a", shape=record, style=rounded];
5 [label="5|a", shape=record, style=rounded];
6 [label="6|e", shape=record, style=rounded];
7 [label="7|c", shape=record, style=rounded];
8 [label="8|a", shape=record, style=rounded];
0 -> 6  [label="z"];
0 -> 2  [label="y"];
0 -> 3  [label="x"];
1 -> 3  [label="y"];
1 -> 1  [label="z"];
1 -> 3  [label="x"];
2 -> 8  [label="x"];
2 -> 5  [label="y"];
2 -> 6  [label="z"];
3 -> 7  [label="x"];
3 -> 4  [label="z"];
3 -> 1  [label="y"];
4 -> 6  [label="x"];
4 -> 0  [label="y"];
4 -> 6  [label="z"];
5 -> 1  [label="x"];
5 -> 0  [label="y"];
5 -> 4  [label="z"];
6 -> 0  [label="x"];
6 -> 5  [label="y"];
6 -> 2  [label="z"];
7 -> 7  [label="x"];
7 -> 6  [label="y"];
7 -> 6  [label="z"];
8 -> 5  [label="y"];
8 -> 7  [label="z"];
8 -> 4  [label="x"];
__start0 [label="", shape=none];
__start0 -> 0  [label=""];
}
