digraph "benchmarks-true-state-lstar-3seeds/n_states=14-n_outputs=5-glitch_percent=0.05/b69312477e54f410178967f9186ae09d/alergiaLearned" {
q0 [label="c"];
q1 [label="c"];
q2 [label="a"];
q3 [label="c"];
q4 [label="d"];
q5 [label="a"];
q6 [label="a"];
q7 [label="d"];
q8 [label="c"];
q0 -> q1  [label="z:0.9571428571428572"];
q0 -> q4  [label="z:0.014285714285714285"];
q0 -> q2  [label="z:0.02857142857142857"];
q0 -> q2  [label="y:0.9710144927536232"];
q0 -> q0  [label="y:0.028985507246376812"];
q0 -> q4  [label="y:0.0"];
q0 -> q3  [label="x:0.8958333333333334"];
q0 -> q2  [label="x:0.020833333333333332"];
q0 -> q4  [label="x:0.08333333333333333"];
q1 -> q5  [label="x:0.7647058823529411"];
q1 -> q1  [label="x:0.08823529411764706"];
q1 -> q4  [label="x:0.14705882352941177"];
q1 -> q5  [label="y:0.9047619047619048"];
q1 -> q0  [label="y:0.09523809523809523"];
q1 -> q4  [label="z:0.8571428571428571"];
q1 -> q0  [label="z:0.14285714285714285"];
q2 -> q6  [label="x:0.72"];
q2 -> q1  [label="x:0.28"];
q2 -> q5  [label="z:0.7692307692307693"];
q2 -> q0  [label="z:0.11538461538461539"];
q2 -> q4  [label="z:0.11538461538461539"];
q2 -> q3  [label="y:0.3103448275862069"];
q2 -> q5  [label="y:0.6551724137931034"];
q2 -> q4  [label="y:0.034482758620689655"];
q3 -> q7  [label="x:0.975609756097561"];
q3 -> q0  [label="x:0.024390243902439025"];
q3 -> q8  [label="z:1.0"];
q3 -> q8  [label="y:0.9473684210526315"];
q3 -> q2  [label="y:0.05263157894736842"];
q4 -> q2  [label="z:0.8125"];
q4 -> q0  [label="z:0.1875"];
q4 -> q4  [label="x:0.23684210526315788"];
q4 -> q2  [label="x:0.7368421052631579"];
q4 -> q0  [label="x:0.02631578947368421"];
q4 -> q2  [label="y:0.8666666666666667"];
q4 -> q4  [label="y:0.13333333333333333"];
q5 -> q1  [label="x:0.7931034482758621"];
q5 -> q4  [label="x:0.034482758620689655"];
q5 -> q2  [label="x:0.1724137931034483"];
q5 -> q0  [label="y:0.7"];
q5 -> q4  [label="y:0.3"];
q5 -> q0  [label="z:0.42857142857142855"];
q5 -> q2  [label="z:0.2857142857142857"];
q5 -> q4  [label="z:0.2857142857142857"];
q6 -> q5  [label="x:1.0"];
q6 -> q1  [label="y:1.0"];
q6 -> q1  [label="z:1.0"];
q7 -> q4  [label="x:1.0"];
q7 -> q4  [label="y:0.7142857142857143"];
q7 -> q2  [label="y:0.2857142857142857"];
q7 -> q0  [label="z:1.0"];
q8 -> q0  [label="x:0.5384615384615384"];
q8 -> q4  [label="x:0.46153846153846156"];
q8 -> q4  [label="y:0.5"];
q8 -> q2  [label="y:0.5"];
q8 -> q1  [label="z:1.0"];
__start0 [label="", shape=none];
__start0 -> q0  [label=""];
}
