digraph "benchmarks-true-state-lstar-rc10seeds/n_states=15-n_outputs=9-glitch_percent=0.02/29385cf5a7eb53cb8dce5d2bf1535e62/pmsatLearned_NOP-N15-STOC" {
0 [label="0|f", shape=record, style=rounded];
1 [label="1|a", shape=record, style=rounded];
2 [label="2|d", shape=record, style=rounded];
3 [label="3|i", shape=record, style=rounded];
4 [label="4|h", shape=record, style=rounded];
5 [label="5|h", shape=record, style=rounded];
6 [label="6|c", shape=record, style=rounded];
7 [label="7|c", shape=record, style=rounded];
8 [label="8|f", shape=record, style=rounded];
9 [label="9|a", shape=record, style=rounded];
10 [label="10|c", shape=record, style=rounded];
11 [label="11|h", shape=record, style=rounded];
12 [label="12|e", shape=record, style=rounded];
13 [label="13|a", shape=record, style=rounded];
14 [label="14|i", shape=record, style=rounded];
0 -> 6  [label="x (18)"];
0 -> 12  [label="y (18)"];
0 -> 13  [label="z (18)"];
0 -> 13  [label="!x [1]"];
0 -> 8  [label="!y [1]"];
1 -> 14  [label="x (19)"];
1 -> 11  [label="y (19)"];
1 -> 8  [label="z (20)"];
1 -> 5  [label="!x [1]"];
2 -> 0  [label="z (54)"];
2 -> 1  [label="y (55)"];
2 -> 4  [label="x (78)"];
2 -> 9  [label="!z [1]"];
3 -> 4  [label="x (7)"];
3 -> 12  [label="z (8)"];
3 -> 2  [label="y (7)"];
4 -> 7  [label="x (43)"];
4 -> 5  [label="y (19)"];
4 -> 9  [label="z (18)"];
5 -> 14  [label="x (7)"];
5 -> 3  [label="y (7)"];
5 -> 4  [label="z (7)"];
6 -> 1  [label="x (6)"];
6 -> 8  [label="y (6)"];
6 -> 13  [label="z (7)"];
7 -> 3  [label="y (17)"];
7 -> 0  [label="z (5)"];
7 -> 10  [label="x (15)"];
7 -> 14  [label="!z [1]"];
8 -> 3  [label="x (8)"];
8 -> 12  [label="y (8)"];
8 -> 2  [label="z (8)"];
9 -> 12  [label="x (6)"];
9 -> 8  [label="y (6)"];
9 -> 9  [label="z (6)"];
10 -> 11  [label="x (6)"];
10 -> 6  [label="y (5)"];
10 -> 3  [label="z (5)"];
11 -> 11  [label="x (7)"];
11 -> 8  [label="y (8)"];
11 -> 12  [label="z (8)"];
12 -> 1  [label="x (8)"];
12 -> 11  [label="y (9)"];
12 -> 6  [label="z (9)"];
13 -> 10  [label="y (7)"];
13 -> 13  [label="z (7)"];
13 -> 0  [label="x (6)"];
14 -> 5  [label="x (7)"];
14 -> 5  [label="y (6)"];
14 -> 1  [label="z (6)"];
__start0 [label="", shape=none];
__start0 -> 2  [label=""];
}
