digraph "benchmarks-true-state-lstar-3seeds/n_states=17-n_outputs=8-glitch_percent=0.0/e8ce212775c0e7a5c9374dd495ffe7ef/rpniGroundTruth" {
s0 [label="s0|e", shape=record, style=rounded];
s1 [label="s1|g", shape=record, style=rounded];
s2 [label="s2|h", shape=record, style=rounded];
s3 [label="s3|g", shape=record, style=rounded];
s4 [label="s4|c", shape=record, style=rounded];
s5 [label="s5|a", shape=record, style=rounded];
s6 [label="s6|a", shape=record, style=rounded];
s7 [label="s7|a", shape=record, style=rounded];
s8 [label="s8|f", shape=record, style=rounded];
s9 [label="s9|h", shape=record, style=rounded];
s10 [label="s10|f", shape=record, style=rounded];
s11 [label="s11|a", shape=record, style=rounded];
s12 [label="s12|c", shape=record, style=rounded];
s13 [label="s13|h", shape=record, style=rounded];
s14 [label="s14|c", shape=record, style=rounded];
s15 [label="s15|g", shape=record, style=rounded];
s16 [label="s16|a", shape=record, style=rounded];
s0 -> s1  [label="x"];
s0 -> s2  [label="y"];
s0 -> s3  [label="z"];
s1 -> s4  [label="z"];
s1 -> s5  [label="y"];
s1 -> s6  [label="x"];
s2 -> s7  [label="z"];
s2 -> s8  [label="x"];
s2 -> s9  [label="y"];
s3 -> s10  [label="z"];
s3 -> s11  [label="y"];
s3 -> s12  [label="x"];
s4 -> s7  [label="z"];
s4 -> s7  [label="y"];
s4 -> s5  [label="x"];
s5 -> s3  [label="z"];
s5 -> s3  [label="y"];
s5 -> s13  [label="x"];
s6 -> s14  [label="y"];
s6 -> s15  [label="x"];
s6 -> s16  [label="z"];
s7 -> s0  [label="y"];
s7 -> s16  [label="x"];
s7 -> s14  [label="z"];
s8 -> s1  [label="y"];
s8 -> s6  [label="x"];
s8 -> s2  [label="z"];
s9 -> s8  [label="x"];
s9 -> s6  [label="y"];
s9 -> s16  [label="z"];
s10 -> s6  [label="z"];
s10 -> s10  [label="y"];
s10 -> s6  [label="x"];
s11 -> s15  [label="y"];
s11 -> s3  [label="z"];
s11 -> s9  [label="x"];
s12 -> s14  [label="y"];
s12 -> s7  [label="z"];
s12 -> s0  [label="x"];
s13 -> s3  [label="x"];
s13 -> s7  [label="y"];
s13 -> s4  [label="z"];
s14 -> s16  [label="z"];
s14 -> s14  [label="y"];
s14 -> s12  [label="x"];
s15 -> s3  [label="y"];
s15 -> s2  [label="x"];
s15 -> s14  [label="z"];
s16 -> s6  [label="y"];
s16 -> s2  [label="x"];
s16 -> s14  [label="z"];
__start0 [label="", shape=none];
__start0 -> s0  [label=""];
}
