digraph "benchmarks-true-state-lstar-3seeds/n_states=10-n_outputs=2-glitch_percent=0.05/449144e7661a2d04951345fd1c7796fa/pmsatLearned-N10" {
0 [label="0|a", shape=record, style=rounded];
1 [label="1|b", shape=record, style=rounded];
2 [label="2|a", shape=record, style=rounded];
3 [label="3|b", shape=record, style=rounded];
4 [label="4|b", shape=record, style=rounded];
5 [label="5|b", shape=record, style=rounded];
6 [label="6|b", shape=record, style=rounded];
7 [label="7|a", shape=record, style=rounded];
8 [label="8|b", shape=record, style=rounded];
9 [label="9|a", shape=record, style=rounded];
0 -> 6  [label="z"];
0 -> 1  [label="y"];
0 -> 4  [label="x"];
1 -> 5  [label="x"];
1 -> 3  [label="y"];
1 -> 8  [label="z"];
2 -> 6  [label="x"];
2 -> 7  [label="y"];
2 -> 0  [label="z"];
3 -> 5  [label="x"];
3 -> 7  [label="y"];
3 -> 2  [label="z"];
4 -> 7  [label="x"];
4 -> 9  [label="z"];
4 -> 2  [label="y"];
5 -> 0  [label="x"];
5 -> 0  [label="y"];
5 -> 7  [label="z"];
6 -> 6  [label="x"];
6 -> 4  [label="z"];
6 -> 2  [label="y"];
7 -> 6  [label="x"];
7 -> 8  [label="y"];
7 -> 4  [label="z"];
8 -> 1  [label="x"];
8 -> 6  [label="y"];
8 -> 0  [label="z"];
9 -> 6  [label="x"];
9 -> 2  [label="y"];
9 -> 6  [label="z"];
__start0 [label="", shape=none];
__start0 -> 0  [label=""];
}
