digraph "benchmarks-true-state-lstar-3seeds/n_states=17-n_outputs=5-glitch_percent=0.02/8cf15ea0083e18570edb3cc0cb4e962e/RealModel" {
s1 [label="s1|e", shape=record, style=rounded];
s2 [label="s2|c", shape=record, style=rounded];
s3 [label="s3|b", shape=record, style=rounded];
s4 [label="s4|e", shape=record, style=rounded];
s5 [label="s5|e", shape=record, style=rounded];
s6 [label="s6|c", shape=record, style=rounded];
s7 [label="s7|e", shape=record, style=rounded];
s8 [label="s8|b", shape=record, style=rounded];
s9 [label="s9|d", shape=record, style=rounded];
s10 [label="s10|b", shape=record, style=rounded];
s11 [label="s11|b", shape=record, style=rounded];
s12 [label="s12|a", shape=record, style=rounded];
s13 [label="s13|d", shape=record, style=rounded];
s14 [label="s14|b", shape=record, style=rounded];
s15 [label="s15|b", shape=record, style=rounded];
s16 [label="s16|e", shape=record, style=rounded];
s17 [label="s17|e", shape=record, style=rounded];
s1 -> s6  [label="x"];
s1 -> s10  [label="y"];
s1 -> s5  [label="z"];
s2 -> s3  [label="x"];
s2 -> s16  [label="y"];
s2 -> s14  [label="z"];
s3 -> s5  [label="x"];
s3 -> s11  [label="y"];
s3 -> s16  [label="z"];
s4 -> s12  [label="x"];
s4 -> s11  [label="y"];
s4 -> s4  [label="z"];
s5 -> s15  [label="x"];
s5 -> s8  [label="y"];
s5 -> s11  [label="z"];
s6 -> s2  [label="x"];
s6 -> s4  [label="y"];
s6 -> s13  [label="z"];
s7 -> s1  [label="x"];
s7 -> s10  [label="y"];
s7 -> s5  [label="z"];
s8 -> s10  [label="x"];
s8 -> s10  [label="y"];
s8 -> s16  [label="z"];
s9 -> s12  [label="x"];
s9 -> s14  [label="y"];
s9 -> s6  [label="z"];
s10 -> s7  [label="x"];
s10 -> s9  [label="y"];
s10 -> s17  [label="z"];
s11 -> s4  [label="x"];
s11 -> s4  [label="y"];
s11 -> s8  [label="z"];
s12 -> s14  [label="x"];
s12 -> s11  [label="y"];
s12 -> s1  [label="z"];
s13 -> s8  [label="x"];
s13 -> s9  [label="y"];
s13 -> s9  [label="z"];
s14 -> s1  [label="x"];
s14 -> s12  [label="y"];
s14 -> s14  [label="z"];
s15 -> s1  [label="x"];
s15 -> s12  [label="y"];
s15 -> s4  [label="z"];
s16 -> s11  [label="x"];
s16 -> s14  [label="y"];
s16 -> s4  [label="z"];
s17 -> s7  [label="x"];
s17 -> s13  [label="y"];
s17 -> s9  [label="z"];
__start0 [label="", shape=none];
__start0 -> s1  [label=""];
}
