digraph "benchmarks-true-state-lstar-3seeds/n_states=17-n_outputs=4-glitch_percent=0.01/e3b93ce9701831a0b4c826af9237bd18/pmsatLearned-N17-STOC" {
0 [label="0|a", shape=record, style=rounded];
1 [label="1|b", shape=record, style=rounded];
2 [label="2|c", shape=record, style=rounded];
3 [label="3|d", shape=record, style=rounded];
4 [label="4|a", shape=record, style=rounded];
5 [label="5|d", shape=record, style=rounded];
6 [label="6|d", shape=record, style=rounded];
7 [label="7|b", shape=record, style=rounded];
8 [label="8|d", shape=record, style=rounded];
9 [label="9|d", shape=record, style=rounded];
10 [label="10|a", shape=record, style=rounded];
11 [label="11|c", shape=record, style=rounded];
12 [label="12|b", shape=record, style=rounded];
13 [label="13|a", shape=record, style=rounded];
14 [label="14|c", shape=record, style=rounded];
15 [label="15|d", shape=record, style=rounded];
16 [label="16|a", shape=record, style=rounded];
0 -> 8  [label="x (36)"];
0 -> 1  [label="y (26)"];
0 -> 13  [label="z (25)"];
1 -> 12  [label="x (17)"];
1 -> 1  [label="y (11)"];
1 -> 13  [label="z (11)"];
2 -> 15  [label="z (71)"];
2 -> 5  [label="y (67)"];
2 -> 3  [label="x (131)"];
2 -> 4  [label="!y [2]"];
2 -> 0  [label="!x [1]"];
2 -> 16  [label="!z [1]"];
3 -> 0  [label="x (68)"];
3 -> 4  [label="y (37)"];
3 -> 7  [label="z (22)"];
3 -> 13  [label="!z [1]"];
3 -> 8  [label="!x [1]"];
4 -> 9  [label="x (27)"];
4 -> 15  [label="y (7)"];
4 -> 15  [label="z (8)"];
5 -> 14  [label="x (34)"];
5 -> 6  [label="y (24)"];
5 -> 16  [label="z (23)"];
6 -> 14  [label="x (14)"];
6 -> 0  [label="y (7)"];
6 -> 13  [label="z (7)"];
7 -> 4  [label="x (9)"];
7 -> 16  [label="y (7)"];
7 -> 16  [label="z (7)"];
8 -> 5  [label="x (14)"];
8 -> 15  [label="y (7)"];
8 -> 1  [label="z (7)"];
9 -> 15  [label="x (11)"];
9 -> 16  [label="y (6)"];
9 -> 7  [label="z (6)"];
10 -> 6  [label="x (11)"];
10 -> 8  [label="y (6)"];
10 -> 15  [label="z (5)"];
11 -> 0  [label="x (9)"];
11 -> 11  [label="y (7)"];
11 -> 0  [label="z (7)"];
12 -> 2  [label="x (20)"];
12 -> 1  [label="y (7)"];
12 -> 16  [label="z (7)"];
12 -> 8  [label="!x [1]"];
13 -> 5  [label="x (18)"];
13 -> 0  [label="y (9)"];
13 -> 1  [label="z (9)"];
14 -> 0  [label="x (14)"];
14 -> 3  [label="y (7)"];
14 -> 5  [label="z (7)"];
14 -> 9  [label="!x [1]"];
15 -> 12  [label="x (33)"];
15 -> 10  [label="y (29)"];
15 -> 11  [label="z (26)"];
16 -> 13  [label="x (15)"];
16 -> 2  [label="y (9)"];
16 -> 1  [label="z (10)"];
__start0 [label="", shape=none];
__start0 -> 2  [label=""];
}
