digraph "benchmarks-true-state-lstar-rc10seeds/n_states=11-n_outputs=7-glitch_percent=0.02/a1a664c2be0b4f0521b1d96a3424536e/pmsatLearned_NOP-N11" {
0 [label="0|a", shape=record, style=rounded];
1 [label="1|e", shape=record, style=rounded];
2 [label="2|e", shape=record, style=rounded];
3 [label="3|d", shape=record, style=rounded];
4 [label="4|a", shape=record, style=rounded];
5 [label="5|c", shape=record, style=rounded];
6 [label="6|a", shape=record, style=rounded];
7 [label="7|g", shape=record, style=rounded];
8 [label="8|g", shape=record, style=rounded];
9 [label="9|c", shape=record, style=rounded];
10 [label="10|f", shape=record, style=rounded];
0 -> 9  [label="z"];
0 -> 1  [label="y"];
0 -> 5  [label="x"];
1 -> 7  [label="x"];
1 -> 4  [label="y"];
1 -> 8  [label="z"];
2 -> 6  [label="x"];
2 -> 3  [label="y"];
2 -> 5  [label="z"];
3 -> 7  [label="x"];
3 -> 9  [label="y"];
3 -> 10  [label="z"];
4 -> 0  [label="x"];
4 -> 10  [label="y"];
4 -> 1  [label="z"];
5 -> 2  [label="x"];
5 -> 10  [label="y"];
5 -> 3  [label="z"];
6 -> 10  [label="x"];
6 -> 5  [label="y"];
6 -> 4  [label="z"];
7 -> 1  [label="x"];
7 -> 4  [label="y"];
7 -> 4  [label="z"];
8 -> 8  [label="x"];
8 -> 4  [label="y"];
8 -> 6  [label="z"];
9 -> 6  [label="x"];
9 -> 1  [label="y"];
9 -> 0  [label="z"];
10 -> 1  [label="x"];
10 -> 1  [label="y"];
10 -> 7  [label="z"];
__start0 [label="", shape=none];
__start0 -> 0  [label=""];
}
