digraph "benchmarks-true-state-lstar-rc10seeds/n_states=11-n_outputs=4-glitch_percent=0.0/1df062a87aee1eab20fa77d5a1257566/pmsatLearned_NOP-N11" {
0 [label="0|a", shape=record, style=rounded];
1 [label="1|d", shape=record, style=rounded];
2 [label="2|b", shape=record, style=rounded];
3 [label="3|a", shape=record, style=rounded];
4 [label="4|c", shape=record, style=rounded];
5 [label="5|c", shape=record, style=rounded];
6 [label="6|d", shape=record, style=rounded];
7 [label="7|a", shape=record, style=rounded];
8 [label="8|c", shape=record, style=rounded];
9 [label="9|a", shape=record, style=rounded];
10 [label="10|a", shape=record, style=rounded];
0 -> 4  [label="z"];
0 -> 10  [label="y"];
0 -> 6  [label="x"];
1 -> 2  [label="x"];
1 -> 6  [label="y"];
1 -> 9  [label="z"];
2 -> 7  [label="x"];
2 -> 7  [label="y"];
2 -> 3  [label="z"];
3 -> 0  [label="x"];
3 -> 10  [label="y"];
3 -> 7  [label="z"];
4 -> 5  [label="x"];
4 -> 1  [label="y"];
4 -> 8  [label="z"];
5 -> 4  [label="x"];
5 -> 2  [label="y"];
5 -> 6  [label="z"];
6 -> 2  [label="x"];
6 -> 7  [label="y"];
6 -> 9  [label="z"];
7 -> 3  [label="x"];
7 -> 4  [label="y"];
7 -> 10  [label="z"];
8 -> 10  [label="x"];
8 -> 8  [label="y"];
8 -> 6  [label="z"];
9 -> 7  [label="x"];
9 -> 6  [label="y"];
9 -> 6  [label="z"];
10 -> 3  [label="x"];
10 -> 1  [label="y"];
10 -> 8  [label="z"];
__start0 [label="", shape=none];
__start0 -> 0  [label=""];
}
