digraph "benchmarks-true-state-lstar-3seeds/n_states=5-n_outputs=4-glitch_percent=0.01/3a5dae645ca796a0f3f64ec4c808e2d0/alergiaLearned" {
q0 [label="c"];
q1 [label="c"];
q2 [label="d"];
q3 [label="a"];
q0 -> q1  [label="z:1.0"];
q0 -> q2  [label="y:0.8695652173913043"];
q0 -> q0  [label="y:0.13043478260869565"];
q0 -> q3  [label="x:0.9166666666666666"];
q0 -> q2  [label="x:0.08333333333333333"];
q1 -> q2  [label="x:1.0"];
q1 -> q0  [label="y:1.0"];
q1 -> q0  [label="z:1.0"];
q2 -> q0  [label="x:1.0"];
q2 -> q0  [label="y:0.5"];
q2 -> q3  [label="y:0.5"];
q2 -> q0  [label="z:1.0"];
q3 -> q2  [label="x:1.0"];
q3 -> q3  [label="y:1.0"];
q3 -> q2  [label="z:1.0"];
__start0 [label="", shape=none];
__start0 -> q0  [label=""];
}
