digraph "benchmarks-true-state-lstar-3seeds/n_states=13-n_outputs=2-glitch_percent=0.02/cffa6d55df49cb084e2ba51a13040051/alergiaLearned" {
q0 [label="a"];
q1 [label="b"];
q2 [label="a"];
q3 [label="a"];
q4 [label="b"];
q5 [label="b"];
q6 [label="a"];
q7 [label="a"];
q0 -> q1  [label="z:1.0"];
q0 -> q2  [label="y:1.0"];
q0 -> q3  [label="x:0.9876543209876543"];
q0 -> q4  [label="x:0.012345679012345678"];
q1 -> q4  [label="x:0.972972972972973"];
q1 -> q0  [label="x:0.02702702702702703"];
q1 -> q4  [label="y:0.7692307692307693"];
q1 -> q3  [label="y:0.23076923076923078"];
q1 -> q5  [label="z:0.7272727272727273"];
q1 -> q0  [label="z:0.2727272727272727"];
q2 -> q6  [label="x:0.96875"];
q2 -> q1  [label="x:0.03125"];
q2 -> q4  [label="y:0.8709677419354839"];
q2 -> q0  [label="y:0.12903225806451613"];
q2 -> q4  [label="z:1.0"];
q3 -> q4  [label="x:1.0"];
q3 -> q0  [label="x:0.0"];
q3 -> q7  [label="y:1.0"];
q3 -> q4  [label="y:0.0"];
q3 -> q4  [label="z:0.9642857142857143"];
q3 -> q0  [label="z:0.03571428571428571"];
q4 -> q3  [label="y:0.64"];
q4 -> q1  [label="y:0.36"];
q4 -> q1  [label="x:0.5294117647058824"];
q4 -> q0  [label="x:0.47058823529411764"];
q4 -> q2  [label="z:0.9833333333333333"];
q4 -> q1  [label="z:0.016666666666666666"];
q5 -> q1  [label="x:1.0"];
q5 -> q4  [label="z:0.9375"];
q5 -> q0  [label="z:0.0625"];
q5 -> q1  [label="y:1.0"];
q6 -> q1  [label="x:0.875"];
q6 -> q0  [label="x:0.125"];
q6 -> q3  [label="y:0.8571428571428571"];
q6 -> q1  [label="y:0.14285714285714285"];
q6 -> q1  [label="z:0.7272727272727273"];
q6 -> q7  [label="z:0.2727272727272727"];
q7 -> q2  [label="x:0.9090909090909091"];
q7 -> q1  [label="x:0.09090909090909091"];
q7 -> q1  [label="y:1.0"];
q7 -> q6  [label="z:1.0"];
__start0 [label="", shape=none];
__start0 -> q0  [label=""];
}
