digraph "benchmarks-true-state-lstar-3seeds/n_states=8-n_outputs=2-glitch_percent=0.1/0a37933b5101f35799c5aa8abd920eb6/pmsatLearned-N8" {
0 [label="0|a", shape=record, style=rounded];
1 [label="1|b", shape=record, style=rounded];
2 [label="2|a", shape=record, style=rounded];
3 [label="3|a", shape=record, style=rounded];
4 [label="4|a", shape=record, style=rounded];
5 [label="5|a", shape=record, style=rounded];
6 [label="6|a", shape=record, style=rounded];
7 [label="7|a", shape=record, style=rounded];
0 -> 1  [label="z"];
0 -> 4  [label="y"];
0 -> 7  [label="x"];
1 -> 3  [label="y"];
1 -> 2  [label="z"];
1 -> 3  [label="x"];
2 -> 3  [label="x"];
2 -> 7  [label="y"];
2 -> 1  [label="z"];
3 -> 4  [label="x"];
3 -> 3  [label="y"];
3 -> 2  [label="z"];
4 -> 6  [label="x"];
4 -> 1  [label="y"];
4 -> 3  [label="z"];
5 -> 7  [label="x"];
5 -> 3  [label="z"];
5 -> 1  [label="y"];
6 -> 5  [label="x"];
6 -> 2  [label="y"];
6 -> 1  [label="z"];
7 -> 2  [label="x"];
7 -> 5  [label="y"];
7 -> 3  [label="z"];
__start0 [label="", shape=none];
__start0 -> 0  [label=""];
}
