digraph "benchmarks-true-state-lstar-rc10seeds/n_states=16-n_outputs=6-glitch_percent=0.01/2d1cb03e2d6292ce874c36bd2dc3900b/pmsatLearned_NOP-N16-STOC" {
0 [label="0|b", shape=record, style=rounded];
1 [label="1|e", shape=record, style=rounded];
2 [label="2|d", shape=record, style=rounded];
3 [label="3|d", shape=record, style=rounded];
4 [label="4|b", shape=record, style=rounded];
5 [label="5|c", shape=record, style=rounded];
6 [label="6|c", shape=record, style=rounded];
7 [label="7|f", shape=record, style=rounded];
8 [label="8|f", shape=record, style=rounded];
9 [label="9|a", shape=record, style=rounded];
10 [label="10|b", shape=record, style=rounded];
11 [label="11|c", shape=record, style=rounded];
12 [label="12|f", shape=record, style=rounded];
13 [label="13|a", shape=record, style=rounded];
14 [label="14|e", shape=record, style=rounded];
15 [label="15|c", shape=record, style=rounded];
0 -> 0  [label="x (7)"];
0 -> 10  [label="y (7)"];
0 -> 3  [label="z (7)"];
1 -> 4  [label="x (10)"];
1 -> 1  [label="y (10)"];
1 -> 10  [label="z (10)"];
2 -> 13  [label="x (55)"];
2 -> 12  [label="z (19)"];
2 -> 14  [label="y (18)"];
3 -> 15  [label="z (56)"];
3 -> 4  [label="y (55)"];
3 -> 2  [label="x (91)"];
3 -> 1  [label="!y [1]"];
3 -> 9  [label="!z [1]"];
4 -> 5  [label="x (20)"];
4 -> 7  [label="y (20)"];
4 -> 9  [label="z (19)"];
5 -> 1  [label="x (7)"];
5 -> 2  [label="z (7)"];
5 -> 7  [label="y (6)"];
6 -> 0  [label="x (5)"];
6 -> 3  [label="y (5)"];
6 -> 1  [label="z (5)"];
7 -> 9  [label="x (8)"];
7 -> 13  [label="y (7)"];
7 -> 9  [label="z (8)"];
8 -> 4  [label="x (4)"];
8 -> 14  [label="y (5)"];
8 -> 15  [label="z (5)"];
9 -> 10  [label="x (7)"];
9 -> 13  [label="y (7)"];
9 -> 2  [label="z (7)"];
10 -> 4  [label="x (8)"];
10 -> 5  [label="y (8)"];
10 -> 12  [label="z (8)"];
11 -> 7  [label="x (6)"];
11 -> 1  [label="y (7)"];
11 -> 7  [label="z (7)"];
11 -> 9  [label="!y [1]"];
12 -> 5  [label="x (6)"];
12 -> 11  [label="y (6)"];
12 -> 13  [label="z (6)"];
13 -> 0  [label="x (20)"];
13 -> 6  [label="y (19)"];
13 -> 10  [label="z (20)"];
14 -> 11  [label="x (6)"];
14 -> 1  [label="y (6)"];
14 -> 3  [label="z (6)"];
15 -> 11  [label="x (18)"];
15 -> 1  [label="y (18)"];
15 -> 8  [label="z (17)"];
15 -> 4  [label="!x [1]"];
__start0 [label="", shape=none];
__start0 -> 3  [label=""];
}
