digraph "benchmarks-true-state-lstar-3seeds/n_states=17-n_outputs=2-glitch_percent=0.02/3c91c67cd3491b83a7dbfd2af6ecefe3/RealModel" {
s1 [label="s1|b", shape=record, style=rounded];
s2 [label="s2|a", shape=record, style=rounded];
s3 [label="s3|b", shape=record, style=rounded];
s4 [label="s4|b", shape=record, style=rounded];
s5 [label="s5|b", shape=record, style=rounded];
s6 [label="s6|a", shape=record, style=rounded];
s7 [label="s7|a", shape=record, style=rounded];
s8 [label="s8|a", shape=record, style=rounded];
s9 [label="s9|b", shape=record, style=rounded];
s10 [label="s10|a", shape=record, style=rounded];
s11 [label="s11|b", shape=record, style=rounded];
s12 [label="s12|b", shape=record, style=rounded];
s13 [label="s13|a", shape=record, style=rounded];
s14 [label="s14|a", shape=record, style=rounded];
s15 [label="s15|b", shape=record, style=rounded];
s16 [label="s16|b", shape=record, style=rounded];
s17 [label="s17|a", shape=record, style=rounded];
s1 -> s9  [label="x"];
s1 -> s3  [label="y"];
s1 -> s5  [label="z"];
s2 -> s16  [label="x"];
s2 -> s15  [label="y"];
s2 -> s5  [label="z"];
s3 -> s11  [label="x"];
s3 -> s16  [label="y"];
s3 -> s17  [label="z"];
s4 -> s6  [label="x"];
s4 -> s4  [label="y"];
s4 -> s6  [label="z"];
s5 -> s10  [label="x"];
s5 -> s2  [label="y"];
s5 -> s4  [label="z"];
s6 -> s15  [label="x"];
s6 -> s7  [label="y"];
s6 -> s14  [label="z"];
s7 -> s10  [label="x"];
s7 -> s7  [label="y"];
s7 -> s14  [label="z"];
s8 -> s13  [label="x"];
s8 -> s17  [label="y"];
s8 -> s17  [label="z"];
s9 -> s6  [label="x"];
s9 -> s13  [label="y"];
s9 -> s8  [label="z"];
s10 -> s1  [label="x"];
s10 -> s7  [label="y"];
s10 -> s17  [label="z"];
s11 -> s6  [label="x"];
s11 -> s9  [label="y"];
s11 -> s3  [label="z"];
s12 -> s5  [label="x"];
s12 -> s17  [label="y"];
s12 -> s8  [label="z"];
s13 -> s12  [label="x"];
s13 -> s5  [label="y"];
s13 -> s5  [label="z"];
s14 -> s3  [label="x"];
s14 -> s6  [label="y"];
s14 -> s7  [label="z"];
s15 -> s3  [label="x"];
s15 -> s5  [label="y"];
s15 -> s7  [label="z"];
s16 -> s11  [label="x"];
s16 -> s6  [label="y"];
s16 -> s14  [label="z"];
s17 -> s14  [label="x"];
s17 -> s1  [label="y"];
s17 -> s7  [label="z"];
__start0 [label="", shape=none];
__start0 -> s1  [label=""];
}
