digraph "benchmarks-true-state-lstar-songp/n_states=9-n_outputs=9-glitch_percent=0.05-pmstrat='lsu'/28e3ab81d60965687daa805afdb2ea5d/alergiaLearned" {
q0 [label="a"];
q1 [label="h"];
q2 [label="b"];
q3 [label="c"];
q4 [label="e"];
q5 [label="a"];
q6 [label="f"];
q0 -> q1  [label="z:0.8947368421052632"];
q0 -> q3  [label="z:0.10526315789473684"];
q0 -> q0  [label="z:0.0"];
q0 -> q2  [label="y:1.0"];
q0 -> q3  [label="y:0.0"];
q0 -> q1  [label="x:0.9464285714285714"];
q0 -> q4  [label="x:0.03571428571428571"];
q0 -> q5  [label="x:0.017857142857142856"];
q1 -> q4  [label="x:0.19047619047619047"];
q1 -> q5  [label="x:0.7619047619047619"];
q1 -> q1  [label="x:0.047619047619047616"];
q1 -> q1  [label="y:0.875"];
q1 -> q6  [label="y:0.041666666666666664"];
q1 -> q3  [label="y:0.08333333333333333"];
q1 -> q3  [label="z:0.9047619047619048"];
q1 -> q1  [label="z:0.09523809523809523"];
q2 -> q4  [label="x:1.0"];
q2 -> q6  [label="y:0.9444444444444444"];
q2 -> q4  [label="y:0.05555555555555555"];
q2 -> q4  [label="z:1.0"];
q3 -> q0  [label="x:1.0"];
q3 -> q6  [label="y:1.0"];
q3 -> q3  [label="z:1.0"];
q3 -> q0  [label="z:0.0"];
q4 -> q4  [label="y:1.0"];
q4 -> q1  [label="x:1.0"];
q4 -> q0  [label="z:1.0"];
q5 -> q5  [label="z:1.0"];
q5 -> q4  [label="x:1.0"];
q5 -> q3  [label="y:1.0"];
q6 -> q0  [label="x:1.0"];
q6 -> q3  [label="y:1.0"];
q6 -> q0  [label="z:1.0"];
__start0 [label="", shape=none];
__start0 -> q0  [label=""];
}
