digraph "benchmarks-true-state-lstar-3seeds/n_states=17-n_outputs=6-glitch_percent=0.02/86e347033c0b61305c5ff834ca3539b3/pmsatLearned-N17" {
0 [label="0|a", shape=record, style=rounded];
1 [label="1|b", shape=record, style=rounded];
2 [label="2|c", shape=record, style=rounded];
3 [label="3|d", shape=record, style=rounded];
4 [label="4|e", shape=record, style=rounded];
5 [label="5|f", shape=record, style=rounded];
6 [label="6|a", shape=record, style=rounded];
7 [label="7|b", shape=record, style=rounded];
8 [label="8|f", shape=record, style=rounded];
9 [label="9|f", shape=record, style=rounded];
10 [label="10|e", shape=record, style=rounded];
11 [label="11|c", shape=record, style=rounded];
12 [label="12|d", shape=record, style=rounded];
13 [label="13|b", shape=record, style=rounded];
14 [label="14|c", shape=record, style=rounded];
15 [label="15|c", shape=record, style=rounded];
16 [label="16|c", shape=record, style=rounded];
0 -> 0  [label="x"];
0 -> 7  [label="y"];
0 -> 6  [label="z"];
1 -> 1  [label="x"];
1 -> 14  [label="y"];
1 -> 7  [label="z"];
2 -> 13  [label="y"];
2 -> 4  [label="x"];
2 -> 15  [label="z"];
3 -> 6  [label="z"];
3 -> 15  [label="y"];
3 -> 7  [label="x"];
4 -> 3  [label="x"];
4 -> 1  [label="y"];
4 -> 3  [label="z"];
5 -> 12  [label="x"];
5 -> 0  [label="y"];
5 -> 6  [label="z"];
6 -> 11  [label="x"];
6 -> 14  [label="y"];
6 -> 13  [label="z"];
7 -> 8  [label="x"];
7 -> 12  [label="y"];
7 -> 16  [label="z"];
8 -> 1  [label="x"];
8 -> 4  [label="y"];
8 -> 2  [label="z"];
9 -> 12  [label="x"];
9 -> 9  [label="y"];
9 -> 4  [label="z"];
10 -> 8  [label="x"];
10 -> 9  [label="y"];
10 -> 7  [label="z"];
11 -> 9  [label="x"];
11 -> 13  [label="y"];
11 -> 4  [label="z"];
12 -> 10  [label="x"];
12 -> 15  [label="y"];
12 -> 2  [label="z"];
13 -> 14  [label="x"];
13 -> 10  [label="y"];
13 -> 16  [label="z"];
14 -> 14  [label="x"];
14 -> 7  [label="y"];
14 -> 13  [label="z"];
15 -> 5  [label="x"];
15 -> 0  [label="y"];
15 -> 9  [label="z"];
16 -> 6  [label="x"];
16 -> 4  [label="y"];
16 -> 9  [label="z"];
__start0 [label="", shape=none];
__start0 -> 3  [label=""];
}
