digraph "benchmarks-true-state-lstar-3seeds/n_states=8-n_outputs=6-glitch_percent=0.05/690301a630a2a9a2681df4d79c5dfcab/alergiaLearned" {
q0 [label="c"];
q1 [label="c"];
q2 [label="d"];
q3 [label="e"];
q4 [label="a"];
q5 [label="e"];
q6 [label="d"];
q0 -> q1  [label="z:0.7916666666666666"];
q0 -> q2  [label="z:0.08333333333333333"];
q0 -> q3  [label="z:0.125"];
q0 -> q2  [label="y:0.9375"];
q0 -> q3  [label="y:0.03125"];
q0 -> q0  [label="y:0.03125"];
q0 -> q3  [label="x:0.9827586206896551"];
q0 -> q0  [label="x:0.017241379310344827"];
q1 -> q0  [label="x:0.5"];
q1 -> q3  [label="x:0.5"];
q1 -> q0  [label="y:0.6"];
q1 -> q3  [label="y:0.4"];
q1 -> q2  [label="y:0.0"];
q1 -> q3  [label="z:0.8888888888888888"];
q1 -> q2  [label="z:0.1111111111111111"];
q2 -> q1  [label="x:1.0"];
q2 -> q0  [label="y:1.0"];
q2 -> q2  [label="z:1.0"];
q3 -> q4  [label="x:0.875"];
q3 -> q3  [label="x:0.125"];
q3 -> q5  [label="y:0.88"];
q3 -> q0  [label="y:0.12"];
q3 -> q6  [label="z:0.8333333333333334"];
q3 -> q3  [label="z:0.16666666666666666"];
q4 -> q0  [label="x:1.0"];
q4 -> q3  [label="y:0.8"];
q4 -> q0  [label="y:0.2"];
q4 -> q3  [label="z:1.0"];
q5 -> q3  [label="x:1.0"];
q5 -> q0  [label="y:0.8"];
q5 -> q3  [label="y:0.2"];
q5 -> q3  [label="z:1.0"];
q6 -> q3  [label="y:1.0"];
q6 -> q3  [label="z:1.0"];
q6 -> q0  [label="x:1.0"];
__start0 [label="", shape=none];
__start0 -> q0  [label=""];
}
