digraph "benchmarks-true-state-lstar-3seeds/n_states=7-n_outputs=4-glitch_percent=0.0/3b804e6387a0816a14ca9bf1b56e30c1/alergiaLearned" {
q0 [label="b"];
q1 [label="b"];
q2 [label="d"];
q3 [label="d"];
q4 [label="c"];
q0 -> q1  [label="z:0.9545454545454546"];
q0 -> q2  [label="z:0.045454545454545456"];
q0 -> q2  [label="y:0.9545454545454546"];
q0 -> q0  [label="y:0.045454545454545456"];
q0 -> q3  [label="x:0.9827586206896551"];
q0 -> q0  [label="x:0.017241379310344827"];
q1 -> q0  [label="x:0.7222222222222222"];
q1 -> q2  [label="x:0.2777777777777778"];
q1 -> q2  [label="y:0.3333333333333333"];
q1 -> q0  [label="y:0.6666666666666666"];
q1 -> q0  [label="z:0.6111111111111112"];
q1 -> q2  [label="z:0.3888888888888889"];
q2 -> q1  [label="x:0.75"];
q2 -> q4  [label="x:0.25"];
q2 -> q1  [label="y:1.0"];
q2 -> q2  [label="z:0.75"];
q2 -> q0  [label="z:0.25"];
q3 -> q4  [label="x:1.0"];
q3 -> q1  [label="y:1.0"];
q3 -> q1  [label="z:1.0"];
q4 -> q0  [label="x:1.0"];
q4 -> q4  [label="y:1.0"];
q4 -> q1  [label="z:1.0"];
__start0 [label="", shape=none];
__start0 -> q0  [label=""];
}
