digraph "benchmarks-true-state-lstar-rc10seeds/n_states=15-n_outputs=6-glitch_percent=0.0/cee445847fec543e81ea1847c5daa99d/pmsatLearned_NOP-N15-STOC" {
0 [label="0|c", shape=record, style=rounded];
1 [label="1|c", shape=record, style=rounded];
2 [label="2|e", shape=record, style=rounded];
3 [label="3|a", shape=record, style=rounded];
4 [label="4|f", shape=record, style=rounded];
5 [label="5|e", shape=record, style=rounded];
6 [label="6|d", shape=record, style=rounded];
7 [label="7|e", shape=record, style=rounded];
8 [label="8|a", shape=record, style=rounded];
9 [label="9|d", shape=record, style=rounded];
10 [label="10|d", shape=record, style=rounded];
11 [label="11|e", shape=record, style=rounded];
12 [label="12|c", shape=record, style=rounded];
13 [label="13|d", shape=record, style=rounded];
14 [label="14|d", shape=record, style=rounded];
0 -> 7  [label="x (9)"];
0 -> 7  [label="y (7)"];
0 -> 3  [label="z (7)"];
1 -> 14  [label="z (69)"];
1 -> 7  [label="y (72)"];
1 -> 8  [label="x (101)"];
2 -> 2  [label="x (32)"];
2 -> 8  [label="y (11)"];
2 -> 2  [label="z (11)"];
3 -> 7  [label="x (11)"];
3 -> 1  [label="y (8)"];
3 -> 5  [label="z (8)"];
4 -> 2  [label="x (12)"];
4 -> 11  [label="y (8)"];
4 -> 11  [label="z (8)"];
5 -> 12  [label="x (39)"];
5 -> 10  [label="y (25)"];
5 -> 0  [label="z (10)"];
6 -> 4  [label="x (7)"];
6 -> 1  [label="y (6)"];
6 -> 14  [label="z (6)"];
7 -> 9  [label="x (37)"];
7 -> 13  [label="y (24)"];
7 -> 0  [label="z (24)"];
8 -> 5  [label="x (57)"];
8 -> 3  [label="y (22)"];
8 -> 4  [label="z (22)"];
9 -> 2  [label="x (17)"];
9 -> 10  [label="y (7)"];
9 -> 2  [label="z (7)"];
10 -> 5  [label="x (15)"];
10 -> 13  [label="y (9)"];
10 -> 9  [label="z (9)"];
11 -> 13  [label="x (16)"];
11 -> 11  [label="y (9)"];
11 -> 4  [label="z (9)"];
12 -> 10  [label="x (14)"];
12 -> 12  [label="y (7)"];
12 -> 5  [label="z (7)"];
13 -> 5  [label="x (15)"];
13 -> 10  [label="y (8)"];
13 -> 3  [label="z (8)"];
14 -> 11  [label="x (25)"];
14 -> 6  [label="y (22)"];
14 -> 2  [label="z (22)"];
__start0 [label="", shape=none];
__start0 -> 1  [label=""];
}
