digraph "benchmarks-true-state-lstar-3seeds/n_states=10-n_outputs=8-glitch_percent=0.0/e531ab79968d55e5a20c803581223ccc/pmsatLearned-N10-STOC" {
0 [label="0|b", shape=record, style=rounded];
1 [label="1|c", shape=record, style=rounded];
2 [label="2|d", shape=record, style=rounded];
3 [label="3|e", shape=record, style=rounded];
4 [label="4|f", shape=record, style=rounded];
5 [label="5|g", shape=record, style=rounded];
6 [label="6|h", shape=record, style=rounded];
7 [label="7|c", shape=record, style=rounded];
8 [label="8|c", shape=record, style=rounded];
9 [label="9|d", shape=record, style=rounded];
0 -> 3  [label="x (6)"];
0 -> 1  [label="y (6)"];
0 -> 7  [label="z (6)"];
1 -> 2  [label="x (8)"];
1 -> 5  [label="y (8)"];
1 -> 5  [label="z (8)"];
2 -> 6  [label="x (19)"];
2 -> 0  [label="y (19)"];
2 -> 9  [label="z (19)"];
3 -> 4  [label="x (9)"];
3 -> 6  [label="y (9)"];
3 -> 5  [label="z (9)"];
4 -> 7  [label="z (19)"];
4 -> 2  [label="y (55)"];
4 -> 5  [label="x (55)"];
5 -> 3  [label="x (21)"];
5 -> 8  [label="y (21)"];
5 -> 1  [label="z (21)"];
6 -> 4  [label="x (6)"];
6 -> 9  [label="y (6)"];
6 -> 5  [label="z (6)"];
7 -> 0  [label="x (7)"];
7 -> 3  [label="y (7)"];
7 -> 3  [label="z (7)"];
8 -> 1  [label="x (6)"];
8 -> 1  [label="y (6)"];
8 -> 8  [label="z (6)"];
9 -> 3  [label="x (6)"];
9 -> 2  [label="y (6)"];
9 -> 7  [label="z (6)"];
__start0 [label="", shape=none];
__start0 -> 4  [label=""];
}
