digraph "benchmarks-true-state-lstar-3seeds/n_states=13-n_outputs=3-glitch_percent=0.05/349408df8b4ef63d9002d02f0ddb8bfe/rpniGroundTruth" {
s0 [label="s0|c", shape=record, style=rounded];
s1 [label="s1|b", shape=record, style=rounded];
s2 [label="s2|c", shape=record, style=rounded];
s3 [label="s3|a", shape=record, style=rounded];
s4 [label="s4|b", shape=record, style=rounded];
s5 [label="s5|c", shape=record, style=rounded];
s6 [label="s6|a", shape=record, style=rounded];
s7 [label="s7|c", shape=record, style=rounded];
s8 [label="s8|b", shape=record, style=rounded];
s9 [label="s9|c", shape=record, style=rounded];
s10 [label="s10|c", shape=record, style=rounded];
s11 [label="s11|b", shape=record, style=rounded];
s12 [label="s12|c", shape=record, style=rounded];
s0 -> s1  [label="z"];
s0 -> s2  [label="y"];
s0 -> s3  [label="x"];
s1 -> s4  [label="x"];
s1 -> s5  [label="y"];
s1 -> s6  [label="z"];
s2 -> s7  [label="z"];
s2 -> s8  [label="x"];
s2 -> s9  [label="y"];
s3 -> s10  [label="z"];
s3 -> s11  [label="x"];
s3 -> s12  [label="y"];
s4 -> s1  [label="y"];
s4 -> s4  [label="x"];
s4 -> s9  [label="z"];
s5 -> s5  [label="y"];
s5 -> s7  [label="z"];
s5 -> s9  [label="x"];
s6 -> s4  [label="x"];
s6 -> s6  [label="y"];
s6 -> s8  [label="z"];
s7 -> s8  [label="x"];
s7 -> s6  [label="z"];
s7 -> s3  [label="y"];
s8 -> s4  [label="y"];
s8 -> s1  [label="x"];
s8 -> s9  [label="z"];
s9 -> s2  [label="z"];
s9 -> s0  [label="x"];
s9 -> s11  [label="y"];
s10 -> s4  [label="y"];
s10 -> s6  [label="x"];
s10 -> s11  [label="z"];
s11 -> s7  [label="x"];
s11 -> s8  [label="z"];
s11 -> s7  [label="y"];
s12 -> s11  [label="y"];
s12 -> s1  [label="z"];
s12 -> s8  [label="x"];
__start0 [label="", shape=none];
__start0 -> s0  [label=""];
}
