digraph "benchmarks-true-state-lstar-3seeds/n_states=17-n_outputs=3-glitch_percent=0.1/cec8f77e26b48bc8ffa9fdf17cd4abda/alergiaLearned" {
q0 [label="b"];
q1 [label="a"];
q2 [label="a"];
q3 [label="b"];
q4 [label="c"];
q5 [label="c"];
q6 [label="a"];
q7 [label="b"];
q8 [label="b"];
q9 [label="c"];
q0 -> q1  [label="z:0.8194444444444444"];
q0 -> q0  [label="z:0.1527777777777778"];
q0 -> q4  [label="z:0.027777777777777776"];
q0 -> q2  [label="y:0.896551724137931"];
q0 -> q4  [label="y:0.10344827586206896"];
q0 -> q0  [label="y:0.0"];
q0 -> q3  [label="x:0.9523809523809523"];
q0 -> q5  [label="x:0.013605442176870748"];
q0 -> q6  [label="x:0.034013605442176874"];
q1 -> q4  [label="x:0.6"];
q1 -> q6  [label="x:0.08"];
q1 -> q0  [label="x:0.32"];
q1 -> q6  [label="y:0.7777777777777778"];
q1 -> q7  [label="y:0.2222222222222222"];
q1 -> q4  [label="y:0.0"];
q1 -> q7  [label="z:0.8571428571428571"];
q1 -> q4  [label="z:0.09523809523809523"];
q1 -> q1  [label="z:0.047619047619047616"];
q2 -> q6  [label="x:0.8571428571428571"];
q2 -> q3  [label="x:0.14285714285714285"];
q2 -> q6  [label="y:0.8421052631578947"];
q2 -> q0  [label="y:0.05263157894736842"];
q2 -> q4  [label="y:0.10526315789473684"];
q2 -> q7  [label="z:0.875"];
q2 -> q1  [label="z:0.125"];
q3 -> q8  [label="x:0.8591549295774648"];
q3 -> q6  [label="x:0.14084507042253522"];
q3 -> q4  [label="y:0.8043478260869565"];
q3 -> q3  [label="y:0.15217391304347827"];
q3 -> q6  [label="y:0.043478260869565216"];
q3 -> q0  [label="z:0.8260869565217391"];
q3 -> q4  [label="z:0.17391304347826086"];
q4 -> q1  [label="x:0.5609756097560976"];
q4 -> q0  [label="x:0.43902439024390244"];
q4 -> q0  [label="y:0.52"];
q4 -> q4  [label="y:0.04"];
q4 -> q1  [label="y:0.44"];
q4 -> q4  [label="z:0.2857142857142857"];
q4 -> q0  [label="z:0.7142857142857143"];
q5 -> q0  [label="z:1.0"];
q6 -> q0  [label="y:0.9655172413793104"];
q6 -> q4  [label="y:0.034482758620689655"];
q6 -> q7  [label="z:0.3181818181818182"];
q6 -> q1  [label="z:0.4090909090909091"];
q6 -> q4  [label="z:0.2727272727272727"];
q6 -> q0  [label="x:0.6842105263157895"];
q6 -> q1  [label="x:0.3157894736842105"];
q7 -> q6  [label="x:0.45"];
q7 -> q4  [label="x:0.25"];
q7 -> q0  [label="x:0.3"];
q7 -> q1  [label="y:0.2916666666666667"];
q7 -> q0  [label="y:0.4166666666666667"];
q7 -> q9  [label="y:0.2916666666666667"];
q7 -> q4  [label="z:0.3333333333333333"];
q7 -> q3  [label="z:0.6666666666666666"];
q8 -> q6  [label="x:1.0"];
q8 -> q7  [label="y:0.9565217391304348"];
q8 -> q4  [label="y:0.043478260869565216"];
q8 -> q4  [label="z:1.0"];
q9 -> q0  [label="x:1.0"];
__start0 [label="", shape=none];
__start0 -> q0  [label=""];
}
