digraph "pmsatLearned-N8-STOC" {
0 [label="0|a", shape=record, style=rounded];
1 [label="1|b", shape=record, style=rounded];
2 [label="2|c", shape=record, style=rounded];
3 [label="3|d", shape=record, style=rounded];
4 [label="4|e", shape=record, style=rounded];
5 [label="5|a", shape=record, style=rounded];
6 [label="6|e", shape=record, style=rounded];
7 [label="7|c", shape=record, style=rounded];
0 -> 2  [label="x (143)"];
0 -> 1  [label="y (131)"];
0 -> 0  [label="z (134)"];
1 -> 4  [label="x (167)"];
1 -> 6  [label="y (151)"];
1 -> 7  [label="z (166)"];
1 -> 3  [label="!x [1]"];
1 -> 6  [label="!z [1]"];
1 -> 6  [label="!x [1] t1"];
2 -> 0  [label="x (47)"];
2 -> 5  [label="y (37)"];
2 -> 5  [label="z (42)"];
2 -> 2  [label="!x [1]"];
2 -> 1  [label="!x [1] t1"];
3 -> 4  [label="x (87)"];
3 -> 0  [label="y (76)"];
3 -> 1  [label="z (84)"];
3 -> 0  [label="!z [2]"];
3 -> 7  [label="!x [1]"];
4 -> 1  [label="z (205)"];
4 -> 0  [label="y (206)"];
4 -> 7  [label="x (223)"];
4 -> 1  [label="!y [2]"];
4 -> 7  [label="!z [1]"];
4 -> 4  [label="!x [1]"];
5 -> 1  [label="x (57)"];
5 -> 1  [label="y (61)"];
5 -> 3  [label="z (72)"];
5 -> 4  [label="!x [1]"];
5 -> 0  [label="!y [1]"];
6 -> 4  [label="x (110)"];
6 -> 3  [label="y (104)"];
6 -> 6  [label="z (97)"];
6 -> 1  [label="!z [1]"];
6 -> 6  [label="!x [1]"];
7 -> 3  [label="x (110)"];
7 -> 6  [label="y (111)"];
7 -> 5  [label="z (133)"];
7 -> 0  [label="!y [1]"];
7 -> 1  [label="!x [2]"];
7 -> 6  [label="!z [1]"];
7 -> 4  [label="!y [1] t1"];
__start0 [label="", shape=none];
__start0 -> 4  [label=""];
}
