digraph "benchmarks-true-state-lstar-3seeds/n_states=14-n_outputs=8-glitch_percent=0.01/0a889d8082a51846d42c552d4cfc38ae/pmsatLearned-N14-STOC" {
0 [label="0|a", shape=record, style=rounded];
1 [label="1|b", shape=record, style=rounded];
2 [label="2|e", shape=record, style=rounded];
3 [label="3|f", shape=record, style=rounded];
4 [label="4|g", shape=record, style=rounded];
5 [label="5|h", shape=record, style=rounded];
6 [label="6|e", shape=record, style=rounded];
7 [label="7|h", shape=record, style=rounded];
8 [label="8|e", shape=record, style=rounded];
9 [label="9|a", shape=record, style=rounded];
10 [label="10|b", shape=record, style=rounded];
11 [label="11|b", shape=record, style=rounded];
12 [label="12|e", shape=record, style=rounded];
13 [label="13|b", shape=record, style=rounded];
0 -> 6  [label="x (11)"];
0 -> 1  [label="z (8)"];
0 -> 3  [label="y (7)"];
1 -> 1  [label="x (23)"];
1 -> 8  [label="y (10)"];
1 -> 4  [label="z (10)"];
2 -> 6  [label="z (70)"];
2 -> 10  [label="y (68)"];
2 -> 8  [label="x (95)"];
2 -> 13  [label="!z [1]"];
3 -> 2  [label="x (14)"];
3 -> 7  [label="y (9)"];
3 -> 8  [label="z (9)"];
3 -> 8  [label="!x [1]"];
4 -> 7  [label="x (33)"];
4 -> 5  [label="y (8)"];
4 -> 3  [label="z (8)"];
4 -> 0  [label="!z [1]"];
5 -> 1  [label="x (10)"];
5 -> 11  [label="y (6)"];
5 -> 0  [label="z (7)"];
6 -> 11  [label="x (34)"];
6 -> 0  [label="y (24)"];
6 -> 5  [label="z (25)"];
7 -> 11  [label="x (19)"];
7 -> 10  [label="y (8)"];
7 -> 0  [label="z (7)"];
8 -> 4  [label="x (54)"];
8 -> 12  [label="y (25)"];
8 -> 3  [label="z (26)"];
8 -> 1  [label="!y [1]"];
8 -> 7  [label="!x [1]"];
9 -> 13  [label="x (9)"];
9 -> 8  [label="y (6)"];
9 -> 6  [label="z (6)"];
10 -> 9  [label="x (24)"];
10 -> 1  [label="y (22)"];
10 -> 13  [label="z (21)"];
11 -> 6  [label="x (22)"];
11 -> 8  [label="y (8)"];
11 -> 8  [label="z (8)"];
12 -> 7  [label="x (7)"];
12 -> 1  [label="y (5)"];
12 -> 2  [label="z (6)"];
13 -> 3  [label="x (10)"];
13 -> 4  [label="y (7)"];
13 -> 2  [label="z (7)"];
__start0 [label="", shape=none];
__start0 -> 2  [label=""];
}
