digraph "benchmarks-true-state-lstar-songp/n_states=13-n_outputs=2-glitch_percent=0.02-pmstrat='rc2'/d2650cc455432fc6e762c836359c98fc/alergiaLearned" {
q0 [label="a"];
q1 [label="b"];
q2 [label="b"];
q3 [label="b"];
q4 [label="b"];
q5 [label="b"];
q6 [label="b"];
q7 [label="a"];
q8 [label="a"];
q9 [label="a"];
q10 [label="b"];
q0 -> q1  [label="z:1.0"];
q0 -> q2  [label="y:0.9805825242718447"];
q0 -> q0  [label="y:0.019417475728155338"];
q0 -> q3  [label="x:0.9655172413793104"];
q0 -> q0  [label="x:0.034482758620689655"];
q1 -> q4  [label="x:0.9836065573770492"];
q1 -> q0  [label="x:0.01639344262295082"];
q1 -> q5  [label="y:0.9736842105263158"];
q1 -> q0  [label="y:0.02631578947368421"];
q1 -> q6  [label="z:1.0"];
q2 -> q7  [label="x:0.9761904761904762"];
q2 -> q1  [label="x:0.023809523809523808"];
q2 -> q8  [label="y:1.0"];
q2 -> q6  [label="z:1.0"];
q3 -> q9  [label="x:0.9487179487179487"];
q3 -> q2  [label="x:0.05128205128205128"];
q3 -> q6  [label="y:1.0"];
q3 -> q10  [label="z:0.972972972972973"];
q3 -> q0  [label="z:0.02702702702702703"];
q4 -> q1  [label="x:0.72"];
q4 -> q0  [label="x:0.28"];
q4 -> q1  [label="y:0.8888888888888888"];
q4 -> q0  [label="y:0.1111111111111111"];
q4 -> q0  [label="z:0.7777777777777778"];
q4 -> q1  [label="z:0.2222222222222222"];
q5 -> q1  [label="y:1.0"];
q5 -> q4  [label="z:1.0"];
q5 -> q2  [label="x:1.0"];
q6 -> q1  [label="x:1.0"];
q6 -> q3  [label="y:0.6666666666666666"];
q6 -> q0  [label="y:0.3333333333333333"];
q6 -> q1  [label="z:0.9285714285714286"];
q6 -> q0  [label="z:0.07142857142857142"];
q7 -> q1  [label="y:1.0"];
q7 -> q1  [label="z:1.0"];
q7 -> q1  [label="x:0.04"];
q7 -> q7  [label="x:0.96"];
q8 -> q2  [label="x:1.0"];
q8 -> q0  [label="y:1.0"];
q8 -> q1  [label="z:1.0"];
q9 -> q1  [label="x:1.0"];
q9 -> q7  [label="y:1.0"];
q9 -> q4  [label="z:1.0"];
q10 -> q0  [label="x:1.0"];
q10 -> q7  [label="y:1.0"];
q10 -> q0  [label="z:1.0"];
q10 -> q1  [label="z:0.0"];
__start0 [label="", shape=none];
__start0 -> q0  [label=""];
}
