digraph "pmsatLearned-N12" {
0 [label="0|a", shape=record, style=rounded];
1 [label="1|b", shape=record, style=rounded];
2 [label="2|c", shape=record, style=rounded];
3 [label="3|d", shape=record, style=rounded];
4 [label="4|e", shape=record, style=rounded];
5 [label="5|b", shape=record, style=rounded];
6 [label="6|e", shape=record, style=rounded];
7 [label="7|c", shape=record, style=rounded];
8 [label="8|c", shape=record, style=rounded];
9 [label="9|a", shape=record, style=rounded];
10 [label="10|d", shape=record, style=rounded];
11 [label="11|e", shape=record, style=rounded];
0 -> 9  [label="x"];
0 -> 0  [label="y"];
0 -> 4  [label="z"];
1 -> 9  [label="x"];
1 -> 1  [label="y"];
1 -> 5  [label="z"];
2 -> 10  [label="x"];
2 -> 4  [label="y"];
2 -> 0  [label="z"];
3 -> 4  [label="z"];
3 -> 6  [label="y"];
3 -> 9  [label="x"];
4 -> 1  [label="x"];
4 -> 5  [label="y"];
4 -> 3  [label="z"];
5 -> 3  [label="x"];
5 -> 2  [label="y"];
5 -> 0  [label="z"];
6 -> 7  [label="x"];
6 -> 11  [label="y"];
6 -> 8  [label="z"];
7 -> 1  [label="x"];
7 -> 2  [label="y"];
7 -> 6  [label="z"];
8 -> 4  [label="x"];
8 -> 1  [label="y"];
8 -> 2  [label="z"];
9 -> 10  [label="x"];
9 -> 2  [label="y"];
9 -> 0  [label="z"];
10 -> 4  [label="x"];
10 -> 8  [label="y"];
10 -> 11  [label="z"];
11 -> 2  [label="x"];
11 -> 0  [label="y"];
11 -> 9  [label="z"];
__start0 [label="", shape=none];
__start0 -> 3  [label=""];
}
