digraph "benchmarks-true-state-lstar-songp/n_states=4-n_outputs=4-glitch_percent=0.01-pmstrat='fm'/968fd68f1ded1fea7416b8dbea82d60d/pmsatLearned-N4-STOC" {
0 [label="0|a", shape=record, style=rounded];
1 [label="1|b", shape=record, style=rounded];
2 [label="2|c", shape=record, style=rounded];
3 [label="3|d", shape=record, style=rounded];
0 -> 3  [label="z (20)"];
0 -> 2  [label="y (20)"];
0 -> 1  [label="x (20)"];
1 -> 3  [label="x (6)"];
1 -> 0  [label="y (6)"];
1 -> 3  [label="z (5)"];
1 -> 0  [label="!z [1]"];
2 -> 1  [label="x (6)"];
2 -> 3  [label="y (6)"];
2 -> 3  [label="z (6)"];
3 -> 2  [label="x (9)"];
3 -> 0  [label="y (9)"];
3 -> 0  [label="z (8)"];
__start0 [label="", shape=none];
__start0 -> 0  [label=""];
}
