digraph "pmsatLearned-N8-STOC" {
0 [label="0|a", shape=record, style=rounded];
1 [label="1|b", shape=record, style=rounded];
2 [label="2|c", shape=record, style=rounded];
3 [label="3|d", shape=record, style=rounded];
4 [label="4|e", shape=record, style=rounded];
5 [label="5|a", shape=record, style=rounded];
6 [label="6|c", shape=record, style=rounded];
7 [label="7|e", shape=record, style=rounded];
0 -> 2  [label="x (124)"];
0 -> 1  [label="y (108)"];
0 -> 2  [label="z (150)"];
0 -> 4  [label="!z [1]"];
0 -> 1  [label="!z [1] t1"];
0 -> 5  [label="!x [1]"];
1 -> 2  [label="x (118)"];
1 -> 2  [label="y (117)"];
1 -> 4  [label="z (128)"];
1 -> 0  [label="!x [2]"];
1 -> 1  [label="!z [1]"];
1 -> 7  [label="!y [1]"];
2 -> 0  [label="x (279)"];
2 -> 7  [label="y (258)"];
2 -> 1  [label="z (253)"];
2 -> 6  [label="!x [1]"];
2 -> 4  [label="!y [1]"];
2 -> 0  [label="!z [1]"];
2 -> 1  [label="!y [1] t1"];
2 -> 5  [label="!x [1] t1"];
3 -> 7  [label="x (57)"];
3 -> 1  [label="y (50)"];
3 -> 5  [label="z (57)"];
3 -> 2  [label="!y [2]"];
3 -> 0  [label="!z [1]"];
4 -> 3  [label="z (190)"];
4 -> 6  [label="y (199)"];
4 -> 2  [label="x (223)"];
4 -> 7  [label="!y [2]"];
4 -> 4  [label="!y [1]"];
4 -> 5  [label="!x [2]"];
4 -> 1  [label="!z [1]"];
4 -> 7  [label="!x [1]"];
4 -> 4  [label="!z [1] t1"];
5 -> 4  [label="x (40)"];
5 -> 7  [label="y (49)"];
5 -> 7  [label="z (58)"];
5 -> 0  [label="!z [1]"];
6 -> 5  [label="x (109)"];
6 -> 7  [label="y (96)"];
6 -> 4  [label="z (113)"];
6 -> 2  [label="!y [1]"];
6 -> 6  [label="!y [1] t1"];
7 -> 6  [label="x (160)"];
7 -> 2  [label="y (155)"];
7 -> 0  [label="z (153)"];
__start0 [label="", shape=none];
__start0 -> 4  [label=""];
}
