digraph "benchmarks-true-state-lstar-3seeds/n_states=13-n_outputs=8-glitch_percent=0.01/f69183a98e7bcdf89128ba5e5f6c0e65/rpniGroundTruth" {
s0 [label="s0|h", shape=record, style=rounded];
s1 [label="s1|h", shape=record, style=rounded];
s2 [label="s2|f", shape=record, style=rounded];
s3 [label="s3|b", shape=record, style=rounded];
s4 [label="s4|d", shape=record, style=rounded];
s5 [label="s5|e", shape=record, style=rounded];
s6 [label="s6|b", shape=record, style=rounded];
s7 [label="s7|f", shape=record, style=rounded];
s8 [label="s8|c", shape=record, style=rounded];
s9 [label="s9|d", shape=record, style=rounded];
s10 [label="s10|f", shape=record, style=rounded];
s11 [label="s11|b", shape=record, style=rounded];
s12 [label="s12|f", shape=record, style=rounded];
s0 -> s1  [label="z"];
s0 -> s2  [label="y"];
s0 -> s3  [label="x"];
s1 -> s4  [label="z"];
s1 -> s5  [label="y"];
s1 -> s6  [label="x"];
s2 -> s7  [label="y"];
s2 -> s8  [label="z"];
s2 -> s9  [label="x"];
s3 -> s10  [label="x"];
s3 -> s11  [label="z"];
s3 -> s12  [label="y"];
s4 -> s9  [label="y"];
s4 -> s4  [label="x"];
s4 -> s6  [label="z"];
s5 -> s6  [label="z"];
s5 -> s1  [label="y"];
s5 -> s12  [label="x"];
s6 -> s2  [label="z"];
s6 -> s6  [label="y"];
s6 -> s7  [label="x"];
s7 -> s3  [label="x"];
s7 -> s5  [label="z"];
s7 -> s7  [label="y"];
s8 -> s2  [label="y"];
s8 -> s4  [label="x"];
s8 -> s1  [label="z"];
s9 -> s1  [label="y"];
s9 -> s11  [label="z"];
s9 -> s10  [label="x"];
s10 -> s6  [label="y"];
s10 -> s7  [label="x"];
s10 -> s10  [label="z"];
s11 -> s3  [label="x"];
s11 -> s4  [label="z"];
s11 -> s0  [label="y"];
s12 -> s7  [label="y"];
s12 -> s8  [label="z"];
s12 -> s11  [label="x"];
__start0 [label="", shape=none];
__start0 -> s0  [label=""];
}
