digraph "benchmarks-true-state-lstar-rc10seeds/n_states=15-n_outputs=4-glitch_percent=0.0/d38ba50e8b68b9d557054ea1bbe73d5c/pmsatLearned_NOP-N15-STOC" {
0 [label="0|b", shape=record, style=rounded];
1 [label="1|b", shape=record, style=rounded];
2 [label="2|a", shape=record, style=rounded];
3 [label="3|b", shape=record, style=rounded];
4 [label="4|a", shape=record, style=rounded];
5 [label="5|a", shape=record, style=rounded];
6 [label="6|a", shape=record, style=rounded];
7 [label="7|c", shape=record, style=rounded];
8 [label="8|a", shape=record, style=rounded];
9 [label="9|a", shape=record, style=rounded];
10 [label="10|c", shape=record, style=rounded];
11 [label="11|c", shape=record, style=rounded];
12 [label="12|d", shape=record, style=rounded];
13 [label="13|a", shape=record, style=rounded];
14 [label="14|b", shape=record, style=rounded];
0 -> 4  [label="z (53)"];
0 -> 11  [label="y (53)"];
0 -> 5  [label="x (77)"];
1 -> 4  [label="x (7)"];
1 -> 3  [label="y (7)"];
1 -> 4  [label="z (7)"];
2 -> 3  [label="x (8)"];
2 -> 11  [label="y (8)"];
2 -> 12  [label="z (8)"];
3 -> 5  [label="x (7)"];
3 -> 7  [label="y (7)"];
3 -> 14  [label="z (7)"];
4 -> 10  [label="x (21)"];
4 -> 9  [label="y (21)"];
4 -> 2  [label="z (21)"];
5 -> 8  [label="x (43)"];
5 -> 3  [label="y (19)"];
5 -> 7  [label="z (19)"];
6 -> 4  [label="x (6)"];
6 -> 2  [label="y (6)"];
6 -> 6  [label="z (6)"];
7 -> 1  [label="x (8)"];
7 -> 9  [label="y (8)"];
7 -> 12  [label="z (8)"];
8 -> 1  [label="x (19)"];
8 -> 13  [label="y (19)"];
8 -> 10  [label="z (7)"];
9 -> 2  [label="x (7)"];
9 -> 7  [label="y (7)"];
9 -> 7  [label="z (7)"];
10 -> 9  [label="x (6)"];
10 -> 8  [label="y (6)"];
10 -> 1  [label="z (6)"];
11 -> 6  [label="x (19)"];
11 -> 14  [label="y (19)"];
11 -> 12  [label="z (19)"];
12 -> 5  [label="x (8)"];
12 -> 11  [label="y (8)"];
12 -> 8  [label="z (8)"];
13 -> 14  [label="x (5)"];
13 -> 14  [label="y (5)"];
13 -> 14  [label="z (5)"];
14 -> 12  [label="x (9)"];
14 -> 4  [label="y (9)"];
14 -> 2  [label="z (9)"];
__start0 [label="", shape=none];
__start0 -> 0  [label=""];
}
