digraph "pmsatLearned-N8-STOC" {
0 [label="0|b", shape=record, style=rounded];
1 [label="1|c", shape=record, style=rounded];
2 [label="2|d", shape=record, style=rounded];
3 [label="3|e", shape=record, style=rounded];
4 [label="4|c", shape=record, style=rounded];
5 [label="5|b", shape=record, style=rounded];
6 [label="6|c", shape=record, style=rounded];
7 [label="7|c", shape=record, style=rounded];
0 -> 0  [label="x (75)"];
0 -> 1  [label="y (82)"];
0 -> 0  [label="z (63)"];
1 -> 5  [label="x (175)"];
1 -> 2  [label="y (153)"];
1 -> 6  [label="z (142)"];
1 -> 0  [label="!x [1]"];
1 -> 1  [label="!y [1]"];
1 -> 1  [label="!z [1]"];
1 -> 3  [label="!y [2]"];
1 -> 7  [label="!x [1] t1"];
2 -> 4  [label="x (48)"];
2 -> 3  [label="y (50)"];
2 -> 3  [label="z (35)"];
3 -> 4  [label="z (171)"];
3 -> 7  [label="y (183)"];
3 -> 1  [label="x (209)"];
3 -> 5  [label="!x [3]"];
3 -> 0  [label="!x [1]"];
3 -> 2  [label="!y [1]"];
4 -> 3  [label="x (91)"];
4 -> 7  [label="y (83)"];
4 -> 4  [label="z (93)"];
5 -> 1  [label="x (52)"];
5 -> 3  [label="y (49)"];
5 -> 1  [label="z (48)"];
6 -> 6  [label="x (66)"];
6 -> 1  [label="y (52)"];
6 -> 7  [label="z (60)"];
7 -> 0  [label="x (110)"];
7 -> 1  [label="y (92)"];
7 -> 3  [label="z (86)"];
7 -> 1  [label="!z [1]"];
__start0 [label="", shape=none];
__start0 -> 3  [label=""];
}
