digraph "benchmarks-true-state-lstar-3seeds/n_states=14-n_outputs=6-glitch_percent=0.05/b69312477e54f410178967f9186ae09d/pmsatLearned-N14-STOC" {
0 [label="0|a", shape=record, style=rounded];
1 [label="1|c", shape=record, style=rounded];
2 [label="2|d", shape=record, style=rounded];
3 [label="3|a", shape=record, style=rounded];
4 [label="4|a", shape=record, style=rounded];
5 [label="5|c", shape=record, style=rounded];
6 [label="6|c", shape=record, style=rounded];
7 [label="7|a", shape=record, style=rounded];
8 [label="8|a", shape=record, style=rounded];
9 [label="9|a", shape=record, style=rounded];
10 [label="10|d", shape=record, style=rounded];
11 [label="11|c", shape=record, style=rounded];
12 [label="12|c", shape=record, style=rounded];
13 [label="13|d", shape=record, style=rounded];
0 -> 12  [label="y (8)"];
0 -> 2  [label="z (9)"];
0 -> 0  [label="x (21)"];
1 -> 11  [label="z (64)"];
1 -> 8  [label="y (67)"];
1 -> 12  [label="x (90)"];
1 -> 3  [label="!z [1]"];
1 -> 9  [label="!y [1]"];
1 -> 3  [label="!x [2]"];
1 -> 6  [label="!x [3]"];
1 -> 2  [label="!x [4]"];
2 -> 10  [label="x (35)"];
2 -> 13  [label="y (7)"];
2 -> 1  [label="z (6)"];
2 -> 8  [label="!y [1]"];
3 -> 11  [label="x (24)"];
3 -> 12  [label="y (8)"];
3 -> 12  [label="z (7)"];
3 -> 2  [label="!x [1]"];
4 -> 2  [label="y (6)"];
4 -> 1  [label="z (5)"];
4 -> 5  [label="x (9)"];
5 -> 1  [label="x (12)"];
5 -> 10  [label="y (6)"];
5 -> 12  [label="z (9)"];
6 -> 0  [label="y (6)"];
6 -> 1  [label="z (7)"];
6 -> 10  [label="x (8)"];
7 -> 11  [label="x (8)"];
7 -> 0  [label="z (7)"];
7 -> 5  [label="y (6)"];
8 -> 9  [label="x (24)"];
8 -> 4  [label="z (19)"];
8 -> 2  [label="!y [1]"];
8 -> 0  [label="y (19)"];
9 -> 4  [label="x (9)"];
9 -> 12  [label="y (8)"];
9 -> 11  [label="z (6)"];
10 -> 3  [label="x (18)"];
10 -> 8  [label="y (8)"];
10 -> 7  [label="z (7)"];
10 -> 11  [label="!x [1]"];
11 -> 3  [label="x (29)"];
11 -> 7  [label="y (21)"];
11 -> 13  [label="z (24)"];
11 -> 6  [label="!z [1]"];
11 -> 11  [label="!x [1]"];
12 -> 2  [label="x (48)"];
12 -> 5  [label="z (27)"];
12 -> 6  [label="y (23)"];
13 -> 0  [label="x (10)"];
13 -> 3  [label="y (6)"];
13 -> 3  [label="z (6)"];
__start0 [label="", shape=none];
__start0 -> 1  [label=""];
}
