digraph "benchmarks-true-state-lstar-3seeds/n_states=13-n_outputs=2-glitch_percent=0.02/aaa5de5f35cdc946943df704c97ce7d4/pmsatLearned-N13-STOC" {
0 [label="0|a", shape=record, style=rounded];
1 [label="1|b", shape=record, style=rounded];
2 [label="2|a", shape=record, style=rounded];
3 [label="3|a", shape=record, style=rounded];
4 [label="4|b", shape=record, style=rounded];
5 [label="5|a", shape=record, style=rounded];
6 [label="6|a", shape=record, style=rounded];
7 [label="7|b", shape=record, style=rounded];
8 [label="8|b", shape=record, style=rounded];
9 [label="9|a", shape=record, style=rounded];
10 [label="10|a", shape=record, style=rounded];
11 [label="11|a", shape=record, style=rounded];
12 [label="12|a", shape=record, style=rounded];
0 -> 7  [label="x (15)"];
0 -> 7  [label="y (11)"];
0 -> 6  [label="z (8)"];
0 -> 1  [label="!y [1]"];
1 -> 9  [label="z (121)"];
1 -> 12  [label="y (122)"];
1 -> 8  [label="x (125)"];
1 -> 0  [label="!x [1]"];
1 -> 3  [label="!x [2]"];
1 -> 4  [label="!y [1]"];
2 -> 10  [label="x (19)"];
2 -> 11  [label="y (16)"];
2 -> 4  [label="z (13)"];
3 -> 3  [label="x (21)"];
3 -> 10  [label="y (16)"];
3 -> 10  [label="z (17)"];
4 -> 10  [label="x (25)"];
4 -> 9  [label="y (21)"];
4 -> 9  [label="z (19)"];
5 -> 11  [label="x (35)"];
5 -> 12  [label="y (18)"];
5 -> 7  [label="z (28)"];
6 -> 8  [label="x (19)"];
6 -> 1  [label="y (12)"];
6 -> 1  [label="z (13)"];
6 -> 6  [label="!x [1]"];
7 -> 10  [label="x (26)"];
7 -> 5  [label="y (20)"];
7 -> 11  [label="z (14)"];
7 -> 1  [label="!x [1]"];
8 -> 3  [label="x (46)"];
8 -> 2  [label="y (37)"];
8 -> 7  [label="z (41)"];
9 -> 5  [label="x (46)"];
9 -> 6  [label="y (43)"];
9 -> 11  [label="z (43)"];
9 -> 9  [label="!x [1]"];
10 -> 1  [label="x (38)"];
10 -> 4  [label="y (26)"];
10 -> 2  [label="z (30)"];
11 -> 5  [label="x (24)"];
11 -> 5  [label="y (23)"];
11 -> 2  [label="z (18)"];
12 -> 4  [label="y (41)"];
12 -> 0  [label="z (45)"];
12 -> 10  [label="x (43)"];
__start0 [label="", shape=none];
__start0 -> 1  [label=""];
}
