digraph "benchmarks-true-state-lstar-rc10seeds/n_states=16-n_outputs=6-glitch_percent=0.0/74271d4a9cd26c156513039152cf3ae6/pmsatLearned_NOP-N16" {
0 [label="0|a", shape=record, style=rounded];
1 [label="1|c", shape=record, style=rounded];
2 [label="2|a", shape=record, style=rounded];
3 [label="3|d", shape=record, style=rounded];
4 [label="4|c", shape=record, style=rounded];
5 [label="5|d", shape=record, style=rounded];
6 [label="6|c", shape=record, style=rounded];
7 [label="7|c", shape=record, style=rounded];
8 [label="8|a", shape=record, style=rounded];
9 [label="9|f", shape=record, style=rounded];
10 [label="10|c", shape=record, style=rounded];
11 [label="11|a", shape=record, style=rounded];
12 [label="12|a", shape=record, style=rounded];
13 [label="13|d", shape=record, style=rounded];
14 [label="14|c", shape=record, style=rounded];
15 [label="15|a", shape=record, style=rounded];
0 -> 14  [label="x"];
0 -> 10  [label="y"];
0 -> 15  [label="z"];
1 -> 4  [label="z"];
1 -> 5  [label="y"];
1 -> 0  [label="x"];
2 -> 7  [label="x"];
2 -> 0  [label="y"];
2 -> 12  [label="z"];
3 -> 13  [label="x"];
3 -> 1  [label="y"];
3 -> 2  [label="z"];
4 -> 6  [label="x"];
4 -> 2  [label="y"];
4 -> 13  [label="z"];
5 -> 7  [label="x"];
5 -> 3  [label="y"];
5 -> 9  [label="z"];
6 -> 5  [label="x"];
6 -> 9  [label="y"];
6 -> 0  [label="z"];
7 -> 2  [label="x"];
7 -> 14  [label="y"];
7 -> 8  [label="z"];
8 -> 8  [label="x"];
8 -> 3  [label="y"];
8 -> 7  [label="z"];
9 -> 2  [label="x"];
9 -> 4  [label="y"];
9 -> 15  [label="z"];
10 -> 5  [label="x"];
10 -> 5  [label="y"];
10 -> 10  [label="z"];
11 -> 8  [label="x"];
11 -> 4  [label="y"];
11 -> 4  [label="z"];
12 -> 12  [label="x"];
12 -> 6  [label="y"];
12 -> 13  [label="z"];
13 -> 1  [label="x"];
13 -> 11  [label="y"];
13 -> 9  [label="z"];
14 -> 8  [label="x"];
14 -> 11  [label="y"];
14 -> 12  [label="z"];
15 -> 2  [label="x"];
15 -> 15  [label="y"];
15 -> 0  [label="z"];
__start0 [label="", shape=none];
__start0 -> 1  [label=""];
}
