digraph "benchmarks-true-state-lstar-3seeds/n_states=12-n_outputs=8-glitch_percent=0.1/fa2e9fc2409650a54efdc566b60e3b8e/pmsatLearned-N12-STOC" {
0 [label="0|b", shape=record, style=rounded];
1 [label="1|c", shape=record, style=rounded];
2 [label="2|d", shape=record, style=rounded];
3 [label="3|e", shape=record, style=rounded];
4 [label="4|f", shape=record, style=rounded];
5 [label="5|h", shape=record, style=rounded];
6 [label="6|d", shape=record, style=rounded];
7 [label="7|h", shape=record, style=rounded];
8 [label="8|f", shape=record, style=rounded];
9 [label="9|f", shape=record, style=rounded];
10 [label="10|b", shape=record, style=rounded];
11 [label="11|f", shape=record, style=rounded];
0 -> 6  [label="x (6)"];
0 -> 2  [label="y (7)"];
0 -> 10  [label="z (6)"];
1 -> 11  [label="x (4)"];
1 -> 10  [label="y (5)"];
1 -> 9  [label="z (5)"];
1 -> 5  [label="!z [1]"];
2 -> 7  [label="x (14)"];
2 -> 0  [label="y (14)"];
2 -> 11  [label="z (5)"];
2 -> 2  [label="!x [2]"];
2 -> 10  [label="!z [1]"];
2 -> 7  [label="!y [1]"];
3 -> 6  [label="x (5)"];
3 -> 4  [label="y (1)"];
3 -> 7  [label="z (7)"];
3 -> 0  [label="!x [1]"];
4 -> 8  [label="x (14)"];
4 -> 3  [label="z (13)"];
4 -> 6  [label="y (15)"];
4 -> 8  [label="!y [1]"];
4 -> 1  [label="!x [1]"];
5 -> 2  [label="z (38)"];
5 -> 9  [label="y (48)"];
5 -> 4  [label="x (46)"];
5 -> 0  [label="!y [2]"];
5 -> 1  [label="!z [3]"];
5 -> 8  [label="!x [4]"];
5 -> 9  [label="!x [1]"];
5 -> 11  [label="!y [1]"];
5 -> 3  [label="!z [1]"];
6 -> 1  [label="x (7)"];
6 -> 0  [label="y (7)"];
6 -> 5  [label="z (6)"];
6 -> 8  [label="!x [1]"];
7 -> 10  [label="z (8)"];
7 -> 7  [label="y (6)"];
7 -> 4  [label="x (6)"];
8 -> 10  [label="x (5)"];
8 -> 8  [label="y (8)"];
8 -> 11  [label="z (7)"];
9 -> 10  [label="x (17)"];
9 -> 11  [label="y (17)"];
9 -> 1  [label="z (15)"];
9 -> 6  [label="!x [1]"];
9 -> 10  [label="!y [1]"];
9 -> 3  [label="!z [1]"];
10 -> 0  [label="x (9)"];
10 -> 11  [label="y (8)"];
10 -> 3  [label="z (7)"];
11 -> 9  [label="y (6)"];
11 -> 7  [label="z (8)"];
11 -> 6  [label="x (5)"];
__start0 [label="", shape=none];
__start0 -> 5  [label=""];
}
