digraph "benchmarks-true-state-lstar-3seeds/n_states=16-n_outputs=2-glitch_percent=0.1/836723cf3d84fbc0407661f16fe3f719/alergiaLearned" {
q0 [label="b"];
q1 [label="b"];
q2 [label="a"];
q3 [label="a"];
q4 [label="b"];
q5 [label="b"];
q6 [label="a"];
q7 [label="b"];
q8 [label="a"];
q9 [label="a"];
q10 [label="a"];
q11 [label="b"];
q0 -> q1  [label="z:0.9166666666666666"];
q0 -> q3  [label="z:0.08333333333333333"];
q0 -> q2  [label="y:0.9172932330827067"];
q0 -> q4  [label="y:0.08270676691729323"];
q0 -> q3  [label="x:0.9902439024390244"];
q0 -> q4  [label="x:0.00975609756097561"];
q1 -> q2  [label="x:0.9857142857142858"];
q1 -> q0  [label="x:0.014285714285714285"];
q1 -> q5  [label="y:0.8108108108108109"];
q1 -> q2  [label="y:0.1891891891891892"];
q1 -> q1  [label="z:0.7735849056603774"];
q1 -> q2  [label="z:0.22641509433962265"];
q2 -> q6  [label="x:0.7843137254901961"];
q2 -> q0  [label="x:0.21568627450980393"];
q2 -> q7  [label="y:0.9333333333333333"];
q2 -> q2  [label="y:0.06666666666666667"];
q2 -> q5  [label="z:0.9333333333333333"];
q2 -> q6  [label="z:0.06666666666666667"];
q3 -> q8  [label="x:0.8932038834951457"];
q3 -> q1  [label="x:0.10679611650485436"];
q3 -> q9  [label="z:0.7"];
q3 -> q1  [label="z:0.3"];
q3 -> q10  [label="y:0.7872340425531915"];
q3 -> q1  [label="y:0.2127659574468085"];
q4 -> q2  [label="y:0.8333333333333334"];
q4 -> q0  [label="y:0.16666666666666666"];
q4 -> q6  [label="z:1.0"];
q4 -> q0  [label="x:1.0"];
q5 -> q1  [label="x:0.8571428571428571"];
q5 -> q2  [label="x:0.14285714285714285"];
q5 -> q2  [label="y:0.7307692307692307"];
q5 -> q0  [label="y:0.2692307692307692"];
q5 -> q0  [label="z:0.9444444444444444"];
q5 -> q2  [label="z:0.05555555555555555"];
q6 -> q4  [label="z:1.0"];
q6 -> q1  [label="x:0.9142857142857143"];
q6 -> q2  [label="x:0.08571428571428572"];
q6 -> q1  [label="y:0.8846153846153846"];
q6 -> q2  [label="y:0.11538461538461539"];
q7 -> q2  [label="x:0.9459459459459459"];
q7 -> q0  [label="x:0.05405405405405406"];
q7 -> q6  [label="y:0.45161290322580644"];
q7 -> q0  [label="y:0.5483870967741935"];
q7 -> q6  [label="z:0.9565217391304348"];
q7 -> q0  [label="z:0.043478260869565216"];
q8 -> q7  [label="y:0.9714285714285714"];
q8 -> q2  [label="y:0.02857142857142857"];
q8 -> q11  [label="z:1.0"];
q8 -> q7  [label="x:0.9354838709677419"];
q8 -> q2  [label="x:0.06451612903225806"];
q9 -> q0  [label="x:0.7777777777777778"];
q9 -> q2  [label="x:0.2222222222222222"];
q9 -> q2  [label="y:0.8571428571428571"];
q9 -> q0  [label="y:0.14285714285714285"];
q9 -> q2  [label="z:1.0"];
q10 -> q1  [label="y:1.0"];
q10 -> q0  [label="z:1.0"];
q10 -> q2  [label="x:1.0"];
q11 -> q2  [label="x:1.0"];
q11 -> q0  [label="y:1.0"];
q11 -> q2  [label="z:1.0"];
__start0 [label="", shape=none];
__start0 -> q0  [label=""];
}
