digraph "benchmarks-true-state-lstar-3seeds/n_states=12-n_outputs=7-glitch_percent=0.02/a576e2c2da1971436788c6ed13fffc8e/alergiaLearned" {
q0 [label="e"];
q1 [label="f"];
q2 [label="e"];
q3 [label="g"];
q4 [label="b"];
q5 [label="c"];
q6 [label="e"];
q7 [label="f"];
q8 [label="g"];
q0 -> q1  [label="z:0.9333333333333333"];
q0 -> q0  [label="z:0.044444444444444446"];
q0 -> q3  [label="z:0.022222222222222223"];
q0 -> q2  [label="y:0.8852459016393442"];
q0 -> q4  [label="y:0.03278688524590164"];
q0 -> q5  [label="y:0.04918032786885246"];
q0 -> q3  [label="y:0.03278688524590164"];
q0 -> q3  [label="x:0.9"];
q0 -> q5  [label="x:0.03333333333333333"];
q0 -> q0  [label="x:0.06666666666666667"];
q1 -> q5  [label="x:0.95"];
q1 -> q0  [label="x:0.05"];
q1 -> q4  [label="y:0.9"];
q1 -> q5  [label="y:0.1"];
q1 -> q0  [label="z:1.0"];
q2 -> q6  [label="x:0.9411764705882353"];
q2 -> q1  [label="x:0.058823529411764705"];
q2 -> q7  [label="z:0.9444444444444444"];
q2 -> q0  [label="z:0.05555555555555555"];
q2 -> q5  [label="y:1.0"];
q3 -> q4  [label="x:0.9"];
q3 -> q1  [label="x:0.1"];
q3 -> q6  [label="y:0.9"];
q3 -> q4  [label="y:0.1"];
q3 -> q8  [label="z:0.8947368421052632"];
q3 -> q4  [label="z:0.10526315789473684"];
q4 -> q0  [label="x:1.0"];
q4 -> q1  [label="z:0.42857142857142855"];
q4 -> q5  [label="z:0.5714285714285714"];
q4 -> q4  [label="y:0.38461538461538464"];
q4 -> q5  [label="y:0.6153846153846154"];
q5 -> q1  [label="x:1.0"];
q5 -> q1  [label="y:0.5714285714285714"];
q5 -> q0  [label="y:0.42857142857142855"];
q5 -> q1  [label="z:0.5714285714285714"];
q5 -> q3  [label="z:0.42857142857142855"];
q6 -> q0  [label="x:0.5"];
q6 -> q5  [label="x:0.5"];
q6 -> q3  [label="y:0.5"];
q6 -> q4  [label="y:0.5"];
q6 -> q0  [label="z:0.4444444444444444"];
q6 -> q3  [label="z:0.5555555555555556"];
q7 -> q0  [label="x:1.0"];
q7 -> q5  [label="y:1.0"];
q7 -> q0  [label="z:1.0"];
q8 -> q1  [label="x:0.8"];
q8 -> q0  [label="x:0.2"];
q8 -> q4  [label="y:1.0"];
q8 -> q4  [label="z:1.0"];
__start0 [label="", shape=none];
__start0 -> q0  [label=""];
}
