digraph "benchmarks-true-state-lstar-rc10seeds/n_states=15-n_outputs=4-glitch_percent=0.02/1a6501da34eab4d2a78a5b058dd42ce9/pmsatLearned_NOP-N15-STOC" {
0 [label="0|b", shape=record, style=rounded];
1 [label="1|c", shape=record, style=rounded];
2 [label="2|a", shape=record, style=rounded];
3 [label="3|a", shape=record, style=rounded];
4 [label="4|a", shape=record, style=rounded];
5 [label="5|a", shape=record, style=rounded];
6 [label="6|b", shape=record, style=rounded];
7 [label="7|a", shape=record, style=rounded];
8 [label="8|d", shape=record, style=rounded];
9 [label="9|a", shape=record, style=rounded];
10 [label="10|a", shape=record, style=rounded];
11 [label="11|b", shape=record, style=rounded];
12 [label="12|c", shape=record, style=rounded];
13 [label="13|c", shape=record, style=rounded];
14 [label="14|b", shape=record, style=rounded];
0 -> 4  [label="z (51)"];
0 -> 1  [label="y (51)"];
0 -> 10  [label="x (77)"];
0 -> 12  [label="!z [1]"];
0 -> 5  [label="!y [1]"];
1 -> 2  [label="x (17)"];
1 -> 14  [label="y (19)"];
1 -> 8  [label="z (18)"];
1 -> 9  [label="!z [1]"];
2 -> 4  [label="x (6)"];
2 -> 3  [label="y (4)"];
2 -> 2  [label="z (4)"];
3 -> 11  [label="x (8)"];
3 -> 1  [label="y (8)"];
3 -> 8  [label="z (8)"];
4 -> 13  [label="x (20)"];
4 -> 5  [label="y (19)"];
4 -> 3  [label="z (20)"];
4 -> 14  [label="!z [1]"];
5 -> 3  [label="x (7)"];
5 -> 12  [label="y (7)"];
5 -> 12  [label="z (7)"];
6 -> 4  [label="x (7)"];
6 -> 11  [label="y (7)"];
6 -> 4  [label="z (6)"];
7 -> 14  [label="x (5)"];
7 -> 14  [label="y (5)"];
7 -> 14  [label="z (5)"];
8 -> 10  [label="x (7)"];
8 -> 1  [label="y (8)"];
8 -> 9  [label="z (8)"];
9 -> 6  [label="x (19)"];
9 -> 7  [label="y (20)"];
9 -> 13  [label="z (7)"];
10 -> 9  [label="x (43)"];
10 -> 11  [label="y (18)"];
10 -> 12  [label="z (18)"];
10 -> 9  [label="!z [1]"];
10 -> 10  [label="!x [1]"];
11 -> 10  [label="x (6)"];
11 -> 12  [label="y (7)"];
11 -> 14  [label="z (7)"];
12 -> 6  [label="x (8)"];
12 -> 5  [label="y (8)"];
12 -> 8  [label="z (7)"];
13 -> 5  [label="x (6)"];
13 -> 9  [label="y (6)"];
13 -> 6  [label="z (5)"];
14 -> 8  [label="x (8)"];
14 -> 4  [label="y (9)"];
14 -> 3  [label="z (10)"];
14 -> 3  [label="!x [1]"];
__start0 [label="", shape=none];
__start0 -> 0  [label=""];
}
