digraph "benchmarks-true-state-lstar-3seeds/n_states=16-n_outputs=6-glitch_percent=0.02/e943bcbed56909053fdfc1c3dc80cf3a/pmsatLearned-N16" {
0 [label="0|b", shape=record, style=rounded];
1 [label="1|c", shape=record, style=rounded];
2 [label="2|d", shape=record, style=rounded];
3 [label="3|e", shape=record, style=rounded];
4 [label="4|f", shape=record, style=rounded];
5 [label="5|b", shape=record, style=rounded];
6 [label="6|e", shape=record, style=rounded];
7 [label="7|e", shape=record, style=rounded];
8 [label="8|e", shape=record, style=rounded];
9 [label="9|f", shape=record, style=rounded];
10 [label="10|e", shape=record, style=rounded];
11 [label="11|b", shape=record, style=rounded];
12 [label="12|e", shape=record, style=rounded];
13 [label="13|f", shape=record, style=rounded];
14 [label="14|d", shape=record, style=rounded];
15 [label="15|b", shape=record, style=rounded];
0 -> 10  [label="z"];
0 -> 13  [label="y"];
0 -> 6  [label="x"];
1 -> 15  [label="x"];
1 -> 7  [label="y"];
1 -> 2  [label="z"];
2 -> 12  [label="x"];
2 -> 4  [label="y"];
2 -> 0  [label="z"];
3 -> 0  [label="x"];
3 -> 10  [label="y"];
3 -> 10  [label="z"];
4 -> 5  [label="x"];
4 -> 11  [label="y"];
4 -> 7  [label="z"];
5 -> 6  [label="x"];
5 -> 5  [label="z"];
5 -> 13  [label="y"];
6 -> 1  [label="x"];
6 -> 8  [label="y"];
6 -> 11  [label="z"];
7 -> 7  [label="x"];
7 -> 0  [label="y"];
7 -> 10  [label="z"];
8 -> 13  [label="x"];
8 -> 8  [label="y"];
8 -> 13  [label="z"];
9 -> 7  [label="x"];
9 -> 11  [label="y"];
9 -> 4  [label="z"];
10 -> 3  [label="x"];
10 -> 5  [label="y"];
10 -> 14  [label="z"];
11 -> 7  [label="x"];
11 -> 6  [label="y"];
11 -> 0  [label="z"];
12 -> 12  [label="y"];
12 -> 5  [label="z"];
12 -> 0  [label="x"];
13 -> 9  [label="x"];
13 -> 12  [label="y"];
13 -> 4  [label="z"];
14 -> 4  [label="x"];
14 -> 11  [label="y"];
14 -> 13  [label="z"];
15 -> 7  [label="x"];
15 -> 5  [label="z"];
15 -> 4  [label="y"];
__start0 [label="", shape=none];
__start0 -> 0  [label=""];
}
