digraph "benchmarks-true-state-lstar-rc10seeds/n_states=16-n_outputs=9-glitch_percent=0.05/30d82dbca2c35be5a1c6831c7a7b99bc/pmsatLearned_NOP-N16" {
0 [label="0|a", shape=record, style=rounded];
1 [label="1|b", shape=record, style=rounded];
2 [label="2|f", shape=record, style=rounded];
3 [label="3|c", shape=record, style=rounded];
4 [label="4|d", shape=record, style=rounded];
5 [label="5|i", shape=record, style=rounded];
6 [label="6|a", shape=record, style=rounded];
7 [label="7|i", shape=record, style=rounded];
8 [label="8|b", shape=record, style=rounded];
9 [label="9|g", shape=record, style=rounded];
10 [label="10|c", shape=record, style=rounded];
11 [label="11|a", shape=record, style=rounded];
12 [label="12|a", shape=record, style=rounded];
13 [label="13|e", shape=record, style=rounded];
14 [label="14|i", shape=record, style=rounded];
15 [label="15|a", shape=record, style=rounded];
0 -> 12  [label="x"];
0 -> 8  [label="y"];
0 -> 15  [label="z"];
1 -> 14  [label="z"];
1 -> 7  [label="y"];
1 -> 8  [label="x"];
2 -> 0  [label="x"];
2 -> 2  [label="y"];
2 -> 14  [label="z"];
3 -> 15  [label="x"];
3 -> 7  [label="z"];
3 -> 10  [label="y"];
4 -> 11  [label="x"];
4 -> 12  [label="y"];
4 -> 4  [label="z"];
5 -> 14  [label="x"];
5 -> 10  [label="z"];
5 -> 12  [label="y"];
6 -> 15  [label="x"];
6 -> 11  [label="y"];
6 -> 2  [label="z"];
7 -> 6  [label="x"];
7 -> 5  [label="y"];
7 -> 0  [label="z"];
8 -> 11  [label="x"];
8 -> 2  [label="y"];
8 -> 12  [label="z"];
9 -> 2  [label="x"];
9 -> 11  [label="y"];
9 -> 8  [label="z"];
10 -> 10  [label="y"];
10 -> 1  [label="z"];
10 -> 2  [label="x"];
11 -> 3  [label="x"];
11 -> 4  [label="y"];
11 -> 10  [label="z"];
12 -> 6  [label="x"];
12 -> 5  [label="y"];
12 -> 4  [label="z"];
13 -> 4  [label="x"];
13 -> 15  [label="y"];
13 -> 10  [label="z"];
14 -> 15  [label="x"];
14 -> 9  [label="y"];
14 -> 13  [label="z"];
15 -> 14  [label="x"];
15 -> 4  [label="y"];
15 -> 0  [label="z"];
__start0 [label="", shape=none];
__start0 -> 1  [label=""];
}
