digraph "pmsatLearned-N8-STOC" {
0 [label="0|a", shape=record, style=rounded];
1 [label="1|b", shape=record, style=rounded];
2 [label="2|c", shape=record, style=rounded];
3 [label="3|d", shape=record, style=rounded];
4 [label="4|e", shape=record, style=rounded];
5 [label="5|c", shape=record, style=rounded];
6 [label="6|b", shape=record, style=rounded];
7 [label="7|a", shape=record, style=rounded];
0 -> 5  [label="x (34)"];
0 -> 6  [label="y (34)"];
0 -> 2  [label="z (27)"];
0 -> 4  [label="!y [1]"];
1 -> 3  [label="x (34)"];
1 -> 5  [label="y (27)"];
1 -> 4  [label="z (39)"];
2 -> 6  [label="x (8)"];
2 -> 4  [label="y (10)"];
2 -> 4  [label="z (14)"];
3 -> 7  [label="z (45)"];
3 -> 4  [label="y (59)"];
3 -> 0  [label="x (73)"];
3 -> 2  [label="!z [1]"];
4 -> 1  [label="x (71)"];
4 -> 1  [label="y (52)"];
4 -> 4  [label="z (48)"];
5 -> 6  [label="x (23)"];
5 -> 5  [label="y (30)"];
5 -> 0  [label="z (22)"];
6 -> 0  [label="x (18)"];
6 -> 2  [label="y (15)"];
6 -> 7  [label="z (17)"];
7 -> 4  [label="x (37)"];
7 -> 7  [label="y (24)"];
7 -> 7  [label="z (32)"];
__start0 [label="", shape=none];
__start0 -> 3  [label=""];
}
