digraph "benchmarks-true-state-lstar-songp/n_states=3-n_outputs=3-glitch_percent=0.02-pmstrat='rc2'/9256b9741d854728ef8673e15b520ad1/pmsatLearned-N3-STOC" {
0 [label="0|a", shape=record, style=rounded];
1 [label="1|b", shape=record, style=rounded];
2 [label="2|c", shape=record, style=rounded];
0 -> 1  [label="z (6)"];
0 -> 2  [label="y (18)"];
0 -> 1  [label="x (18)"];
1 -> 2  [label="x (8)"];
1 -> 2  [label="y (7)"];
1 -> 0  [label="z (8)"];
2 -> 1  [label="x (8)"];
2 -> 2  [label="y (8)"];
2 -> 1  [label="z (8)"];
__start0 [label="", shape=none];
__start0 -> 0  [label=""];
}
