digraph "benchmarks-true-state-lstar-3seeds/n_states=13-n_outputs=3-glitch_percent=0.01/9d98ffab9b69b0b34f0afa680534d0d6/pmsatLearned-N13-STOC" {
0 [label="0|a", shape=record, style=rounded];
1 [label="1|b", shape=record, style=rounded];
2 [label="2|c", shape=record, style=rounded];
3 [label="3|c", shape=record, style=rounded];
4 [label="4|b", shape=record, style=rounded];
5 [label="5|b", shape=record, style=rounded];
6 [label="6|b", shape=record, style=rounded];
7 [label="7|b", shape=record, style=rounded];
8 [label="8|c", shape=record, style=rounded];
9 [label="9|a", shape=record, style=rounded];
10 [label="10|c", shape=record, style=rounded];
11 [label="11|b", shape=record, style=rounded];
12 [label="12|b", shape=record, style=rounded];
0 -> 6  [label="x (19)"];
0 -> 3  [label="y (19)"];
0 -> 12  [label="z (18)"];
0 -> 0  [label="!y [1]"];
1 -> 9  [label="z (55)"];
1 -> 0  [label="y (55)"];
1 -> 5  [label="x (54)"];
1 -> 11  [label="!y [1]"];
2 -> 9  [label="x (11)"];
2 -> 2  [label="y (11)"];
2 -> 6  [label="z (11)"];
3 -> 6  [label="x (8)"];
3 -> 2  [label="y (8)"];
3 -> 8  [label="z (8)"];
4 -> 1  [label="x (5)"];
4 -> 8  [label="y (5)"];
4 -> 2  [label="z (5)"];
5 -> 10  [label="x (18)"];
5 -> 11  [label="y (17)"];
5 -> 4  [label="z (18)"];
6 -> 3  [label="x (8)"];
6 -> 3  [label="y (8)"];
6 -> 2  [label="z (9)"];
7 -> 1  [label="x (5)"];
7 -> 6  [label="y (5)"];
7 -> 2  [label="z (5)"];
8 -> 10  [label="x (9)"];
8 -> 0  [label="y (9)"];
8 -> 3  [label="z (9)"];
9 -> 8  [label="x (18)"];
9 -> 7  [label="y (18)"];
9 -> 2  [label="z (18)"];
10 -> 10  [label="x (9)"];
10 -> 8  [label="y (9)"];
10 -> 8  [label="z (8)"];
11 -> 2  [label="x (5)"];
11 -> 5  [label="y (5)"];
11 -> 10  [label="z (5)"];
12 -> 6  [label="x (5)"];
12 -> 0  [label="y (4)"];
12 -> 10  [label="z (5)"];
__start0 [label="", shape=none];
__start0 -> 1  [label=""];
}
