digraph "benchmarks-true-state-lstar-3seeds/n_states=13-n_outputs=9-glitch_percent=0.05/880353725a2a0f5a0381263207d27d6d/pmsatLearned-N13-STOC" {
0 [label="0|a", shape=record, style=rounded];
1 [label="1|b", shape=record, style=rounded];
2 [label="2|e", shape=record, style=rounded];
3 [label="3|f", shape=record, style=rounded];
4 [label="4|g", shape=record, style=rounded];
5 [label="5|h", shape=record, style=rounded];
6 [label="6|i", shape=record, style=rounded];
7 [label="7|i", shape=record, style=rounded];
8 [label="8|a", shape=record, style=rounded];
9 [label="9|g", shape=record, style=rounded];
10 [label="10|g", shape=record, style=rounded];
11 [label="11|f", shape=record, style=rounded];
12 [label="12|g", shape=record, style=rounded];
0 -> 8  [label="x (5)"];
0 -> 6  [label="y (5)"];
0 -> 6  [label="z (5)"];
1 -> 2  [label="x (18)"];
1 -> 0  [label="y (18)"];
1 -> 10  [label="z (17)"];
2 -> 11  [label="x (6)"];
2 -> 4  [label="y (5)"];
2 -> 10  [label="z (5)"];
3 -> 7  [label="z (50)"];
3 -> 1  [label="y (53)"];
3 -> 12  [label="x (52)"];
3 -> 5  [label="!x [2]"];
3 -> 11  [label="!y [1]"];
3 -> 4  [label="!z [3]"];
3 -> 0  [label="!z [1]"];
3 -> 10  [label="!x [1]"];
4 -> 4  [label="x (10)"];
4 -> 4  [label="y (9)"];
4 -> 5  [label="z (9)"];
5 -> 11  [label="y (6)"];
5 -> 1  [label="z (6)"];
5 -> 12  [label="x (5)"];
6 -> 4  [label="x (8)"];
6 -> 9  [label="z (7)"];
6 -> 11  [label="y (5)"];
6 -> 6  [label="!x [1]"];
7 -> 5  [label="x (16)"];
7 -> 11  [label="y (16)"];
7 -> 4  [label="z (16)"];
7 -> 11  [label="!x [1]"];
8 -> 9  [label="x (5)"];
8 -> 11  [label="y (7)"];
8 -> 10  [label="z (7)"];
9 -> 7  [label="x (7)"];
9 -> 6  [label="y (7)"];
9 -> 3  [label="z (7)"];
10 -> 8  [label="x (7)"];
10 -> 9  [label="y (7)"];
10 -> 3  [label="z (9)"];
11 -> 11  [label="x (7)"];
11 -> 10  [label="y (10)"];
11 -> 2  [label="z (8)"];
11 -> 4  [label="!z [1]"];
12 -> 9  [label="x (15)"];
12 -> 6  [label="y (16)"];
12 -> 8  [label="z (17)"];
12 -> 11  [label="!y [1]"];
__start0 [label="", shape=none];
__start0 -> 3  [label=""];
}
