digraph "benchmarks-true-state-lstar-rc10seeds/n_states=8-n_outputs=5-glitch_percent=0.0/00a0ecad56cce397e2277ef130ab7d07/pmsatLearned_NOP-N8" {
0 [label="0|e", shape=record, style=rounded];
1 [label="1|c", shape=record, style=rounded];
2 [label="2|e", shape=record, style=rounded];
3 [label="3|c", shape=record, style=rounded];
4 [label="4|e", shape=record, style=rounded];
5 [label="5|b", shape=record, style=rounded];
6 [label="6|e", shape=record, style=rounded];
7 [label="7|b", shape=record, style=rounded];
0 -> 6  [label="x"];
0 -> 7  [label="y"];
0 -> 1  [label="z"];
1 -> 5  [label="x"];
1 -> 5  [label="y"];
1 -> 2  [label="z"];
2 -> 5  [label="z"];
2 -> 4  [label="y"];
2 -> 0  [label="x"];
3 -> 4  [label="x"];
3 -> 3  [label="y"];
3 -> 3  [label="z"];
4 -> 3  [label="x"];
4 -> 6  [label="y"];
4 -> 6  [label="z"];
5 -> 5  [label="x"];
5 -> 7  [label="y"];
5 -> 6  [label="z"];
6 -> 2  [label="x"];
6 -> 1  [label="y"];
6 -> 0  [label="z"];
7 -> 1  [label="x"];
7 -> 5  [label="y"];
7 -> 7  [label="z"];
__start0 [label="", shape=none];
__start0 -> 2  [label=""];
}
