digraph "benchmarks-true-state-lstar-rc10seeds/n_states=17-n_outputs=7-glitch_percent=0.0/bf26f0d6cb8383cd717a1f7e773feee0/pmsatLearned_NOP-N17" {
0 [label="0|b", shape=record, style=rounded];
1 [label="1|b", shape=record, style=rounded];
2 [label="2|e", shape=record, style=rounded];
3 [label="3|d", shape=record, style=rounded];
4 [label="4|f", shape=record, style=rounded];
5 [label="5|a", shape=record, style=rounded];
6 [label="6|d", shape=record, style=rounded];
7 [label="7|b", shape=record, style=rounded];
8 [label="8|e", shape=record, style=rounded];
9 [label="9|c", shape=record, style=rounded];
10 [label="10|g", shape=record, style=rounded];
11 [label="11|a", shape=record, style=rounded];
12 [label="12|b", shape=record, style=rounded];
13 [label="13|a", shape=record, style=rounded];
14 [label="14|e", shape=record, style=rounded];
15 [label="15|a", shape=record, style=rounded];
16 [label="16|a", shape=record, style=rounded];
0 -> 7  [label="x"];
0 -> 13  [label="y"];
0 -> 3  [label="z"];
1 -> 0  [label="x"];
1 -> 11  [label="y"];
1 -> 15  [label="z"];
2 -> 15  [label="x"];
2 -> 0  [label="y"];
2 -> 2  [label="z"];
3 -> 5  [label="z"];
3 -> 14  [label="y"];
3 -> 16  [label="x"];
4 -> 10  [label="x"];
4 -> 6  [label="y"];
4 -> 11  [label="z"];
5 -> 10  [label="x"];
5 -> 13  [label="y"];
5 -> 1  [label="z"];
6 -> 4  [label="x"];
6 -> 2  [label="y"];
6 -> 0  [label="z"];
7 -> 4  [label="x"];
7 -> 9  [label="y"];
7 -> 2  [label="z"];
8 -> 12  [label="x"];
8 -> 10  [label="y"];
8 -> 7  [label="z"];
9 -> 11  [label="x"];
9 -> 11  [label="y"];
9 -> 12  [label="z"];
10 -> 6  [label="x"];
10 -> 2  [label="y"];
10 -> 2  [label="z"];
11 -> 6  [label="x"];
11 -> 3  [label="y"];
11 -> 9  [label="z"];
12 -> 0  [label="x"];
12 -> 5  [label="y"];
12 -> 4  [label="z"];
13 -> 14  [label="x"];
13 -> 2  [label="y"];
13 -> 16  [label="z"];
14 -> 12  [label="x"];
14 -> 9  [label="y"];
14 -> 8  [label="z"];
15 -> 11  [label="x"];
15 -> 7  [label="y"];
15 -> 16  [label="z"];
16 -> 6  [label="x"];
16 -> 15  [label="y"];
16 -> 7  [label="z"];
__start0 [label="", shape=none];
__start0 -> 3  [label=""];
}
