digraph "benchmarks-true-state-lstar-3seeds/n_states=6-n_outputs=3-glitch_percent=0.02/0376dba4d7726161cec325257e7e78b5/RealModel" {
s1 [label="s1|a", shape=record, style=rounded];
s2 [label="s2|a", shape=record, style=rounded];
s3 [label="s3|a", shape=record, style=rounded];
s4 [label="s4|a", shape=record, style=rounded];
s5 [label="s5|b", shape=record, style=rounded];
s6 [label="s6|c", shape=record, style=rounded];
s1 -> s4  [label="x"];
s1 -> s6  [label="y"];
s1 -> s2  [label="z"];
s2 -> s4  [label="x"];
s2 -> s4  [label="y"];
s2 -> s4  [label="z"];
s3 -> s1  [label="x"];
s3 -> s4  [label="y"];
s3 -> s6  [label="z"];
s4 -> s5  [label="x"];
s4 -> s3  [label="y"];
s4 -> s2  [label="z"];
s5 -> s2  [label="x"];
s5 -> s6  [label="y"];
s5 -> s2  [label="z"];
s6 -> s1  [label="x"];
s6 -> s6  [label="y"];
s6 -> s5  [label="z"];
__start0 [label="", shape=none];
__start0 -> s1  [label=""];
}
