digraph "benchmarks-true-state-lstar-3seeds/n_states=6-n_outputs=6-glitch_percent=0.0/1c3bf3b9e1ac9ef4e0a4f8da321cafcc/alergiaLearned" {
q0 [label="e"];
q1 [label="e"];
q2 [label="b"];
q3 [label="e"];
q4 [label="c"];
q5 [label="f"];
q0 -> q1  [label="z:0.8571428571428571"];
q0 -> q4  [label="z:0.14285714285714285"];
q0 -> q2  [label="y:0.8571428571428571"];
q0 -> q4  [label="y:0.14285714285714285"];
q0 -> q3  [label="x:0.9777777777777777"];
q0 -> q5  [label="x:0.022222222222222223"];
q1 -> q0  [label="x:1.0"];
q1 -> q4  [label="y:1.0"];
q1 -> q4  [label="z:1.0"];
q2 -> q0  [label="x:1.0"];
q2 -> q0  [label="y:1.0"];
q2 -> q0  [label="z:1.0"];
q3 -> q5  [label="x:1.0"];
q3 -> q4  [label="y:1.0"];
q3 -> q4  [label="z:1.0"];
q4 -> q4  [label="x:1.0"];
q4 -> q0  [label="y:1.0"];
q4 -> q4  [label="z:1.0"];
q5 -> q5  [label="x:1.0"];
q5 -> q5  [label="y:1.0"];
q5 -> q5  [label="z:1.0"];
__start0 [label="", shape=none];
__start0 -> q0  [label=""];
}
