digraph "benchmarks-true-state-lstar-songp/n_states=17-n_outputs=5-glitch_percent=0.05-pmstrat='rc2'/9cb7eb7fedbf0b08d0ac91cb760eb5bb/pmsatLearned-N17" {
0 [label="0|a", shape=record, style=rounded];
1 [label="1|b", shape=record, style=rounded];
2 [label="2|c", shape=record, style=rounded];
3 [label="3|d", shape=record, style=rounded];
4 [label="4|e", shape=record, style=rounded];
5 [label="5|d", shape=record, style=rounded];
6 [label="6|d", shape=record, style=rounded];
7 [label="7|c", shape=record, style=rounded];
8 [label="8|d", shape=record, style=rounded];
9 [label="9|a", shape=record, style=rounded];
10 [label="10|c", shape=record, style=rounded];
11 [label="11|e", shape=record, style=rounded];
12 [label="12|a", shape=record, style=rounded];
13 [label="13|e", shape=record, style=rounded];
14 [label="14|e", shape=record, style=rounded];
15 [label="15|e", shape=record, style=rounded];
16 [label="16|e", shape=record, style=rounded];
0 -> 6  [label="z"];
0 -> 16  [label="y"];
0 -> 2  [label="x"];
1 -> 11  [label="x"];
1 -> 10  [label="y"];
1 -> 15  [label="z"];
2 -> 10  [label="x"];
2 -> 7  [label="y"];
2 -> 12  [label="z"];
3 -> 10  [label="x"];
3 -> 12  [label="y"];
3 -> 4  [label="z"];
4 -> 2  [label="x"];
4 -> 9  [label="y"];
4 -> 9  [label="z"];
5 -> 1  [label="y"];
5 -> 13  [label="z"];
5 -> 5  [label="x"];
6 -> 15  [label="y"];
6 -> 11  [label="z"];
6 -> 4  [label="x"];
7 -> 3  [label="y"];
7 -> 1  [label="z"];
7 -> 1  [label="x"];
8 -> 10  [label="y"];
8 -> 6  [label="z"];
8 -> 6  [label="x"];
9 -> 10  [label="x"];
9 -> 5  [label="y"];
9 -> 14  [label="z"];
10 -> 9  [label="x"];
10 -> 14  [label="y"];
10 -> 13  [label="z"];
11 -> 7  [label="x"];
11 -> 1  [label="y"];
11 -> 9  [label="z"];
12 -> 10  [label="x"];
12 -> 10  [label="y"];
12 -> 12  [label="z"];
13 -> 4  [label="x"];
13 -> 15  [label="y"];
13 -> 14  [label="z"];
14 -> 1  [label="y"];
14 -> 12  [label="x"];
14 -> 6  [label="z"];
15 -> 13  [label="x"];
15 -> 2  [label="y"];
15 -> 12  [label="z"];
16 -> 3  [label="x"];
16 -> 5  [label="y"];
16 -> 8  [label="z"];
__start0 [label="", shape=none];
__start0 -> 0  [label=""];
}
