digraph "benchmarks-true-state-lstar-songp/n_states=9-n_outputs=2-glitch_percent=0.05-pmstrat='lsu'/e551999bac47700a10e1ac1d6c3e0aca/RealModel" {
s1 [label="s1|a", shape=record, style=rounded];
s2 [label="s2|b", shape=record, style=rounded];
s3 [label="s3|a", shape=record, style=rounded];
s4 [label="s4|b", shape=record, style=rounded];
s5 [label="s5|b", shape=record, style=rounded];
s6 [label="s6|a", shape=record, style=rounded];
s7 [label="s7|b", shape=record, style=rounded];
s8 [label="s8|b", shape=record, style=rounded];
s9 [label="s9|a", shape=record, style=rounded];
s1 -> s8  [label="x"];
s1 -> s6  [label="y"];
s1 -> s4  [label="z"];
s2 -> s7  [label="x"];
s2 -> s2  [label="y"];
s2 -> s1  [label="z"];
s3 -> s9  [label="x"];
s3 -> s5  [label="y"];
s3 -> s3  [label="z"];
s4 -> s2  [label="x"];
s4 -> s7  [label="y"];
s4 -> s3  [label="z"];
s5 -> s1  [label="x"];
s5 -> s3  [label="y"];
s5 -> s1  [label="z"];
s6 -> s2  [label="x"];
s6 -> s5  [label="y"];
s6 -> s2  [label="z"];
s7 -> s8  [label="x"];
s7 -> s3  [label="y"];
s7 -> s7  [label="z"];
s8 -> s9  [label="x"];
s8 -> s7  [label="y"];
s8 -> s3  [label="z"];
s9 -> s2  [label="x"];
s9 -> s3  [label="y"];
s9 -> s9  [label="z"];
__start0 [label="", shape=none];
__start0 -> s1  [label=""];
}
