digraph "pmsatLearned-N8" {
0 [label="0|a", shape=record, style=rounded];
1 [label="1|b", shape=record, style=rounded];
2 [label="2|c", shape=record, style=rounded];
3 [label="3|d", shape=record, style=rounded];
4 [label="4|e", shape=record, style=rounded];
5 [label="5|c", shape=record, style=rounded];
6 [label="6|b", shape=record, style=rounded];
7 [label="7|a", shape=record, style=rounded];
0 -> 6  [label="x"];
0 -> 1  [label="y"];
0 -> 4  [label="z"];
1 -> 5  [label="x"];
1 -> 4  [label="y"];
1 -> 3  [label="z"];
2 -> 4  [label="x"];
2 -> 0  [label="y"];
2 -> 2  [label="z"];
3 -> 2  [label="z"];
3 -> 7  [label="y"];
3 -> 0  [label="x"];
4 -> 2  [label="x"];
4 -> 6  [label="y"];
4 -> 5  [label="z"];
5 -> 6  [label="x"];
5 -> 6  [label="y"];
5 -> 2  [label="z"];
6 -> 7  [label="x"];
6 -> 2  [label="y"];
6 -> 1  [label="z"];
7 -> 5  [label="x"];
7 -> 5  [label="y"];
7 -> 0  [label="z"];
__start0 [label="", shape=none];
__start0 -> 3  [label=""];
}
