digraph "pmsatLearned-N8-STOC" {
0 [label="0|a", shape=record, style=rounded];
1 [label="1|b", shape=record, style=rounded];
2 [label="2|c", shape=record, style=rounded];
3 [label="3|d", shape=record, style=rounded];
4 [label="4|e", shape=record, style=rounded];
5 [label="5|a", shape=record, style=rounded];
6 [label="6|c", shape=record, style=rounded];
7 [label="7|a", shape=record, style=rounded];
0 -> 2  [label="x (8)"];
0 -> 1  [label="y (8)"];
0 -> 0  [label="z (8)"];
1 -> 5  [label="x (20)"];
1 -> 5  [label="y (8)"];
1 -> 1  [label="z (8)"];
1 -> 1  [label="!y [1]"];
2 -> 6  [label="z (21)"];
2 -> 1  [label="y (33)"];
2 -> 4  [label="x (57)"];
3 -> 2  [label="x (7)"];
3 -> 5  [label="y (7)"];
3 -> 2  [label="z (7)"];
4 -> 0  [label="x (17)"];
4 -> 3  [label="y (17)"];
4 -> 7  [label="z (17)"];
5 -> 5  [label="x (11)"];
5 -> 5  [label="y (9)"];
5 -> 3  [label="z (10)"];
5 -> 7  [label="!x [1]"];
6 -> 0  [label="x (5)"];
6 -> 1  [label="y (5)"];
6 -> 5  [label="z (5)"];
7 -> 0  [label="x (5)"];
7 -> 2  [label="y (6)"];
7 -> 3  [label="z (5)"];
__start0 [label="", shape=none];
__start0 -> 2  [label=""];
}
