digraph "benchmarks-true-state-lstar-3seeds/n_states=16-n_outputs=9-glitch_percent=0.02/1c8ffd57230914ee3b8ba740f30e3140/rpniGroundTruth" {
s0 [label="s0|f", shape=record, style=rounded];
s1 [label="s1|b", shape=record, style=rounded];
s2 [label="s2|g", shape=record, style=rounded];
s3 [label="s3|a", shape=record, style=rounded];
s4 [label="s4|b", shape=record, style=rounded];
s5 [label="s5|i", shape=record, style=rounded];
s6 [label="s6|a", shape=record, style=rounded];
s7 [label="s7|g", shape=record, style=rounded];
s8 [label="s8|i", shape=record, style=rounded];
s9 [label="s9|f", shape=record, style=rounded];
s10 [label="s10|e", shape=record, style=rounded];
s11 [label="s11|e", shape=record, style=rounded];
s12 [label="s12|a", shape=record, style=rounded];
s13 [label="s13|g", shape=record, style=rounded];
s14 [label="s14|g", shape=record, style=rounded];
s15 [label="s15|h", shape=record, style=rounded];
s0 -> s1  [label="x"];
s0 -> s2  [label="y"];
s0 -> s3  [label="z"];
s1 -> s4  [label="y"];
s1 -> s5  [label="z"];
s1 -> s6  [label="x"];
s2 -> s7  [label="x"];
s2 -> s8  [label="z"];
s2 -> s9  [label="y"];
s3 -> s10  [label="z"];
s3 -> s11  [label="y"];
s3 -> s12  [label="x"];
s4 -> s7  [label="x"];
s4 -> s7  [label="y"];
s4 -> s6  [label="z"];
s5 -> s4  [label="z"];
s5 -> s5  [label="y"];
s5 -> s10  [label="x"];
s6 -> s13  [label="z"];
s6 -> s14  [label="y"];
s6 -> s15  [label="x"];
s7 -> s6  [label="y"];
s7 -> s8  [label="z"];
s7 -> s15  [label="x"];
s8 -> s6  [label="z"];
s8 -> s8  [label="x"];
s8 -> s5  [label="y"];
s9 -> s7  [label="x"];
s9 -> s12  [label="y"];
s9 -> s2  [label="z"];
s10 -> s2  [label="y"];
s10 -> s7  [label="z"];
s10 -> s5  [label="x"];
s11 -> s13  [label="z"];
s11 -> s1  [label="x"];
s11 -> s7  [label="y"];
s12 -> s10  [label="x"];
s12 -> s11  [label="y"];
s12 -> s8  [label="z"];
s13 -> s8  [label="x"];
s13 -> s10  [label="y"];
s13 -> s12  [label="z"];
s14 -> s5  [label="z"];
s14 -> s12  [label="x"];
s14 -> s2  [label="y"];
s15 -> s4  [label="x"];
s15 -> s13  [label="z"];
s15 -> s11  [label="y"];
__start0 [label="", shape=none];
__start0 -> s0  [label=""];
}
