digraph "benchmarks-true-state-lstar-3seeds/n_states=16-n_outputs=5-glitch_percent=0.0/c54eaa4603280484f163504c211c5131/alergiaLearned" {
q0 [label="e"];
q1 [label="e"];
q2 [label="d"];
q3 [label="b"];
q4 [label="a"];
q5 [label="b"];
q6 [label="d"];
q7 [label="c"];
q8 [label="c"];
q9 [label="e"];
q0 -> q1  [label="z:0.9636363636363636"];
q0 -> q3  [label="z:0.03636363636363636"];
q0 -> q2  [label="y:0.9636363636363636"];
q0 -> q7  [label="y:0.01818181818181818"];
q0 -> q3  [label="y:0.01818181818181818"];
q0 -> q3  [label="x:0.978021978021978"];
q0 -> q7  [label="x:0.01098901098901099"];
q0 -> q4  [label="x:0.01098901098901099"];
q1 -> q4  [label="x:1.0"];
q1 -> q5  [label="y:1.0"];
q1 -> q5  [label="z:1.0"];
q2 -> q6  [label="x:0.9230769230769231"];
q2 -> q3  [label="x:0.07692307692307693"];
q2 -> q4  [label="y:0.8076923076923077"];
q2 -> q3  [label="y:0.11538461538461539"];
q2 -> q7  [label="y:0.07692307692307693"];
q2 -> q5  [label="z:0.8076923076923077"];
q2 -> q4  [label="z:0.11538461538461539"];
q2 -> q2  [label="z:0.07692307692307693"];
q3 -> q7  [label="x:1.0"];
q3 -> q4  [label="x:0.0"];
q3 -> q3  [label="x:0.0"];
q3 -> q8  [label="y:1.0"];
q3 -> q2  [label="y:0.0"];
q3 -> q3  [label="y:0.0"];
q3 -> q4  [label="z:1.0"];
q3 -> q3  [label="z:0.0"];
q4 -> q3  [label="x:1.0"];
q4 -> q0  [label="y:0.3888888888888889"];
q4 -> q2  [label="y:0.2777777777777778"];
q4 -> q4  [label="y:0.3333333333333333"];
q4 -> q3  [label="z:0.3888888888888889"];
q4 -> q7  [label="z:0.2777777777777778"];
q4 -> q2  [label="z:0.3333333333333333"];
q5 -> q5  [label="x:0.3333333333333333"];
q5 -> q4  [label="x:0.3333333333333333"];
q5 -> q2  [label="x:0.3333333333333333"];
q5 -> q7  [label="x:0.0"];
q5 -> q5  [label="y:0.3333333333333333"];
q5 -> q2  [label="y:0.6666666666666666"];
q5 -> q7  [label="y:0.0"];
q5 -> q5  [label="z:0.6666666666666666"];
q5 -> q2  [label="z:0.3333333333333333"];
q5 -> q4  [label="z:0.0"];
q6 -> q2  [label="x:0.5"];
q6 -> q5  [label="x:0.5"];
q6 -> q3  [label="y:0.5"];
q6 -> q7  [label="y:0.5"];
q6 -> q4  [label="z:0.5"];
q6 -> q2  [label="z:0.5"];
q7 -> q6  [label="x:0.9130434782608695"];
q7 -> q0  [label="x:0.08695652173913043"];
q7 -> q8  [label="y:0.9130434782608695"];
q7 -> q2  [label="y:0.08695652173913043"];
q7 -> q9  [label="z:0.8260869565217391"];
q7 -> q3  [label="z:0.08695652173913043"];
q7 -> q7  [label="z:0.08695652173913043"];
q8 -> q2  [label="x:0.5"];
q8 -> q0  [label="x:0.5"];
q8 -> q2  [label="y:0.5"];
q8 -> q7  [label="y:0.5"];
q8 -> q7  [label="z:0.5"];
q8 -> q5  [label="z:0.5"];
q9 -> q7  [label="x:1.0"];
q9 -> q7  [label="y:1.0"];
q9 -> q5  [label="z:1.0"];
__start0 [label="", shape=none];
__start0 -> q0  [label=""];
}
