digraph "benchmarks-true-state-lstar-3seeds/n_states=14-n_outputs=7-glitch_percent=0.01/c347bcfb888c492633e0a29880685e42/pmsatLearned-N14-STOC" {
0 [label="0|b", shape=record, style=rounded];
1 [label="1|c", shape=record, style=rounded];
2 [label="2|d", shape=record, style=rounded];
3 [label="3|e", shape=record, style=rounded];
4 [label="4|f", shape=record, style=rounded];
5 [label="5|g", shape=record, style=rounded];
6 [label="6|e", shape=record, style=rounded];
7 [label="7|e", shape=record, style=rounded];
8 [label="8|f", shape=record, style=rounded];
9 [label="9|b", shape=record, style=rounded];
10 [label="10|e", shape=record, style=rounded];
11 [label="11|b", shape=record, style=rounded];
12 [label="12|c", shape=record, style=rounded];
13 [label="13|g", shape=record, style=rounded];
0 -> 4  [label="x (6)"];
0 -> 7  [label="y (6)"];
0 -> 5  [label="z (6)"];
1 -> 12  [label="x (6)"];
1 -> 9  [label="y (6)"];
1 -> 13  [label="z (7)"];
2 -> 11  [label="x (17)"];
2 -> 0  [label="y (17)"];
2 -> 5  [label="z (17)"];
3 -> 9  [label="z (54)"];
3 -> 2  [label="y (55)"];
3 -> 6  [label="x (67)"];
3 -> 12  [label="!z [1]"];
4 -> 6  [label="x (9)"];
4 -> 4  [label="y (9)"];
4 -> 4  [label="z (8)"];
5 -> 7  [label="x (7)"];
5 -> 12  [label="y (7)"];
5 -> 11  [label="z (7)"];
6 -> 8  [label="x (31)"];
6 -> 1  [label="y (17)"];
6 -> 13  [label="z (17)"];
6 -> 12  [label="!y [1]"];
7 -> 8  [label="x (8)"];
7 -> 3  [label="y (8)"];
7 -> 0  [label="z (8)"];
8 -> 10  [label="x (21)"];
8 -> 12  [label="y (9)"];
8 -> 1  [label="z (9)"];
9 -> 4  [label="x (21)"];
9 -> 7  [label="y (21)"];
9 -> 12  [label="z (20)"];
10 -> 7  [label="x (6)"];
10 -> 8  [label="y (6)"];
10 -> 1  [label="z (6)"];
11 -> 3  [label="x (6)"];
11 -> 5  [label="y (6)"];
11 -> 10  [label="z (6)"];
12 -> 4  [label="x (8)"];
12 -> 8  [label="y (8)"];
12 -> 9  [label="z (8)"];
13 -> 9  [label="y (6)"];
13 -> 9  [label="z (6)"];
13 -> 8  [label="x (5)"];
__start0 [label="", shape=none];
__start0 -> 3  [label=""];
}
