digraph "benchmarks-true-state-lstar-rc10seeds/n_states=13-n_outputs=7-glitch_percent=0.02/6734079809e94228df2eb8754506f525/pmsatLearned_NOP-N13" {
0 [label="0|a", shape=record, style=rounded];
1 [label="1|c", shape=record, style=rounded];
2 [label="2|c", shape=record, style=rounded];
3 [label="3|d", shape=record, style=rounded];
4 [label="4|a", shape=record, style=rounded];
5 [label="5|d", shape=record, style=rounded];
6 [label="6|a", shape=record, style=rounded];
7 [label="7|d", shape=record, style=rounded];
8 [label="8|c", shape=record, style=rounded];
9 [label="9|c", shape=record, style=rounded];
10 [label="10|a", shape=record, style=rounded];
11 [label="11|a", shape=record, style=rounded];
12 [label="12|c", shape=record, style=rounded];
0 -> 8  [label="x"];
0 -> 8  [label="y"];
0 -> 2  [label="z"];
1 -> 7  [label="z"];
1 -> 12  [label="y"];
1 -> 5  [label="x"];
2 -> 8  [label="x"];
2 -> 2  [label="y"];
2 -> 0  [label="z"];
3 -> 7  [label="x"];
3 -> 1  [label="y"];
3 -> 2  [label="z"];
4 -> 0  [label="x"];
4 -> 1  [label="y"];
4 -> 1  [label="z"];
5 -> 10  [label="x"];
5 -> 4  [label="y"];
5 -> 6  [label="z"];
6 -> 5  [label="x"];
6 -> 8  [label="y"];
6 -> 10  [label="z"];
7 -> 0  [label="x"];
7 -> 11  [label="y"];
7 -> 9  [label="z"];
8 -> 8  [label="x"];
8 -> 7  [label="y"];
8 -> 12  [label="z"];
9 -> 6  [label="x"];
9 -> 11  [label="y"];
9 -> 6  [label="z"];
10 -> 3  [label="x"];
10 -> 12  [label="y"];
10 -> 5  [label="z"];
11 -> 12  [label="x"];
11 -> 0  [label="y"];
11 -> 0  [label="z"];
12 -> 2  [label="x"];
12 -> 8  [label="y"];
12 -> 3  [label="z"];
__start0 [label="", shape=none];
__start0 -> 1  [label=""];
}
