digraph "benchmarks-true-state-lstar-songp/n_states=6-n_outputs=6-glitch_percent=0.05-pmstrat='rc2'/5ff02a3a5ce695e4a87559402b57e769/alergiaLearned" {
q0 [label="a"];
q1 [label="d"];
q2 [label="c"];
q3 [label="c"];
q4 [label="b"];
q5 [label="f"];
q0 -> q1  [label="z:0.9333333333333333"];
q0 -> q4  [label="z:0.06666666666666667"];
q0 -> q2  [label="y:0.9444444444444444"];
q0 -> q1  [label="y:0.05555555555555555"];
q0 -> q3  [label="x:0.9285714285714286"];
q0 -> q1  [label="x:0.023809523809523808"];
q0 -> q4  [label="x:0.047619047619047616"];
q1 -> q1  [label="x:1.0"];
q1 -> q1  [label="y:0.9"];
q1 -> q2  [label="y:0.1"];
q1 -> q4  [label="z:0.8333333333333334"];
q1 -> q0  [label="z:0.16666666666666666"];
q2 -> q4  [label="x:1.0"];
q2 -> q5  [label="z:1.0"];
q2 -> q1  [label="z:0.0"];
q2 -> q1  [label="y:1.0"];
q2 -> q5  [label="y:0.0"];
q3 -> q4  [label="x:1.0"];
q3 -> q5  [label="y:1.0"];
q3 -> q1  [label="z:1.0"];
q4 -> q4  [label="x:1.0"];
q4 -> q0  [label="z:1.0"];
q4 -> q2  [label="y:1.0"];
q5 -> q0  [label="x:1.0"];
q5 -> q0  [label="y:1.0"];
q5 -> q4  [label="z:1.0"];
__start0 [label="", shape=none];
__start0 -> q0  [label=""];
}
