digraph "benchmarks-true-state-lstar-rc10seeds/n_states=15-n_outputs=8-glitch_percent=0.01/a358adc9baf9232ed10de1e78af4fe9f/pmsatLearned_NOP-N15" {
0 [label="0|g", shape=record, style=rounded];
1 [label="1|c", shape=record, style=rounded];
2 [label="2|a", shape=record, style=rounded];
3 [label="3|d", shape=record, style=rounded];
4 [label="4|c", shape=record, style=rounded];
5 [label="5|g", shape=record, style=rounded];
6 [label="6|e", shape=record, style=rounded];
7 [label="7|d", shape=record, style=rounded];
8 [label="8|a", shape=record, style=rounded];
9 [label="9|g", shape=record, style=rounded];
10 [label="10|g", shape=record, style=rounded];
11 [label="11|b", shape=record, style=rounded];
12 [label="12|e", shape=record, style=rounded];
13 [label="13|b", shape=record, style=rounded];
14 [label="14|b", shape=record, style=rounded];
0 -> 8  [label="x"];
0 -> 7  [label="y"];
0 -> 4  [label="z"];
1 -> 11  [label="x"];
1 -> 9  [label="y"];
1 -> 13  [label="z"];
2 -> 6  [label="x"];
2 -> 8  [label="y"];
2 -> 13  [label="z"];
3 -> 9  [label="x"];
3 -> 9  [label="y"];
3 -> 4  [label="z"];
4 -> 0  [label="x"];
4 -> 3  [label="y"];
4 -> 5  [label="z"];
5 -> 1  [label="z"];
5 -> 12  [label="y"];
5 -> 0  [label="x"];
6 -> 8  [label="x"];
6 -> 1  [label="y"];
6 -> 5  [label="z"];
7 -> 6  [label="x"];
7 -> 13  [label="y"];
7 -> 11  [label="z"];
8 -> 6  [label="x"];
8 -> 14  [label="y"];
8 -> 3  [label="z"];
9 -> 12  [label="x"];
9 -> 5  [label="y"];
9 -> 5  [label="z"];
10 -> 7  [label="x"];
10 -> 7  [label="y"];
10 -> 10  [label="z"];
11 -> 3  [label="x"];
11 -> 1  [label="y"];
11 -> 9  [label="z"];
12 -> 2  [label="x"];
12 -> 10  [label="y"];
12 -> 3  [label="z"];
13 -> 11  [label="x"];
13 -> 0  [label="y"];
13 -> 11  [label="z"];
14 -> 1  [label="x"];
14 -> 1  [label="y"];
14 -> 1  [label="z"];
__start0 [label="", shape=none];
__start0 -> 5  [label=""];
}
