digraph "benchmarks-true-state-lstar-songp/n_states=10-n_outputs=8-glitch_percent=0.1-pmstrat='rc2'/6b4a8ee208791e1ab03706b358fa3d56/pmsatLearned-N10-STOC" {
0 [label="0|a", shape=record, style=rounded];
1 [label="1|b", shape=record, style=rounded];
2 [label="2|c", shape=record, style=rounded];
3 [label="3|e", shape=record, style=rounded];
4 [label="4|f", shape=record, style=rounded];
5 [label="5|g", shape=record, style=rounded];
6 [label="6|h", shape=record, style=rounded];
7 [label="7|h", shape=record, style=rounded];
8 [label="8|h", shape=record, style=rounded];
9 [label="9|a", shape=record, style=rounded];
0 -> 4  [label="z (13)"];
0 -> 9  [label="y (53)"];
0 -> 7  [label="x (49)"];
0 -> 6  [label="!z [1]"];
0 -> 9  [label="!z [2]"];
0 -> 2  [label="!y [3]"];
0 -> 2  [label="!x [3]"];
0 -> 1  [label="!x [2]"];
0 -> 6  [label="!x [1]"];
0 -> 3  [label="!y [1]"];
1 -> 3  [label="x (5)"];
1 -> 0  [label="y (4)"];
1 -> 5  [label="z (5)"];
2 -> 8  [label="x (6)"];
2 -> 2  [label="y (9)"];
2 -> 7  [label="z (9)"];
3 -> 5  [label="x (7)"];
3 -> 4  [label="z (4)"];
3 -> 9  [label="y (5)"];
3 -> 3  [label="!x [1]"];
3 -> 6  [label="!z [1]"];
4 -> 3  [label="x (7)"];
4 -> 2  [label="y (5)"];
4 -> 0  [label="z (3)"];
5 -> 0  [label="x (6)"];
5 -> 2  [label="y (7)"];
5 -> 0  [label="z (7)"];
5 -> 6  [label="!x [1]"];
5 -> 4  [label="!z [1]"];
6 -> 5  [label="x (5)"];
6 -> 2  [label="y (4)"];
6 -> 7  [label="z (5)"];
6 -> 6  [label="!x [1]"];
7 -> 3  [label="y (17)"];
7 -> 6  [label="z (17)"];
7 -> 2  [label="x (12)"];
7 -> 8  [label="!z [1]"];
7 -> 2  [label="!y [1]"];
7 -> 7  [label="!x [1]"];
8 -> 2  [label="x (6)"];
8 -> 4  [label="y (6)"];
8 -> 4  [label="z (5)"];
9 -> 1  [label="x (15)"];
9 -> 5  [label="y (19)"];
9 -> 8  [label="z (15)"];
9 -> 4  [label="!z [1]"];
9 -> 0  [label="!y [1]"];
__start0 [label="", shape=none];
__start0 -> 0  [label=""];
}
