digraph "benchmarks-true-state-lstar-3seeds/n_states=17-n_outputs=3-glitch_percent=0.01/346fd89db0002dbfd66a3001b6cc9ff0/RealModel" {
s1 [label="s1|a", shape=record, style=rounded];
s2 [label="s2|c", shape=record, style=rounded];
s3 [label="s3|c", shape=record, style=rounded];
s4 [label="s4|a", shape=record, style=rounded];
s5 [label="s5|a", shape=record, style=rounded];
s6 [label="s6|a", shape=record, style=rounded];
s7 [label="s7|c", shape=record, style=rounded];
s8 [label="s8|b", shape=record, style=rounded];
s9 [label="s9|b", shape=record, style=rounded];
s10 [label="s10|c", shape=record, style=rounded];
s11 [label="s11|b", shape=record, style=rounded];
s12 [label="s12|c", shape=record, style=rounded];
s13 [label="s13|c", shape=record, style=rounded];
s14 [label="s14|c", shape=record, style=rounded];
s15 [label="s15|c", shape=record, style=rounded];
s16 [label="s16|c", shape=record, style=rounded];
s17 [label="s17|b", shape=record, style=rounded];
s1 -> s13  [label="x"];
s1 -> s8  [label="y"];
s1 -> s6  [label="z"];
s2 -> s1  [label="x"];
s2 -> s15  [label="y"];
s2 -> s6  [label="z"];
s3 -> s4  [label="x"];
s3 -> s4  [label="y"];
s3 -> s6  [label="z"];
s4 -> s16  [label="x"];
s4 -> s1  [label="y"];
s4 -> s2  [label="z"];
s5 -> s14  [label="x"];
s5 -> s7  [label="y"];
s5 -> s12  [label="z"];
s6 -> s5  [label="x"];
s6 -> s14  [label="y"];
s6 -> s9  [label="z"];
s7 -> s17  [label="x"];
s7 -> s10  [label="y"];
s7 -> s15  [label="z"];
s8 -> s4  [label="x"];
s8 -> s3  [label="y"];
s8 -> s12  [label="z"];
s9 -> s12  [label="x"];
s9 -> s15  [label="y"];
s9 -> s16  [label="z"];
s10 -> s15  [label="x"];
s10 -> s16  [label="y"];
s10 -> s11  [label="z"];
s11 -> s16  [label="x"];
s11 -> s17  [label="y"];
s11 -> s4  [label="z"];
s12 -> s15  [label="x"];
s12 -> s1  [label="y"];
s12 -> s14  [label="z"];
s13 -> s10  [label="x"];
s13 -> s17  [label="y"];
s13 -> s2  [label="z"];
s14 -> s4  [label="x"];
s14 -> s16  [label="y"];
s14 -> s6  [label="z"];
s15 -> s4  [label="x"];
s15 -> s17  [label="y"];
s15 -> s15  [label="z"];
s16 -> s1  [label="x"];
s16 -> s14  [label="y"];
s16 -> s2  [label="z"];
s17 -> s7  [label="x"];
s17 -> s15  [label="y"];
s17 -> s7  [label="z"];
__start0 [label="", shape=none];
__start0 -> s1  [label=""];
}
