digraph "benchmarks-true-state-lstar-3seeds/n_states=7-n_outputs=5-glitch_percent=0.0/d638cc3cd42efd3c2752eb8e2d99f524/rpniGroundTruth" {
s0 [label="s0|c", shape=record, style=rounded];
s1 [label="s1|d", shape=record, style=rounded];
s2 [label="s2|d", shape=record, style=rounded];
s3 [label="s3|c", shape=record, style=rounded];
s4 [label="s4|c", shape=record, style=rounded];
s5 [label="s5|c", shape=record, style=rounded];
s6 [label="s6|a", shape=record, style=rounded];
s0 -> s1  [label="y"];
s0 -> s2  [label="x"];
s0 -> s3  [label="z"];
s1 -> s3  [label="x"];
s1 -> s1  [label="z"];
s1 -> s0  [label="y"];
s2 -> s4  [label="x"];
s2 -> s5  [label="z"];
s2 -> s6  [label="y"];
s3 -> s5  [label="z"];
s3 -> s5  [label="y"];
s3 -> s3  [label="x"];
s4 -> s0  [label="x"];
s4 -> s0  [label="z"];
s4 -> s6  [label="y"];
s5 -> s2  [label="z"];
s5 -> s2  [label="y"];
s5 -> s5  [label="x"];
s6 -> s2  [label="x"];
s6 -> s3  [label="z"];
s6 -> s1  [label="y"];
__start0 [label="", shape=none];
__start0 -> s0  [label=""];
}
