digraph "benchmarks-true-state-lstar-3seeds/n_states=15-n_outputs=6-glitch_percent=0.0/f4982f1e552a7cd0eac4892951351f4e/pmsatLearned-N15-STOC" {
0 [label="0|a", shape=record, style=rounded];
1 [label="1|c", shape=record, style=rounded];
2 [label="2|d", shape=record, style=rounded];
3 [label="3|a", shape=record, style=rounded];
4 [label="4|a", shape=record, style=rounded];
5 [label="5|c", shape=record, style=rounded];
6 [label="6|d", shape=record, style=rounded];
7 [label="7|a", shape=record, style=rounded];
8 [label="8|c", shape=record, style=rounded];
9 [label="9|c", shape=record, style=rounded];
10 [label="10|c", shape=record, style=rounded];
11 [label="11|d", shape=record, style=rounded];
12 [label="12|a", shape=record, style=rounded];
13 [label="13|a", shape=record, style=rounded];
14 [label="14|c", shape=record, style=rounded];
0 -> 4  [label="x (48)"];
0 -> 12  [label="y (47)"];
0 -> 11  [label="z (34)"];
1 -> 0  [label="z (104)"];
1 -> 5  [label="y (37)"];
1 -> 14  [label="x (160)"];
2 -> 13  [label="x (30)"];
2 -> 3  [label="y (15)"];
2 -> 7  [label="z (12)"];
3 -> 14  [label="x (15)"];
3 -> 0  [label="y (12)"];
3 -> 3  [label="z (12)"];
4 -> 6  [label="x (16)"];
4 -> 1  [label="y (13)"];
4 -> 5  [label="z (10)"];
5 -> 9  [label="x (20)"];
5 -> 8  [label="y (14)"];
5 -> 13  [label="z (15)"];
6 -> 3  [label="x (30)"];
6 -> 2  [label="y (51)"];
6 -> 11  [label="z (12)"];
7 -> 8  [label="x (31)"];
7 -> 2  [label="y (8)"];
7 -> 0  [label="z (10)"];
8 -> 9  [label="x (16)"];
8 -> 5  [label="y (14)"];
8 -> 0  [label="z (18)"];
9 -> 2  [label="x (18)"];
9 -> 9  [label="y (26)"];
9 -> 4  [label="z (18)"];
10 -> 1  [label="x (12)"];
10 -> 14  [label="y (7)"];
10 -> 1  [label="z (8)"];
11 -> 8  [label="x (18)"];
11 -> 0  [label="y (8)"];
11 -> 14  [label="z (10)"];
12 -> 9  [label="x (26)"];
12 -> 9  [label="y (7)"];
12 -> 5  [label="z (8)"];
13 -> 9  [label="x (15)"];
13 -> 6  [label="y (11)"];
13 -> 8  [label="z (10)"];
14 -> 6  [label="x (88)"];
14 -> 7  [label="y (54)"];
14 -> 10  [label="z (32)"];
__start0 [label="", shape=none];
__start0 -> 1  [label=""];
}
