digraph "benchmarks-true-state-lstar-3seeds/n_states=10-n_outputs=3-glitch_percent=0.01/70a27268fd898ad8b4db13e8199a9d95/pmsatLearned-N10-STOC" {
0 [label="0|a", shape=record, style=rounded];
1 [label="1|b", shape=record, style=rounded];
2 [label="2|c", shape=record, style=rounded];
3 [label="3|a", shape=record, style=rounded];
4 [label="4|b", shape=record, style=rounded];
5 [label="5|b", shape=record, style=rounded];
6 [label="6|a", shape=record, style=rounded];
7 [label="7|a", shape=record, style=rounded];
8 [label="8|c", shape=record, style=rounded];
9 [label="9|c", shape=record, style=rounded];
0 -> 7  [label="x (7)"];
0 -> 5  [label="y (5)"];
0 -> 3  [label="z (6)"];
0 -> 7  [label="!y [1]"];
1 -> 0  [label="z (22)"];
1 -> 2  [label="y (70)"];
1 -> 6  [label="x (75)"];
1 -> 5  [label="!y [1]"];
1 -> 5  [label="!z [1]"];
2 -> 7  [label="x (24)"];
2 -> 4  [label="y (26)"];
2 -> 3  [label="z (21)"];
3 -> 1  [label="x (29)"];
3 -> 3  [label="y (10)"];
3 -> 5  [label="z (11)"];
4 -> 3  [label="x (13)"];
4 -> 9  [label="y (7)"];
4 -> 6  [label="z (7)"];
5 -> 9  [label="x (10)"];
5 -> 4  [label="y (8)"];
5 -> 9  [label="z (8)"];
6 -> 9  [label="x (32)"];
6 -> 8  [label="y (24)"];
6 -> 5  [label="z (23)"];
7 -> 7  [label="x (20)"];
7 -> 9  [label="y (9)"];
7 -> 6  [label="z (9)"];
8 -> 6  [label="x (7)"];
8 -> 7  [label="y (6)"];
8 -> 2  [label="z (6)"];
9 -> 3  [label="x (24)"];
9 -> 9  [label="y (10)"];
9 -> 3  [label="z (11)"];
__start0 [label="", shape=none];
__start0 -> 1  [label=""];
}
