digraph "pmsatLearned-N11-STOC" {
0 [label="0|a", shape=record, style=rounded];
1 [label="1|b", shape=record, style=rounded];
2 [label="2|c", shape=record, style=rounded];
3 [label="3|d", shape=record, style=rounded];
4 [label="4|e", shape=record, style=rounded];
5 [label="5|e", shape=record, style=rounded];
6 [label="6|b", shape=record, style=rounded];
7 [label="7|e", shape=record, style=rounded];
8 [label="8|e", shape=record, style=rounded];
9 [label="9|a", shape=record, style=rounded];
10 [label="10|e", shape=record, style=rounded];
0 -> 0  [label="x (6)"];
0 -> 8  [label="y (7)"];
0 -> 4  [label="z (7)"];
0 -> 4  [label="!y [1]"];
1 -> 2  [label="z (32)"];
1 -> 5  [label="y (56)"];
1 -> 9  [label="x (56)"];
2 -> 3  [label="x (19)"];
2 -> 0  [label="y (7)"];
2 -> 4  [label="z (7)"];
3 -> 4  [label="x (9)"];
3 -> 5  [label="y (9)"];
3 -> 8  [label="z (10)"];
4 -> 3  [label="y (9)"];
4 -> 9  [label="x (9)"];
4 -> 1  [label="z (8)"];
5 -> 10  [label="x (18)"];
5 -> 6  [label="y (18)"];
5 -> 4  [label="!z [1]"];
5 -> 8  [label="z (16)"];
5 -> 3  [label="!z [1] t1"];
6 -> 10  [label="x (5)"];
6 -> 3  [label="y (5)"];
6 -> 3  [label="z (5)"];
7 -> 10  [label="x (7)"];
7 -> 1  [label="y (7)"];
7 -> 2  [label="z (7)"];
8 -> 3  [label="x (7)"];
8 -> 10  [label="y (7)"];
8 -> 7  [label="z (7)"];
9 -> 4  [label="x (18)"];
9 -> 0  [label="y (18)"];
9 -> 7  [label="z (18)"];
9 -> 1  [label="!x [1]"];
10 -> 1  [label="x (7)"];
10 -> 2  [label="y (8)"];
10 -> 7  [label="z (8)"];
10 -> 9  [label="!y [1]"];
__start0 [label="", shape=none];
__start0 -> 1  [label=""];
}
