digraph "benchmarks-true-state-lstar-3seeds/n_states=7-n_outputs=2-glitch_percent=0.01/ab533c0096f525c4a2cdd8f027c4f9a4/pmsatLearned-N7" {
0 [label="0|a", shape=record, style=rounded];
1 [label="1|b", shape=record, style=rounded];
2 [label="2|b", shape=record, style=rounded];
3 [label="3|b", shape=record, style=rounded];
4 [label="4|b", shape=record, style=rounded];
5 [label="5|b", shape=record, style=rounded];
6 [label="6|a", shape=record, style=rounded];
0 -> 2  [label="x"];
0 -> 6  [label="y"];
0 -> 1  [label="z"];
1 -> 2  [label="z"];
1 -> 0  [label="y"];
1 -> 5  [label="x"];
2 -> 2  [label="x"];
2 -> 2  [label="y"];
2 -> 4  [label="z"];
3 -> 0  [label="x"];
3 -> 5  [label="y"];
3 -> 1  [label="z"];
4 -> 2  [label="x"];
4 -> 3  [label="y"];
4 -> 3  [label="z"];
5 -> 6  [label="x"];
5 -> 4  [label="y"];
5 -> 3  [label="z"];
6 -> 4  [label="x"];
6 -> 1  [label="y"];
6 -> 6  [label="z"];
__start0 [label="", shape=none];
__start0 -> 1  [label=""];
}
