digraph "benchmarks-true-state-lstar-3seeds/n_states=15-n_outputs=9-glitch_percent=0.02/582830248bcdc8eab930b05e254ef8e9/rpniGroundTruth" {
s0 [label="s0|d", shape=record, style=rounded];
s1 [label="s1|e", shape=record, style=rounded];
s2 [label="s2|d", shape=record, style=rounded];
s3 [label="s3|i", shape=record, style=rounded];
s4 [label="s4|c", shape=record, style=rounded];
s5 [label="s5|i", shape=record, style=rounded];
s6 [label="s6|i", shape=record, style=rounded];
s7 [label="s7|i", shape=record, style=rounded];
s8 [label="s8|d", shape=record, style=rounded];
s9 [label="s9|i", shape=record, style=rounded];
s10 [label="s10|f", shape=record, style=rounded];
s11 [label="s11|f", shape=record, style=rounded];
s12 [label="s12|g", shape=record, style=rounded];
s13 [label="s13|h", shape=record, style=rounded];
s14 [label="s14|i", shape=record, style=rounded];
s0 -> s1  [label="x"];
s0 -> s2  [label="y"];
s0 -> s3  [label="z"];
s1 -> s4  [label="y"];
s1 -> s5  [label="x"];
s1 -> s6  [label="z"];
s2 -> s7  [label="z"];
s2 -> s8  [label="y"];
s2 -> s9  [label="x"];
s3 -> s10  [label="y"];
s3 -> s11  [label="z"];
s3 -> s12  [label="x"];
s4 -> s7  [label="x"];
s4 -> s11  [label="z"];
s4 -> s7  [label="y"];
s5 -> s13  [label="x"];
s5 -> s1  [label="z"];
s5 -> s14  [label="y"];
s6 -> s10  [label="x"];
s6 -> s13  [label="z"];
s6 -> s7  [label="y"];
s7 -> s1  [label="y"];
s7 -> s6  [label="x"];
s7 -> s0  [label="z"];
s8 -> s10  [label="z"];
s8 -> s0  [label="x"];
s8 -> s1  [label="y"];
s9 -> s4  [label="x"];
s9 -> s7  [label="z"];
s9 -> s7  [label="y"];
s10 -> s7  [label="y"];
s10 -> s10  [label="z"];
s10 -> s10  [label="x"];
s11 -> s7  [label="z"];
s11 -> s10  [label="y"];
s11 -> s9  [label="x"];
s12 -> s0  [label="y"];
s12 -> s5  [label="z"];
s12 -> s11  [label="x"];
s13 -> s5  [label="y"];
s13 -> s3  [label="x"];
s13 -> s6  [label="z"];
s14 -> s1  [label="y"];
s14 -> s11  [label="z"];
s14 -> s12  [label="x"];
__start0 [label="", shape=none];
__start0 -> s0  [label=""];
}
