digraph "pmsatLearned-N8-STOC" {
0 [label="0|a", shape=record, style=rounded];
1 [label="1|b", shape=record, style=rounded];
2 [label="2|c", shape=record, style=rounded];
3 [label="3|e", shape=record, style=rounded];
4 [label="4|a", shape=record, style=rounded];
5 [label="5|e", shape=record, style=rounded];
6 [label="6|c", shape=record, style=rounded];
7 [label="7|c", shape=record, style=rounded];
0 -> 1  [label="z (19)"];
0 -> 2  [label="y (32)"];
0 -> 7  [label="x (54)"];
1 -> 1  [label="x (6)"];
1 -> 6  [label="y (6)"];
1 -> 6  [label="z (6)"];
2 -> 3  [label="x (21)"];
2 -> 3  [label="y (8)"];
2 -> 2  [label="z (8)"];
3 -> 6  [label="x (9)"];
3 -> 0  [label="y (9)"];
3 -> 3  [label="z (9)"];
4 -> 2  [label="x (5)"];
4 -> 6  [label="y (5)"];
4 -> 5  [label="z (5)"];
5 -> 0  [label="x (8)"];
5 -> 3  [label="y (8)"];
5 -> 3  [label="z (7)"];
6 -> 5  [label="x (8)"];
6 -> 2  [label="y (8)"];
6 -> 5  [label="z (9)"];
7 -> 4  [label="x (17)"];
7 -> 6  [label="y (16)"];
7 -> 5  [label="z (17)"];
__start0 [label="", shape=none];
__start0 -> 0  [label=""];
}
