digraph "benchmarks-true-state-lstar-3seeds/n_states=10-n_outputs=9-glitch_percent=0.02/bdac6263f836105ec0efb0e35e4ca831/alergiaLearned" {
q0 [label="d"];
q1 [label="d"];
q2 [label="i"];
q3 [label="g"];
q4 [label="i"];
q5 [label="c"];
q6 [label="e"];
q0 -> q1  [label="z:0.9166666666666666"];
q0 -> q3  [label="z:0.08333333333333333"];
q0 -> q2  [label="y:0.9333333333333333"];
q0 -> q1  [label="y:0.05"];
q0 -> q6  [label="y:0.016666666666666666"];
q0 -> q3  [label="x:0.95"];
q0 -> q2  [label="x:0.05"];
q1 -> q2  [label="x:1.0"];
q1 -> q0  [label="y:0.4444444444444444"];
q1 -> q6  [label="y:0.5555555555555556"];
q1 -> q3  [label="z:0.5"];
q1 -> q0  [label="z:0.5"];
q2 -> q4  [label="x:0.7391304347826086"];
q2 -> q0  [label="x:0.17391304347826086"];
q2 -> q5  [label="x:0.08695652173913043"];
q2 -> q1  [label="y:0.9090909090909091"];
q2 -> q2  [label="y:0.09090909090909091"];
q2 -> q4  [label="z:0.8636363636363636"];
q2 -> q6  [label="z:0.13636363636363635"];
q3 -> q4  [label="x:1.0"];
q3 -> q5  [label="y:1.0"];
q3 -> q6  [label="z:1.0"];
q4 -> q5  [label="x:0.3333333333333333"];
q4 -> q0  [label="x:0.6666666666666666"];
q4 -> q0  [label="y:0.6428571428571429"];
q4 -> q2  [label="y:0.35714285714285715"];
q4 -> q6  [label="z:0.6428571428571429"];
q4 -> q2  [label="z:0.35714285714285715"];
q5 -> q2  [label="x:1.0"];
q5 -> q0  [label="y:1.0"];
q5 -> q2  [label="z:1.0"];
q6 -> q0  [label="x:1.0"];
q6 -> q0  [label="y:1.0"];
q6 -> q6  [label="z:1.0"];
__start0 [label="", shape=none];
__start0 -> q0  [label=""];
}
