digraph "benchmarks-true-state-lstar-3seeds/n_states=11-n_outputs=7-glitch_percent=0.1/0cb19fc916b718a8136737084ab6b590/RealModel" {
s1 [label="s1|a", shape=record, style=rounded];
s2 [label="s2|d", shape=record, style=rounded];
s3 [label="s3|a", shape=record, style=rounded];
s4 [label="s4|e", shape=record, style=rounded];
s5 [label="s5|e", shape=record, style=rounded];
s6 [label="s6|g", shape=record, style=rounded];
s7 [label="s7|b", shape=record, style=rounded];
s8 [label="s8|f", shape=record, style=rounded];
s9 [label="s9|e", shape=record, style=rounded];
s10 [label="s10|b", shape=record, style=rounded];
s11 [label="s11|e", shape=record, style=rounded];
s1 -> s10  [label="x"];
s1 -> s2  [label="y"];
s1 -> s3  [label="z"];
s2 -> s6  [label="x"];
s2 -> s8  [label="y"];
s2 -> s11  [label="z"];
s3 -> s9  [label="x"];
s3 -> s2  [label="y"];
s3 -> s7  [label="z"];
s4 -> s8  [label="x"];
s4 -> s6  [label="y"];
s4 -> s3  [label="z"];
s5 -> s8  [label="x"];
s5 -> s9  [label="y"];
s5 -> s10  [label="z"];
s6 -> s2  [label="x"];
s6 -> s7  [label="y"];
s6 -> s4  [label="z"];
s7 -> s8  [label="x"];
s7 -> s8  [label="y"];
s7 -> s2  [label="z"];
s8 -> s6  [label="x"];
s8 -> s9  [label="y"];
s8 -> s8  [label="z"];
s9 -> s10  [label="x"];
s9 -> s6  [label="y"];
s9 -> s2  [label="z"];
s10 -> s4  [label="x"];
s10 -> s7  [label="y"];
s10 -> s5  [label="z"];
s11 -> s5  [label="x"];
s11 -> s3  [label="y"];
s11 -> s2  [label="z"];
__start0 [label="", shape=none];
__start0 -> s1  [label=""];
}
