digraph "pmsatLearned-N8-STOC" {
0 [label="0|a", shape=record, style=rounded];
1 [label="1|b", shape=record, style=rounded];
2 [label="2|c", shape=record, style=rounded];
3 [label="3|d", shape=record, style=rounded];
4 [label="4|e", shape=record, style=rounded];
5 [label="5|c", shape=record, style=rounded];
6 [label="6|d", shape=record, style=rounded];
7 [label="7|e", shape=record, style=rounded];
0 -> 0  [label="x (153)"];
0 -> 0  [label="y (162)"];
0 -> 2  [label="z (150)"];
0 -> 7  [label="!y [1]"];
1 -> 7  [label="z (101)"];
1 -> 4  [label="y (117)"];
1 -> 5  [label="x (120)"];
1 -> 2  [label="!x [1]"];
1 -> 1  [label="!z [1]"];
1 -> 0  [label="!x [1] t1"];
2 -> 0  [label="x (73)"];
2 -> 7  [label="y (88)"];
2 -> 4  [label="z (78)"];
3 -> 1  [label="x (46)"];
3 -> 0  [label="y (62)"];
3 -> 1  [label="z (41)"];
3 -> 4  [label="!y [1]"];
4 -> 0  [label="x (60)"];
4 -> 3  [label="y (55)"];
4 -> 1  [label="z (54)"];
4 -> 0  [label="!y [1]"];
4 -> 4  [label="!z [1]"];
4 -> 5  [label="!x [1]"];
5 -> 6  [label="x (51)"];
5 -> 3  [label="y (48)"];
5 -> 2  [label="z (55)"];
5 -> 1  [label="!x [1]"];
6 -> 0  [label="x (26)"];
6 -> 3  [label="y (25)"];
6 -> 3  [label="z (43)"];
7 -> 2  [label="x (64)"];
7 -> 5  [label="y (50)"];
7 -> 6  [label="z (53)"];
7 -> 5  [label="!x [1]"];
__start0 [label="", shape=none];
__start0 -> 1  [label=""];
}
