digraph "benchmarks-true-state-lstar-3seeds/n_states=16-n_outputs=4-glitch_percent=0.0/74e48a61642d6ca9d78056a5d3e7a0c5/alergiaLearned" {
q0 [label="d"];
q1 [label="b"];
q2 [label="c"];
q3 [label="d"];
q4 [label="c"];
q5 [label="b"];
q6 [label="a"];
q7 [label="c"];
q0 -> q1  [label="z:1.0"];
q0 -> q2  [label="y:1.0"];
q0 -> q3  [label="x:0.9680851063829787"];
q0 -> q2  [label="x:0.031914893617021274"];
q1 -> q4  [label="x:0.8846153846153846"];
q1 -> q0  [label="x:0.11538461538461539"];
q1 -> q4  [label="y:0.8846153846153846"];
q1 -> q0  [label="y:0.11538461538461539"];
q1 -> q5  [label="z:0.8846153846153846"];
q1 -> q0  [label="z:0.11538461538461539"];
q2 -> q5  [label="x:0.7307692307692307"];
q2 -> q0  [label="x:0.07692307692307693"];
q2 -> q2  [label="x:0.19230769230769232"];
q2 -> q6  [label="x:0.0"];
q2 -> q4  [label="y:0.8076923076923077"];
q2 -> q1  [label="y:0.07692307692307693"];
q2 -> q6  [label="y:0.11538461538461539"];
q2 -> q6  [label="z:0.8846153846153846"];
q2 -> q1  [label="z:0.038461538461538464"];
q2 -> q0  [label="z:0.07692307692307693"];
q2 -> q2  [label="z:0.0"];
q3 -> q7  [label="x:1.0"];
q3 -> q4  [label="y:1.0"];
q3 -> q5  [label="z:1.0"];
q4 -> q0  [label="x:0.2"];
q4 -> q2  [label="x:0.4"];
q4 -> q6  [label="x:0.2"];
q4 -> q1  [label="x:0.2"];
q4 -> q1  [label="y:0.6"];
q4 -> q2  [label="y:0.4"];
q4 -> q6  [label="z:0.2"];
q4 -> q0  [label="z:0.2"];
q4 -> q2  [label="z:0.4"];
q4 -> q1  [label="z:0.2"];
q5 -> q0  [label="x:0.3333333333333333"];
q5 -> q2  [label="x:0.3333333333333333"];
q5 -> q6  [label="x:0.3333333333333333"];
q5 -> q2  [label="y:0.6666666666666666"];
q5 -> q0  [label="y:0.3333333333333333"];
q5 -> q0  [label="z:0.3333333333333333"];
q5 -> q1  [label="z:0.6666666666666666"];
q6 -> q1  [label="x:0.6111111111111112"];
q6 -> q2  [label="x:0.3888888888888889"];
q6 -> q1  [label="y:0.6666666666666666"];
q6 -> q6  [label="y:0.3333333333333333"];
q6 -> q2  [label="z:0.6111111111111112"];
q6 -> q0  [label="z:0.3888888888888889"];
q7 -> q4  [label="x:1.0"];
q7 -> q6  [label="y:1.0"];
q7 -> q6  [label="z:1.0"];
__start0 [label="", shape=none];
__start0 -> q0  [label=""];
}
