digraph "benchmarks-true-state-lstar-3seeds/n_states=10-n_outputs=8-glitch_percent=0.01/b6a1e61ead17a245e96011b6dc3d6823/pmsatLearned-N10-STOC" {
0 [label="0|a", shape=record, style=rounded];
1 [label="1|c", shape=record, style=rounded];
2 [label="2|d", shape=record, style=rounded];
3 [label="3|f", shape=record, style=rounded];
4 [label="4|h", shape=record, style=rounded];
5 [label="5|h", shape=record, style=rounded];
6 [label="6|c", shape=record, style=rounded];
7 [label="7|f", shape=record, style=rounded];
8 [label="8|a", shape=record, style=rounded];
9 [label="9|h", shape=record, style=rounded];
0 -> 5  [label="x (19)"];
0 -> 1  [label="y (20)"];
0 -> 8  [label="z (20)"];
1 -> 8  [label="x (8)"];
1 -> 2  [label="y (8)"];
1 -> 0  [label="z (8)"];
2 -> 7  [label="z (19)"];
2 -> 4  [label="y (53)"];
2 -> 0  [label="x (54)"];
2 -> 5  [label="!x [1]"];
2 -> 6  [label="!z [1]"];
3 -> 3  [label="x (8)"];
3 -> 8  [label="y (8)"];
3 -> 8  [label="z (8)"];
4 -> 3  [label="x (17)"];
4 -> 9  [label="y (18)"];
4 -> 6  [label="z (17)"];
5 -> 3  [label="x (9)"];
5 -> 0  [label="y (9)"];
5 -> 3  [label="z (9)"];
6 -> 2  [label="x (5)"];
6 -> 1  [label="y (5)"];
6 -> 1  [label="z (5)"];
7 -> 5  [label="x (6)"];
7 -> 5  [label="y (6)"];
7 -> 0  [label="z (6)"];
8 -> 9  [label="x (8)"];
8 -> 5  [label="y (8)"];
8 -> 4  [label="z (8)"];
9 -> 1  [label="x (6)"];
9 -> 7  [label="y (6)"];
9 -> 5  [label="z (6)"];
__start0 [label="", shape=none];
__start0 -> 2  [label=""];
}
