digraph "benchmarks-true-state-lstar-rc10seeds/n_states=10-n_outputs=7-glitch_percent=0.05/9acc67645d66917ea65ecad6fe1bc5aa/pmsatLearned_NOP-N10-STOC" {
0 [label="0|a", shape=record, style=rounded];
1 [label="1|a", shape=record, style=rounded];
2 [label="2|c", shape=record, style=rounded];
3 [label="3|g", shape=record, style=rounded];
4 [label="4|e", shape=record, style=rounded];
5 [label="5|c", shape=record, style=rounded];
6 [label="6|d", shape=record, style=rounded];
7 [label="7|a", shape=record, style=rounded];
8 [label="8|g", shape=record, style=rounded];
9 [label="9|e", shape=record, style=rounded];
0 -> 7  [label="z (18)"];
0 -> 4  [label="y (53)"];
0 -> 2  [label="x (53)"];
0 -> 9  [label="!x [1]"];
0 -> 3  [label="!y [1]"];
0 -> 3  [label="!z [1]"];
1 -> 1  [label="x (9)"];
1 -> 0  [label="y (8)"];
1 -> 4  [label="z (7)"];
1 -> 8  [label="!y [1]"];
2 -> 9  [label="x (17)"];
2 -> 6  [label="y (17)"];
2 -> 8  [label="z (16)"];
2 -> 4  [label="!x [1]"];
3 -> 3  [label="x (6)"];
3 -> 1  [label="y (4)"];
3 -> 7  [label="z (7)"];
4 -> 1  [label="x (22)"];
4 -> 3  [label="y (19)"];
4 -> 5  [label="z (21)"];
4 -> 1  [label="!y [1]"];
5 -> 2  [label="x (7)"];
5 -> 1  [label="y (7)"];
5 -> 5  [label="z (7)"];
6 -> 4  [label="x (5)"];
6 -> 8  [label="y (6)"];
6 -> 8  [label="z (6)"];
7 -> 4  [label="x (6)"];
7 -> 7  [label="z (7)"];
7 -> 0  [label="y (7)"];
8 -> 5  [label="x (6)"];
8 -> 1  [label="z (6)"];
8 -> 4  [label="y (6)"];
9 -> 6  [label="x (5)"];
9 -> 4  [label="z (4)"];
9 -> 2  [label="y (2)"];
9 -> 9  [label="!x [1]"];
9 -> 8  [label="!z [1]"];
__start0 [label="", shape=none];
__start0 -> 0  [label=""];
}
