digraph "benchmarks-true-state-lstar-3seeds/n_states=16-n_outputs=3-glitch_percent=0.02/1f5e9fd15dbe708207ee94e00c3cea40/pmsatLearned-N16-STOC" {
0 [label="0|a", shape=record, style=rounded];
1 [label="1|b", shape=record, style=rounded];
2 [label="2|c", shape=record, style=rounded];
3 [label="3|b", shape=record, style=rounded];
4 [label="4|a", shape=record, style=rounded];
5 [label="5|b", shape=record, style=rounded];
6 [label="6|a", shape=record, style=rounded];
7 [label="7|c", shape=record, style=rounded];
8 [label="8|b", shape=record, style=rounded];
9 [label="9|c", shape=record, style=rounded];
10 [label="10|a", shape=record, style=rounded];
11 [label="11|a", shape=record, style=rounded];
12 [label="12|c", shape=record, style=rounded];
13 [label="13|b", shape=record, style=rounded];
14 [label="14|b", shape=record, style=rounded];
15 [label="15|c", shape=record, style=rounded];
0 -> 3  [label="x (25)"];
0 -> 2  [label="y (35)"];
0 -> 10  [label="z (24)"];
0 -> 9  [label="!x [1]"];
1 -> 13  [label="z (66)"];
1 -> 0  [label="y (68)"];
1 -> 5  [label="x (122)"];
1 -> 10  [label="!z [1]"];
1 -> 15  [label="!y [1]"];
1 -> 8  [label="!x [1]"];
2 -> 10  [label="x (13)"];
2 -> 6  [label="y (9)"];
2 -> 10  [label="z (10)"];
2 -> 13  [label="!z [1]"];
3 -> 2  [label="y (14)"];
3 -> 5  [label="z (8)"];
3 -> 7  [label="x (8)"];
4 -> 0  [label="x (12)"];
4 -> 3  [label="y (13)"];
4 -> 12  [label="z (9)"];
5 -> 6  [label="x (72)"];
5 -> 9  [label="y (28)"];
5 -> 12  [label="z (22)"];
5 -> 3  [label="!x [1]"];
5 -> 11  [label="!z [1]"];
6 -> 8  [label="y (27)"];
6 -> 4  [label="z (22)"];
6 -> 11  [label="x (29)"];
6 -> 1  [label="!z [1]"];
7 -> 0  [label="x (14)"];
7 -> 7  [label="y (14)"];
7 -> 4  [label="z (11)"];
8 -> 11  [label="x (8)"];
8 -> 1  [label="y (6)"];
8 -> 7  [label="z (6)"];
9 -> 14  [label="x (9)"];
9 -> 7  [label="y (7)"];
9 -> 1  [label="z (7)"];
9 -> 0  [label="!x [1]"];
10 -> 4  [label="x (12)"];
10 -> 6  [label="y (12)"];
10 -> 5  [label="z (7)"];
11 -> 11  [label="x (16)"];
11 -> 4  [label="y (20)"];
11 -> 1  [label="z (7)"];
12 -> 3  [label="x (7)"];
12 -> 14  [label="y (7)"];
12 -> 6  [label="z (7)"];
12 -> 9  [label="!x [1]"];
13 -> 14  [label="x (22)"];
13 -> 7  [label="y (21)"];
13 -> 15  [label="z (21)"];
13 -> 1  [label="!x [1]"];
14 -> 2  [label="x (11)"];
14 -> 7  [label="y (11)"];
14 -> 2  [label="z (6)"];
15 -> 0  [label="x (8)"];
15 -> 9  [label="y (6)"];
15 -> 13  [label="z (6)"];
__start0 [label="", shape=none];
__start0 -> 1  [label=""];
}
