digraph "benchmarks-true-state-lstar-3seeds/n_states=9-n_outputs=6-glitch_percent=0.02/270fa21a05716cb812fb5cd81d01e967/pmsatLearned-N9-STOC" {
0 [label="0|a", shape=record, style=rounded];
1 [label="1|c", shape=record, style=rounded];
2 [label="2|d", shape=record, style=rounded];
3 [label="3|e", shape=record, style=rounded];
4 [label="4|e", shape=record, style=rounded];
5 [label="5|d", shape=record, style=rounded];
6 [label="6|c", shape=record, style=rounded];
7 [label="7|e", shape=record, style=rounded];
8 [label="8|c", shape=record, style=rounded];
0 -> 1  [label="x (7)"];
0 -> 3  [label="y (5)"];
0 -> 6  [label="z (8)"];
0 -> 4  [label="!y [1]"];
1 -> 6  [label="z (26)"];
1 -> 5  [label="y (58)"];
1 -> 8  [label="x (70)"];
1 -> 7  [label="!y [1]"];
1 -> 1  [label="!x [1]"];
2 -> 4  [label="x (5)"];
2 -> 1  [label="y (6)"];
2 -> 7  [label="z (8)"];
3 -> 7  [label="x (16)"];
3 -> 3  [label="y (13)"];
3 -> 8  [label="z (18)"];
4 -> 3  [label="x (17)"];
4 -> 3  [label="y (8)"];
4 -> 3  [label="z (16)"];
5 -> 2  [label="x (23)"];
5 -> 4  [label="y (26)"];
5 -> 1  [label="z (9)"];
5 -> 7  [label="!x [1]"];
6 -> 5  [label="x (9)"];
6 -> 8  [label="y (7)"];
6 -> 7  [label="z (7)"];
7 -> 4  [label="x (16)"];
7 -> 4  [label="y (9)"];
7 -> 7  [label="z (16)"];
8 -> 0  [label="x (25)"];
8 -> 7  [label="y (21)"];
8 -> 3  [label="z (27)"];
__start0 [label="", shape=none];
__start0 -> 1  [label=""];
}
