digraph "benchmarks-true-state-lstar-rc10seeds/n_states=17-n_outputs=6-glitch_percent=0.0/f8b2265e205242e433e4310eeca6efcc/pmsatLearned_NOP-N17" {
0 [label="0|b", shape=record, style=rounded];
1 [label="1|a", shape=record, style=rounded];
2 [label="2|f", shape=record, style=rounded];
3 [label="3|f", shape=record, style=rounded];
4 [label="4|a", shape=record, style=rounded];
5 [label="5|c", shape=record, style=rounded];
6 [label="6|d", shape=record, style=rounded];
7 [label="7|f", shape=record, style=rounded];
8 [label="8|e", shape=record, style=rounded];
9 [label="9|f", shape=record, style=rounded];
10 [label="10|e", shape=record, style=rounded];
11 [label="11|a", shape=record, style=rounded];
12 [label="12|d", shape=record, style=rounded];
13 [label="13|d", shape=record, style=rounded];
14 [label="14|c", shape=record, style=rounded];
15 [label="15|b", shape=record, style=rounded];
16 [label="16|f", shape=record, style=rounded];
0 -> 10  [label="x"];
0 -> 14  [label="y"];
0 -> 12  [label="z"];
1 -> 12  [label="x"];
1 -> 14  [label="y"];
1 -> 10  [label="z"];
2 -> 11  [label="x"];
2 -> 1  [label="y"];
2 -> 0  [label="z"];
3 -> 0  [label="x"];
3 -> 5  [label="y"];
3 -> 10  [label="z"];
4 -> 0  [label="z"];
4 -> 16  [label="y"];
4 -> 6  [label="x"];
5 -> 9  [label="x"];
5 -> 6  [label="y"];
5 -> 16  [label="z"];
6 -> 15  [label="x"];
6 -> 9  [label="y"];
6 -> 13  [label="z"];
7 -> 10  [label="x"];
7 -> 9  [label="y"];
7 -> 15  [label="z"];
8 -> 12  [label="x"];
8 -> 2  [label="y"];
8 -> 16  [label="z"];
9 -> 8  [label="x"];
9 -> 15  [label="y"];
9 -> 12  [label="z"];
10 -> 2  [label="x"];
10 -> 10  [label="y"];
10 -> 9  [label="z"];
11 -> 15  [label="x"];
11 -> 1  [label="y"];
11 -> 11  [label="z"];
12 -> 15  [label="x"];
12 -> 5  [label="y"];
12 -> 1  [label="z"];
13 -> 14  [label="x"];
13 -> 9  [label="y"];
13 -> 13  [label="z"];
14 -> 13  [label="x"];
14 -> 15  [label="y"];
14 -> 8  [label="z"];
15 -> 1  [label="x"];
15 -> 11  [label="y"];
15 -> 5  [label="z"];
16 -> 2  [label="x"];
16 -> 7  [label="y"];
16 -> 3  [label="z"];
__start0 [label="", shape=none];
__start0 -> 4  [label=""];
}
