digraph "benchmarks-true-state-lstar-rc10seeds/n_states=6-n_outputs=4-glitch_percent=0.0/98ec6cb9eeb52d1912b61d064a39d98e/pmsatLearned_NOP-N6" {
0 [label="0|b", shape=record, style=rounded];
1 [label="1|c", shape=record, style=rounded];
2 [label="2|b", shape=record, style=rounded];
3 [label="3|c", shape=record, style=rounded];
4 [label="4|d", shape=record, style=rounded];
5 [label="5|b", shape=record, style=rounded];
0 -> 4  [label="x"];
0 -> 4  [label="y"];
0 -> 0  [label="z"];
1 -> 4  [label="z"];
1 -> 0  [label="y"];
1 -> 3  [label="x"];
2 -> 0  [label="x"];
2 -> 5  [label="y"];
2 -> 2  [label="z"];
3 -> 5  [label="x"];
3 -> 2  [label="y"];
3 -> 4  [label="z"];
4 -> 5  [label="x"];
4 -> 0  [label="y"];
4 -> 1  [label="z"];
5 -> 1  [label="x"];
5 -> 5  [label="y"];
5 -> 1  [label="z"];
__start0 [label="", shape=none];
__start0 -> 1  [label=""];
}
