digraph "benchmarks-true-state-lstar-songp/n_states=6-n_outputs=6-glitch_percent=0.0-pmstrat='fm'/aa901fd9eba9d70e1080e4f0b29e577c/pmsatLearned-N6-STOC" {
0 [label="0|a", shape=record, style=rounded];
1 [label="1|b", shape=record, style=rounded];
2 [label="2|c", shape=record, style=rounded];
3 [label="3|d", shape=record, style=rounded];
4 [label="4|f", shape=record, style=rounded];
5 [label="5|c", shape=record, style=rounded];
0 -> 3  [label="z (20)"];
0 -> 2  [label="y (20)"];
0 -> 5  [label="x (44)"];
1 -> 1  [label="x (9)"];
1 -> 5  [label="y (9)"];
1 -> 0  [label="z (9)"];
2 -> 1  [label="x (5)"];
2 -> 3  [label="y (5)"];
2 -> 4  [label="z (5)"];
3 -> 3  [label="x (9)"];
3 -> 3  [label="y (9)"];
3 -> 1  [label="z (9)"];
4 -> 0  [label="x (6)"];
4 -> 0  [label="y (6)"];
4 -> 1  [label="z (6)"];
5 -> 1  [label="x (18)"];
5 -> 4  [label="y (18)"];
5 -> 3  [label="z (6)"];
__start0 [label="", shape=none];
__start0 -> 0  [label=""];
}
