digraph "benchmarks-true-state-lstar-3seeds/n_states=17-n_outputs=4-glitch_percent=0.01/384db97bea793fb10ecbc7ebb67aafb5/rpniGroundTruth" {
s0 [label="s0|b", shape=record, style=rounded];
s1 [label="s1|b", shape=record, style=rounded];
s2 [label="s2|d", shape=record, style=rounded];
s3 [label="s3|c", shape=record, style=rounded];
s4 [label="s4|c", shape=record, style=rounded];
s5 [label="s5|c", shape=record, style=rounded];
s6 [label="s6|a", shape=record, style=rounded];
s7 [label="s7|a", shape=record, style=rounded];
s8 [label="s8|a", shape=record, style=rounded];
s9 [label="s9|d", shape=record, style=rounded];
s10 [label="s10|d", shape=record, style=rounded];
s11 [label="s11|b", shape=record, style=rounded];
s12 [label="s12|c", shape=record, style=rounded];
s13 [label="s13|b", shape=record, style=rounded];
s14 [label="s14|b", shape=record, style=rounded];
s15 [label="s15|a", shape=record, style=rounded];
s16 [label="s16|d", shape=record, style=rounded];
s0 -> s1  [label="x"];
s0 -> s2  [label="y"];
s0 -> s3  [label="z"];
s1 -> s4  [label="z"];
s1 -> s5  [label="y"];
s1 -> s6  [label="x"];
s2 -> s7  [label="z"];
s2 -> s8  [label="x"];
s2 -> s9  [label="y"];
s3 -> s10  [label="x"];
s3 -> s11  [label="z"];
s3 -> s12  [label="y"];
s4 -> s2  [label="x"];
s4 -> s10  [label="y"];
s4 -> s4  [label="z"];
s5 -> s1  [label="z"];
s5 -> s13  [label="x"];
s5 -> s4  [label="y"];
s6 -> s14  [label="z"];
s6 -> s15  [label="x"];
s6 -> s16  [label="y"];
s7 -> s10  [label="z"];
s7 -> s10  [label="x"];
s7 -> s3  [label="y"];
s8 -> s8  [label="z"];
s8 -> s1  [label="y"];
s8 -> s14  [label="x"];
s9 -> s16  [label="z"];
s9 -> s1  [label="x"];
s9 -> s2  [label="y"];
s10 -> s13  [label="y"];
s10 -> s14  [label="x"];
s10 -> s5  [label="z"];
s11 -> s2  [label="z"];
s11 -> s13  [label="x"];
s11 -> s7  [label="y"];
s12 -> s12  [label="x"];
s12 -> s1  [label="y"];
s12 -> s10  [label="z"];
s13 -> s8  [label="x"];
s13 -> s14  [label="z"];
s13 -> s6  [label="y"];
s14 -> s14  [label="z"];
s14 -> s1  [label="x"];
s14 -> s9  [label="y"];
s15 -> s15  [label="y"];
s15 -> s6  [label="x"];
s15 -> s5  [label="z"];
s16 -> s15  [label="y"];
s16 -> s8  [label="x"];
s16 -> s14  [label="z"];
__start0 [label="", shape=none];
__start0 -> s0  [label=""];
}
