digraph "benchmarks-true-state-lstar-rc10seeds/n_states=11-n_outputs=9-glitch_percent=0.02/0acf16aa85fb200e554554e59b93d7b0/pmsatLearned_NOP-N11-STOC" {
0 [label="0|h", shape=record, style=rounded];
1 [label="1|a", shape=record, style=rounded];
2 [label="2|e", shape=record, style=rounded];
3 [label="3|a", shape=record, style=rounded];
4 [label="4|h", shape=record, style=rounded];
5 [label="5|b", shape=record, style=rounded];
6 [label="6|f", shape=record, style=rounded];
7 [label="7|e", shape=record, style=rounded];
8 [label="8|e", shape=record, style=rounded];
9 [label="9|b", shape=record, style=rounded];
10 [label="10|g", shape=record, style=rounded];
0 -> 7  [label="x (6)"];
0 -> 7  [label="y (6)"];
0 -> 6  [label="z (6)"];
1 -> 4  [label="x (5)"];
1 -> 2  [label="y (6)"];
1 -> 2  [label="z (6)"];
2 -> 8  [label="z (32)"];
2 -> 6  [label="y (55)"];
2 -> 4  [label="x (54)"];
2 -> 5  [label="!x [1]"];
3 -> 6  [label="x (4)"];
3 -> 10  [label="y (5)"];
3 -> 2  [label="z (5)"];
4 -> 7  [label="x (18)"];
4 -> 1  [label="y (19)"];
4 -> 10  [label="z (18)"];
4 -> 6  [label="!z [1]"];
5 -> 7  [label="x (6)"];
5 -> 7  [label="y (6)"];
5 -> 10  [label="z (6)"];
6 -> 5  [label="x (19)"];
6 -> 3  [label="y (20)"];
6 -> 0  [label="z (21)"];
6 -> 6  [label="!x [1]"];
7 -> 10  [label="x (10)"];
7 -> 0  [label="y (10)"];
7 -> 6  [label="z (9)"];
8 -> 9  [label="x (18)"];
8 -> 8  [label="y (6)"];
8 -> 6  [label="z (6)"];
9 -> 9  [label="x (7)"];
9 -> 1  [label="y (7)"];
9 -> 9  [label="z (7)"];
10 -> 4  [label="x (8)"];
10 -> 7  [label="y (8)"];
10 -> 5  [label="z (7)"];
__start0 [label="", shape=none];
__start0 -> 2  [label=""];
}
