digraph "benchmarks-true-state-lstar-songp/n_states=11-n_outputs=9-glitch_percent=0.02-pmstrat='fm'/214cec62d25b88b01cc837f54799235c/pmsatLearned-N11-STOC" {
0 [label="0|a", shape=record, style=rounded];
1 [label="1|b", shape=record, style=rounded];
2 [label="2|c", shape=record, style=rounded];
3 [label="3|e", shape=record, style=rounded];
4 [label="4|f", shape=record, style=rounded];
5 [label="5|g", shape=record, style=rounded];
6 [label="6|h", shape=record, style=rounded];
7 [label="7|i", shape=record, style=rounded];
8 [label="8|h", shape=record, style=rounded];
9 [label="9|h", shape=record, style=rounded];
10 [label="10|a", shape=record, style=rounded];
0 -> 10  [label="z (32)"];
0 -> 9  [label="y (52)"];
0 -> 5  [label="x (54)"];
0 -> 6  [label="!y [2]"];
0 -> 2  [label="!y [1]"];
0 -> 4  [label="!x [1]"];
1 -> 7  [label="x (5)"];
1 -> 0  [label="y (5)"];
1 -> 2  [label="z (5)"];
2 -> 9  [label="x (10)"];
2 -> 7  [label="y (8)"];
2 -> 10  [label="z (10)"];
2 -> 10  [label="!x [1]"];
3 -> 4  [label="x (8)"];
3 -> 7  [label="y (8)"];
3 -> 2  [label="z (8)"];
4 -> 10  [label="x (8)"];
4 -> 6  [label="y (8)"];
4 -> 2  [label="z (8)"];
5 -> 4  [label="x (16)"];
5 -> 2  [label="y (16)"];
5 -> 3  [label="z (17)"];
6 -> 4  [label="x (6)"];
6 -> 3  [label="y (8)"];
6 -> 10  [label="z (6)"];
7 -> 0  [label="x (7)"];
7 -> 2  [label="y (7)"];
7 -> 4  [label="z (8)"];
7 -> 7  [label="!y [1]"];
8 -> 9  [label="x (5)"];
8 -> 3  [label="y (3)"];
8 -> 0  [label="z (5)"];
9 -> 8  [label="x (17)"];
9 -> 1  [label="y (19)"];
9 -> 7  [label="z (19)"];
10 -> 6  [label="x (20)"];
10 -> 3  [label="y (8)"];
10 -> 2  [label="z (8)"];
__start0 [label="", shape=none];
__start0 -> 0  [label=""];
}
