digraph "benchmarks-true-state-lstar-3seeds/n_states=9-n_outputs=9-glitch_percent=0.0/714911027779c37d192bb677ad66d91e/rpniGroundTruth" {
s0 [label="s0|e", shape=record, style=rounded];
s1 [label="s1|c", shape=record, style=rounded];
s2 [label="s2|i", shape=record, style=rounded];
s3 [label="s3|c", shape=record, style=rounded];
s4 [label="s4|h", shape=record, style=rounded];
s5 [label="s5|a", shape=record, style=rounded];
s6 [label="s6|a", shape=record, style=rounded];
s7 [label="s7|g", shape=record, style=rounded];
s8 [label="s8|f", shape=record, style=rounded];
s0 -> s1  [label="y"];
s0 -> s2  [label="z"];
s0 -> s3  [label="x"];
s1 -> s1  [label="z"];
s1 -> s4  [label="y"];
s1 -> s5  [label="x"];
s2 -> s0  [label="z"];
s2 -> s3  [label="y"];
s2 -> s6  [label="x"];
s3 -> s7  [label="z"];
s3 -> s6  [label="y"];
s3 -> s8  [label="x"];
s4 -> s5  [label="y"];
s4 -> s6  [label="x"];
s4 -> s6  [label="z"];
s5 -> s5  [label="y"];
s5 -> s6  [label="x"];
s5 -> s0  [label="z"];
s6 -> s2  [label="x"];
s6 -> s3  [label="y"];
s6 -> s4  [label="z"];
s7 -> s3  [label="z"];
s7 -> s8  [label="x"];
s7 -> s3  [label="y"];
s8 -> s4  [label="x"];
s8 -> s5  [label="y"];
s8 -> s2  [label="z"];
__start0 [label="", shape=none];
__start0 -> s0  [label=""];
}
