digraph "benchmarks-true-state-lstar-3seeds/n_states=7-n_outputs=7-glitch_percent=0.02/08f794872e9d92f46c1d2573d5a946a4/rpniGroundTruth" {
s0 [label="s0|b", shape=record, style=rounded];
s1 [label="s1|b", shape=record, style=rounded];
s2 [label="s2|e", shape=record, style=rounded];
s3 [label="s3|g", shape=record, style=rounded];
s4 [label="s4|e", shape=record, style=rounded];
s5 [label="s5|g", shape=record, style=rounded];
s6 [label="s6|b", shape=record, style=rounded];
s0 -> s1  [label="z"];
s0 -> s2  [label="x"];
s0 -> s3  [label="y"];
s1 -> s2  [label="y"];
s1 -> s4  [label="z"];
s1 -> s4  [label="x"];
s2 -> s5  [label="z"];
s2 -> s4  [label="x"];
s2 -> s6  [label="y"];
s3 -> s6  [label="y"];
s3 -> s1  [label="x"];
s3 -> s2  [label="z"];
s4 -> s3  [label="z"];
s4 -> s6  [label="x"];
s4 -> s0  [label="y"];
s5 -> s2  [label="x"];
s5 -> s0  [label="y"];
s5 -> s4  [label="z"];
s6 -> s1  [label="z"];
s6 -> s0  [label="x"];
s6 -> s0  [label="y"];
__start0 [label="", shape=none];
__start0 -> s0  [label=""];
}
