digraph "benchmarks-true-state-lstar-3seeds/n_states=9-n_outputs=8-glitch_percent=0.0/893613d6e955f2a62152d88aa27253b6/pmsatLearned-N9" {
0 [label="0|c", shape=record, style=rounded];
1 [label="1|d", shape=record, style=rounded];
2 [label="2|e", shape=record, style=rounded];
3 [label="3|f", shape=record, style=rounded];
4 [label="4|g", shape=record, style=rounded];
5 [label="5|h", shape=record, style=rounded];
6 [label="6|f", shape=record, style=rounded];
7 [label="7|d", shape=record, style=rounded];
8 [label="8|d", shape=record, style=rounded];
0 -> 4  [label="x"];
0 -> 6  [label="y"];
0 -> 7  [label="z"];
1 -> 4  [label="z"];
1 -> 7  [label="y"];
1 -> 6  [label="x"];
2 -> 6  [label="x"];
2 -> 1  [label="y"];
2 -> 1  [label="z"];
3 -> 0  [label="x"];
3 -> 0  [label="y"];
3 -> 8  [label="z"];
4 -> 8  [label="x"];
4 -> 4  [label="y"];
4 -> 2  [label="z"];
5 -> 3  [label="x"];
5 -> 6  [label="y"];
5 -> 1  [label="z"];
6 -> 0  [label="x"];
6 -> 8  [label="y"];
6 -> 2  [label="z"];
7 -> 3  [label="x"];
7 -> 5  [label="y"];
7 -> 6  [label="z"];
8 -> 1  [label="x"];
8 -> 6  [label="y"];
8 -> 8  [label="z"];
__start0 [label="", shape=none];
__start0 -> 1  [label=""];
}
