digraph "benchmarks-true-state-lstar-3seeds/n_states=17-n_outputs=2-glitch_percent=0.02/b0de7e991288b32965ca9533565400c9/pmsatLearned-N17" {
0 [label="0|a", shape=record, style=rounded];
1 [label="1|b", shape=record, style=rounded];
2 [label="2|b", shape=record, style=rounded];
3 [label="3|b", shape=record, style=rounded];
4 [label="4|a", shape=record, style=rounded];
5 [label="5|a", shape=record, style=rounded];
6 [label="6|b", shape=record, style=rounded];
7 [label="7|a", shape=record, style=rounded];
8 [label="8|b", shape=record, style=rounded];
9 [label="9|a", shape=record, style=rounded];
10 [label="10|b", shape=record, style=rounded];
11 [label="11|a", shape=record, style=rounded];
12 [label="12|b", shape=record, style=rounded];
13 [label="13|b", shape=record, style=rounded];
14 [label="14|b", shape=record, style=rounded];
15 [label="15|a", shape=record, style=rounded];
16 [label="16|a", shape=record, style=rounded];
0 -> 1  [label="z"];
0 -> 10  [label="y"];
0 -> 16  [label="x"];
1 -> 11  [label="x"];
1 -> 6  [label="y"];
1 -> 4  [label="z"];
2 -> 16  [label="x"];
2 -> 3  [label="y"];
2 -> 5  [label="z"];
3 -> 12  [label="y"];
3 -> 10  [label="z"];
3 -> 15  [label="x"];
4 -> 0  [label="x"];
4 -> 15  [label="y"];
4 -> 7  [label="z"];
5 -> 9  [label="x"];
5 -> 1  [label="y"];
5 -> 2  [label="z"];
6 -> 9  [label="x"];
6 -> 16  [label="y"];
6 -> 5  [label="z"];
7 -> 1  [label="x"];
7 -> 16  [label="y"];
7 -> 9  [label="z"];
8 -> 0  [label="x"];
8 -> 6  [label="y"];
8 -> 15  [label="z"];
9 -> 7  [label="x"];
9 -> 2  [label="y"];
9 -> 8  [label="z"];
10 -> 12  [label="x"];
10 -> 3  [label="y"];
10 -> 5  [label="z"];
11 -> 10  [label="x"];
11 -> 5  [label="y"];
11 -> 1  [label="z"];
12 -> 5  [label="x"];
12 -> 0  [label="y"];
12 -> 15  [label="z"];
13 -> 14  [label="x"];
13 -> 0  [label="y"];
13 -> 7  [label="z"];
14 -> 16  [label="x"];
14 -> 4  [label="y"];
14 -> 15  [label="z"];
15 -> 9  [label="x"];
15 -> 9  [label="y"];
15 -> 2  [label="z"];
16 -> 9  [label="x"];
16 -> 13  [label="y"];
16 -> 15  [label="z"];
__start0 [label="", shape=none];
__start0 -> 0  [label=""];
}
