digraph "benchmarks-true-state-lstar-3seeds/n_states=14-n_outputs=7-glitch_percent=0.0/4951645360767bb5900da57e8a34f731/RealModel" {
s1 [label="s1|d", shape=record, style=rounded];
s2 [label="s2|e", shape=record, style=rounded];
s3 [label="s3|e", shape=record, style=rounded];
s4 [label="s4|f", shape=record, style=rounded];
s5 [label="s5|g", shape=record, style=rounded];
s6 [label="s6|a", shape=record, style=rounded];
s7 [label="s7|b", shape=record, style=rounded];
s8 [label="s8|d", shape=record, style=rounded];
s9 [label="s9|b", shape=record, style=rounded];
s10 [label="s10|c", shape=record, style=rounded];
s11 [label="s11|a", shape=record, style=rounded];
s12 [label="s12|b", shape=record, style=rounded];
s13 [label="s13|a", shape=record, style=rounded];
s14 [label="s14|e", shape=record, style=rounded];
s1 -> s2  [label="x"];
s1 -> s4  [label="y"];
s1 -> s6  [label="z"];
s2 -> s13  [label="x"];
s2 -> s9  [label="y"];
s2 -> s12  [label="z"];
s3 -> s4  [label="x"];
s3 -> s3  [label="y"];
s3 -> s5  [label="z"];
s4 -> s10  [label="x"];
s4 -> s8  [label="y"];
s4 -> s7  [label="z"];
s5 -> s1  [label="x"];
s5 -> s1  [label="y"];
s5 -> s11  [label="z"];
s6 -> s11  [label="x"];
s6 -> s3  [label="y"];
s6 -> s14  [label="z"];
s7 -> s6  [label="x"];
s7 -> s7  [label="y"];
s7 -> s2  [label="z"];
s8 -> s14  [label="x"];
s8 -> s5  [label="y"];
s8 -> s1  [label="z"];
s9 -> s2  [label="x"];
s9 -> s9  [label="y"];
s9 -> s2  [label="z"];
s10 -> s6  [label="x"];
s10 -> s2  [label="y"];
s10 -> s11  [label="z"];
s11 -> s8  [label="x"];
s11 -> s8  [label="y"];
s11 -> s4  [label="z"];
s12 -> s10  [label="x"];
s12 -> s2  [label="y"];
s12 -> s5  [label="z"];
s13 -> s5  [label="x"];
s13 -> s10  [label="y"];
s13 -> s3  [label="z"];
s14 -> s12  [label="x"];
s14 -> s4  [label="y"];
s14 -> s13  [label="z"];
__start0 [label="", shape=none];
__start0 -> s1  [label=""];
}
