digraph "benchmarks-true-state-lstar-3seeds/n_states=13-n_outputs=5-glitch_percent=0.0/e8b77143997fdf32fe3addafdbc932b7/pmsatLearned-N13" {
0 [label="0|a", shape=record, style=rounded];
1 [label="1|c", shape=record, style=rounded];
2 [label="2|d", shape=record, style=rounded];
3 [label="3|c", shape=record, style=rounded];
4 [label="4|c", shape=record, style=rounded];
5 [label="5|d", shape=record, style=rounded];
6 [label="6|a", shape=record, style=rounded];
7 [label="7|a", shape=record, style=rounded];
8 [label="8|d", shape=record, style=rounded];
9 [label="9|a", shape=record, style=rounded];
10 [label="10|a", shape=record, style=rounded];
11 [label="11|c", shape=record, style=rounded];
12 [label="12|c", shape=record, style=rounded];
0 -> 4  [label="x"];
0 -> 9  [label="y"];
0 -> 9  [label="z"];
1 -> 5  [label="z"];
1 -> 4  [label="y"];
1 -> 2  [label="x"];
2 -> 7  [label="x"];
2 -> 6  [label="y"];
2 -> 10  [label="z"];
3 -> 10  [label="x"];
3 -> 0  [label="y"];
3 -> 10  [label="z"];
4 -> 11  [label="x"];
4 -> 12  [label="y"];
4 -> 8  [label="z"];
5 -> 9  [label="x"];
5 -> 0  [label="y"];
5 -> 3  [label="z"];
6 -> 9  [label="x"];
6 -> 1  [label="y"];
6 -> 1  [label="z"];
7 -> 8  [label="x"];
7 -> 4  [label="y"];
7 -> 2  [label="z"];
8 -> 5  [label="x"];
8 -> 1  [label="y"];
8 -> 11  [label="z"];
9 -> 12  [label="x"];
9 -> 12  [label="y"];
9 -> 11  [label="z"];
10 -> 2  [label="x"];
10 -> 12  [label="y"];
10 -> 7  [label="z"];
11 -> 12  [label="x"];
11 -> 11  [label="y"];
11 -> 9  [label="z"];
12 -> 12  [label="x"];
12 -> 5  [label="y"];
12 -> 4  [label="z"];
__start0 [label="", shape=none];
__start0 -> 1  [label=""];
}
