digraph "benchmarks-true-state-lstar-3seeds/n_states=7-n_outputs=7-glitch_percent=0.1/f99245d7ac19e7a131b864533e1d6354/pmsatLearned-N7-STOC" {
0 [label="0|b", shape=record, style=rounded];
1 [label="1|d", shape=record, style=rounded];
2 [label="2|e", shape=record, style=rounded];
3 [label="3|f", shape=record, style=rounded];
4 [label="4|g", shape=record, style=rounded];
5 [label="5|d", shape=record, style=rounded];
6 [label="6|e", shape=record, style=rounded];
0 -> 4  [label="x (6)"];
0 -> 0  [label="z (7)"];
0 -> 2  [label="y (5)"];
0 -> 1  [label="!z [1]"];
1 -> 6  [label="x (17)"];
1 -> 0  [label="y (15)"];
1 -> 4  [label="z (15)"];
1 -> 4  [label="!x [2]"];
1 -> 0  [label="!x [1]"];
2 -> 5  [label="z (18)"];
2 -> 3  [label="y (16)"];
2 -> 1  [label="x (55)"];
2 -> 2  [label="!y [1]"];
2 -> 0  [label="!z [1]"];
3 -> 1  [label="x (6)"];
3 -> 2  [label="y (6)"];
3 -> 4  [label="z (5)"];
4 -> 4  [label="x (8)"];
4 -> 4  [label="z (8)"];
4 -> 5  [label="y (9)"];
5 -> 0  [label="x (5)"];
5 -> 3  [label="y (6)"];
5 -> 4  [label="z (5)"];
6 -> 0  [label="x (4)"];
6 -> 3  [label="y (5)"];
6 -> 2  [label="z (5)"];
__start0 [label="", shape=none];
__start0 -> 2  [label=""];
}
