digraph "pmsatLearned-N8-STOC" {
0 [label="0|a", shape=record, style=rounded];
1 [label="1|b", shape=record, style=rounded];
2 [label="2|c", shape=record, style=rounded];
3 [label="3|d", shape=record, style=rounded];
4 [label="4|e", shape=record, style=rounded];
5 [label="5|e", shape=record, style=rounded];
6 [label="6|c", shape=record, style=rounded];
7 [label="7|a", shape=record, style=rounded];
0 -> 1  [label="x (26)"];
0 -> 1  [label="y (26)"];
0 -> 3  [label="z (31)"];
1 -> 4  [label="x (63)"];
1 -> 5  [label="y (67)"];
1 -> 6  [label="z (75)"];
1 -> 1  [label="!z [3]"];
1 -> 0  [label="!z [1]"];
2 -> 7  [label="x (30)"];
2 -> 0  [label="y (18)"];
2 -> 0  [label="z (18)"];
2 -> 3  [label="!z [1]"];
3 -> 4  [label="x (32)"];
3 -> 7  [label="y (41)"];
3 -> 1  [label="z (40)"];
3 -> 2  [label="!x [1]"];
4 -> 1  [label="z (86)"];
4 -> 7  [label="y (100)"];
4 -> 6  [label="x (114)"];
4 -> 7  [label="!z [1]"];
5 -> 4  [label="x (44)"];
5 -> 3  [label="y (46)"];
5 -> 5  [label="z (47)"];
6 -> 3  [label="x (57)"];
6 -> 5  [label="y (55)"];
6 -> 0  [label="z (57)"];
6 -> 4  [label="!x [1]"];
7 -> 2  [label="x (75)"];
7 -> 1  [label="y (63)"];
7 -> 7  [label="z (70)"];
7 -> 0  [label="!y [1]"];
__start0 [label="", shape=none];
__start0 -> 4  [label=""];
}
