digraph "benchmarks-true-state-lstar-3seeds/n_states=6-n_outputs=2-glitch_percent=0.05/31efea74295ed5425a3b8dda6e96880f/alergiaLearned" {
q0 [label="b"];
q1 [label="b"];
q2 [label="b"];
q3 [label="b"];
q4 [label="a"];
q0 -> q1  [label="z:1.0"];
q0 -> q2  [label="y:0.96"];
q0 -> q4  [label="y:0.04"];
q0 -> q3  [label="x:0.9344262295081968"];
q0 -> q4  [label="x:0.06557377049180328"];
q1 -> q1  [label="x:0.7647058823529411"];
q1 -> q4  [label="x:0.23529411764705882"];
q1 -> q0  [label="y:1.0"];
q1 -> q1  [label="z:1.0"];
q2 -> q4  [label="x:1.0"];
q2 -> q0  [label="y:1.0"];
q2 -> q0  [label="z:1.0"];
q3 -> q4  [label="x:0.9285714285714286"];
q3 -> q0  [label="x:0.07142857142857142"];
q3 -> q4  [label="y:0.95"];
q3 -> q0  [label="y:0.05"];
q3 -> q1  [label="z:1.0"];
q4 -> q4  [label="y:1.0"];
q4 -> q0  [label="x:0.45"];
q4 -> q4  [label="x:0.55"];
q4 -> q0  [label="z:1.0"];
__start0 [label="", shape=none];
__start0 -> q0  [label=""];
}
