digraph "benchmarks-true-state-lstar-3seeds/n_states=12-n_outputs=9-glitch_percent=0.05/bb52211ee73bb03e0161b4e79197b5f5/pmsatLearned-N12-STOC" {
0 [label="0|b", shape=record, style=rounded];
1 [label="1|c", shape=record, style=rounded];
2 [label="2|d", shape=record, style=rounded];
3 [label="3|e", shape=record, style=rounded];
4 [label="4|f", shape=record, style=rounded];
5 [label="5|g", shape=record, style=rounded];
6 [label="6|i", shape=record, style=rounded];
7 [label="7|c", shape=record, style=rounded];
8 [label="8|i", shape=record, style=rounded];
9 [label="9|c", shape=record, style=rounded];
10 [label="10|i", shape=record, style=rounded];
11 [label="11|i", shape=record, style=rounded];
0 -> 9  [label="x (7)"];
0 -> 1  [label="z (7)"];
0 -> 11  [label="y (5)"];
1 -> 8  [label="x (8)"];
1 -> 3  [label="y (9)"];
1 -> 0  [label="z (8)"];
2 -> 6  [label="x (6)"];
2 -> 0  [label="y (6)"];
2 -> 5  [label="z (5)"];
2 -> 1  [label="!z [1]"];
3 -> 7  [label="x (18)"];
3 -> 2  [label="z (8)"];
3 -> 0  [label="y (16)"];
3 -> 1  [label="!y [1]"];
4 -> 3  [label="x (6)"];
4 -> 4  [label="y (6)"];
4 -> 10  [label="z (3)"];
5 -> 10  [label="x (16)"];
5 -> 2  [label="y (18)"];
5 -> 1  [label="z (16)"];
6 -> 3  [label="z (42)"];
6 -> 11  [label="y (56)"];
6 -> 5  [label="x (52)"];
6 -> 10  [label="!x [1]"];
6 -> 1  [label="!z [1]"];
7 -> 9  [label="x (6)"];
7 -> 1  [label="y (5)"];
7 -> 3  [label="z (5)"];
8 -> 11  [label="x (5)"];
8 -> 11  [label="y (5)"];
8 -> 9  [label="z (5)"];
9 -> 6  [label="x (9)"];
9 -> 7  [label="y (9)"];
9 -> 10  [label="z (7)"];
10 -> 9  [label="x (6)"];
10 -> 1  [label="y (6)"];
10 -> 1  [label="z (5)"];
11 -> 4  [label="x (19)"];
11 -> 9  [label="z (20)"];
11 -> 8  [label="y (17)"];
11 -> 6  [label="!z [1]"];
11 -> 11  [label="!y [1]"];
__start0 [label="", shape=none];
__start0 -> 6  [label=""];
}
