digraph "pmsatLearned-N8-STOC" {
0 [label="0|a", shape=record, style=rounded];
1 [label="1|b", shape=record, style=rounded];
2 [label="2|c", shape=record, style=rounded];
3 [label="3|d", shape=record, style=rounded];
4 [label="4|b", shape=record, style=rounded];
5 [label="5|b", shape=record, style=rounded];
6 [label="6|b", shape=record, style=rounded];
7 [label="7|a", shape=record, style=rounded];
0 -> 5  [label="x (21)"];
0 -> 1  [label="y (15)"];
0 -> 6  [label="z (21)"];
1 -> 5  [label="z (150)"];
1 -> 7  [label="y (150)"];
1 -> 3  [label="x (189)"];
2 -> 7  [label="x (260)"];
2 -> 4  [label="y (216)"];
2 -> 7  [label="z (213)"];
2 -> 6  [label="!x [1]"];
2 -> 4  [label="!z [3]"];
2 -> 2  [label="!y [1]"];
3 -> 4  [label="x (65)"];
3 -> 0  [label="y (60)"];
3 -> 2  [label="z (50)"];
3 -> 2  [label="!y [1]"];
3 -> 0  [label="!z [1]"];
4 -> 2  [label="y (401)"];
4 -> 4  [label="z (419)"];
4 -> 7  [label="x (444)"];
4 -> 5  [label="!y [1]"];
5 -> 7  [label="x (81)"];
5 -> 4  [label="y (66)"];
5 -> 5  [label="z (56)"];
5 -> 2  [label="!y [1]"];
5 -> 0  [label="!x [1]"];
6 -> 2  [label="x (159)"];
6 -> 6  [label="y (167)"];
6 -> 2  [label="z (153)"];
6 -> 4  [label="!y [1]"];
6 -> 7  [label="!x [1]"];
7 -> 6  [label="x (367)"];
7 -> 4  [label="y (317)"];
7 -> 4  [label="z (327)"];
7 -> 2  [label="!x [3]"];
7 -> 5  [label="!y [1]"];
7 -> 2  [label="!z [1]"];
7 -> 4  [label="!x [1]"];
__start0 [label="", shape=none];
__start0 -> 1  [label=""];
}
