digraph "benchmarks-true-state-lstar-3seeds/n_states=11-n_outputs=3-glitch_percent=0.02/f5d07de58345bd7333831c0ca74fe5c0/pmsatLearned-N11" {
0 [label="0|a", shape=record, style=rounded];
1 [label="1|b", shape=record, style=rounded];
2 [label="2|c", shape=record, style=rounded];
3 [label="3|c", shape=record, style=rounded];
4 [label="4|c", shape=record, style=rounded];
5 [label="5|b", shape=record, style=rounded];
6 [label="6|c", shape=record, style=rounded];
7 [label="7|b", shape=record, style=rounded];
8 [label="8|a", shape=record, style=rounded];
9 [label="9|c", shape=record, style=rounded];
10 [label="10|c", shape=record, style=rounded];
0 -> 2  [label="x"];
0 -> 10  [label="y"];
0 -> 3  [label="z"];
1 -> 8  [label="x"];
1 -> 9  [label="y"];
1 -> 1  [label="z"];
2 -> 8  [label="z"];
2 -> 3  [label="y"];
2 -> 6  [label="x"];
3 -> 7  [label="x"];
3 -> 10  [label="y"];
3 -> 5  [label="z"];
4 -> 8  [label="x"];
4 -> 8  [label="y"];
4 -> 2  [label="z"];
5 -> 3  [label="x"];
5 -> 3  [label="y"];
5 -> 1  [label="z"];
6 -> 9  [label="x"];
6 -> 1  [label="y"];
6 -> 4  [label="z"];
7 -> 0  [label="x"];
7 -> 3  [label="y"];
7 -> 4  [label="z"];
8 -> 0  [label="x"];
8 -> 6  [label="y"];
8 -> 2  [label="z"];
9 -> 5  [label="x"];
9 -> 7  [label="y"];
9 -> 5  [label="z"];
10 -> 4  [label="x"];
10 -> 5  [label="y"];
10 -> 6  [label="z"];
__start0 [label="", shape=none];
__start0 -> 2  [label=""];
}
