digraph alergiaLearned {
q0 [label="b"];
q1 [label="d"];
q2 [label="e"];
q3 [label="a"];
q4 [label="c"];
q5 [label="a"];
q0 -> q1  [label="z:1.0"];
q0 -> q2  [label="y:1.0"];
q0 -> q3  [label="x:1.0"];
q1 -> q4  [label="x:0.5"];
q1 -> q1  [label="x:0.5"];
q1 -> q2  [label="y:0.28"];
q1 -> q1  [label="y:0.48"];
q1 -> q0  [label="y:0.24"];
q1 -> q1  [label="z:0.52"];
q1 -> q0  [label="z:0.24"];
q1 -> q4  [label="z:0.24"];
q2 -> q4  [label="x:1.0"];
q2 -> q1  [label="y:1.0"];
q2 -> q3  [label="z:1.0"];
q3 -> q5  [label="x:1.0"];
q3 -> q1  [label="y:1.0"];
q3 -> q1  [label="z:1.0"];
q4 -> q1  [label="x:1.0"];
q4 -> q4  [label="y:1.0"];
q4 -> q1  [label="z:1.0"];
q5 -> q0  [label="x:1.0"];
q5 -> q0  [label="y:1.0"];
q5 -> q0  [label="z:1.0"];
__start0 [label="", shape=none];
__start0 -> q0  [label=""];
}
