digraph "benchmarks-true-state-lstar-songp/n_states=13-n_outputs=3-glitch_percent=0.01-pmstrat='rc2'/e1dc6f4742d59378a06251b00b9eae5b/pmsatLearned-N13-STOC" {
0 [label="0|a", shape=record, style=rounded];
1 [label="1|b", shape=record, style=rounded];
2 [label="2|c", shape=record, style=rounded];
3 [label="3|c", shape=record, style=rounded];
4 [label="4|a", shape=record, style=rounded];
5 [label="5|b", shape=record, style=rounded];
6 [label="6|b", shape=record, style=rounded];
7 [label="7|b", shape=record, style=rounded];
8 [label="8|c", shape=record, style=rounded];
9 [label="9|c", shape=record, style=rounded];
10 [label="10|b", shape=record, style=rounded];
11 [label="11|a", shape=record, style=rounded];
12 [label="12|c", shape=record, style=rounded];
0 -> 11  [label="z (73)"];
0 -> 9  [label="y (78)"];
0 -> 7  [label="x (70)"];
0 -> 12  [label="!x [1]"];
1 -> 8  [label="x (7)"];
1 -> 10  [label="y (6)"];
1 -> 11  [label="z (6)"];
2 -> 8  [label="x (17)"];
2 -> 7  [label="y (11)"];
2 -> 0  [label="z (10)"];
3 -> 7  [label="y (6)"];
3 -> 11  [label="z (7)"];
3 -> 6  [label="x (8)"];
3 -> 8  [label="!x [1]"];
4 -> 6  [label="x (7)"];
4 -> 10  [label="y (8)"];
4 -> 2  [label="z (6)"];
5 -> 12  [label="x (7)"];
5 -> 2  [label="y (7)"];
5 -> 3  [label="z (6)"];
6 -> 10  [label="x (13)"];
6 -> 0  [label="y (12)"];
6 -> 2  [label="z (9)"];
7 -> 12  [label="x (26)"];
7 -> 5  [label="y (31)"];
7 -> 1  [label="z (25)"];
8 -> 0  [label="x (15)"];
8 -> 2  [label="y (20)"];
8 -> 6  [label="z (8)"];
9 -> 4  [label="x (23)"];
9 -> 2  [label="y (21)"];
9 -> 6  [label="z (21)"];
9 -> 4  [label="!z [1]"];
10 -> 10  [label="x (16)"];
10 -> 7  [label="y (21)"];
10 -> 10  [label="z (11)"];
11 -> 8  [label="x (32)"];
11 -> 3  [label="y (23)"];
11 -> 10  [label="z (24)"];
11 -> 1  [label="!x [1]"];
12 -> 7  [label="x (9)"];
12 -> 2  [label="y (10)"];
12 -> 11  [label="z (7)"];
__start0 [label="", shape=none];
__start0 -> 0  [label=""];
}
