digraph "benchmarks-true-state-lstar-3seeds/n_states=5-n_outputs=3-glitch_percent=0.0/81fdf828778e4d67acf5a4989ee717c5/pmsatLearned-N5" {
0 [label="0|a", shape=record, style=rounded];
1 [label="1|b", shape=record, style=rounded];
2 [label="2|a", shape=record, style=rounded];
3 [label="3|b", shape=record, style=rounded];
4 [label="4|b", shape=record, style=rounded];
0 -> 4  [label="z"];
0 -> 1  [label="y"];
0 -> 3  [label="x"];
1 -> 0  [label="x"];
1 -> 1  [label="y"];
1 -> 1  [label="z"];
2 -> 1  [label="x"];
2 -> 4  [label="y"];
2 -> 2  [label="z"];
3 -> 2  [label="x"];
3 -> 3  [label="y"];
3 -> 2  [label="z"];
4 -> 3  [label="x"];
4 -> 1  [label="y"];
4 -> 4  [label="z"];
__start0 [label="", shape=none];
__start0 -> 0  [label=""];
}
