digraph "benchmarks-true-state-lstar-3seeds/n_states=17-n_outputs=9-glitch_percent=0.01/d3bc6b53e8b3276a4d455d6886ad0e87/rpniGroundTruth" {
s0 [label="s0|h", shape=record, style=rounded];
s1 [label="s1|f", shape=record, style=rounded];
s2 [label="s2|f", shape=record, style=rounded];
s3 [label="s3|h", shape=record, style=rounded];
s4 [label="s4|f", shape=record, style=rounded];
s5 [label="s5|d", shape=record, style=rounded];
s6 [label="s6|b", shape=record, style=rounded];
s7 [label="s7|f", shape=record, style=rounded];
s8 [label="s8|c", shape=record, style=rounded];
s9 [label="s9|i", shape=record, style=rounded];
s10 [label="s10|b", shape=record, style=rounded];
s11 [label="s11|f", shape=record, style=rounded];
s12 [label="s12|d", shape=record, style=rounded];
s13 [label="s13|b", shape=record, style=rounded];
s14 [label="s14|e", shape=record, style=rounded];
s15 [label="s15|f", shape=record, style=rounded];
s16 [label="s16|i", shape=record, style=rounded];
s0 -> s1  [label="x"];
s0 -> s2  [label="z"];
s0 -> s3  [label="y"];
s1 -> s4  [label="z"];
s1 -> s5  [label="x"];
s1 -> s6  [label="y"];
s2 -> s7  [label="x"];
s2 -> s8  [label="y"];
s2 -> s9  [label="z"];
s3 -> s10  [label="x"];
s3 -> s11  [label="z"];
s3 -> s12  [label="y"];
s4 -> s12  [label="x"];
s4 -> s13  [label="y"];
s4 -> s6  [label="z"];
s5 -> s14  [label="y"];
s5 -> s15  [label="x"];
s5 -> s13  [label="z"];
s6 -> s1  [label="y"];
s6 -> s16  [label="x"];
s6 -> s7  [label="z"];
s7 -> s15  [label="y"];
s7 -> s7  [label="x"];
s7 -> s3  [label="z"];
s8 -> s5  [label="z"];
s8 -> s15  [label="y"];
s8 -> s4  [label="x"];
s9 -> s2  [label="x"];
s9 -> s10  [label="y"];
s9 -> s15  [label="z"];
s10 -> s6  [label="y"];
s10 -> s1  [label="x"];
s10 -> s3  [label="z"];
s11 -> s12  [label="y"];
s11 -> s4  [label="z"];
s11 -> s7  [label="x"];
s12 -> s1  [label="x"];
s12 -> s12  [label="z"];
s12 -> s13  [label="y"];
s13 -> s12  [label="z"];
s13 -> s9  [label="x"];
s13 -> s11  [label="y"];
s14 -> s4  [label="z"];
s14 -> s0  [label="x"];
s14 -> s7  [label="y"];
s15 -> s10  [label="z"];
s15 -> s0  [label="y"];
s15 -> s3  [label="x"];
s16 -> s1  [label="y"];
s16 -> s3  [label="x"];
s16 -> s8  [label="z"];
__start0 [label="", shape=none];
__start0 -> s0  [label=""];
}
