digraph "benchmarks-true-state-lstar-3seeds/n_states=7-n_outputs=7-glitch_percent=0.01/1869a04b82fb4a5ef595a9786e8340d5/pmsatLearned-N7" {
0 [label="0|a", shape=record, style=rounded];
1 [label="1|c", shape=record, style=rounded];
2 [label="2|d", shape=record, style=rounded];
3 [label="3|e", shape=record, style=rounded];
4 [label="4|f", shape=record, style=rounded];
5 [label="5|g", shape=record, style=rounded];
6 [label="6|c", shape=record, style=rounded];
0 -> 4  [label="x"];
0 -> 3  [label="y"];
0 -> 5  [label="z"];
1 -> 3  [label="z"];
1 -> 0  [label="y"];
1 -> 2  [label="x"];
2 -> 4  [label="x"];
2 -> 6  [label="y"];
2 -> 5  [label="z"];
3 -> 1  [label="x"];
3 -> 1  [label="y"];
3 -> 2  [label="z"];
4 -> 3  [label="x"];
4 -> 3  [label="y"];
4 -> 1  [label="z"];
5 -> 0  [label="x"];
5 -> 3  [label="y"];
5 -> 0  [label="z"];
6 -> 0  [label="x"];
6 -> 1  [label="y"];
6 -> 0  [label="z"];
__start0 [label="", shape=none];
__start0 -> 1  [label=""];
}
