digraph "benchmarks-true-state-lstar-rc10seeds/n_states=11-n_outputs=7-glitch_percent=0.05/b0b287eaa0164aec4b4e3fc619788493/pmsatLearned_NOP-N11" {
0 [label="0|e", shape=record, style=rounded];
1 [label="1|b", shape=record, style=rounded];
2 [label="2|c", shape=record, style=rounded];
3 [label="3|d", shape=record, style=rounded];
4 [label="4|b", shape=record, style=rounded];
5 [label="5|d", shape=record, style=rounded];
6 [label="6|f", shape=record, style=rounded];
7 [label="7|c", shape=record, style=rounded];
8 [label="8|a", shape=record, style=rounded];
9 [label="9|g", shape=record, style=rounded];
10 [label="10|a", shape=record, style=rounded];
0 -> 6  [label="x"];
0 -> 7  [label="z"];
0 -> 1  [label="y"];
1 -> 7  [label="y"];
1 -> 10  [label="z"];
1 -> 1  [label="x"];
2 -> 10  [label="z"];
2 -> 0  [label="y"];
2 -> 3  [label="x"];
3 -> 9  [label="x"];
3 -> 4  [label="y"];
3 -> 8  [label="z"];
4 -> 3  [label="x"];
4 -> 0  [label="y"];
4 -> 4  [label="z"];
5 -> 10  [label="y"];
5 -> 6  [label="z"];
5 -> 9  [label="x"];
6 -> 7  [label="x"];
6 -> 8  [label="y"];
6 -> 2  [label="z"];
7 -> 1  [label="x"];
7 -> 7  [label="y"];
7 -> 4  [label="z"];
8 -> 5  [label="x"];
8 -> 3  [label="y"];
8 -> 3  [label="z"];
9 -> 8  [label="x"];
9 -> 6  [label="y"];
9 -> 6  [label="z"];
10 -> 2  [label="y"];
10 -> 0  [label="z"];
10 -> 5  [label="x"];
__start0 [label="", shape=none];
__start0 -> 2  [label=""];
}
