digraph "benchmarks-true-state-lstar-3seeds/n_states=17-n_outputs=5-glitch_percent=0.05/fabcf21bccfc8fa5be07df82fdcb3a96/RealModel" {
s1 [label="s1|d", shape=record, style=rounded];
s2 [label="s2|c", shape=record, style=rounded];
s3 [label="s3|c", shape=record, style=rounded];
s4 [label="s4|b", shape=record, style=rounded];
s5 [label="s5|d", shape=record, style=rounded];
s6 [label="s6|c", shape=record, style=rounded];
s7 [label="s7|a", shape=record, style=rounded];
s8 [label="s8|e", shape=record, style=rounded];
s9 [label="s9|c", shape=record, style=rounded];
s10 [label="s10|b", shape=record, style=rounded];
s11 [label="s11|e", shape=record, style=rounded];
s12 [label="s12|a", shape=record, style=rounded];
s13 [label="s13|b", shape=record, style=rounded];
s14 [label="s14|c", shape=record, style=rounded];
s15 [label="s15|a", shape=record, style=rounded];
s16 [label="s16|c", shape=record, style=rounded];
s17 [label="s17|c", shape=record, style=rounded];
s1 -> s9  [label="x"];
s1 -> s5  [label="y"];
s1 -> s3  [label="z"];
s2 -> s1  [label="x"];
s2 -> s14  [label="y"];
s2 -> s16  [label="z"];
s3 -> s14  [label="x"];
s3 -> s13  [label="y"];
s3 -> s8  [label="z"];
s4 -> s9  [label="x"];
s4 -> s7  [label="y"];
s4 -> s4  [label="z"];
s5 -> s12  [label="x"];
s5 -> s4  [label="y"];
s5 -> s6  [label="z"];
s6 -> s14  [label="x"];
s6 -> s4  [label="y"];
s6 -> s16  [label="z"];
s7 -> s8  [label="x"];
s7 -> s6  [label="y"];
s7 -> s4  [label="z"];
s8 -> s3  [label="x"];
s8 -> s12  [label="y"];
s8 -> s17  [label="z"];
s9 -> s10  [label="x"];
s9 -> s15  [label="y"];
s9 -> s16  [label="z"];
s10 -> s17  [label="x"];
s10 -> s2  [label="y"];
s10 -> s7  [label="z"];
s11 -> s5  [label="x"];
s11 -> s9  [label="y"];
s11 -> s13  [label="z"];
s12 -> s9  [label="x"];
s12 -> s15  [label="y"];
s12 -> s5  [label="z"];
s13 -> s16  [label="x"];
s13 -> s17  [label="y"];
s13 -> s10  [label="z"];
s14 -> s14  [label="x"];
s14 -> s17  [label="y"];
s14 -> s5  [label="z"];
s15 -> s11  [label="x"];
s15 -> s9  [label="y"];
s15 -> s14  [label="z"];
s16 -> s4  [label="x"];
s16 -> s7  [label="y"];
s16 -> s15  [label="z"];
s17 -> s5  [label="x"];
s17 -> s1  [label="y"];
s17 -> s12  [label="z"];
__start0 [label="", shape=none];
__start0 -> s1  [label=""];
}
