digraph "benchmarks-true-state-lstar-3seeds/n_states=12-n_outputs=8-glitch_percent=0.01/d3052f38a9cb0051bcff7e102cf2bc68/pmsatLearned-N12-STOC" {
0 [label="0|a", shape=record, style=rounded];
1 [label="1|b", shape=record, style=rounded];
2 [label="2|e", shape=record, style=rounded];
3 [label="3|f", shape=record, style=rounded];
4 [label="4|g", shape=record, style=rounded];
5 [label="5|h", shape=record, style=rounded];
6 [label="6|h", shape=record, style=rounded];
7 [label="7|a", shape=record, style=rounded];
8 [label="8|e", shape=record, style=rounded];
9 [label="9|e", shape=record, style=rounded];
10 [label="10|b", shape=record, style=rounded];
11 [label="11|b", shape=record, style=rounded];
0 -> 10  [label="x (17)"];
0 -> 11  [label="y (17)"];
0 -> 1  [label="z (5)"];
1 -> 3  [label="x (10)"];
1 -> 4  [label="y (10)"];
1 -> 2  [label="z (10)"];
2 -> 0  [label="z (44)"];
2 -> 5  [label="y (56)"];
2 -> 9  [label="x (55)"];
2 -> 8  [label="!z [1]"];
3 -> 9  [label="x (9)"];
3 -> 10  [label="y (9)"];
3 -> 9  [label="z (9)"];
4 -> 3  [label="x (8)"];
4 -> 4  [label="y (8)"];
4 -> 6  [label="z (8)"];
5 -> 3  [label="x (18)"];
5 -> 7  [label="y (18)"];
5 -> 1  [label="z (18)"];
6 -> 3  [label="x (7)"];
6 -> 6  [label="y (6)"];
6 -> 1  [label="z (7)"];
7 -> 1  [label="x (5)"];
7 -> 9  [label="y (5)"];
7 -> 4  [label="z (5)"];
8 -> 2  [label="x (5)"];
8 -> 2  [label="y (5)"];
8 -> 5  [label="z (4)"];
9 -> 4  [label="x (22)"];
9 -> 6  [label="y (22)"];
9 -> 8  [label="z (20)"];
10 -> 9  [label="x (6)"];
10 -> 9  [label="y (6)"];
10 -> 3  [label="z (6)"];
11 -> 1  [label="x (6)"];
11 -> 1  [label="y (6)"];
11 -> 11  [label="z (6)"];
__start0 [label="", shape=none];
__start0 -> 2  [label=""];
}
