digraph "pmsatLearned-N9-STOC" {
0 [label="0|a", shape=record, style=rounded];
1 [label="1|b", shape=record, style=rounded];
2 [label="2|c", shape=record, style=rounded];
3 [label="3|d", shape=record, style=rounded];
4 [label="4|d", shape=record, style=rounded];
5 [label="5|a", shape=record, style=rounded];
6 [label="6|a", shape=record, style=rounded];
7 [label="7|a", shape=record, style=rounded];
8 [label="8|b", shape=record, style=rounded];
0 -> 4  [label="x (8)"];
0 -> 0  [label="y (8)"];
0 -> 3  [label="z (8)"];
1 -> 3  [label="z (18)"];
1 -> 8  [label="y (42)"];
1 -> 6  [label="x (54)"];
2 -> 1  [label="x (7)"];
2 -> 4  [label="y (7)"];
2 -> 4  [label="z (7)"];
2 -> 2  [label="!x [1]"];
3 -> 2  [label="x (9)"];
3 -> 4  [label="y (8)"];
3 -> 3  [label="z (9)"];
4 -> 3  [label="x (11)"];
4 -> 0  [label="y (10)"];
4 -> 4  [label="z (11)"];
4 -> 4  [label="!y [1]"];
5 -> 4  [label="x (6)"];
5 -> 8  [label="y (6)"];
5 -> 2  [label="z (6)"];
6 -> 2  [label="x (17)"];
6 -> 4  [label="y (17)"];
6 -> 5  [label="z (17)"];
7 -> 8  [label="x (6)"];
7 -> 7  [label="y (6)"];
7 -> 5  [label="z (6)"];
8 -> 7  [label="x (19)"];
8 -> 0  [label="y (19)"];
8 -> 0  [label="z (7)"];
__start0 [label="", shape=none];
__start0 -> 1  [label=""];
}
