digraph "benchmarks-true-state-lstar-3seeds/n_states=17-n_outputs=3-glitch_percent=0.01/ac0268c506957175683aca2da0125c71/RealModel" {
s1 [label="s1|b", shape=record, style=rounded];
s2 [label="s2|b", shape=record, style=rounded];
s3 [label="s3|b", shape=record, style=rounded];
s4 [label="s4|b", shape=record, style=rounded];
s5 [label="s5|a", shape=record, style=rounded];
s6 [label="s6|b", shape=record, style=rounded];
s7 [label="s7|b", shape=record, style=rounded];
s8 [label="s8|a", shape=record, style=rounded];
s9 [label="s9|a", shape=record, style=rounded];
s10 [label="s10|b", shape=record, style=rounded];
s11 [label="s11|a", shape=record, style=rounded];
s12 [label="s12|a", shape=record, style=rounded];
s13 [label="s13|b", shape=record, style=rounded];
s14 [label="s14|a", shape=record, style=rounded];
s15 [label="s15|b", shape=record, style=rounded];
s16 [label="s16|c", shape=record, style=rounded];
s17 [label="s17|c", shape=record, style=rounded];
s1 -> s3  [label="x"];
s1 -> s17  [label="y"];
s1 -> s12  [label="z"];
s2 -> s2  [label="x"];
s2 -> s16  [label="y"];
s2 -> s12  [label="z"];
s3 -> s4  [label="x"];
s3 -> s6  [label="y"];
s3 -> s9  [label="z"];
s4 -> s8  [label="x"];
s4 -> s16  [label="y"];
s4 -> s5  [label="z"];
s5 -> s5  [label="x"];
s5 -> s15  [label="y"];
s5 -> s3  [label="z"];
s6 -> s11  [label="x"];
s6 -> s6  [label="y"];
s6 -> s11  [label="z"];
s7 -> s4  [label="x"];
s7 -> s14  [label="y"];
s7 -> s3  [label="z"];
s8 -> s14  [label="x"];
s8 -> s10  [label="y"];
s8 -> s7  [label="z"];
s9 -> s9  [label="x"];
s9 -> s12  [label="y"];
s9 -> s11  [label="z"];
s10 -> s1  [label="x"];
s10 -> s11  [label="y"];
s10 -> s11  [label="z"];
s11 -> s13  [label="x"];
s11 -> s2  [label="y"];
s11 -> s17  [label="z"];
s12 -> s2  [label="x"];
s12 -> s14  [label="y"];
s12 -> s13  [label="z"];
s13 -> s1  [label="x"];
s13 -> s8  [label="y"];
s13 -> s16  [label="z"];
s14 -> s7  [label="x"];
s14 -> s12  [label="y"];
s14 -> s5  [label="z"];
s15 -> s13  [label="x"];
s15 -> s17  [label="y"];
s15 -> s9  [label="z"];
s16 -> s14  [label="x"];
s16 -> s13  [label="y"];
s16 -> s13  [label="z"];
s17 -> s7  [label="x"];
s17 -> s10  [label="y"];
s17 -> s15  [label="z"];
__start0 [label="", shape=none];
__start0 -> s1  [label=""];
}
