digraph "benchmarks-true-state-lstar-songp/n_states=11-n_outputs=5-glitch_percent=0.02-pmstrat='rc2'/4006c062235cf1c724c2ca9b4da7001a/pmsatLearned-N11-STOC" {
0 [label="0|a", shape=record, style=rounded];
1 [label="1|b", shape=record, style=rounded];
2 [label="2|c", shape=record, style=rounded];
3 [label="3|d", shape=record, style=rounded];
4 [label="4|e", shape=record, style=rounded];
5 [label="5|d", shape=record, style=rounded];
6 [label="6|a", shape=record, style=rounded];
7 [label="7|d", shape=record, style=rounded];
8 [label="8|c", shape=record, style=rounded];
9 [label="9|e", shape=record, style=rounded];
10 [label="10|a", shape=record, style=rounded];
0 -> 5  [label="z (32)"];
0 -> 9  [label="y (55)"];
0 -> 4  [label="x (56)"];
1 -> 4  [label="x (11)"];
1 -> 0  [label="y (10)"];
1 -> 1  [label="z (11)"];
2 -> 5  [label="x (7)"];
2 -> 4  [label="y (7)"];
2 -> 7  [label="z (7)"];
3 -> 0  [label="x (5)"];
3 -> 1  [label="y (5)"];
3 -> 2  [label="z (5)"];
4 -> 6  [label="x (18)"];
4 -> 7  [label="y (18)"];
4 -> 2  [label="z (20)"];
4 -> 1  [label="!z [1]"];
4 -> 1  [label="!x [1]"];
5 -> 3  [label="x (19)"];
5 -> 8  [label="y (8)"];
5 -> 5  [label="z (8)"];
6 -> 1  [label="x (4)"];
6 -> 8  [label="y (5)"];
6 -> 1  [label="z (5)"];
7 -> 7  [label="x (7)"];
7 -> 9  [label="y (7)"];
7 -> 1  [label="z (5)"];
8 -> 5  [label="x (8)"];
8 -> 8  [label="y (8)"];
8 -> 0  [label="z (8)"];
9 -> 10  [label="x (18)"];
9 -> 8  [label="y (18)"];
9 -> 1  [label="z (18)"];
10 -> 2  [label="x (5)"];
10 -> 4  [label="y (4)"];
10 -> 1  [label="z (4)"];
10 -> 6  [label="!y [1]"];
10 -> 6  [label="!x [1]"];
__start0 [label="", shape=none];
__start0 -> 0  [label=""];
}
