digraph "benchmarks-true-state-lstar-3seeds/n_states=15-n_outputs=3-glitch_percent=0.05/0f69e31e44e2bb632419c0c3e3afd058/rpniGroundTruth" {
s0 [label="s0|a", shape=record, style=rounded];
s1 [label="s1|b", shape=record, style=rounded];
s2 [label="s2|a", shape=record, style=rounded];
s3 [label="s3|c", shape=record, style=rounded];
s4 [label="s4|b", shape=record, style=rounded];
s5 [label="s5|c", shape=record, style=rounded];
s6 [label="s6|a", shape=record, style=rounded];
s7 [label="s7|c", shape=record, style=rounded];
s8 [label="s8|a", shape=record, style=rounded];
s9 [label="s9|b", shape=record, style=rounded];
s10 [label="s10|b", shape=record, style=rounded];
s11 [label="s11|c", shape=record, style=rounded];
s12 [label="s12|a", shape=record, style=rounded];
s13 [label="s13|c", shape=record, style=rounded];
s14 [label="s14|b", shape=record, style=rounded];
s0 -> s1  [label="x"];
s0 -> s2  [label="y"];
s0 -> s3  [label="z"];
s1 -> s4  [label="x"];
s1 -> s5  [label="y"];
s1 -> s6  [label="z"];
s2 -> s7  [label="y"];
s2 -> s8  [label="x"];
s2 -> s9  [label="z"];
s3 -> s10  [label="x"];
s3 -> s11  [label="y"];
s3 -> s12  [label="z"];
s4 -> s5  [label="z"];
s4 -> s13  [label="x"];
s4 -> s14  [label="y"];
s5 -> s2  [label="x"];
s5 -> s10  [label="z"];
s5 -> s5  [label="y"];
s6 -> s3  [label="x"];
s6 -> s8  [label="z"];
s6 -> s7  [label="y"];
s7 -> s11  [label="z"];
s7 -> s7  [label="x"];
s7 -> s4  [label="y"];
s8 -> s0  [label="y"];
s8 -> s8  [label="x"];
s8 -> s3  [label="z"];
s9 -> s12  [label="z"];
s9 -> s13  [label="x"];
s9 -> s8  [label="y"];
s10 -> s3  [label="x"];
s10 -> s13  [label="z"];
s10 -> s2  [label="y"];
s11 -> s10  [label="z"];
s11 -> s8  [label="y"];
s11 -> s1  [label="x"];
s12 -> s11  [label="x"];
s12 -> s11  [label="z"];
s12 -> s8  [label="y"];
s13 -> s5  [label="x"];
s13 -> s9  [label="y"];
s13 -> s6  [label="z"];
s14 -> s5  [label="y"];
s14 -> s12  [label="x"];
s14 -> s10  [label="z"];
__start0 [label="", shape=none];
__start0 -> s0  [label=""];
}
