digraph "benchmarks-true-state-lstar-3seeds/n_states=13-n_outputs=6-glitch_percent=0.01/739a64df72ab5ef1668782b106486556/rpniGroundTruth" {
s0 [label="s0|a", shape=record, style=rounded];
s1 [label="s1|f", shape=record, style=rounded];
s2 [label="s2|c", shape=record, style=rounded];
s3 [label="s3|c", shape=record, style=rounded];
s4 [label="s4|b", shape=record, style=rounded];
s5 [label="s5|f", shape=record, style=rounded];
s6 [label="s6|e", shape=record, style=rounded];
s7 [label="s7|c", shape=record, style=rounded];
s8 [label="s8|a", shape=record, style=rounded];
s9 [label="s9|e", shape=record, style=rounded];
s10 [label="s10|d", shape=record, style=rounded];
s11 [label="s11|a", shape=record, style=rounded];
s12 [label="s12|a", shape=record, style=rounded];
s0 -> s1  [label="x"];
s0 -> s2  [label="y"];
s0 -> s3  [label="z"];
s1 -> s4  [label="x"];
s1 -> s5  [label="z"];
s1 -> s6  [label="y"];
s2 -> s7  [label="y"];
s2 -> s8  [label="x"];
s2 -> s9  [label="z"];
s3 -> s10  [label="y"];
s3 -> s11  [label="z"];
s3 -> s12  [label="x"];
s4 -> s2  [label="z"];
s4 -> s3  [label="x"];
s4 -> s10  [label="y"];
s5 -> s4  [label="y"];
s5 -> s6  [label="x"];
s5 -> s6  [label="z"];
s6 -> s9  [label="z"];
s6 -> s9  [label="x"];
s6 -> s3  [label="y"];
s7 -> s11  [label="y"];
s7 -> s11  [label="x"];
s7 -> s0  [label="z"];
s8 -> s7  [label="x"];
s8 -> s9  [label="z"];
s8 -> s5  [label="y"];
s9 -> s5  [label="x"];
s9 -> s9  [label="y"];
s9 -> s3  [label="z"];
s10 -> s2  [label="z"];
s10 -> s4  [label="y"];
s10 -> s5  [label="x"];
s11 -> s11  [label="x"];
s11 -> s7  [label="y"];
s11 -> s1  [label="z"];
s12 -> s12  [label="z"];
s12 -> s1  [label="x"];
s12 -> s11  [label="y"];
__start0 [label="", shape=none];
__start0 -> s0  [label=""];
}
