digraph "benchmarks-true-state-lstar-3seeds/n_states=14-n_outputs=2-glitch_percent=0.0/859446941abb6da4046071575c0c7852/rpniGroundTruth" {
s0 [label="s0|b", shape=record, style=rounded];
s1 [label="s1|a", shape=record, style=rounded];
s2 [label="s2|a", shape=record, style=rounded];
s3 [label="s3|b", shape=record, style=rounded];
s4 [label="s4|a", shape=record, style=rounded];
s5 [label="s5|a", shape=record, style=rounded];
s6 [label="s6|a", shape=record, style=rounded];
s7 [label="s7|a", shape=record, style=rounded];
s8 [label="s8|b", shape=record, style=rounded];
s9 [label="s9|b", shape=record, style=rounded];
s10 [label="s10|a", shape=record, style=rounded];
s11 [label="s11|a", shape=record, style=rounded];
s12 [label="s12|b", shape=record, style=rounded];
s13 [label="s13|a", shape=record, style=rounded];
s0 -> s1  [label="x"];
s0 -> s2  [label="y"];
s0 -> s3  [label="z"];
s1 -> s4  [label="x"];
s1 -> s5  [label="z"];
s1 -> s6  [label="y"];
s2 -> s7  [label="x"];
s2 -> s8  [label="y"];
s2 -> s9  [label="z"];
s3 -> s10  [label="z"];
s3 -> s11  [label="y"];
s3 -> s12  [label="x"];
s4 -> s8  [label="z"];
s4 -> s13  [label="x"];
s4 -> s7  [label="y"];
s5 -> s0  [label="y"];
s5 -> s8  [label="z"];
s5 -> s7  [label="x"];
s6 -> s3  [label="z"];
s6 -> s11  [label="x"];
s6 -> s1  [label="y"];
s7 -> s4  [label="x"];
s7 -> s11  [label="y"];
s7 -> s2  [label="z"];
s8 -> s12  [label="z"];
s8 -> s2  [label="x"];
s8 -> s12  [label="y"];
s9 -> s5  [label="x"];
s9 -> s7  [label="y"];
s9 -> s13  [label="z"];
s10 -> s1  [label="x"];
s10 -> s4  [label="y"];
s10 -> s13  [label="z"];
s11 -> s3  [label="z"];
s11 -> s1  [label="y"];
s11 -> s0  [label="x"];
s12 -> s9  [label="y"];
s12 -> s0  [label="z"];
s12 -> s12  [label="x"];
s13 -> s13  [label="y"];
s13 -> s0  [label="x"];
s13 -> s13  [label="z"];
__start0 [label="", shape=none];
__start0 -> s0  [label=""];
}
