digraph "benchmarks-true-state-lstar-rc10seeds/n_states=15-n_outputs=3-glitch_percent=0.01/c0fc749f052ffb99f3c16720ab26add9/pmsatLearned_NOP-N15-STOC" {
0 [label="0|a", shape=record, style=rounded];
1 [label="1|c", shape=record, style=rounded];
2 [label="2|a", shape=record, style=rounded];
3 [label="3|c", shape=record, style=rounded];
4 [label="4|c", shape=record, style=rounded];
5 [label="5|c", shape=record, style=rounded];
6 [label="6|b", shape=record, style=rounded];
7 [label="7|c", shape=record, style=rounded];
8 [label="8|c", shape=record, style=rounded];
9 [label="9|a", shape=record, style=rounded];
10 [label="10|b", shape=record, style=rounded];
11 [label="11|a", shape=record, style=rounded];
12 [label="12|b", shape=record, style=rounded];
13 [label="13|c", shape=record, style=rounded];
14 [label="14|c", shape=record, style=rounded];
0 -> 4  [label="z (85)"];
0 -> 14  [label="y (94)"];
0 -> 7  [label="x (125)"];
1 -> 4  [label="x (13)"];
1 -> 4  [label="y (20)"];
1 -> 0  [label="z (8)"];
2 -> 4  [label="x (15)"];
2 -> 5  [label="y (10)"];
2 -> 8  [label="z (8)"];
3 -> 9  [label="x (12)"];
3 -> 3  [label="y (10)"];
3 -> 2  [label="z (8)"];
4 -> 1  [label="x (46)"];
4 -> 13  [label="y (53)"];
4 -> 11  [label="z (30)"];
5 -> 6  [label="x (32)"];
5 -> 12  [label="y (31)"];
5 -> 10  [label="z (9)"];
5 -> 11  [label="!z [1]"];
6 -> 0  [label="x (18)"];
6 -> 1  [label="y (21)"];
6 -> 8  [label="z (9)"];
7 -> 5  [label="x (63)"];
7 -> 10  [label="y (34)"];
7 -> 3  [label="z (26)"];
8 -> 4  [label="x (25)"];
8 -> 6  [label="y (18)"];
8 -> 11  [label="z (12)"];
9 -> 9  [label="x (12)"];
9 -> 10  [label="y (18)"];
9 -> 4  [label="z (9)"];
10 -> 6  [label="x (21)"];
10 -> 8  [label="y (20)"];
10 -> 13  [label="z (10)"];
11 -> 10  [label="x (10)"];
11 -> 0  [label="y (10)"];
11 -> 5  [label="z (8)"];
12 -> 4  [label="x (12)"];
12 -> 8  [label="y (7)"];
12 -> 7  [label="z (6)"];
13 -> 10  [label="x (19)"];
13 -> 8  [label="y (12)"];
13 -> 13  [label="z (8)"];
14 -> 9  [label="x (30)"];
14 -> 2  [label="y (30)"];
14 -> 8  [label="z (25)"];
14 -> 6  [label="!x [1]"];
__start0 [label="", shape=none];
__start0 -> 0  [label=""];
}
