digraph "benchmarks-true-state-lstar-songp/n_states=10-n_outputs=6-glitch_percent=0.05-pmstrat='fm'/97e9890f83e302d38d751f9eefdb6ec5/pmsatLearned-N10" {
0 [label="0|a", shape=record, style=rounded];
1 [label="1|b", shape=record, style=rounded];
2 [label="2|c", shape=record, style=rounded];
3 [label="3|d", shape=record, style=rounded];
4 [label="4|f", shape=record, style=rounded];
5 [label="5|a", shape=record, style=rounded];
6 [label="6|f", shape=record, style=rounded];
7 [label="7|d", shape=record, style=rounded];
8 [label="8|f", shape=record, style=rounded];
9 [label="9|c", shape=record, style=rounded];
0 -> 8  [label="z"];
0 -> 2  [label="y"];
0 -> 5  [label="x"];
1 -> 3  [label="x"];
1 -> 6  [label="y"];
1 -> 8  [label="z"];
2 -> 4  [label="x"];
2 -> 1  [label="y"];
2 -> 6  [label="z"];
3 -> 2  [label="x"];
3 -> 5  [label="z"];
3 -> 6  [label="y"];
4 -> 3  [label="x"];
4 -> 5  [label="y"];
4 -> 7  [label="z"];
5 -> 9  [label="x"];
5 -> 3  [label="y"];
5 -> 7  [label="z"];
6 -> 2  [label="x"];
6 -> 0  [label="y"];
6 -> 3  [label="z"];
7 -> 4  [label="x"];
7 -> 6  [label="y"];
7 -> 4  [label="z"];
8 -> 6  [label="x"];
8 -> 0  [label="y"];
8 -> 2  [label="z"];
9 -> 6  [label="z"];
9 -> 2  [label="x"];
9 -> 8  [label="y"];
__start0 [label="", shape=none];
__start0 -> 0  [label=""];
}
