digraph "benchmarks-true-state-lstar-3seeds/n_states=14-n_outputs=7-glitch_percent=0.01/8e8bc72743723569b677af784763d0f0/pmsatLearned-N14" {
0 [label="0|a", shape=record, style=rounded];
1 [label="1|b", shape=record, style=rounded];
2 [label="2|c", shape=record, style=rounded];
3 [label="3|d", shape=record, style=rounded];
4 [label="4|e", shape=record, style=rounded];
5 [label="5|f", shape=record, style=rounded];
6 [label="6|g", shape=record, style=rounded];
7 [label="7|a", shape=record, style=rounded];
8 [label="8|d", shape=record, style=rounded];
9 [label="9|a", shape=record, style=rounded];
10 [label="10|e", shape=record, style=rounded];
11 [label="11|b", shape=record, style=rounded];
12 [label="12|b", shape=record, style=rounded];
13 [label="13|e", shape=record, style=rounded];
0 -> 9  [label="x"];
0 -> 13  [label="y"];
0 -> 4  [label="z"];
1 -> 2  [label="x"];
1 -> 10  [label="y"];
1 -> 6  [label="z"];
2 -> 0  [label="x"];
2 -> 10  [label="y"];
2 -> 9  [label="z"];
3 -> 0  [label="z"];
3 -> 5  [label="y"];
3 -> 10  [label="x"];
4 -> 1  [label="x"];
4 -> 5  [label="y"];
4 -> 7  [label="z"];
5 -> 2  [label="x"];
5 -> 8  [label="y"];
5 -> 11  [label="z"];
6 -> 3  [label="x"];
6 -> 3  [label="y"];
6 -> 9  [label="z"];
7 -> 6  [label="x"];
7 -> 2  [label="y"];
7 -> 13  [label="z"];
8 -> 4  [label="x"];
8 -> 6  [label="y"];
8 -> 3  [label="z"];
9 -> 8  [label="x"];
9 -> 8  [label="y"];
9 -> 5  [label="z"];
10 -> 7  [label="x"];
10 -> 12  [label="y"];
10 -> 1  [label="z"];
11 -> 0  [label="x"];
11 -> 11  [label="y"];
11 -> 10  [label="z"];
12 -> 10  [label="x"];
12 -> 12  [label="y"];
12 -> 10  [label="z"];
13 -> 5  [label="x"];
13 -> 13  [label="y"];
13 -> 6  [label="z"];
__start0 [label="", shape=none];
__start0 -> 3  [label=""];
}
