digraph "benchmarks-true-state-lstar-3seeds/n_states=11-n_outputs=8-glitch_percent=0.05/d2ef99e63cf3074d61d5085b831e9060/pmsatLearned-N11" {
0 [label="0|b", shape=record, style=rounded];
1 [label="1|c", shape=record, style=rounded];
2 [label="2|d", shape=record, style=rounded];
3 [label="3|e", shape=record, style=rounded];
4 [label="4|f", shape=record, style=rounded];
5 [label="5|h", shape=record, style=rounded];
6 [label="6|h", shape=record, style=rounded];
7 [label="7|d", shape=record, style=rounded];
8 [label="8|f", shape=record, style=rounded];
9 [label="9|b", shape=record, style=rounded];
10 [label="10|f", shape=record, style=rounded];
0 -> 6  [label="x"];
0 -> 2  [label="y"];
0 -> 8  [label="z"];
1 -> 6  [label="x"];
1 -> 9  [label="y"];
1 -> 2  [label="z"];
2 -> 5  [label="x"];
2 -> 2  [label="y"];
2 -> 4  [label="z"];
3 -> 2  [label="x"];
3 -> 4  [label="y"];
3 -> 6  [label="z"];
4 -> 7  [label="x"];
4 -> 9  [label="y"];
4 -> 3  [label="z"];
5 -> 7  [label="z"];
5 -> 10  [label="y"];
5 -> 0  [label="x"];
6 -> 8  [label="x"];
6 -> 1  [label="y"];
6 -> 0  [label="z"];
7 -> 9  [label="z"];
7 -> 3  [label="y"];
7 -> 4  [label="x"];
8 -> 6  [label="x"];
8 -> 0  [label="y"];
8 -> 3  [label="z"];
9 -> 9  [label="x"];
9 -> 4  [label="y"];
9 -> 10  [label="z"];
10 -> 3  [label="x"];
10 -> 9  [label="y"];
10 -> 1  [label="z"];
__start0 [label="", shape=none];
__start0 -> 5  [label=""];
}
