digraph "benchmarks-true-state-lstar-songp/n_states=15-n_outputs=2-glitch_percent=0.0-pmstrat='rc2'/18f2b9d332c763c24b5a3ee0919dc05e/pmsatLearned-N15-STOC" {
0 [label="0|a", shape=record, style=rounded];
1 [label="1|b", shape=record, style=rounded];
2 [label="2|b", shape=record, style=rounded];
3 [label="3|b", shape=record, style=rounded];
4 [label="4|a", shape=record, style=rounded];
5 [label="5|b", shape=record, style=rounded];
6 [label="6|a", shape=record, style=rounded];
7 [label="7|a", shape=record, style=rounded];
8 [label="8|b", shape=record, style=rounded];
9 [label="9|a", shape=record, style=rounded];
10 [label="10|a", shape=record, style=rounded];
11 [label="11|b", shape=record, style=rounded];
12 [label="12|b", shape=record, style=rounded];
13 [label="13|b", shape=record, style=rounded];
14 [label="14|b", shape=record, style=rounded];
0 -> 3  [label="z (139)"];
0 -> 10  [label="y (147)"];
0 -> 4  [label="x (199)"];
1 -> 0  [label="x (19)"];
1 -> 10  [label="y (25)"];
1 -> 0  [label="z (20)"];
2 -> 6  [label="x (67)"];
2 -> 14  [label="y (62)"];
2 -> 5  [label="z (23)"];
3 -> 5  [label="x (44)"];
3 -> 7  [label="y (48)"];
3 -> 8  [label="z (38)"];
4 -> 2  [label="x (115)"];
4 -> 9  [label="y (63)"];
4 -> 1  [label="z (50)"];
5 -> 7  [label="x (16)"];
5 -> 7  [label="y (24)"];
5 -> 2  [label="z (15)"];
6 -> 7  [label="x (25)"];
6 -> 2  [label="y (15)"];
6 -> 13  [label="z (23)"];
7 -> 12  [label="x (33)"];
7 -> 4  [label="y (31)"];
7 -> 12  [label="z (29)"];
8 -> 12  [label="x (20)"];
8 -> 0  [label="y (16)"];
8 -> 14  [label="z (18)"];
9 -> 14  [label="x (20)"];
9 -> 0  [label="y (16)"];
9 -> 2  [label="z (11)"];
10 -> 13  [label="x (56)"];
10 -> 11  [label="y (60)"];
10 -> 12  [label="z (46)"];
11 -> 1  [label="x (19)"];
11 -> 4  [label="y (15)"];
11 -> 14  [label="z (11)"];
12 -> 6  [label="x (36)"];
12 -> 2  [label="y (45)"];
12 -> 14  [label="z (26)"];
13 -> 7  [label="x (18)"];
13 -> 10  [label="y (18)"];
13 -> 1  [label="z (16)"];
14 -> 8  [label="x (35)"];
14 -> 12  [label="y (37)"];
14 -> 4  [label="z (20)"];
__start0 [label="", shape=none];
__start0 -> 0  [label=""];
}
