digraph "benchmarks-true-state-lstar-3seeds/n_states=12-n_outputs=8-glitch_percent=0.02/61d788230fc8567cd95b7a477d9629d0/RealModel" {
s1 [label="s1|e", shape=record, style=rounded];
s2 [label="s2|g", shape=record, style=rounded];
s3 [label="s3|h", shape=record, style=rounded];
s4 [label="s4|e", shape=record, style=rounded];
s5 [label="s5|b", shape=record, style=rounded];
s6 [label="s6|e", shape=record, style=rounded];
s7 [label="s7|f", shape=record, style=rounded];
s8 [label="s8|a", shape=record, style=rounded];
s9 [label="s9|b", shape=record, style=rounded];
s10 [label="s10|h", shape=record, style=rounded];
s11 [label="s11|a", shape=record, style=rounded];
s12 [label="s12|b", shape=record, style=rounded];
s1 -> s6  [label="x"];
s1 -> s3  [label="y"];
s1 -> s8  [label="z"];
s2 -> s7  [label="x"];
s2 -> s2  [label="y"];
s2 -> s10  [label="z"];
s3 -> s7  [label="x"];
s3 -> s11  [label="y"];
s3 -> s12  [label="z"];
s4 -> s1  [label="x"];
s4 -> s1  [label="y"];
s4 -> s3  [label="z"];
s5 -> s6  [label="x"];
s5 -> s6  [label="y"];
s5 -> s7  [label="z"];
s6 -> s2  [label="x"];
s6 -> s10  [label="y"];
s6 -> s4  [label="z"];
s7 -> s6  [label="x"];
s7 -> s5  [label="y"];
s7 -> s6  [label="z"];
s8 -> s5  [label="x"];
s8 -> s9  [label="y"];
s8 -> s12  [label="z"];
s9 -> s12  [label="x"];
s9 -> s12  [label="y"];
s9 -> s9  [label="z"];
s10 -> s7  [label="x"];
s10 -> s3  [label="y"];
s10 -> s12  [label="z"];
s11 -> s12  [label="x"];
s11 -> s6  [label="y"];
s11 -> s2  [label="z"];
s12 -> s7  [label="x"];
s12 -> s2  [label="y"];
s12 -> s1  [label="z"];
__start0 [label="", shape=none];
__start0 -> s1  [label=""];
}
