digraph "benchmarks-true-state-lstar-rc10seeds/n_states=8-n_outputs=5-glitch_percent=0.02/6805b92ac7348e557a035d670fed7af9/pmsatLearned_NOP-N8" {
0 [label="0|b", shape=record, style=rounded];
1 [label="1|b", shape=record, style=rounded];
2 [label="2|e", shape=record, style=rounded];
3 [label="3|c", shape=record, style=rounded];
4 [label="4|e", shape=record, style=rounded];
5 [label="5|b", shape=record, style=rounded];
6 [label="6|e", shape=record, style=rounded];
7 [label="7|b", shape=record, style=rounded];
0 -> 2  [label="z"];
0 -> 7  [label="y"];
0 -> 3  [label="x"];
1 -> 3  [label="x"];
1 -> 6  [label="y"];
1 -> 5  [label="z"];
2 -> 2  [label="x"];
2 -> 4  [label="z"];
2 -> 0  [label="y"];
3 -> 5  [label="x"];
3 -> 1  [label="y"];
3 -> 6  [label="z"];
4 -> 1  [label="x"];
4 -> 0  [label="y"];
4 -> 3  [label="z"];
5 -> 0  [label="x"];
5 -> 7  [label="y"];
5 -> 0  [label="z"];
6 -> 7  [label="x"];
6 -> 5  [label="y"];
6 -> 3  [label="z"];
7 -> 4  [label="x"];
7 -> 2  [label="y"];
7 -> 7  [label="z"];
__start0 [label="", shape=none];
__start0 -> 0  [label=""];
}
