digraph "benchmarks-true-state-lstar-songp/n_states=8-n_outputs=5-glitch_percent=0.0-pmstrat='rc2'/e75077a3f9adc79fb5e0400a1ce6d1c6/alergiaLearned" {
q0 [label="a"];
q1 [label="c"];
q2 [label="d"];
q3 [label="c"];
q4 [label="b"];
q5 [label="e"];
q6 [label="a"];
q7 [label="d"];
q0 -> q1  [label="z:1.0"];
q0 -> q2  [label="y:1.0"];
q0 -> q3  [label="x:1.0"];
q1 -> q0  [label="x:0.9"];
q1 -> q5  [label="x:0.1"];
q1 -> q1  [label="y:0.9"];
q1 -> q0  [label="y:0.1"];
q1 -> q1  [label="z:0.9"];
q1 -> q2  [label="z:0.1"];
q2 -> q4  [label="x:1.0"];
q2 -> q2  [label="y:1.0"];
q2 -> q4  [label="z:1.0"];
q3 -> q5  [label="x:1.0"];
q3 -> q6  [label="y:1.0"];
q3 -> q7  [label="z:1.0"];
q4 -> q2  [label="x:1.0"];
q4 -> q1  [label="y:1.0"];
q4 -> q0  [label="z:1.0"];
q5 -> q2  [label="x:1.0"];
q5 -> q4  [label="y:1.0"];
q5 -> q1  [label="z:1.0"];
q6 -> q4  [label="x:1.0"];
q6 -> q5  [label="y:1.0"];
q6 -> q4  [label="z:1.0"];
q7 -> q2  [label="x:1.0"];
q7 -> q1  [label="y:1.0"];
q7 -> q4  [label="z:1.0"];
__start0 [label="", shape=none];
__start0 -> q0  [label=""];
}
