digraph "benchmarks-true-state-lstar-rc10seeds/n_states=16-n_outputs=5-glitch_percent=0.0/4036f0e98bb0da1d8034c6597cb09d14/pmsatLearned_NOP-N16" {
0 [label="0|d", shape=record, style=rounded];
1 [label="1|c", shape=record, style=rounded];
2 [label="2|a", shape=record, style=rounded];
3 [label="3|e", shape=record, style=rounded];
4 [label="4|a", shape=record, style=rounded];
5 [label="5|d", shape=record, style=rounded];
6 [label="6|e", shape=record, style=rounded];
7 [label="7|d", shape=record, style=rounded];
8 [label="8|e", shape=record, style=rounded];
9 [label="9|d", shape=record, style=rounded];
10 [label="10|e", shape=record, style=rounded];
11 [label="11|c", shape=record, style=rounded];
12 [label="12|a", shape=record, style=rounded];
13 [label="13|a", shape=record, style=rounded];
14 [label="14|c", shape=record, style=rounded];
15 [label="15|d", shape=record, style=rounded];
0 -> 9  [label="x"];
0 -> 5  [label="y"];
0 -> 6  [label="z"];
1 -> 12  [label="z"];
1 -> 14  [label="y"];
1 -> 13  [label="x"];
2 -> 7  [label="x"];
2 -> 10  [label="y"];
2 -> 0  [label="z"];
3 -> 11  [label="x"];
3 -> 3  [label="y"];
3 -> 10  [label="z"];
4 -> 10  [label="x"];
4 -> 10  [label="y"];
4 -> 5  [label="z"];
5 -> 11  [label="x"];
5 -> 6  [label="y"];
5 -> 10  [label="z"];
6 -> 4  [label="x"];
6 -> 3  [label="y"];
6 -> 11  [label="z"];
7 -> 10  [label="x"];
7 -> 4  [label="y"];
7 -> 3  [label="z"];
8 -> 14  [label="x"];
8 -> 12  [label="y"];
8 -> 6  [label="z"];
9 -> 6  [label="x"];
9 -> 11  [label="y"];
9 -> 5  [label="z"];
10 -> 6  [label="x"];
10 -> 14  [label="y"];
10 -> 4  [label="z"];
11 -> 13  [label="x"];
11 -> 12  [label="y"];
11 -> 0  [label="z"];
12 -> 8  [label="x"];
12 -> 2  [label="y"];
12 -> 3  [label="z"];
13 -> 5  [label="x"];
13 -> 4  [label="y"];
13 -> 15  [label="z"];
14 -> 0  [label="x"];
14 -> 7  [label="y"];
14 -> 9  [label="z"];
15 -> 14  [label="x"];
15 -> 11  [label="y"];
15 -> 13  [label="z"];
__start0 [label="", shape=none];
__start0 -> 1  [label=""];
}
