digraph "benchmarks-true-state-lstar-3seeds/n_states=7-n_outputs=4-glitch_percent=0.01/a55968e2cc00abd010abdf3bfa096afb/alergiaLearned" {
q0 [label="c"];
q1 [label="b"];
q2 [label="b"];
q3 [label="d"];
q4 [label="c"];
q0 -> q1  [label="z:1.0"];
q0 -> q1  [label="y:1.0"];
q0 -> q2  [label="x:1.0"];
q1 -> q1  [label="x:0.95"];
q1 -> q3  [label="x:0.05"];
q1 -> q3  [label="y:0.6"];
q1 -> q0  [label="y:0.05"];
q1 -> q1  [label="y:0.35"];
q1 -> q1  [label="z:0.6666666666666666"];
q1 -> q3  [label="z:0.3333333333333333"];
q2 -> q3  [label="x:1.0"];
q2 -> q4  [label="y:1.0"];
q2 -> q1  [label="z:1.0"];
q3 -> q1  [label="x:1.0"];
q3 -> q1  [label="y:1.0"];
q3 -> q0  [label="z:1.0"];
q4 -> q0  [label="x:1.0"];
q4 -> q1  [label="y:1.0"];
q4 -> q0  [label="z:1.0"];
__start0 [label="", shape=none];
__start0 -> q0  [label=""];
}
