digraph "pmsatLearned-N14-STOC" {
0 [label="0|a", shape=record, style=rounded];
1 [label="1|b", shape=record, style=rounded];
2 [label="2|c", shape=record, style=rounded];
3 [label="3|d", shape=record, style=rounded];
4 [label="4|e", shape=record, style=rounded];
5 [label="5|a", shape=record, style=rounded];
6 [label="6|e", shape=record, style=rounded];
7 [label="7|c", shape=record, style=rounded];
8 [label="8|c", shape=record, style=rounded];
9 [label="9|a", shape=record, style=rounded];
10 [label="10|c", shape=record, style=rounded];
11 [label="11|d", shape=record, style=rounded];
12 [label="12|a", shape=record, style=rounded];
13 [label="13|d", shape=record, style=rounded];
0 -> 9  [label="x (18)"];
0 -> 9  [label="y (9)"];
0 -> 5  [label="z (7)"];
1 -> 4  [label="x (6)"];
1 -> 8  [label="y (6)"];
1 -> 2  [label="z (6)"];
2 -> 0  [label="x (8)"];
2 -> 5  [label="y (7)"];
2 -> 7  [label="z (8)"];
3 -> 0  [label="x (30)"];
3 -> 7  [label="y (19)"];
3 -> 13  [label="z (19)"];
4 -> 11  [label="z (54)"];
4 -> 12  [label="y (52)"];
4 -> 3  [label="x (65)"];
4 -> 8  [label="!z [1]"];
4 -> 8  [label="!x [1]"];
4 -> 9  [label="!x [1] t1"];
5 -> 6  [label="x (8)"];
5 -> 3  [label="y (8)"];
5 -> 2  [label="z (8)"];
6 -> 3  [label="x (7)"];
6 -> 10  [label="y (7)"];
6 -> 9  [label="z (7)"];
7 -> 9  [label="x (9)"];
7 -> 7  [label="y (9)"];
7 -> 1  [label="z (9)"];
8 -> 2  [label="x (7)"];
8 -> 0  [label="y (9)"];
8 -> 10  [label="z (7)"];
9 -> 11  [label="x (9)"];
9 -> 8  [label="y (8)"];
9 -> 10  [label="z (9)"];
10 -> 7  [label="x (8)"];
10 -> 12  [label="y (7)"];
10 -> 5  [label="z (8)"];
11 -> 1  [label="x (18)"];
11 -> 6  [label="y (18)"];
11 -> 5  [label="z (18)"];
11 -> 9  [label="!x [1]"];
12 -> 2  [label="x (18)"];
12 -> 8  [label="y (19)"];
12 -> 10  [label="z (17)"];
13 -> 7  [label="x (5)"];
13 -> 12  [label="y (5)"];
13 -> 6  [label="z (5)"];
__start0 [label="", shape=none];
__start0 -> 4  [label=""];
}
