digraph "benchmarks-true-state-lstar-3seeds/n_states=10-n_outputs=5-glitch_percent=0.0/9078adcd8b0fe8cebd371a26fe5d9a9d/rpniGroundTruth" {
s0 [label="s0|c", shape=record, style=rounded];
s1 [label="s1|b", shape=record, style=rounded];
s2 [label="s2|d", shape=record, style=rounded];
s3 [label="s3|d", shape=record, style=rounded];
s4 [label="s4|c", shape=record, style=rounded];
s5 [label="s5|b", shape=record, style=rounded];
s6 [label="s6|a", shape=record, style=rounded];
s7 [label="s7|a", shape=record, style=rounded];
s8 [label="s8|e", shape=record, style=rounded];
s9 [label="s9|d", shape=record, style=rounded];
s0 -> s1  [label="y"];
s0 -> s2  [label="z"];
s0 -> s3  [label="x"];
s1 -> s4  [label="z"];
s1 -> s5  [label="x"];
s1 -> s6  [label="y"];
s2 -> s3  [label="y"];
s2 -> s7  [label="z"];
s2 -> s0  [label="x"];
s3 -> s7  [label="y"];
s3 -> s8  [label="z"];
s3 -> s9  [label="x"];
s4 -> s8  [label="z"];
s4 -> s5  [label="y"];
s4 -> s2  [label="x"];
s5 -> s0  [label="x"];
s5 -> s9  [label="y"];
s5 -> s6  [label="z"];
s6 -> s7  [label="x"];
s6 -> s9  [label="y"];
s6 -> s6  [label="z"];
s7 -> s3  [label="x"];
s7 -> s4  [label="y"];
s7 -> s1  [label="z"];
s8 -> s7  [label="z"];
s8 -> s1  [label="x"];
s8 -> s6  [label="y"];
s9 -> s8  [label="y"];
s9 -> s1  [label="z"];
s9 -> s8  [label="x"];
__start0 [label="", shape=none];
__start0 -> s0  [label=""];
}
