digraph "benchmarks-true-state-lstar-3seeds/n_states=12-n_outputs=7-glitch_percent=0.02/41b3eb0e3f49dff0698e770f076c4064/alergiaLearned" {
q0 [label="d"];
q1 [label="e"];
q2 [label="f"];
q3 [label="f"];
q4 [label="c"];
q5 [label="b"];
q6 [label="a"];
q7 [label="g"];
q8 [label="d"];
q0 -> q1  [label="z:0.9767441860465116"];
q0 -> q4  [label="z:0.023255813953488372"];
q0 -> q2  [label="y:0.9818181818181818"];
q0 -> q1  [label="y:0.01818181818181818"];
q0 -> q3  [label="x:0.9636363636363636"];
q0 -> q4  [label="x:0.01818181818181818"];
q0 -> q7  [label="x:0.01818181818181818"];
q1 -> q5  [label="x:1.0"];
q1 -> q6  [label="y:1.0"];
q1 -> q7  [label="z:1.0"];
q2 -> q7  [label="x:0.8636363636363636"];
q2 -> q2  [label="x:0.045454545454545456"];
q2 -> q4  [label="x:0.09090909090909091"];
q2 -> q4  [label="y:1.0"];
q2 -> q7  [label="z:0.9047619047619048"];
q2 -> q0  [label="z:0.09523809523809523"];
q3 -> q4  [label="x:1.0"];
q3 -> q4  [label="y:1.0"];
q3 -> q8  [label="z:1.0"];
q4 -> q4  [label="y:0.29411764705882354"];
q4 -> q0  [label="y:0.29411764705882354"];
q4 -> q6  [label="y:0.4117647058823529"];
q4 -> q2  [label="x:0.6470588235294118"];
q4 -> q5  [label="x:0.29411764705882354"];
q4 -> q4  [label="x:0.058823529411764705"];
q4 -> q4  [label="z:0.631578947368421"];
q4 -> q7  [label="z:0.3684210526315789"];
q5 -> q4  [label="z:1.0"];
q5 -> q7  [label="y:1.0"];
q5 -> q1  [label="x:1.0"];
q6 -> q0  [label="x:1.0"];
q6 -> q2  [label="y:1.0"];
q6 -> q1  [label="z:1.0"];
q7 -> q5  [label="x:1.0"];
q7 -> q1  [label="y:0.6428571428571429"];
q7 -> q2  [label="y:0.35714285714285715"];
q7 -> q6  [label="z:0.6428571428571429"];
q7 -> q2  [label="z:0.35714285714285715"];
q8 -> q7  [label="x:1.0"];
q8 -> q1  [label="y:1.0"];
q8 -> q4  [label="z:1.0"];
__start0 [label="", shape=none];
__start0 -> q0  [label=""];
}
