digraph "benchmarks-true-state-lstar-songp/n_states=8-n_outputs=8-glitch_percent=0.0-pmstrat='fm'/d5dcf40f1d7a44be8345646a7d61798b/RealModel" {
s1 [label="s1|a", shape=record, style=rounded];
s2 [label="s2|e", shape=record, style=rounded];
s3 [label="s3|c", shape=record, style=rounded];
s4 [label="s4|h", shape=record, style=rounded];
s5 [label="s5|f", shape=record, style=rounded];
s6 [label="s6|b", shape=record, style=rounded];
s7 [label="s7|h", shape=record, style=rounded];
s8 [label="s8|h", shape=record, style=rounded];
s1 -> s6  [label="x"];
s1 -> s2  [label="y"];
s1 -> s8  [label="z"];
s2 -> s3  [label="x"];
s2 -> s7  [label="y"];
s2 -> s3  [label="z"];
s3 -> s7  [label="x"];
s3 -> s2  [label="y"];
s3 -> s1  [label="z"];
s4 -> s7  [label="x"];
s4 -> s5  [label="y"];
s4 -> s3  [label="z"];
s5 -> s3  [label="x"];
s5 -> s8  [label="y"];
s5 -> s3  [label="z"];
s6 -> s7  [label="x"];
s6 -> s5  [label="y"];
s6 -> s4  [label="z"];
s7 -> s7  [label="x"];
s7 -> s3  [label="y"];
s7 -> s2  [label="z"];
s8 -> s1  [label="x"];
s8 -> s2  [label="y"];
s8 -> s2  [label="z"];
__start0 [label="", shape=none];
__start0 -> s1  [label=""];
}
