digraph "benchmarks-true-state-lstar-3seeds/n_states=7-n_outputs=3-glitch_percent=0.05/a633649e359d136ff6522ed0e45811e6/pmsatLearned-N7-STOC" {
0 [label="0|a", shape=record, style=rounded];
1 [label="1|c", shape=record, style=rounded];
2 [label="2|a", shape=record, style=rounded];
3 [label="3|a", shape=record, style=rounded];
4 [label="4|c", shape=record, style=rounded];
5 [label="5|c", shape=record, style=rounded];
6 [label="6|a", shape=record, style=rounded];
0 -> 4  [label="z (19)"];
0 -> 2  [label="x (57)"];
0 -> 6  [label="y (19)"];
0 -> 2  [label="!z [1]"];
1 -> 6  [label="x (6)"];
1 -> 4  [label="y (6)"];
1 -> 1  [label="z (6)"];
2 -> 3  [label="x (20)"];
2 -> 5  [label="y (19)"];
2 -> 1  [label="z (20)"];
2 -> 5  [label="!x [1]"];
3 -> 0  [label="x (6)"];
3 -> 0  [label="y (6)"];
3 -> 3  [label="z (5)"];
4 -> 0  [label="y (7)"];
4 -> 4  [label="z (6)"];
4 -> 6  [label="x (6)"];
5 -> 0  [label="y (7)"];
5 -> 2  [label="z (6)"];
5 -> 5  [label="x (5)"];
6 -> 2  [label="x (6)"];
6 -> 5  [label="y (5)"];
6 -> 2  [label="z (6)"];
6 -> 4  [label="!x [1]"];
__start0 [label="", shape=none];
__start0 -> 0  [label=""];
}
