digraph "benchmarks-true-state-lstar-songp/n_states=14-n_outputs=4-glitch_percent=0.01-pmstrat='fm'/0cbd3d81b577d12d8f05c4c68f37cbd5/pmsatLearned-N14-STOC" {
0 [label="0|a", shape=record, style=rounded];
1 [label="1|b", shape=record, style=rounded];
2 [label="2|c", shape=record, style=rounded];
3 [label="3|d", shape=record, style=rounded];
4 [label="4|c", shape=record, style=rounded];
5 [label="5|d", shape=record, style=rounded];
6 [label="6|a", shape=record, style=rounded];
7 [label="7|c", shape=record, style=rounded];
8 [label="8|a", shape=record, style=rounded];
9 [label="9|d", shape=record, style=rounded];
10 [label="10|b", shape=record, style=rounded];
11 [label="11|d", shape=record, style=rounded];
12 [label="12|d", shape=record, style=rounded];
13 [label="13|d", shape=record, style=rounded];
0 -> 4  [label="z (56)"];
0 -> 11  [label="y (58)"];
0 -> 7  [label="x (68)"];
0 -> 2  [label="!x [1]"];
1 -> 1  [label="x (9)"];
1 -> 3  [label="y (9)"];
1 -> 5  [label="z (8)"];
2 -> 10  [label="x (21)"];
2 -> 9  [label="y (9)"];
2 -> 7  [label="z (9)"];
3 -> 2  [label="x (9)"];
3 -> 0  [label="y (8)"];
3 -> 7  [label="z (9)"];
4 -> 6  [label="x (19)"];
4 -> 3  [label="y (18)"];
4 -> 1  [label="z (19)"];
5 -> 10  [label="x (6)"];
5 -> 4  [label="y (6)"];
5 -> 4  [label="z (5)"];
6 -> 3  [label="x (6)"];
6 -> 2  [label="y (6)"];
6 -> 2  [label="z (6)"];
7 -> 2  [label="x (32)"];
7 -> 9  [label="y (21)"];
7 -> 8  [label="z (20)"];
8 -> 10  [label="x (5)"];
8 -> 0  [label="y (5)"];
8 -> 1  [label="z (4)"];
8 -> 9  [label="!z [1]"];
9 -> 0  [label="x (6)"];
9 -> 3  [label="y (6)"];
9 -> 0  [label="z (7)"];
10 -> 13  [label="x (7)"];
10 -> 2  [label="y (7)"];
10 -> 12  [label="z (7)"];
11 -> 5  [label="x (16)"];
11 -> 13  [label="y (17)"];
11 -> 12  [label="z (16)"];
11 -> 9  [label="!z [1]"];
11 -> 8  [label="!y [1]"];
12 -> 7  [label="x (5)"];
12 -> 1  [label="y (6)"];
12 -> 1  [label="z (6)"];
13 -> 7  [label="x (6)"];
13 -> 6  [label="y (6)"];
13 -> 3  [label="z (6)"];
__start0 [label="", shape=none];
__start0 -> 0  [label=""];
}
