digraph "benchmarks-true-state-lstar-songp/n_states=9-n_outputs=4-glitch_percent=0.01-pmstrat='fm'/843ebd7ec4cac8a365aeb07c66a3ec67/pmsatLearned-N9-STOC" {
0 [label="0|a", shape=record, style=rounded];
1 [label="1|b", shape=record, style=rounded];
2 [label="2|c", shape=record, style=rounded];
3 [label="3|d", shape=record, style=rounded];
4 [label="4|a", shape=record, style=rounded];
5 [label="5|d", shape=record, style=rounded];
6 [label="6|c", shape=record, style=rounded];
7 [label="7|d", shape=record, style=rounded];
8 [label="8|a", shape=record, style=rounded];
0 -> 7  [label="z (20)"];
0 -> 4  [label="y (44)"];
0 -> 5  [label="x (55)"];
0 -> 8  [label="!x [1]"];
1 -> 8  [label="x (10)"];
1 -> 2  [label="y (9)"];
1 -> 1  [label="z (10)"];
2 -> 0  [label="x (6)"];
2 -> 1  [label="y (6)"];
2 -> 0  [label="z (6)"];
3 -> 5  [label="x (7)"];
3 -> 1  [label="y (8)"];
3 -> 3  [label="z (8)"];
4 -> 6  [label="x (17)"];
4 -> 2  [label="y (17)"];
4 -> 6  [label="z (5)"];
5 -> 8  [label="x (17)"];
5 -> 3  [label="y (18)"];
5 -> 1  [label="z (18)"];
6 -> 3  [label="x (9)"];
6 -> 6  [label="y (9)"];
6 -> 0  [label="z (9)"];
7 -> 6  [label="x (5)"];
7 -> 3  [label="y (5)"];
7 -> 1  [label="z (5)"];
8 -> 6  [label="x (7)"];
8 -> 1  [label="y (7)"];
8 -> 8  [label="z (7)"];
__start0 [label="", shape=none];
__start0 -> 0  [label=""];
}
