digraph "pmsatLearned-N11-STOC" {
0 [label="0|a", shape=record, style=rounded];
1 [label="1|b", shape=record, style=rounded];
2 [label="2|c", shape=record, style=rounded];
3 [label="3|d", shape=record, style=rounded];
4 [label="4|e", shape=record, style=rounded];
5 [label="5|d", shape=record, style=rounded];
6 [label="6|b", shape=record, style=rounded];
7 [label="7|a", shape=record, style=rounded];
8 [label="8|e", shape=record, style=rounded];
9 [label="9|d", shape=record, style=rounded];
10 [label="10|d", shape=record, style=rounded];
0 -> 5  [label="x (7)"];
0 -> 1  [label="y (7)"];
0 -> 8  [label="z (8)"];
1 -> 10  [label="x (20)"];
1 -> 3  [label="y (20)"];
1 -> 9  [label="z (20)"];
2 -> 6  [label="x (18)"];
2 -> 2  [label="y (8)"];
2 -> 0  [label="z (8)"];
2 -> 8  [label="!y [2]"];
3 -> 10  [label="x (7)"];
3 -> 3  [label="y (7)"];
3 -> 10  [label="z (7)"];
4 -> 2  [label="z (30)"];
4 -> 1  [label="y (55)"];
4 -> 7  [label="x (54)"];
4 -> 4  [label="!x [1]"];
4 -> 0  [label="!x [1] t1"];
4 -> 2  [label="!x [1] t2"];
5 -> 1  [label="x (7)"];
5 -> 8  [label="y (7)"];
5 -> 10  [label="z (7)"];
6 -> 2  [label="x (7)"];
6 -> 3  [label="z (8)"];
6 -> 4  [label="y (6)"];
6 -> 2  [label="!z [1]"];
6 -> 4  [label="!x [1]"];
7 -> 8  [label="x (15)"];
7 -> 5  [label="y (17)"];
7 -> 0  [label="z (17)"];
7 -> 6  [label="!y [1]"];
8 -> 6  [label="x (10)"];
8 -> 6  [label="y (7)"];
8 -> 8  [label="z (7)"];
9 -> 2  [label="x (5)"];
9 -> 6  [label="y (5)"];
9 -> 4  [label="z (5)"];
10 -> 1  [label="x (8)"];
10 -> 0  [label="y (8)"];
10 -> 5  [label="z (8)"];
__start0 [label="", shape=none];
__start0 -> 4  [label=""];
}
