digraph "benchmarks-true-state-lstar-3seeds/n_states=17-n_outputs=5-glitch_percent=0.0/d11ce93af4b72a5f79c6214a11a48dc4/rpniGroundTruth" {
s0 [label="s0|d", shape=record, style=rounded];
s1 [label="s1|d", shape=record, style=rounded];
s2 [label="s2|c", shape=record, style=rounded];
s3 [label="s3|c", shape=record, style=rounded];
s4 [label="s4|b", shape=record, style=rounded];
s5 [label="s5|c", shape=record, style=rounded];
s6 [label="s6|a", shape=record, style=rounded];
s7 [label="s7|b", shape=record, style=rounded];
s8 [label="s8|e", shape=record, style=rounded];
s9 [label="s9|c", shape=record, style=rounded];
s10 [label="s10|c", shape=record, style=rounded];
s11 [label="s11|a", shape=record, style=rounded];
s12 [label="s12|b", shape=record, style=rounded];
s13 [label="s13|a", shape=record, style=rounded];
s14 [label="s14|c", shape=record, style=rounded];
s15 [label="s15|e", shape=record, style=rounded];
s16 [label="s16|c", shape=record, style=rounded];
s0 -> s1  [label="y"];
s0 -> s2  [label="z"];
s0 -> s3  [label="x"];
s1 -> s4  [label="y"];
s1 -> s5  [label="z"];
s1 -> s6  [label="x"];
s2 -> s7  [label="y"];
s2 -> s8  [label="z"];
s2 -> s9  [label="x"];
s3 -> s10  [label="z"];
s3 -> s11  [label="y"];
s3 -> s12  [label="x"];
s4 -> s13  [label="y"];
s4 -> s4  [label="z"];
s4 -> s3  [label="x"];
s5 -> s4  [label="y"];
s5 -> s10  [label="z"];
s5 -> s9  [label="x"];
s6 -> s1  [label="z"];
s6 -> s11  [label="y"];
s6 -> s3  [label="x"];
s7 -> s12  [label="z"];
s7 -> s14  [label="y"];
s7 -> s10  [label="x"];
s8 -> s2  [label="x"];
s8 -> s14  [label="z"];
s8 -> s6  [label="y"];
s9 -> s14  [label="y"];
s9 -> s9  [label="x"];
s9 -> s1  [label="z"];
s10 -> s11  [label="z"];
s10 -> s4  [label="x"];
s10 -> s13  [label="y"];
s11 -> s9  [label="z"];
s11 -> s15  [label="x"];
s11 -> s3  [label="y"];
s12 -> s14  [label="x"];
s12 -> s16  [label="y"];
s12 -> s13  [label="z"];
s13 -> s5  [label="y"];
s13 -> s8  [label="x"];
s13 -> s4  [label="z"];
s14 -> s0  [label="y"];
s14 -> s6  [label="z"];
s14 -> s1  [label="x"];
s15 -> s7  [label="z"];
s15 -> s1  [label="x"];
s15 -> s3  [label="y"];
s16 -> s0  [label="x"];
s16 -> s10  [label="z"];
s16 -> s9  [label="y"];
__start0 [label="", shape=none];
__start0 -> s0  [label=""];
}
