digraph "benchmarks-true-state-lstar-songp/n_states=12-n_outputs=7-glitch_percent=0.0-pmstrat='lsu'/410e62c79e82120f50001c229ab66dcf/alergiaLearned" {
q0 [label="a"];
q1 [label="c"];
q2 [label="f"];
q3 [label="a"];
q4 [label="f"];
q5 [label="d"];
q6 [label="g"];
q7 [label="c"];
q8 [label="b"];
q0 -> q1  [label="z:1.0"];
q0 -> q2  [label="y:1.0"];
q0 -> q3  [label="x:1.0"];
q1 -> q4  [label="x:0.8695652173913043"];
q1 -> q1  [label="x:0.13043478260869565"];
q1 -> q5  [label="y:0.8695652173913043"];
q1 -> q2  [label="y:0.13043478260869565"];
q1 -> q1  [label="z:0.7272727272727273"];
q1 -> q2  [label="z:0.2727272727272727"];
q2 -> q5  [label="x:0.76"];
q2 -> q0  [label="x:0.2"];
q2 -> q6  [label="x:0.04"];
q2 -> q4  [label="y:1.0"];
q2 -> q6  [label="z:0.76"];
q2 -> q0  [label="z:0.2"];
q2 -> q1  [label="z:0.04"];
q3 -> q6  [label="x:1.0"];
q3 -> q7  [label="y:1.0"];
q3 -> q8  [label="z:1.0"];
q4 -> q0  [label="x:0.5"];
q4 -> q6  [label="x:0.5"];
q4 -> q2  [label="y:1.0"];
q4 -> q0  [label="z:0.5"];
q4 -> q1  [label="z:0.5"];
q5 -> q2  [label="x:0.5"];
q5 -> q6  [label="x:0.5"];
q5 -> q8  [label="y:0.5"];
q5 -> q2  [label="y:0.5"];
q5 -> q8  [label="z:1.0"];
q6 -> q1  [label="x:1.0"];
q6 -> q0  [label="y:0.38461538461538464"];
q6 -> q1  [label="y:0.6153846153846154"];
q6 -> q6  [label="z:0.38461538461538464"];
q6 -> q2  [label="z:0.6153846153846154"];
q7 -> q1  [label="x:1.0"];
q7 -> q2  [label="y:1.0"];
q7 -> q2  [label="z:1.0"];
q8 -> q2  [label="x:1.0"];
q8 -> q2  [label="y:1.0"];
q8 -> q1  [label="z:1.0"];
__start0 [label="", shape=none];
__start0 -> q0  [label=""];
}
