digraph "benchmarks-true-state-lstar-3seeds/n_states=16-n_outputs=6-glitch_percent=0.01/41250b10558bd9da512378447dd71516/rpniGroundTruth" {
s0 [label="s0|e", shape=record, style=rounded];
s1 [label="s1|f", shape=record, style=rounded];
s2 [label="s2|e", shape=record, style=rounded];
s3 [label="s3|b", shape=record, style=rounded];
s4 [label="s4|e", shape=record, style=rounded];
s5 [label="s5|b", shape=record, style=rounded];
s6 [label="s6|d", shape=record, style=rounded];
s7 [label="s7|d", shape=record, style=rounded];
s8 [label="s8|c", shape=record, style=rounded];
s9 [label="s9|c", shape=record, style=rounded];
s10 [label="s10|b", shape=record, style=rounded];
s11 [label="s11|f", shape=record, style=rounded];
s12 [label="s12|a", shape=record, style=rounded];
s13 [label="s13|b", shape=record, style=rounded];
s14 [label="s14|e", shape=record, style=rounded];
s15 [label="s15|f", shape=record, style=rounded];
s0 -> s1  [label="y"];
s0 -> s2  [label="z"];
s0 -> s3  [label="x"];
s1 -> s4  [label="x"];
s1 -> s5  [label="z"];
s1 -> s6  [label="y"];
s2 -> s7  [label="z"];
s2 -> s8  [label="y"];
s2 -> s9  [label="x"];
s3 -> s10  [label="x"];
s3 -> s11  [label="y"];
s3 -> s12  [label="z"];
s4 -> s4  [label="x"];
s4 -> s13  [label="z"];
s4 -> s14  [label="y"];
s5 -> s11  [label="z"];
s5 -> s1  [label="x"];
s5 -> s3  [label="y"];
s6 -> s13  [label="x"];
s6 -> s15  [label="z"];
s6 -> s0  [label="y"];
s7 -> s15  [label="y"];
s7 -> s4  [label="x"];
s7 -> s15  [label="z"];
s8 -> s3  [label="z"];
s8 -> s0  [label="y"];
s8 -> s13  [label="x"];
s9 -> s8  [label="y"];
s9 -> s10  [label="z"];
s9 -> s2  [label="x"];
s10 -> s13  [label="y"];
s10 -> s14  [label="x"];
s10 -> s15  [label="z"];
s11 -> s1  [label="y"];
s11 -> s9  [label="z"];
s11 -> s2  [label="x"];
s12 -> s7  [label="y"];
s12 -> s15  [label="x"];
s12 -> s7  [label="z"];
s13 -> s14  [label="x"];
s13 -> s7  [label="z"];
s13 -> s1  [label="y"];
s14 -> s6  [label="x"];
s14 -> s4  [label="y"];
s14 -> s4  [label="z"];
s15 -> s6  [label="x"];
s15 -> s11  [label="z"];
s15 -> s7  [label="y"];
__start0 [label="", shape=none];
__start0 -> s0  [label=""];
}
