digraph "benchmarks-true-state-lstar-3seeds/n_states=6-n_outputs=5-glitch_percent=0.05/7cff658b162ec88a70028c17e03230a8/alergiaLearned" {
q0 [label="d"];
q1 [label="e"];
q2 [label="b"];
q3 [label="e"];
q4 [label="a"];
q5 [label="d"];
q0 -> q1  [label="z:0.8636363636363636"];
q0 -> q0  [label="z:0.13636363636363635"];
q0 -> q2  [label="y:0.8181818181818182"];
q0 -> q5  [label="y:0.045454545454545456"];
q0 -> q4  [label="y:0.13636363636363635"];
q0 -> q3  [label="x:0.8666666666666667"];
q0 -> q2  [label="x:0.08888888888888889"];
q0 -> q4  [label="x:0.044444444444444446"];
q1 -> q2  [label="x:0.8"];
q1 -> q4  [label="x:0.2"];
q1 -> q0  [label="y:1.0"];
q1 -> q1  [label="z:0.8571428571428571"];
q1 -> q2  [label="z:0.14285714285714285"];
q2 -> q0  [label="x:0.8888888888888888"];
q2 -> q1  [label="x:0.1111111111111111"];
q2 -> q0  [label="y:1.0"];
q2 -> q1  [label="z:1.0"];
q3 -> q4  [label="x:0.9375"];
q3 -> q2  [label="x:0.0625"];
q3 -> q5  [label="y:1.0"];
q3 -> q2  [label="z:1.0"];
q4 -> q4  [label="z:1.0"];
q4 -> q0  [label="x:1.0"];
q4 -> q0  [label="y:1.0"];
q5 -> q4  [label="y:1.0"];
q5 -> q0  [label="z:1.0"];
q5 -> q2  [label="x:1.0"];
__start0 [label="", shape=none];
__start0 -> q0  [label=""];
}
