digraph "benchmarks-true-state-lstar-songp/n_states=12-n_outputs=4-glitch_percent=0.0-pmstrat='fm'/8848c504ddb8d80fe52d64f9504de489/pmsatLearned-N12" {
0 [label="0|a", shape=record, style=rounded];
1 [label="1|b", shape=record, style=rounded];
2 [label="2|c", shape=record, style=rounded];
3 [label="3|d", shape=record, style=rounded];
4 [label="4|d", shape=record, style=rounded];
5 [label="5|c", shape=record, style=rounded];
6 [label="6|c", shape=record, style=rounded];
7 [label="7|d", shape=record, style=rounded];
8 [label="8|d", shape=record, style=rounded];
9 [label="9|d", shape=record, style=rounded];
10 [label="10|a", shape=record, style=rounded];
11 [label="11|a", shape=record, style=rounded];
0 -> 2  [label="z"];
0 -> 9  [label="y"];
0 -> 3  [label="x"];
1 -> 4  [label="x"];
1 -> 2  [label="y"];
1 -> 0  [label="z"];
2 -> 10  [label="x"];
2 -> 6  [label="y"];
2 -> 1  [label="z"];
3 -> 5  [label="x"];
3 -> 8  [label="y"];
3 -> 1  [label="z"];
4 -> 0  [label="x"];
4 -> 1  [label="y"];
4 -> 5  [label="z"];
5 -> 4  [label="x"];
5 -> 7  [label="y"];
5 -> 10  [label="z"];
6 -> 6  [label="x"];
6 -> 6  [label="y"];
6 -> 6  [label="z"];
7 -> 7  [label="x"];
7 -> 0  [label="y"];
7 -> 1  [label="z"];
8 -> 5  [label="x"];
8 -> 7  [label="y"];
8 -> 1  [label="z"];
9 -> 7  [label="x"];
9 -> 4  [label="y"];
9 -> 11  [label="z"];
10 -> 7  [label="x"];
10 -> 2  [label="y"];
10 -> 7  [label="z"];
11 -> 5  [label="x"];
11 -> 2  [label="y"];
11 -> 10  [label="z"];
__start0 [label="", shape=none];
__start0 -> 0  [label=""];
}
