digraph "benchmarks-true-state-lstar-rc10seeds/n_states=10-n_outputs=3-glitch_percent=0.01/910522b515f5c53c71ab58716b795ff9/pmsatLearned_NOP-N10-STOC" {
0 [label="0|a", shape=record, style=rounded];
1 [label="1|a", shape=record, style=rounded];
2 [label="2|b", shape=record, style=rounded];
3 [label="3|a", shape=record, style=rounded];
4 [label="4|c", shape=record, style=rounded];
5 [label="5|b", shape=record, style=rounded];
6 [label="6|c", shape=record, style=rounded];
7 [label="7|a", shape=record, style=rounded];
8 [label="8|c", shape=record, style=rounded];
9 [label="9|c", shape=record, style=rounded];
0 -> 3  [label="z (25)"];
0 -> 9  [label="y (77)"];
0 -> 5  [label="x (78)"];
0 -> 6  [label="!x [1]"];
1 -> 4  [label="x (8)"];
1 -> 3  [label="y (14)"];
1 -> 6  [label="z (7)"];
2 -> 7  [label="x (15)"];
2 -> 3  [label="y (10)"];
2 -> 2  [label="z (10)"];
3 -> 8  [label="x (10)"];
3 -> 0  [label="y (8)"];
3 -> 5  [label="z (8)"];
3 -> 6  [label="!y [1]"];
4 -> 1  [label="x (14)"];
4 -> 0  [label="y (13)"];
4 -> 2  [label="z (8)"];
5 -> 6  [label="x (26)"];
5 -> 1  [label="y (27)"];
5 -> 2  [label="z (22)"];
6 -> 7  [label="x (13)"];
6 -> 0  [label="y (11)"];
6 -> 2  [label="z (8)"];
7 -> 4  [label="x (11)"];
7 -> 2  [label="y (17)"];
7 -> 0  [label="z (8)"];
8 -> 0  [label="x (11)"];
8 -> 6  [label="z (8)"];
8 -> 8  [label="y (9)"];
9 -> 4  [label="x (25)"];
9 -> 7  [label="y (21)"];
9 -> 8  [label="z (21)"];
__start0 [label="", shape=none];
__start0 -> 0  [label=""];
}
