digraph "benchmarks-true-state-lstar-3seeds/n_states=8-n_outputs=4-glitch_percent=0.05/0f2e4b9491d6b2defdcb2d6c07532a84/pmsatLearned-N8-STOC" {
0 [label="0|a", shape=record, style=rounded];
1 [label="1|c", shape=record, style=rounded];
2 [label="2|d", shape=record, style=rounded];
3 [label="3|d", shape=record, style=rounded];
4 [label="4|d", shape=record, style=rounded];
5 [label="5|c", shape=record, style=rounded];
6 [label="6|d", shape=record, style=rounded];
7 [label="7|c", shape=record, style=rounded];
0 -> 2  [label="x (29)"];
0 -> 2  [label="y (7)"];
0 -> 1  [label="z (6)"];
1 -> 4  [label="z (23)"];
1 -> 0  [label="y (47)"];
1 -> 5  [label="x (75)"];
1 -> 7  [label="!x [2]"];
1 -> 6  [label="!y [1]"];
1 -> 2  [label="!x [1]"];
2 -> 6  [label="x (9)"];
2 -> 1  [label="y (13)"];
2 -> 3  [label="z (8)"];
3 -> 6  [label="x (5)"];
3 -> 5  [label="y (9)"];
3 -> 6  [label="z (4)"];
4 -> 5  [label="x (8)"];
4 -> 4  [label="y (9)"];
4 -> 6  [label="z (7)"];
5 -> 3  [label="x (25)"];
5 -> 6  [label="y (29)"];
5 -> 7  [label="z (22)"];
5 -> 2  [label="!z [2]"];
5 -> 7  [label="!x [1]"];
6 -> 6  [label="x (17)"];
6 -> 1  [label="y (17)"];
6 -> 5  [label="z (11)"];
7 -> 5  [label="y (9)"];
7 -> 6  [label="z (4)"];
7 -> 5  [label="x (4)"];
__start0 [label="", shape=none];
__start0 -> 1  [label=""];
}
