digraph "benchmarks-true-state-lstar-3seeds/n_states=17-n_outputs=9-glitch_percent=0.05/9dbf9228e2da032e5c7d48b1794a1004/RealModel" {
s1 [label="s1|d", shape=record, style=rounded];
s2 [label="s2|i", shape=record, style=rounded];
s3 [label="s3|i", shape=record, style=rounded];
s4 [label="s4|c", shape=record, style=rounded];
s5 [label="s5|d", shape=record, style=rounded];
s6 [label="s6|d", shape=record, style=rounded];
s7 [label="s7|i", shape=record, style=rounded];
s8 [label="s8|e", shape=record, style=rounded];
s9 [label="s9|g", shape=record, style=rounded];
s10 [label="s10|i", shape=record, style=rounded];
s11 [label="s11|h", shape=record, style=rounded];
s12 [label="s12|i", shape=record, style=rounded];
s13 [label="s13|i", shape=record, style=rounded];
s14 [label="s14|f", shape=record, style=rounded];
s15 [label="s15|f", shape=record, style=rounded];
s16 [label="s16|g", shape=record, style=rounded];
s17 [label="s17|e", shape=record, style=rounded];
s1 -> s14  [label="x"];
s1 -> s13  [label="y"];
s1 -> s2  [label="z"];
s2 -> s12  [label="x"];
s2 -> s7  [label="y"];
s2 -> s10  [label="z"];
s3 -> s6  [label="x"];
s3 -> s1  [label="y"];
s3 -> s15  [label="z"];
s4 -> s11  [label="x"];
s4 -> s8  [label="y"];
s4 -> s16  [label="z"];
s5 -> s6  [label="x"];
s5 -> s15  [label="y"];
s5 -> s1  [label="z"];
s6 -> s15  [label="x"];
s6 -> s1  [label="y"];
s6 -> s11  [label="z"];
s7 -> s6  [label="x"];
s7 -> s12  [label="y"];
s7 -> s15  [label="z"];
s8 -> s2  [label="x"];
s8 -> s16  [label="y"];
s8 -> s17  [label="z"];
s9 -> s2  [label="x"];
s9 -> s4  [label="y"];
s9 -> s4  [label="z"];
s10 -> s16  [label="x"];
s10 -> s4  [label="y"];
s10 -> s17  [label="z"];
s11 -> s15  [label="x"];
s11 -> s1  [label="y"];
s11 -> s14  [label="z"];
s12 -> s12  [label="x"];
s12 -> s4  [label="y"];
s12 -> s16  [label="z"];
s13 -> s9  [label="x"];
s13 -> s5  [label="y"];
s13 -> s17  [label="z"];
s14 -> s4  [label="x"];
s14 -> s3  [label="y"];
s14 -> s15  [label="z"];
s15 -> s6  [label="x"];
s15 -> s16  [label="y"];
s15 -> s1  [label="z"];
s16 -> s4  [label="x"];
s16 -> s17  [label="y"];
s16 -> s10  [label="z"];
s17 -> s14  [label="x"];
s17 -> s14  [label="y"];
s17 -> s7  [label="z"];
__start0 [label="", shape=none];
__start0 -> s1  [label=""];
}
