digraph "benchmarks-true-state-lstar-rc10seeds/n_states=13-n_outputs=7-glitch_percent=0.0/7841ea6fc5dea1255f48525f91fbe800/pmsatLearned_NOP-N13-STOC" {
0 [label="0|f", shape=record, style=rounded];
1 [label="1|b", shape=record, style=rounded];
2 [label="2|c", shape=record, style=rounded];
3 [label="3|e", shape=record, style=rounded];
4 [label="4|d", shape=record, style=rounded];
5 [label="5|g", shape=record, style=rounded];
6 [label="6|g", shape=record, style=rounded];
7 [label="7|a", shape=record, style=rounded];
8 [label="8|d", shape=record, style=rounded];
9 [label="9|d", shape=record, style=rounded];
10 [label="10|a", shape=record, style=rounded];
11 [label="11|b", shape=record, style=rounded];
12 [label="12|c", shape=record, style=rounded];
0 -> 1  [label="x (9)"];
0 -> 8  [label="y (9)"];
0 -> 4  [label="z (9)"];
1 -> 6  [label="x (20)"];
1 -> 12  [label="y (20)"];
1 -> 9  [label="z (20)"];
2 -> 1  [label="z (54)"];
2 -> 4  [label="y (54)"];
2 -> 3  [label="x (54)"];
3 -> 10  [label="x (18)"];
3 -> 0  [label="y (18)"];
3 -> 11  [label="z (18)"];
4 -> 7  [label="x (20)"];
4 -> 5  [label="y (20)"];
4 -> 8  [label="z (20)"];
5 -> 12  [label="x (6)"];
5 -> 10  [label="y (6)"];
5 -> 11  [label="z (6)"];
6 -> 7  [label="x (6)"];
6 -> 0  [label="y (6)"];
6 -> 0  [label="z (6)"];
7 -> 10  [label="x (8)"];
7 -> 2  [label="y (8)"];
7 -> 11  [label="z (8)"];
8 -> 12  [label="x (6)"];
8 -> 1  [label="y (6)"];
8 -> 6  [label="z (6)"];
9 -> 7  [label="x (6)"];
9 -> 5  [label="y (6)"];
9 -> 0  [label="z (6)"];
10 -> 0  [label="x (7)"];
10 -> 4  [label="y (7)"];
10 -> 3  [label="z (7)"];
11 -> 9  [label="x (7)"];
11 -> 4  [label="y (7)"];
11 -> 12  [label="z (7)"];
12 -> 12  [label="x (9)"];
12 -> 7  [label="y (9)"];
12 -> 1  [label="z (9)"];
__start0 [label="", shape=none];
__start0 -> 2  [label=""];
}
