digraph "benchmarks-true-state-lstar-rc10seeds/n_states=10-n_outputs=5-glitch_percent=0.02/c0509aadc032b68c04e8447f08a48531/pmsatLearned_NOP-N10" {
0 [label="0|c", shape=record, style=rounded];
1 [label="1|b", shape=record, style=rounded];
2 [label="2|d", shape=record, style=rounded];
3 [label="3|e", shape=record, style=rounded];
4 [label="4|e", shape=record, style=rounded];
5 [label="5|e", shape=record, style=rounded];
6 [label="6|a", shape=record, style=rounded];
7 [label="7|a", shape=record, style=rounded];
8 [label="8|d", shape=record, style=rounded];
9 [label="9|d", shape=record, style=rounded];
0 -> 1  [label="x"];
0 -> 6  [label="y"];
0 -> 0  [label="z"];
1 -> 6  [label="x"];
1 -> 0  [label="y"];
1 -> 4  [label="z"];
2 -> 9  [label="x"];
2 -> 0  [label="y"];
2 -> 7  [label="z"];
3 -> 8  [label="x"];
3 -> 5  [label="y"];
3 -> 1  [label="z"];
4 -> 6  [label="z"];
4 -> 2  [label="y"];
4 -> 3  [label="x"];
5 -> 5  [label="x"];
5 -> 6  [label="y"];
5 -> 5  [label="z"];
6 -> 3  [label="x"];
6 -> 2  [label="y"];
6 -> 3  [label="z"];
7 -> 0  [label="x"];
7 -> 2  [label="y"];
7 -> 3  [label="z"];
8 -> 3  [label="x"];
8 -> 8  [label="y"];
8 -> 8  [label="z"];
9 -> 5  [label="x"];
9 -> 9  [label="y"];
9 -> 8  [label="z"];
__start0 [label="", shape=none];
__start0 -> 4  [label=""];
}
