digraph "benchmarks-true-state-lstar-3seeds/n_states=13-n_outputs=7-glitch_percent=0.02/2ad6984ec72f8382b92e72674e46f2dc/alergiaLearned" {
q0 [label="e"];
q1 [label="f"];
q2 [label="b"];
q3 [label="g"];
q4 [label="d"];
q5 [label="e"];
q6 [label="f"];
q7 [label="c"];
q0 -> q1  [label="z:0.9310344827586207"];
q0 -> q3  [label="z:0.05172413793103448"];
q0 -> q0  [label="z:0.017241379310344827"];
q0 -> q2  [label="y:0.9491525423728814"];
q0 -> q4  [label="y:0.03389830508474576"];
q0 -> q1  [label="y:0.01694915254237288"];
q0 -> q3  [label="x:0.9285714285714286"];
q0 -> q0  [label="x:0.05357142857142857"];
q0 -> q1  [label="x:0.017857142857142856"];
q1 -> q5  [label="x:0.8695652173913043"];
q1 -> q4  [label="x:0.08695652173913043"];
q1 -> q1  [label="x:0.043478260869565216"];
q1 -> q4  [label="y:0.7727272727272727"];
q1 -> q1  [label="y:0.13636363636363635"];
q1 -> q0  [label="y:0.09090909090909091"];
q1 -> q6  [label="z:1.0"];
q2 -> q6  [label="x:1.0"];
q2 -> q4  [label="y:0.9473684210526315"];
q2 -> q0  [label="y:0.05263157894736842"];
q2 -> q5  [label="z:1.0"];
q3 -> q7  [label="x:0.9473684210526315"];
q3 -> q2  [label="x:0.05263157894736842"];
q3 -> q4  [label="y:1.0"];
q3 -> q6  [label="z:1.0"];
q4 -> q1  [label="z:1.0"];
q4 -> q4  [label="x:0.6"];
q4 -> q0  [label="x:0.05"];
q4 -> q2  [label="x:0.35"];
q4 -> q4  [label="y:0.2631578947368421"];
q4 -> q0  [label="y:0.3684210526315789"];
q4 -> q2  [label="y:0.3684210526315789"];
q5 -> q1  [label="x:0.5"];
q5 -> q0  [label="x:0.5"];
q5 -> q1  [label="y:0.5"];
q5 -> q2  [label="y:0.5"];
q5 -> q0  [label="z:0.5"];
q5 -> q3  [label="z:0.5"];
q6 -> q4  [label="x:0.3333333333333333"];
q6 -> q1  [label="x:0.3333333333333333"];
q6 -> q0  [label="x:0.3333333333333333"];
q6 -> q1  [label="y:0.6666666666666666"];
q6 -> q0  [label="y:0.3333333333333333"];
q6 -> q1  [label="z:1.0"];
q7 -> q1  [label="x:1.0"];
q7 -> q4  [label="y:1.0"];
q7 -> q4  [label="z:1.0"];
__start0 [label="", shape=none];
__start0 -> q0  [label=""];
}
