digraph "benchmarks-true-state-lstar-rc10seeds/n_states=17-n_outputs=6-glitch_percent=0.01/163e045bbc7ee7574f21dedbb8f2a90a/pmsatLearned_NOP-N17" {
0 [label="0|f", shape=record, style=rounded];
1 [label="1|b", shape=record, style=rounded];
2 [label="2|f", shape=record, style=rounded];
3 [label="3|f", shape=record, style=rounded];
4 [label="4|f", shape=record, style=rounded];
5 [label="5|e", shape=record, style=rounded];
6 [label="6|c", shape=record, style=rounded];
7 [label="7|e", shape=record, style=rounded];
8 [label="8|d", shape=record, style=rounded];
9 [label="9|f", shape=record, style=rounded];
10 [label="10|d", shape=record, style=rounded];
11 [label="11|d", shape=record, style=rounded];
12 [label="12|a", shape=record, style=rounded];
13 [label="13|f", shape=record, style=rounded];
14 [label="14|b", shape=record, style=rounded];
15 [label="15|a", shape=record, style=rounded];
16 [label="16|c", shape=record, style=rounded];
0 -> 13  [label="x"];
0 -> 2  [label="y"];
0 -> 3  [label="z"];
1 -> 12  [label="x"];
1 -> 16  [label="z"];
1 -> 15  [label="y"];
2 -> 7  [label="x"];
2 -> 9  [label="y"];
2 -> 1  [label="z"];
3 -> 14  [label="x"];
3 -> 16  [label="y"];
3 -> 7  [label="z"];
4 -> 14  [label="z"];
4 -> 0  [label="y"];
4 -> 11  [label="x"];
5 -> 10  [label="x"];
5 -> 13  [label="y"];
5 -> 0  [label="z"];
6 -> 8  [label="x"];
6 -> 1  [label="y"];
6 -> 5  [label="z"];
7 -> 13  [label="x"];
7 -> 7  [label="y"];
7 -> 9  [label="z"];
8 -> 6  [label="x"];
8 -> 9  [label="y"];
8 -> 8  [label="z"];
9 -> 5  [label="x"];
9 -> 1  [label="y"];
9 -> 10  [label="z"];
10 -> 1  [label="x"];
10 -> 16  [label="y"];
10 -> 12  [label="z"];
11 -> 1  [label="x"];
11 -> 9  [label="y"];
11 -> 8  [label="z"];
12 -> 10  [label="x"];
12 -> 6  [label="y"];
12 -> 7  [label="z"];
13 -> 15  [label="x"];
13 -> 12  [label="y"];
13 -> 14  [label="z"];
14 -> 7  [label="x"];
14 -> 6  [label="y"];
14 -> 10  [label="z"];
15 -> 1  [label="x"];
15 -> 12  [label="y"];
15 -> 15  [label="z"];
16 -> 9  [label="x"];
16 -> 11  [label="y"];
16 -> 0  [label="z"];
__start0 [label="", shape=none];
__start0 -> 4  [label=""];
}
