digraph "benchmarks-true-state-lstar-3seeds/n_states=2-n_outputs=2-glitch_percent=0.02/fe497320851b1370100e84f8305fd975/pmsatLearned-N2" {
0 [label="0|a", shape=record, style=rounded];
1 [label="1|b", shape=record, style=rounded];
0 -> 0  [label="x"];
0 -> 1  [label="y"];
0 -> 1  [label="z"];
1 -> 1  [label="z"];
1 -> 0  [label="x"];
1 -> 0  [label="y"];
__start0 [label="", shape=none];
__start0 -> 1  [label=""];
}
