digraph "benchmarks-true-state-lstar-3seeds/n_states=17-n_outputs=3-glitch_percent=0.0/9865865a479d43c693fbed02c8a8bff9/pmsatLearned-N17-STOC" {
0 [label="0|a", shape=record, style=rounded];
1 [label="1|b", shape=record, style=rounded];
2 [label="2|c", shape=record, style=rounded];
3 [label="3|a", shape=record, style=rounded];
4 [label="4|c", shape=record, style=rounded];
5 [label="5|a", shape=record, style=rounded];
6 [label="6|c", shape=record, style=rounded];
7 [label="7|a", shape=record, style=rounded];
8 [label="8|b", shape=record, style=rounded];
9 [label="9|b", shape=record, style=rounded];
10 [label="10|a", shape=record, style=rounded];
11 [label="11|c", shape=record, style=rounded];
12 [label="12|a", shape=record, style=rounded];
13 [label="13|c", shape=record, style=rounded];
14 [label="14|a", shape=record, style=rounded];
15 [label="15|a", shape=record, style=rounded];
16 [label="16|a", shape=record, style=rounded];
0 -> 14  [label="x (12)"];
0 -> 11  [label="y (8)"];
0 -> 16  [label="z (8)"];
1 -> 13  [label="z (82)"];
1 -> 14  [label="y (85)"];
1 -> 16  [label="x (164)"];
2 -> 15  [label="x (23)"];
2 -> 3  [label="y (17)"];
2 -> 5  [label="z (9)"];
3 -> 2  [label="x (48)"];
3 -> 11  [label="y (43)"];
3 -> 10  [label="z (28)"];
4 -> 10  [label="x (9)"];
4 -> 5  [label="y (7)"];
4 -> 12  [label="z (7)"];
5 -> 3  [label="x (31)"];
5 -> 1  [label="y (17)"];
5 -> 7  [label="z (11)"];
6 -> 9  [label="x (9)"];
6 -> 15  [label="y (7)"];
6 -> 8  [label="z (7)"];
7 -> 5  [label="x (19)"];
7 -> 5  [label="y (9)"];
7 -> 9  [label="z (9)"];
8 -> 2  [label="x (22)"];
8 -> 7  [label="y (14)"];
8 -> 11  [label="z (10)"];
9 -> 10  [label="x (18)"];
9 -> 13  [label="y (12)"];
9 -> 2  [label="z (9)"];
10 -> 8  [label="x (22)"];
10 -> 0  [label="y (14)"];
10 -> 1  [label="z (10)"];
11 -> 12  [label="x (28)"];
11 -> 10  [label="y (12)"];
11 -> 11  [label="z (12)"];
12 -> 5  [label="x (39)"];
12 -> 8  [label="y (19)"];
12 -> 16  [label="z (9)"];
13 -> 15  [label="x (31)"];
13 -> 0  [label="y (26)"];
13 -> 4  [label="z (26)"];
14 -> 9  [label="x (32)"];
14 -> 7  [label="y (32)"];
14 -> 6  [label="z (26)"];
15 -> 3  [label="x (20)"];
15 -> 11  [label="y (15)"];
15 -> 11  [label="z (9)"];
16 -> 3  [label="x (95)"];
16 -> 12  [label="y (48)"];
16 -> 8  [label="z (27)"];
__start0 [label="", shape=none];
__start0 -> 1  [label=""];
}
