digraph "benchmarks-true-state-lstar-songp/n_states=7-n_outputs=3-glitch_percent=0.05-pmstrat='fm'/f431afcd09833ef676e6c87004acc10a/pmsatLearned-N7-STOC" {
0 [label="0|a", shape=record, style=rounded];
1 [label="1|b", shape=record, style=rounded];
2 [label="2|c", shape=record, style=rounded];
3 [label="3|a", shape=record, style=rounded];
4 [label="4|c", shape=record, style=rounded];
5 [label="5|b", shape=record, style=rounded];
6 [label="6|b", shape=record, style=rounded];
0 -> 6  [label="z (17)"];
0 -> 1  [label="y (20)"];
0 -> 4  [label="x (53)"];
0 -> 5  [label="!x [1]"];
0 -> 2  [label="!z [1]"];
1 -> 5  [label="x (6)"];
1 -> 3  [label="y (6)"];
1 -> 5  [label="z (5)"];
2 -> 0  [label="y (7)"];
2 -> 4  [label="x (5)"];
2 -> 4  [label="z (6)"];
3 -> 3  [label="x (8)"];
3 -> 1  [label="y (8)"];
3 -> 0  [label="z (8)"];
4 -> 5  [label="x (19)"];
4 -> 3  [label="y (20)"];
4 -> 2  [label="z (19)"];
5 -> 5  [label="x (9)"];
5 -> 3  [label="z (9)"];
5 -> 4  [label="y (6)"];
6 -> 2  [label="x (5)"];
6 -> 5  [label="y (3)"];
6 -> 2  [label="z (4)"];
__start0 [label="", shape=none];
__start0 -> 0  [label=""];
}
