digraph "benchmarks-true-state-lstar-3seeds/n_states=8-n_outputs=2-glitch_percent=0.0/f6295e0fdc51b8d496b1ec1299ba2605/rpniGroundTruth" {
s0 [label="s0|a", shape=record, style=rounded];
s1 [label="s1|b", shape=record, style=rounded];
s2 [label="s2|b", shape=record, style=rounded];
s3 [label="s3|a", shape=record, style=rounded];
s4 [label="s4|a", shape=record, style=rounded];
s5 [label="s5|a", shape=record, style=rounded];
s6 [label="s6|b", shape=record, style=rounded];
s7 [label="s7|a", shape=record, style=rounded];
s0 -> s1  [label="z"];
s0 -> s2  [label="x"];
s0 -> s3  [label="y"];
s1 -> s1  [label="z"];
s1 -> s0  [label="y"];
s1 -> s4  [label="x"];
s2 -> s4  [label="y"];
s2 -> s5  [label="x"];
s2 -> s6  [label="z"];
s3 -> s3  [label="z"];
s3 -> s4  [label="y"];
s3 -> s7  [label="x"];
s4 -> s5  [label="x"];
s4 -> s0  [label="z"];
s4 -> s4  [label="y"];
s5 -> s4  [label="y"];
s5 -> s0  [label="x"];
s5 -> s3  [label="z"];
s6 -> s3  [label="z"];
s6 -> s6  [label="x"];
s6 -> s1  [label="y"];
s7 -> s5  [label="y"];
s7 -> s2  [label="z"];
s7 -> s1  [label="x"];
__start0 [label="", shape=none];
__start0 -> s0  [label=""];
}
