digraph "benchmarks-true-state-lstar-rc10seeds/n_states=2-n_outputs=2-glitch_percent=0.05/bde647d7a6814959b00435744552213c/pmsatLearned_NOP-N2-STOC" {
0 [label="0|a", shape=record, style=rounded];
1 [label="1|b", shape=record, style=rounded];
0 -> 1  [label="z (8)"];
0 -> 1  [label="y (7)"];
0 -> 0  [label="!z [1]"];
0 -> 1  [label="x (20)"];
1 -> 0  [label="x (6)"];
1 -> 0  [label="y (7)"];
1 -> 0  [label="z (6)"];
__start0 [label="", shape=none];
__start0 -> 0  [label=""];
}
