digraph "benchmarks-true-state-lstar-3seeds/n_states=11-n_outputs=5-glitch_percent=0.05/ee836571716cca964696177c5dfc230f/RealModel" {
s1 [label="s1|d", shape=record, style=rounded];
s2 [label="s2|e", shape=record, style=rounded];
s3 [label="s3|e", shape=record, style=rounded];
s4 [label="s4|a", shape=record, style=rounded];
s5 [label="s5|b", shape=record, style=rounded];
s6 [label="s6|d", shape=record, style=rounded];
s7 [label="s7|b", shape=record, style=rounded];
s8 [label="s8|c", shape=record, style=rounded];
s9 [label="s9|a", shape=record, style=rounded];
s10 [label="s10|b", shape=record, style=rounded];
s11 [label="s11|a", shape=record, style=rounded];
s1 -> s11  [label="x"];
s1 -> s2  [label="y"];
s1 -> s4  [label="z"];
s2 -> s10  [label="x"];
s2 -> s8  [label="y"];
s2 -> s6  [label="z"];
s3 -> s8  [label="x"];
s3 -> s8  [label="y"];
s3 -> s4  [label="z"];
s4 -> s3  [label="x"];
s4 -> s6  [label="y"];
s4 -> s2  [label="z"];
s5 -> s6  [label="x"];
s5 -> s5  [label="y"];
s5 -> s10  [label="z"];
s6 -> s6  [label="x"];
s6 -> s7  [label="y"];
s6 -> s2  [label="z"];
s7 -> s2  [label="x"];
s7 -> s10  [label="y"];
s7 -> s2  [label="z"];
s8 -> s11  [label="x"];
s8 -> s5  [label="y"];
s8 -> s1  [label="z"];
s9 -> s3  [label="x"];
s9 -> s2  [label="y"];
s9 -> s9  [label="z"];
s10 -> s5  [label="x"];
s10 -> s6  [label="y"];
s10 -> s2  [label="z"];
s11 -> s5  [label="x"];
s11 -> s9  [label="y"];
s11 -> s7  [label="z"];
__start0 [label="", shape=none];
__start0 -> s1  [label=""];
}
