digraph "benchmarks-true-state-lstar-songp/n_states=8-n_outputs=7-glitch_percent=0.05-pmstrat='fm'/b5714ffc95e9d126f3fdb255ddaa99bd/pmsatLearned-N8" {
0 [label="0|a", shape=record, style=rounded];
1 [label="1|b", shape=record, style=rounded];
2 [label="2|c", shape=record, style=rounded];
3 [label="3|d", shape=record, style=rounded];
4 [label="4|f", shape=record, style=rounded];
5 [label="5|g", shape=record, style=rounded];
6 [label="6|f", shape=record, style=rounded];
7 [label="7|c", shape=record, style=rounded];
0 -> 3  [label="z"];
0 -> 2  [label="y"];
0 -> 7  [label="x"];
1 -> 4  [label="x"];
1 -> 2  [label="y"];
1 -> 4  [label="z"];
2 -> 5  [label="x"];
2 -> 3  [label="y"];
2 -> 7  [label="z"];
3 -> 7  [label="x"];
3 -> 4  [label="y"];
3 -> 0  [label="z"];
4 -> 6  [label="x"];
4 -> 4  [label="y"];
4 -> 7  [label="z"];
5 -> 1  [label="x"];
5 -> 4  [label="y"];
5 -> 7  [label="z"];
6 -> 2  [label="x"];
6 -> 2  [label="y"];
6 -> 7  [label="z"];
7 -> 1  [label="y"];
7 -> 6  [label="x"];
7 -> 4  [label="z"];
__start0 [label="", shape=none];
__start0 -> 0  [label=""];
}
