digraph "benchmarks-true-state-lstar-songp/n_states=9-n_outputs=4-glitch_percent=0.05-pmstrat='fm'/7453f3f8e31c80caf28c20d534c06ff1/pmsatLearned-N9" {
0 [label="0|a", shape=record, style=rounded];
1 [label="1|b", shape=record, style=rounded];
2 [label="2|c", shape=record, style=rounded];
3 [label="3|d", shape=record, style=rounded];
4 [label="4|d", shape=record, style=rounded];
5 [label="5|a", shape=record, style=rounded];
6 [label="6|c", shape=record, style=rounded];
7 [label="7|d", shape=record, style=rounded];
8 [label="8|a", shape=record, style=rounded];
0 -> 4  [label="z"];
0 -> 8  [label="y"];
0 -> 3  [label="x"];
1 -> 5  [label="x"];
1 -> 1  [label="z"];
1 -> 6  [label="y"];
2 -> 7  [label="x"];
2 -> 2  [label="y"];
2 -> 0  [label="z"];
3 -> 5  [label="x"];
3 -> 7  [label="y"];
3 -> 1  [label="z"];
4 -> 2  [label="x"];
4 -> 7  [label="y"];
4 -> 1  [label="z"];
5 -> 2  [label="x"];
5 -> 1  [label="y"];
5 -> 5  [label="z"];
6 -> 0  [label="x"];
6 -> 1  [label="y"];
6 -> 0  [label="z"];
7 -> 3  [label="x"];
7 -> 1  [label="y"];
7 -> 7  [label="z"];
8 -> 2  [label="x"];
8 -> 6  [label="y"];
8 -> 2  [label="z"];
__start0 [label="", shape=none];
__start0 -> 0  [label=""];
}
