digraph "benchmarks-true-state-lstar-3seeds/n_states=14-n_outputs=9-glitch_percent=0.0/4c7244c6fbca55017ae7868418dc907d/alergiaLearned" {
q0 [label="d"];
q1 [label="i"];
q2 [label="i"];
q3 [label="h"];
q4 [label="c"];
q5 [label="f"];
q6 [label="e"];
q7 [label="i"];
q8 [label="g"];
q9 [label="d"];
q0 -> q1  [label="z:0.9661016949152542"];
q0 -> q0  [label="z:0.03389830508474576"];
q0 -> q2  [label="y:0.9830508474576272"];
q0 -> q5  [label="y:0.01694915254237288"];
q0 -> q3  [label="x:0.9577464788732394"];
q0 -> q1  [label="x:0.014084507042253521"];
q0 -> q5  [label="x:0.028169014084507043"];
q1 -> q4  [label="x:0.76"];
q1 -> q5  [label="x:0.04"];
q1 -> q1  [label="x:0.16"];
q1 -> q6  [label="x:0.04"];
q1 -> q5  [label="y:0.68"];
q1 -> q1  [label="y:0.28"];
q1 -> q0  [label="y:0.04"];
q1 -> q6  [label="z:0.68"];
q1 -> q1  [label="z:0.24"];
q1 -> q3  [label="z:0.04"];
q1 -> q0  [label="z:0.04"];
q2 -> q7  [label="x:1.0"];
q2 -> q7  [label="y:1.0"];
q2 -> q7  [label="z:1.0"];
q3 -> q8  [label="x:1.0"];
q3 -> q9  [label="y:1.0"];
q3 -> q7  [label="z:1.0"];
q4 -> q0  [label="x:1.0"];
q4 -> q6  [label="y:1.0"];
q4 -> q5  [label="z:1.0"];
q5 -> q1  [label="x:1.0"];
q5 -> q6  [label="y:1.0"];
q5 -> q0  [label="z:1.0"];
q6 -> q0  [label="x:1.0"];
q6 -> q1  [label="y:1.0"];
q6 -> q5  [label="z:1.0"];
q7 -> q6  [label="x:0.25"];
q7 -> q5  [label="x:0.25"];
q7 -> q4  [label="x:0.25"];
q7 -> q1  [label="x:0.25"];
q7 -> q1  [label="y:0.75"];
q7 -> q0  [label="y:0.25"];
q7 -> q1  [label="z:0.5"];
q7 -> q3  [label="z:0.25"];
q7 -> q0  [label="z:0.25"];
q8 -> q9  [label="x:1.0"];
q8 -> q6  [label="y:1.0"];
q8 -> q3  [label="z:1.0"];
q9 -> q5  [label="x:0.5"];
q9 -> q1  [label="x:0.5"];
q9 -> q1  [label="y:0.5"];
q9 -> q5  [label="y:0.5"];
q9 -> q0  [label="z:0.5"];
q9 -> q1  [label="z:0.5"];
__start0 [label="", shape=none];
__start0 -> q0  [label=""];
}
