digraph "benchmarks-true-state-lstar-3seeds/n_states=14-n_outputs=9-glitch_percent=0.0/4c7244c6fbca55017ae7868418dc907d/pmsatLearned-N14" {
0 [label="0|c", shape=record, style=rounded];
1 [label="1|d", shape=record, style=rounded];
2 [label="2|e", shape=record, style=rounded];
3 [label="3|f", shape=record, style=rounded];
4 [label="4|g", shape=record, style=rounded];
5 [label="5|h", shape=record, style=rounded];
6 [label="6|i", shape=record, style=rounded];
7 [label="7|i", shape=record, style=rounded];
8 [label="8|d", shape=record, style=rounded];
9 [label="9|d", shape=record, style=rounded];
10 [label="10|i", shape=record, style=rounded];
11 [label="11|i", shape=record, style=rounded];
12 [label="12|i", shape=record, style=rounded];
13 [label="13|i", shape=record, style=rounded];
0 -> 1  [label="x"];
0 -> 2  [label="y"];
0 -> 3  [label="z"];
1 -> 6  [label="z"];
1 -> 13  [label="y"];
1 -> 5  [label="x"];
2 -> 1  [label="x"];
2 -> 11  [label="y"];
2 -> 3  [label="z"];
3 -> 7  [label="x"];
3 -> 2  [label="y"];
3 -> 1  [label="z"];
4 -> 8  [label="x"];
4 -> 2  [label="y"];
4 -> 5  [label="z"];
5 -> 4  [label="x"];
5 -> 9  [label="y"];
5 -> 12  [label="z"];
6 -> 0  [label="x"];
6 -> 3  [label="y"];
6 -> 2  [label="z"];
7 -> 0  [label="x"];
7 -> 13  [label="y"];
7 -> 13  [label="z"];
8 -> 13  [label="x"];
8 -> 3  [label="y"];
8 -> 12  [label="z"];
9 -> 3  [label="x"];
9 -> 7  [label="y"];
9 -> 9  [label="z"];
10 -> 2  [label="x"];
10 -> 13  [label="y"];
10 -> 13  [label="z"];
11 -> 3  [label="x"];
11 -> 13  [label="y"];
11 -> 5  [label="z"];
12 -> 10  [label="x"];
12 -> 8  [label="y"];
12 -> 9  [label="z"];
13 -> 10  [label="x"];
13 -> 11  [label="y"];
13 -> 7  [label="z"];
__start0 [label="", shape=none];
__start0 -> 1  [label=""];
}
