digraph "benchmarks-true-state-lstar-rc10seeds/n_states=9-n_outputs=3-glitch_percent=0.0/1d15b8ab27ede11edf3277bc483bde7a/pmsatLearned_NOP-N9" {
0 [label="0|b", shape=record, style=rounded];
1 [label="1|c", shape=record, style=rounded];
2 [label="2|c", shape=record, style=rounded];
3 [label="3|b", shape=record, style=rounded];
4 [label="4|a", shape=record, style=rounded];
5 [label="5|c", shape=record, style=rounded];
6 [label="6|c", shape=record, style=rounded];
7 [label="7|c", shape=record, style=rounded];
8 [label="8|b", shape=record, style=rounded];
0 -> 8  [label="x"];
0 -> 7  [label="y"];
0 -> 3  [label="z"];
1 -> 5  [label="x"];
1 -> 6  [label="y"];
1 -> 2  [label="z"];
2 -> 4  [label="z"];
2 -> 1  [label="y"];
2 -> 0  [label="x"];
3 -> 3  [label="x"];
3 -> 0  [label="y"];
3 -> 3  [label="z"];
4 -> 8  [label="x"];
4 -> 2  [label="y"];
4 -> 3  [label="z"];
5 -> 0  [label="x"];
5 -> 1  [label="y"];
5 -> 2  [label="z"];
6 -> 3  [label="x"];
6 -> 7  [label="y"];
6 -> 8  [label="z"];
7 -> 5  [label="x"];
7 -> 8  [label="y"];
7 -> 8  [label="z"];
8 -> 5  [label="x"];
8 -> 6  [label="y"];
8 -> 5  [label="z"];
__start0 [label="", shape=none];
__start0 -> 2  [label=""];
}
