digraph "benchmarks-true-state-lstar-songp/n_states=5-n_outputs=4-glitch_percent=0.05-pmstrat='lsu'/750ecace6617e89905ca8ccb4746358a/alergiaLearned" {
q0 [label="a"];
q1 [label="c"];
q2 [label="d"];
q3 [label="c"];
q4 [label="b"];
q0 -> q1  [label="z:0.9473684210526315"];
q0 -> q2  [label="z:0.05263157894736842"];
q0 -> q2  [label="y:1.0"];
q0 -> q3  [label="x:0.9666666666666667"];
q0 -> q4  [label="x:0.03333333333333333"];
q1 -> q1  [label="x:1.0"];
q1 -> q4  [label="x:0.0"];
q1 -> q2  [label="y:1.0"];
q1 -> q1  [label="y:0.0"];
q1 -> q2  [label="z:1.0"];
q2 -> q1  [label="x:1.0"];
q2 -> q4  [label="y:1.0"];
q2 -> q1  [label="z:1.0"];
q3 -> q4  [label="x:1.0"];
q3 -> q1  [label="y:1.0"];
q3 -> q2  [label="z:0.8"];
q3 -> q0  [label="z:0.2"];
q4 -> q0  [label="z:1.0"];
q4 -> q1  [label="x:1.0"];
q4 -> q0  [label="y:1.0"];
__start0 [label="", shape=none];
__start0 -> q0  [label=""];
}
