digraph "benchmarks-true-state-lstar-rc10seeds/n_states=15-n_outputs=3-glitch_percent=0.01/09740c8c9f11e9337ae3623aaa9fb9d3/pmsatLearned_NOP-N15-STOC" {
0 [label="0|b", shape=record, style=rounded];
1 [label="1|b", shape=record, style=rounded];
2 [label="2|c", shape=record, style=rounded];
3 [label="3|c", shape=record, style=rounded];
4 [label="4|a", shape=record, style=rounded];
5 [label="5|a", shape=record, style=rounded];
6 [label="6|b", shape=record, style=rounded];
7 [label="7|b", shape=record, style=rounded];
8 [label="8|b", shape=record, style=rounded];
9 [label="9|a", shape=record, style=rounded];
10 [label="10|a", shape=record, style=rounded];
11 [label="11|b", shape=record, style=rounded];
12 [label="12|b", shape=record, style=rounded];
13 [label="13|a", shape=record, style=rounded];
14 [label="14|c", shape=record, style=rounded];
0 -> 8  [label="x (15)"];
0 -> 2  [label="y (10)"];
0 -> 2  [label="z (10)"];
1 -> 13  [label="z (68)"];
1 -> 14  [label="y (71)"];
1 -> 9  [label="x (96)"];
1 -> 2  [label="!z [1]"];
1 -> 7  [label="!x [1]"];
2 -> 14  [label="x (15)"];
2 -> 0  [label="y (10)"];
2 -> 4  [label="z (9)"];
3 -> 7  [label="x (7)"];
3 -> 1  [label="y (6)"];
3 -> 2  [label="z (5)"];
3 -> 10  [label="!z [1]"];
4 -> 11  [label="x (13)"];
4 -> 4  [label="y (12)"];
4 -> 14  [label="z (9)"];
5 -> 7  [label="x (25)"];
5 -> 8  [label="y (32)"];
5 -> 12  [label="z (7)"];
6 -> 9  [label="x (9)"];
6 -> 5  [label="y (7)"];
6 -> 0  [label="z (7)"];
7 -> 14  [label="x (9)"];
7 -> 6  [label="y (11)"];
7 -> 9  [label="z (7)"];
8 -> 11  [label="x (11)"];
8 -> 14  [label="y (15)"];
8 -> 12  [label="z (8)"];
9 -> 5  [label="x (56)"];
9 -> 12  [label="y (28)"];
9 -> 3  [label="z (23)"];
10 -> 5  [label="x (12)"];
10 -> 2  [label="y (15)"];
10 -> 0  [label="z (7)"];
10 -> 0  [label="!y [1]"];
11 -> 8  [label="x (11)"];
11 -> 4  [label="y (15)"];
11 -> 13  [label="z (9)"];
12 -> 10  [label="x (11)"];
12 -> 0  [label="y (8)"];
12 -> 9  [label="z (7)"];
13 -> 2  [label="y (22)"];
13 -> 11  [label="z (23)"];
13 -> 4  [label="x (24)"];
14 -> 10  [label="x (34)"];
14 -> 6  [label="y (32)"];
14 -> 0  [label="z (25)"];
__start0 [label="", shape=none];
__start0 -> 1  [label=""];
}
