digraph "benchmarks-true-state-lstar-3seeds/n_states=12-n_outputs=8-glitch_percent=0.01/1bd1d33c93ff3046d5236b58e4de21ce/alergiaLearned" {
q0 [label="e"];
q1 [label="h"];
q2 [label="a"];
q3 [label="h"];
q4 [label="f"];
q5 [label="g"];
q6 [label="a"];
q7 [label="c"];
q0 -> q1  [label="z:0.9767441860465116"];
q0 -> q4  [label="z:0.023255813953488372"];
q0 -> q2  [label="y:1.0"];
q0 -> q3  [label="x:1.0"];
q1 -> q5  [label="x:0.9523809523809523"];
q1 -> q7  [label="x:0.047619047619047616"];
q1 -> q4  [label="y:0.9523809523809523"];
q1 -> q7  [label="y:0.047619047619047616"];
q1 -> q4  [label="z:1.0"];
q2 -> q6  [label="x:1.0"];
q2 -> q5  [label="y:0.95"];
q2 -> q7  [label="y:0.05"];
q2 -> q7  [label="z:1.0"];
q3 -> q7  [label="x:1.0"];
q3 -> q7  [label="y:1.0"];
q3 -> q4  [label="z:1.0"];
q4 -> q0  [label="x:0.46153846153846156"];
q4 -> q1  [label="x:0.5384615384615384"];
q4 -> q1  [label="y:0.5714285714285714"];
q4 -> q7  [label="y:0.42857142857142855"];
q4 -> q5  [label="z:0.5714285714285714"];
q4 -> q7  [label="z:0.42857142857142855"];
q5 -> q5  [label="x:0.5"];
q5 -> q4  [label="x:0.5"];
q5 -> q4  [label="y:0.5"];
q5 -> q2  [label="y:0.5"];
q5 -> q5  [label="z:1.0"];
q6 -> q2  [label="x:1.0"];
q6 -> q7  [label="y:1.0"];
q6 -> q7  [label="z:1.0"];
q7 -> q1  [label="x:0.3"];
q7 -> q4  [label="x:0.3"];
q7 -> q7  [label="x:0.4"];
q7 -> q1  [label="y:0.3"];
q7 -> q5  [label="y:0.3"];
q7 -> q7  [label="y:0.4"];
q7 -> q7  [label="z:0.6"];
q7 -> q2  [label="z:0.4"];
__start0 [label="", shape=none];
__start0 -> q0  [label=""];
}
