digraph "benchmarks-true-state-lstar-rc10seeds/n_states=13-n_outputs=5-glitch_percent=0.01/a2244ec106a1644e0c5eea1d2c7025d7/pmsatLearned_NOP-N13-STOC" {
0 [label="0|b", shape=record, style=rounded];
1 [label="1|e", shape=record, style=rounded];
2 [label="2|e", shape=record, style=rounded];
3 [label="3|e", shape=record, style=rounded];
4 [label="4|b", shape=record, style=rounded];
5 [label="5|d", shape=record, style=rounded];
6 [label="6|a", shape=record, style=rounded];
7 [label="7|b", shape=record, style=rounded];
8 [label="8|a", shape=record, style=rounded];
9 [label="9|a", shape=record, style=rounded];
10 [label="10|e", shape=record, style=rounded];
11 [label="11|e", shape=record, style=rounded];
12 [label="12|a", shape=record, style=rounded];
0 -> 5  [label="z (52)"];
0 -> 12  [label="y (52)"];
0 -> 1  [label="x (52)"];
0 -> 7  [label="!x [1]"];
0 -> 3  [label="!z [1]"];
0 -> 4  [label="!y [1]"];
1 -> 6  [label="x (18)"];
1 -> 4  [label="y (17)"];
1 -> 11  [label="z (17)"];
1 -> 10  [label="!z [1]"];
2 -> 4  [label="x (7)"];
2 -> 2  [label="y (7)"];
2 -> 7  [label="z (7)"];
3 -> 4  [label="x (5)"];
3 -> 5  [label="y (6)"];
3 -> 11  [label="z (6)"];
4 -> 6  [label="x (8)"];
4 -> 7  [label="y (8)"];
4 -> 7  [label="z (8)"];
5 -> 8  [label="x (21)"];
5 -> 10  [label="y (21)"];
5 -> 3  [label="z (19)"];
5 -> 4  [label="!x [1]"];
6 -> 9  [label="x (7)"];
6 -> 7  [label="y (7)"];
6 -> 4  [label="z (7)"];
7 -> 9  [label="x (10)"];
7 -> 2  [label="y (10)"];
7 -> 11  [label="z (10)"];
8 -> 12  [label="x (5)"];
8 -> 9  [label="y (5)"];
8 -> 3  [label="z (5)"];
9 -> 5  [label="x (9)"];
9 -> 1  [label="y (9)"];
9 -> 10  [label="z (8)"];
10 -> 6  [label="x (6)"];
10 -> 5  [label="y (6)"];
10 -> 11  [label="z (7)"];
11 -> 5  [label="x (8)"];
11 -> 7  [label="y (8)"];
11 -> 9  [label="z (7)"];
12 -> 7  [label="x (17)"];
12 -> 9  [label="y (18)"];
12 -> 2  [label="z (18)"];
__start0 [label="", shape=none];
__start0 -> 0  [label=""];
}
