digraph "pmsatLearned-N15" {
0 [label="0|a", shape=record, style=rounded];
1 [label="1|b", shape=record, style=rounded];
2 [label="2|c", shape=record, style=rounded];
3 [label="3|d", shape=record, style=rounded];
4 [label="4|e", shape=record, style=rounded];
5 [label="5|b", shape=record, style=rounded];
6 [label="6|c", shape=record, style=rounded];
7 [label="7|d", shape=record, style=rounded];
8 [label="8|a", shape=record, style=rounded];
9 [label="9|a", shape=record, style=rounded];
10 [label="10|a", shape=record, style=rounded];
11 [label="11|c", shape=record, style=rounded];
12 [label="12|e", shape=record, style=rounded];
13 [label="13|b", shape=record, style=rounded];
14 [label="14|e", shape=record, style=rounded];
0 -> 4  [label="z"];
0 -> 1  [label="y"];
0 -> 3  [label="x"];
1 -> 11  [label="x"];
1 -> 8  [label="y"];
1 -> 9  [label="z"];
2 -> 1  [label="x"];
2 -> 11  [label="y"];
2 -> 1  [label="z"];
3 -> 6  [label="x"];
3 -> 12  [label="y"];
3 -> 10  [label="z"];
4 -> 14  [label="x"];
4 -> 7  [label="y"];
4 -> 5  [label="z"];
5 -> 1  [label="x"];
5 -> 6  [label="y"];
5 -> 12  [label="z"];
6 -> 13  [label="x"];
6 -> 2  [label="y"];
6 -> 7  [label="z"];
7 -> 9  [label="x"];
7 -> 7  [label="y"];
7 -> 14  [label="z"];
8 -> 11  [label="x"];
8 -> 9  [label="y"];
8 -> 9  [label="z"];
9 -> 13  [label="x"];
9 -> 13  [label="y"];
9 -> 11  [label="z"];
10 -> 13  [label="x"];
10 -> 9  [label="y"];
10 -> 2  [label="z"];
11 -> 2  [label="x"];
11 -> 0  [label="y"];
11 -> 9  [label="z"];
12 -> 7  [label="x"];
12 -> 13  [label="y"];
12 -> 9  [label="z"];
13 -> 13  [label="x"];
13 -> 7  [label="z"];
13 -> 7  [label="y"];
14 -> 13  [label="x"];
14 -> 10  [label="y"];
14 -> 13  [label="z"];
__start0 [label="", shape=none];
__start0 -> 0  [label=""];
}
