digraph "benchmarks-true-state-lstar-3seeds/n_states=7-n_outputs=4-glitch_percent=0.02/ece04615604b07f18f536859845b2159/pmsatLearned-N7" {
0 [label="0|a", shape=record, style=rounded];
1 [label="1|b", shape=record, style=rounded];
2 [label="2|c", shape=record, style=rounded];
3 [label="3|d", shape=record, style=rounded];
4 [label="4|d", shape=record, style=rounded];
5 [label="5|c", shape=record, style=rounded];
6 [label="6|b", shape=record, style=rounded];
0 -> 3  [label="z"];
0 -> 1  [label="y"];
0 -> 4  [label="x"];
1 -> 1  [label="x"];
1 -> 2  [label="y"];
1 -> 4  [label="z"];
2 -> 4  [label="x"];
2 -> 3  [label="y"];
2 -> 5  [label="z"];
3 -> 2  [label="x"];
3 -> 6  [label="y"];
3 -> 6  [label="z"];
4 -> 6  [label="x"];
4 -> 5  [label="y"];
4 -> 2  [label="z"];
5 -> 1  [label="x"];
5 -> 0  [label="y"];
5 -> 3  [label="z"];
6 -> 1  [label="x"];
6 -> 1  [label="y"];
6 -> 4  [label="z"];
__start0 [label="", shape=none];
__start0 -> 0  [label=""];
}
