digraph "benchmarks-true-state-lstar-3seeds/n_states=7-n_outputs=2-glitch_percent=0.0/59b4db07f847e81116b179d28e114f40/alergiaLearned" {
q0 [label="a"];
q1 [label="a"];
q2 [label="b"];
q3 [label="b"];
q0 -> q1  [label="z:0.9523809523809523"];
q0 -> q2  [label="z:0.047619047619047616"];
q0 -> q2  [label="y:0.9523809523809523"];
q0 -> q0  [label="y:0.047619047619047616"];
q0 -> q3  [label="x:0.9824561403508771"];
q0 -> q0  [label="x:0.017543859649122806"];
q1 -> q0  [label="x:0.6666666666666666"];
q1 -> q2  [label="x:0.3333333333333333"];
q1 -> q2  [label="y:0.3888888888888889"];
q1 -> q0  [label="y:0.6111111111111112"];
q1 -> q0  [label="z:0.6666666666666666"];
q1 -> q2  [label="z:0.3333333333333333"];
q2 -> q1  [label="x:0.9230769230769231"];
q2 -> q2  [label="x:0.07692307692307693"];
q2 -> q1  [label="y:0.5384615384615384"];
q2 -> q2  [label="y:0.46153846153846156"];
q2 -> q2  [label="z:0.46153846153846156"];
q2 -> q0  [label="z:0.5384615384615384"];
q3 -> q2  [label="x:1.0"];
q3 -> q1  [label="y:1.0"];
q3 -> q1  [label="z:1.0"];
__start0 [label="", shape=none];
__start0 -> q0  [label=""];
}
