digraph "benchmarks-true-state-lstar-3seeds/n_states=7-n_outputs=2-glitch_percent=0.1/ebf0d090379d66a9268d3049ea83d355/RealModel" {
s1 [label="s1|a", shape=record, style=rounded];
s2 [label="s2|b", shape=record, style=rounded];
s3 [label="s3|b", shape=record, style=rounded];
s4 [label="s4|b", shape=record, style=rounded];
s5 [label="s5|b", shape=record, style=rounded];
s6 [label="s6|a", shape=record, style=rounded];
s7 [label="s7|a", shape=record, style=rounded];
s1 -> s3  [label="x"];
s1 -> s5  [label="y"];
s1 -> s4  [label="z"];
s2 -> s5  [label="x"];
s2 -> s7  [label="y"];
s2 -> s6  [label="z"];
s3 -> s6  [label="x"];
s3 -> s2  [label="y"];
s3 -> s7  [label="z"];
s4 -> s4  [label="x"];
s4 -> s2  [label="y"];
s4 -> s2  [label="z"];
s5 -> s1  [label="x"];
s5 -> s3  [label="y"];
s5 -> s2  [label="z"];
s6 -> s2  [label="x"];
s6 -> s2  [label="y"];
s6 -> s3  [label="z"];
s7 -> s7  [label="x"];
s7 -> s3  [label="y"];
s7 -> s5  [label="z"];
__start0 [label="", shape=none];
__start0 -> s1  [label=""];
}
