digraph "benchmarks-true-state-lstar-3seeds/n_states=12-n_outputs=5-glitch_percent=0.0/da682884f4b75e289c13b54ea7b17363/RealModel" {
s1 [label="s1|e", shape=record, style=rounded];
s2 [label="s2|c", shape=record, style=rounded];
s3 [label="s3|b", shape=record, style=rounded];
s4 [label="s4|e", shape=record, style=rounded];
s5 [label="s5|e", shape=record, style=rounded];
s6 [label="s6|c", shape=record, style=rounded];
s7 [label="s7|e", shape=record, style=rounded];
s8 [label="s8|b", shape=record, style=rounded];
s9 [label="s9|d", shape=record, style=rounded];
s10 [label="s10|b", shape=record, style=rounded];
s11 [label="s11|b", shape=record, style=rounded];
s12 [label="s12|a", shape=record, style=rounded];
s1 -> s9  [label="x"];
s1 -> s5  [label="y"];
s1 -> s6  [label="z"];
s2 -> s6  [label="x"];
s2 -> s2  [label="y"];
s2 -> s4  [label="z"];
s3 -> s5  [label="x"];
s3 -> s6  [label="y"];
s3 -> s12  [label="z"];
s4 -> s11  [label="x"];
s4 -> s3  [label="y"];
s4 -> s3  [label="z"];
s5 -> s2  [label="x"];
s5 -> s7  [label="y"];
s5 -> s11  [label="z"];
s6 -> s10  [label="x"];
s6 -> s12  [label="y"];
s6 -> s8  [label="z"];
s7 -> s5  [label="x"];
s7 -> s5  [label="y"];
s7 -> s11  [label="z"];
s8 -> s1  [label="x"];
s8 -> s12  [label="y"];
s8 -> s9  [label="z"];
s9 -> s4  [label="x"];
s9 -> s8  [label="y"];
s9 -> s3  [label="z"];
s10 -> s11  [label="x"];
s10 -> s3  [label="y"];
s10 -> s6  [label="z"];
s11 -> s1  [label="x"];
s11 -> s10  [label="y"];
s11 -> s5  [label="z"];
s12 -> s11  [label="x"];
s12 -> s7  [label="y"];
s12 -> s3  [label="z"];
__start0 [label="", shape=none];
__start0 -> s1  [label=""];
}
