digraph "benchmarks-true-state-lstar-3seeds/n_states=14-n_outputs=3-glitch_percent=0.02/904ace737282a61f740cbd26b44ba60a/pmsatLearned-N14" {
0 [label="0|a", shape=record, style=rounded];
1 [label="1|b", shape=record, style=rounded];
2 [label="2|c", shape=record, style=rounded];
3 [label="3|c", shape=record, style=rounded];
4 [label="4|b", shape=record, style=rounded];
5 [label="5|a", shape=record, style=rounded];
6 [label="6|a", shape=record, style=rounded];
7 [label="7|c", shape=record, style=rounded];
8 [label="8|b", shape=record, style=rounded];
9 [label="9|b", shape=record, style=rounded];
10 [label="10|a", shape=record, style=rounded];
11 [label="11|b", shape=record, style=rounded];
12 [label="12|a", shape=record, style=rounded];
13 [label="13|c", shape=record, style=rounded];
0 -> 8  [label="z"];
0 -> 11  [label="y"];
0 -> 5  [label="x"];
1 -> 11  [label="x"];
1 -> 2  [label="y"];
1 -> 1  [label="z"];
2 -> 1  [label="x"];
2 -> 13  [label="y"];
2 -> 6  [label="z"];
3 -> 2  [label="x"];
3 -> 3  [label="y"];
3 -> 5  [label="z"];
4 -> 0  [label="x"];
4 -> 7  [label="y"];
4 -> 2  [label="z"];
5 -> 7  [label="x"];
5 -> 1  [label="y"];
5 -> 3  [label="z"];
6 -> 3  [label="x"];
6 -> 4  [label="y"];
6 -> 7  [label="z"];
7 -> 13  [label="x"];
7 -> 1  [label="y"];
7 -> 9  [label="z"];
8 -> 2  [label="x"];
8 -> 12  [label="y"];
8 -> 9  [label="z"];
9 -> 11  [label="x"];
9 -> 6  [label="y"];
9 -> 4  [label="z"];
10 -> 2  [label="x"];
10 -> 6  [label="y"];
10 -> 6  [label="z"];
11 -> 6  [label="x"];
11 -> 10  [label="y"];
11 -> 4  [label="z"];
12 -> 12  [label="x"];
12 -> 7  [label="y"];
12 -> 5  [label="z"];
13 -> 13  [label="x"];
13 -> 6  [label="y"];
13 -> 13  [label="z"];
__start0 [label="", shape=none];
__start0 -> 0  [label=""];
}
