digraph "benchmarks-true-state-lstar-3seeds/n_states=5-n_outputs=5-glitch_percent=0.0/486b66602abe903d6259380883786bb9/RealModel" {
s1 [label="s1|e", shape=record, style=rounded];
s2 [label="s2|c", shape=record, style=rounded];
s3 [label="s3|b", shape=record, style=rounded];
s4 [label="s4|e", shape=record, style=rounded];
s5 [label="s5|e", shape=record, style=rounded];
s1 -> s4  [label="x"];
s1 -> s5  [label="y"];
s1 -> s2  [label="z"];
s2 -> s2  [label="x"];
s2 -> s5  [label="y"];
s2 -> s5  [label="z"];
s3 -> s5  [label="x"];
s3 -> s2  [label="y"];
s3 -> s4  [label="z"];
s4 -> s3  [label="x"];
s4 -> s2  [label="y"];
s4 -> s2  [label="z"];
s5 -> s1  [label="x"];
s5 -> s4  [label="y"];
s5 -> s2  [label="z"];
__start0 [label="", shape=none];
__start0 -> s1  [label=""];
}
