digraph "benchmarks-true-state-lstar-rc10seeds/n_states=15-n_outputs=5-glitch_percent=0.01/3259d2cea003bbb7a3c52332be7f9109/pmsatLearned_NOP-N15" {
0 [label="0|a", shape=record, style=rounded];
1 [label="1|d", shape=record, style=rounded];
2 [label="2|c", shape=record, style=rounded];
3 [label="3|c", shape=record, style=rounded];
4 [label="4|d", shape=record, style=rounded];
5 [label="5|d", shape=record, style=rounded];
6 [label="6|e", shape=record, style=rounded];
7 [label="7|a", shape=record, style=rounded];
8 [label="8|c", shape=record, style=rounded];
9 [label="9|b", shape=record, style=rounded];
10 [label="10|a", shape=record, style=rounded];
11 [label="11|b", shape=record, style=rounded];
12 [label="12|d", shape=record, style=rounded];
13 [label="13|b", shape=record, style=rounded];
14 [label="14|a", shape=record, style=rounded];
0 -> 14  [label="x"];
0 -> 5  [label="y"];
0 -> 0  [label="z"];
1 -> 10  [label="x"];
1 -> 2  [label="y"];
1 -> 7  [label="z"];
2 -> 11  [label="z"];
2 -> 13  [label="y"];
2 -> 5  [label="x"];
3 -> 6  [label="x"];
3 -> 8  [label="y"];
3 -> 14  [label="z"];
4 -> 5  [label="x"];
4 -> 7  [label="y"];
4 -> 0  [label="z"];
5 -> 14  [label="x"];
5 -> 1  [label="y"];
5 -> 4  [label="z"];
6 -> 3  [label="x"];
6 -> 0  [label="y"];
6 -> 12  [label="z"];
7 -> 1  [label="x"];
7 -> 6  [label="y"];
7 -> 12  [label="z"];
8 -> 11  [label="x"];
8 -> 7  [label="y"];
8 -> 7  [label="z"];
9 -> 6  [label="x"];
9 -> 0  [label="y"];
9 -> 9  [label="z"];
10 -> 11  [label="x"];
10 -> 9  [label="y"];
10 -> 3  [label="z"];
11 -> 9  [label="x"];
11 -> 10  [label="y"];
11 -> 3  [label="z"];
12 -> 1  [label="x"];
12 -> 9  [label="y"];
12 -> 6  [label="z"];
13 -> 0  [label="x"];
13 -> 8  [label="y"];
13 -> 12  [label="z"];
14 -> 7  [label="x"];
14 -> 14  [label="z"];
14 -> 6  [label="y"];
__start0 [label="", shape=none];
__start0 -> 2  [label=""];
}
