digraph "benchmarks-true-state-lstar-rc10seeds/n_states=10-n_outputs=8-glitch_percent=0.02/d3bd9ad4a901c8fd440196604bc4c94f/pmsatLearned_NOP-N10-STOC" {
0 [label="0|g", shape=record, style=rounded];
1 [label="1|b", shape=record, style=rounded];
2 [label="2|a", shape=record, style=rounded];
3 [label="3|e", shape=record, style=rounded];
4 [label="4|b", shape=record, style=rounded];
5 [label="5|a", shape=record, style=rounded];
6 [label="6|h", shape=record, style=rounded];
7 [label="7|f", shape=record, style=rounded];
8 [label="8|f", shape=record, style=rounded];
9 [label="9|c", shape=record, style=rounded];
0 -> 7  [label="x (6)"];
0 -> 6  [label="y (5)"];
0 -> 8  [label="z (6)"];
1 -> 6  [label="z (18)"];
1 -> 5  [label="y (53)"];
1 -> 7  [label="x (53)"];
1 -> 2  [label="!z [1]"];
2 -> 6  [label="x (9)"];
2 -> 1  [label="y (9)"];
2 -> 2  [label="z (9)"];
3 -> 5  [label="y (5)"];
3 -> 5  [label="z (5)"];
3 -> 2  [label="x (4)"];
4 -> 9  [label="x (6)"];
4 -> 6  [label="y (5)"];
4 -> 4  [label="z (6)"];
5 -> 4  [label="x (17)"];
5 -> 0  [label="y (19)"];
5 -> 9  [label="z (18)"];
5 -> 6  [label="!y [1]"];
6 -> 0  [label="x (10)"];
6 -> 7  [label="y (10)"];
6 -> 2  [label="z (10)"];
7 -> 3  [label="x (18)"];
7 -> 8  [label="y (19)"];
7 -> 2  [label="z (17)"];
7 -> 2  [label="!x [1]"];
8 -> 8  [label="x (7)"];
8 -> 2  [label="y (7)"];
8 -> 6  [label="z (7)"];
9 -> 9  [label="x (8)"];
9 -> 6  [label="y (8)"];
9 -> 9  [label="z (8)"];
__start0 [label="", shape=none];
__start0 -> 1  [label=""];
}
