digraph "benchmarks-true-state-lstar-3seeds/n_states=11-n_outputs=8-glitch_percent=0.01/93e394aa7aab541b6ef39013435a6b24/pmsatLearned-N11-STOC" {
0 [label="0|b", shape=record, style=rounded];
1 [label="1|c", shape=record, style=rounded];
2 [label="2|d", shape=record, style=rounded];
3 [label="3|e", shape=record, style=rounded];
4 [label="4|f", shape=record, style=rounded];
5 [label="5|g", shape=record, style=rounded];
6 [label="6|h", shape=record, style=rounded];
7 [label="7|c", shape=record, style=rounded];
8 [label="8|d", shape=record, style=rounded];
9 [label="9|c", shape=record, style=rounded];
10 [label="10|d", shape=record, style=rounded];
0 -> 4  [label="x (6)"];
0 -> 2  [label="y (6)"];
0 -> 5  [label="z (6)"];
1 -> 3  [label="x (8)"];
1 -> 3  [label="y (8)"];
1 -> 4  [label="z (8)"];
2 -> 1  [label="x (18)"];
2 -> 3  [label="y (18)"];
2 -> 7  [label="z (17)"];
3 -> 6  [label="x (9)"];
3 -> 5  [label="y (8)"];
3 -> 1  [label="z (9)"];
3 -> 5  [label="!x [1]"];
4 -> 8  [label="z (31)"];
4 -> 10  [label="y (54)"];
4 -> 2  [label="x (54)"];
4 -> 5  [label="!x [1]"];
4 -> 7  [label="!z [1]"];
5 -> 5  [label="x (9)"];
5 -> 5  [label="y (9)"];
5 -> 10  [label="z (8)"];
6 -> 10  [label="x (6)"];
6 -> 9  [label="y (6)"];
6 -> 3  [label="z (6)"];
7 -> 1  [label="x (6)"];
7 -> 7  [label="y (6)"];
7 -> 8  [label="z (6)"];
8 -> 6  [label="x (18)"];
8 -> 0  [label="y (6)"];
8 -> 10  [label="z (6)"];
9 -> 10  [label="x (6)"];
9 -> 3  [label="y (6)"];
9 -> 1  [label="z (6)"];
10 -> 5  [label="x (19)"];
10 -> 0  [label="y (21)"];
10 -> 9  [label="z (21)"];
__start0 [label="", shape=none];
__start0 -> 4  [label=""];
}
