digraph "benchmarks-true-state-lstar-3seeds/n_states=11-n_outputs=8-glitch_percent=0.01/93e394aa7aab541b6ef39013435a6b24/pmsatLearned-N11" {
0 [label="0|b", shape=record, style=rounded];
1 [label="1|c", shape=record, style=rounded];
2 [label="2|d", shape=record, style=rounded];
3 [label="3|e", shape=record, style=rounded];
4 [label="4|f", shape=record, style=rounded];
5 [label="5|g", shape=record, style=rounded];
6 [label="6|h", shape=record, style=rounded];
7 [label="7|c", shape=record, style=rounded];
8 [label="8|d", shape=record, style=rounded];
9 [label="9|c", shape=record, style=rounded];
10 [label="10|d", shape=record, style=rounded];
0 -> 4  [label="x"];
0 -> 2  [label="y"];
0 -> 5  [label="z"];
1 -> 3  [label="x"];
1 -> 3  [label="y"];
1 -> 4  [label="z"];
2 -> 1  [label="x"];
2 -> 3  [label="y"];
2 -> 7  [label="z"];
3 -> 6  [label="x"];
3 -> 5  [label="y"];
3 -> 1  [label="z"];
4 -> 8  [label="z"];
4 -> 10  [label="y"];
4 -> 2  [label="x"];
5 -> 5  [label="x"];
5 -> 5  [label="y"];
5 -> 10  [label="z"];
6 -> 10  [label="x"];
6 -> 9  [label="y"];
6 -> 3  [label="z"];
7 -> 1  [label="x"];
7 -> 7  [label="y"];
7 -> 8  [label="z"];
8 -> 6  [label="x"];
8 -> 0  [label="y"];
8 -> 10  [label="z"];
9 -> 10  [label="x"];
9 -> 3  [label="y"];
9 -> 1  [label="z"];
10 -> 5  [label="x"];
10 -> 0  [label="y"];
10 -> 9  [label="z"];
__start0 [label="", shape=none];
__start0 -> 4  [label=""];
}
