digraph "benchmarks-true-state-lstar-songp/n_states=13-n_outputs=7-glitch_percent=0.01-pmstrat='rc2'/07508c614e6db78e86de1077f3a68468/alergiaLearned" {
q0 [label="a"];
q1 [label="c"];
q2 [label="d"];
q3 [label="f"];
q4 [label="g"];
q5 [label="f"];
q6 [label="d"];
q7 [label="b"];
q8 [label="a"];
q9 [label="e"];
q10 [label="c"];
q0 -> q1  [label="z:0.9821428571428571"];
q0 -> q3  [label="z:0.017857142857142856"];
q0 -> q2  [label="y:1.0"];
q0 -> q3  [label="x:0.9824561403508771"];
q0 -> q4  [label="x:0.017543859649122806"];
q1 -> q4  [label="x:0.875"];
q1 -> q3  [label="x:0.125"];
q1 -> q5  [label="y:1.0"];
q1 -> q6  [label="z:0.875"];
q1 -> q3  [label="z:0.125"];
q2 -> q7  [label="x:1.0"];
q2 -> q8  [label="y:1.0"];
q2 -> q5  [label="z:1.0"];
q3 -> q9  [label="x:0.76"];
q3 -> q3  [label="x:0.24"];
q3 -> q4  [label="y:0.76"];
q3 -> q0  [label="y:0.2"];
q3 -> q1  [label="y:0.04"];
q3 -> q10  [label="z:0.84"];
q3 -> q3  [label="z:0.16"];
q4 -> q0  [label="x:0.38461538461538464"];
q4 -> q3  [label="x:0.6153846153846154"];
q4 -> q4  [label="y:0.38461538461538464"];
q4 -> q1  [label="y:0.6153846153846154"];
q4 -> q0  [label="z:0.38461538461538464"];
q4 -> q3  [label="z:0.6153846153846154"];
q5 -> q3  [label="x:1.0"];
q5 -> q0  [label="y:0.5"];
q5 -> q1  [label="y:0.5"];
q5 -> q3  [label="z:0.5555555555555556"];
q5 -> q1  [label="z:0.4444444444444444"];
q6 -> q7  [label="x:1.0"];
q6 -> q7  [label="y:1.0"];
q6 -> q1  [label="z:1.0"];
q7 -> q9  [label="x:1.0"];
q7 -> q1  [label="y:1.0"];
q7 -> q4  [label="z:1.0"];
q8 -> q3  [label="x:1.0"];
q8 -> q7  [label="y:1.0"];
q8 -> q4  [label="z:1.0"];
q9 -> q1  [label="x:1.0"];
q9 -> q1  [label="y:0.8571428571428571"];
q9 -> q3  [label="y:0.14285714285714285"];
q9 -> q1  [label="z:1.0"];
q10 -> q3  [label="x:1.0"];
q10 -> q3  [label="y:1.0"];
q10 -> q3  [label="z:0.8333333333333334"];
q10 -> q2  [label="z:0.16666666666666666"];
__start0 [label="", shape=none];
__start0 -> q0  [label=""];
}
