digraph "benchmarks-true-state-lstar-3seeds/n_states=11-n_outputs=9-glitch_percent=0.1/75774803c63d25aa82a54d1881c94268/pmsatLearned-N11-STOC" {
0 [label="0|a", shape=record, style=rounded];
1 [label="1|b", shape=record, style=rounded];
2 [label="2|c", shape=record, style=rounded];
3 [label="3|d", shape=record, style=rounded];
4 [label="4|e", shape=record, style=rounded];
5 [label="5|g", shape=record, style=rounded];
6 [label="6|i", shape=record, style=rounded];
7 [label="7|i", shape=record, style=rounded];
8 [label="8|d", shape=record, style=rounded];
9 [label="9|b", shape=record, style=rounded];
10 [label="10|g", shape=record, style=rounded];
0 -> 7  [label="y (4)"];
0 -> 0  [label="z (5)"];
0 -> 6  [label="x (5)"];
1 -> 6  [label="x (17)"];
1 -> 10  [label="y (5)"];
1 -> 7  [label="z (7)"];
1 -> 8  [label="!y [1]"];
2 -> 10  [label="x (6)"];
2 -> 2  [label="y (8)"];
2 -> 8  [label="z (8)"];
2 -> 7  [label="!z [1]"];
3 -> 7  [label="z (6)"];
3 -> 8  [label="y (5)"];
3 -> 7  [label="x (5)"];
4 -> 5  [label="z (7)"];
4 -> 9  [label="x (5)"];
4 -> 2  [label="y (4)"];
5 -> 1  [label="z (28)"];
5 -> 3  [label="!z [1]"];
5 -> 7  [label="y (49)"];
5 -> 9  [label="x (45)"];
5 -> 8  [label="!x [1]"];
5 -> 10  [label="!z [2]"];
5 -> 1  [label="!x [3]"];
5 -> 0  [label="!y [1]"];
6 -> 4  [label="x (6)"];
6 -> 4  [label="y (4)"];
6 -> 1  [label="z (6)"];
6 -> 9  [label="!x [1]"];
7 -> 8  [label="x (17)"];
7 -> 4  [label="y (21)"];
7 -> 10  [label="z (18)"];
7 -> 2  [label="!y [1]"];
7 -> 7  [label="!z [1]"];
7 -> 2  [label="!x [1]"];
8 -> 2  [label="x (6)"];
8 -> 10  [label="y (4)"];
8 -> 7  [label="z (4)"];
8 -> 5  [label="!x [1]"];
8 -> 3  [label="!y [1]"];
9 -> 3  [label="z (14)"];
9 -> 0  [label="y (12)"];
9 -> 6  [label="!x [1]"];
9 -> 2  [label="x (17)"];
9 -> 6  [label="!y [1]"];
10 -> 10  [label="x (8)"];
10 -> 7  [label="z (8)"];
10 -> 3  [label="y (6)"];
__start0 [label="", shape=none];
__start0 -> 5  [label=""];
}
