digraph "benchmarks-true-state-lstar-3seeds/n_states=17-n_outputs=3-glitch_percent=0.0/bd90710d4bf08e602c87ec593af16507/pmsatLearned-N17" {
0 [label="0|a", shape=record, style=rounded];
1 [label="1|b", shape=record, style=rounded];
2 [label="2|c", shape=record, style=rounded];
3 [label="3|a", shape=record, style=rounded];
4 [label="4|c", shape=record, style=rounded];
5 [label="5|c", shape=record, style=rounded];
6 [label="6|b", shape=record, style=rounded];
7 [label="7|b", shape=record, style=rounded];
8 [label="8|b", shape=record, style=rounded];
9 [label="9|a", shape=record, style=rounded];
10 [label="10|c", shape=record, style=rounded];
11 [label="11|b", shape=record, style=rounded];
12 [label="12|a", shape=record, style=rounded];
13 [label="13|b", shape=record, style=rounded];
14 [label="14|a", shape=record, style=rounded];
15 [label="15|c", shape=record, style=rounded];
16 [label="16|b", shape=record, style=rounded];
0 -> 0  [label="x"];
0 -> 16  [label="y"];
0 -> 3  [label="z"];
1 -> 14  [label="z"];
1 -> 6  [label="y"];
1 -> 3  [label="x"];
2 -> 0  [label="x"];
2 -> 4  [label="y"];
2 -> 11  [label="z"];
3 -> 2  [label="x"];
3 -> 7  [label="y"];
3 -> 13  [label="z"];
4 -> 1  [label="x"];
4 -> 0  [label="y"];
4 -> 1  [label="z"];
5 -> 7  [label="x"];
5 -> 5  [label="y"];
5 -> 4  [label="z"];
6 -> 15  [label="x"];
6 -> 12  [label="y"];
6 -> 5  [label="z"];
7 -> 10  [label="x"];
7 -> 6  [label="y"];
7 -> 11  [label="z"];
8 -> 5  [label="x"];
8 -> 9  [label="y"];
8 -> 4  [label="z"];
9 -> 16  [label="x"];
9 -> 10  [label="y"];
9 -> 13  [label="z"];
10 -> 2  [label="x"];
10 -> 5  [label="y"];
10 -> 3  [label="z"];
11 -> 4  [label="x"];
11 -> 9  [label="y"];
11 -> 6  [label="z"];
12 -> 12  [label="x"];
12 -> 3  [label="y"];
12 -> 14  [label="z"];
13 -> 14  [label="x"];
13 -> 4  [label="y"];
13 -> 5  [label="z"];
14 -> 8  [label="x"];
14 -> 16  [label="y"];
14 -> 9  [label="z"];
15 -> 7  [label="x"];
15 -> 12  [label="y"];
15 -> 14  [label="z"];
16 -> 16  [label="x"];
16 -> 3  [label="y"];
16 -> 9  [label="z"];
__start0 [label="", shape=none];
__start0 -> 1  [label=""];
}
