digraph "benchmarks-true-state-lstar-rc10seeds/n_states=7-n_outputs=5-glitch_percent=0.05/fddc9d381d582c14678b709f91f134f3/pmsatLearned_NOP-N7" {
0 [label="0|a", shape=record, style=rounded];
1 [label="1|a", shape=record, style=rounded];
2 [label="2|e", shape=record, style=rounded];
3 [label="3|c", shape=record, style=rounded];
4 [label="4|d", shape=record, style=rounded];
5 [label="5|e", shape=record, style=rounded];
6 [label="6|c", shape=record, style=rounded];
0 -> 5  [label="z"];
0 -> 4  [label="y"];
0 -> 3  [label="x"];
1 -> 4  [label="x"];
1 -> 6  [label="y"];
1 -> 4  [label="z"];
2 -> 1  [label="x"];
2 -> 0  [label="y"];
2 -> 3  [label="z"];
3 -> 1  [label="x"];
3 -> 2  [label="y"];
3 -> 6  [label="z"];
4 -> 5  [label="x"];
4 -> 6  [label="y"];
4 -> 6  [label="z"];
5 -> 3  [label="x"];
5 -> 2  [label="y"];
5 -> 6  [label="z"];
6 -> 5  [label="x"];
6 -> 3  [label="y"];
6 -> 0  [label="z"];
__start0 [label="", shape=none];
__start0 -> 0  [label=""];
}
