digraph "benchmarks-true-state-lstar-3seeds/n_states=10-n_outputs=9-glitch_percent=0.05/b12e18a42d5de9d9e521e2eace982c74/alergiaLearned" {
q0 [label="e"];
q1 [label="e"];
q2 [label="e"];
q3 [label="g"];
q4 [label="f"];
q5 [label="b"];
q6 [label="h"];
q7 [label="a"];
q0 -> q1  [label="z:0.9166666666666666"];
q0 -> q5  [label="z:0.08333333333333333"];
q0 -> q2  [label="y:0.864406779661017"];
q0 -> q4  [label="y:0.06779661016949153"];
q0 -> q6  [label="y:0.06779661016949153"];
q0 -> q3  [label="x:0.8909090909090909"];
q0 -> q6  [label="x:0.03636363636363636"];
q0 -> q5  [label="x:0.07272727272727272"];
q1 -> q5  [label="x:1.0"];
q1 -> q6  [label="y:1.0"];
q1 -> q0  [label="z:1.0"];
q2 -> q6  [label="x:0.9411764705882353"];
q2 -> q5  [label="x:0.058823529411764705"];
q2 -> q4  [label="y:1.0"];
q2 -> q5  [label="z:1.0"];
q3 -> q6  [label="x:1.0"];
q3 -> q7  [label="y:1.0"];
q3 -> q5  [label="z:1.0"];
q4 -> q4  [label="y:1.0"];
q4 -> q6  [label="x:0.14285714285714285"];
q4 -> q3  [label="x:0.8571428571428571"];
q4 -> q3  [label="z:1.0"];
q5 -> q6  [label="y:0.6363636363636364"];
q5 -> q0  [label="y:0.36363636363636365"];
q5 -> q0  [label="x:1.0"];
q5 -> q0  [label="z:1.0"];
q6 -> q3  [label="y:0.6363636363636364"];
q6 -> q0  [label="y:0.36363636363636365"];
q6 -> q4  [label="x:0.7"];
q6 -> q5  [label="x:0.3"];
q6 -> q6  [label="z:0.5"];
q6 -> q0  [label="z:0.5"];
q7 -> q4  [label="x:0.8333333333333334"];
q7 -> q3  [label="x:0.16666666666666666"];
q7 -> q6  [label="y:1.0"];
q7 -> q0  [label="z:1.0"];
__start0 [label="", shape=none];
__start0 -> q0  [label=""];
}
