digraph "benchmarks-true-state-lstar-3seeds/n_states=13-n_outputs=7-glitch_percent=0.02/c5e6744d942896865a26933a46d2df0a/pmsatLearned-N13" {
0 [label="0|a", shape=record, style=rounded];
1 [label="1|b", shape=record, style=rounded];
2 [label="2|c", shape=record, style=rounded];
3 [label="3|d", shape=record, style=rounded];
4 [label="4|e", shape=record, style=rounded];
5 [label="5|f", shape=record, style=rounded];
6 [label="6|g", shape=record, style=rounded];
7 [label="7|d", shape=record, style=rounded];
8 [label="8|g", shape=record, style=rounded];
9 [label="9|c", shape=record, style=rounded];
10 [label="10|b", shape=record, style=rounded];
11 [label="11|a", shape=record, style=rounded];
12 [label="12|d", shape=record, style=rounded];
0 -> 11  [label="x"];
0 -> 2  [label="y"];
0 -> 1  [label="z"];
1 -> 12  [label="x"];
1 -> 7  [label="y"];
1 -> 9  [label="z"];
2 -> 10  [label="z"];
2 -> 7  [label="y"];
2 -> 4  [label="x"];
3 -> 9  [label="x"];
3 -> 10  [label="y"];
3 -> 6  [label="z"];
4 -> 11  [label="x"];
4 -> 5  [label="y"];
4 -> 1  [label="z"];
5 -> 10  [label="x"];
5 -> 3  [label="y"];
5 -> 7  [label="z"];
6 -> 0  [label="x"];
6 -> 5  [label="y"];
6 -> 5  [label="z"];
7 -> 0  [label="x"];
7 -> 8  [label="y"];
7 -> 3  [label="z"];
8 -> 9  [label="x"];
8 -> 11  [label="y"];
8 -> 1  [label="z"];
9 -> 9  [label="x"];
9 -> 0  [label="y"];
9 -> 10  [label="z"];
10 -> 6  [label="x"];
10 -> 9  [label="y"];
10 -> 12  [label="z"];
11 -> 5  [label="x"];
11 -> 7  [label="y"];
11 -> 4  [label="z"];
12 -> 0  [label="x"];
12 -> 8  [label="y"];
12 -> 5  [label="z"];
__start0 [label="", shape=none];
__start0 -> 2  [label=""];
}
