digraph "benchmarks-true-state-lstar-songp/n_states=2-n_outputs=2-glitch_percent=0.1-pmstrat='fm'/cf8113c5e7c228cefded4cd7a6b8d2d5/pmsatLearned-N2-STOC" {
0 [label="0|a", shape=record, style=rounded];
1 [label="1|b", shape=record, style=rounded];
0 -> 1  [label="z (7)"];
0 -> 1  [label="y (6)"];
0 -> 1  [label="x (16)"];
0 -> 0  [label="!x [1]"];
1 -> 0  [label="x (8)"];
1 -> 1  [label="y (9)"];
1 -> 1  [label="z (5)"];
__start0 [label="", shape=none];
__start0 -> 0  [label=""];
}
