digraph "benchmarks-true-state-lstar-rc10seeds/n_states=11-n_outputs=2-glitch_percent=0.05/10803e07643011689ad8ba9c606f8cbb/pmsatLearned_NOP-N11-STOC" {
0 [label="0|b", shape=record, style=rounded];
1 [label="1|b", shape=record, style=rounded];
2 [label="2|b", shape=record, style=rounded];
3 [label="3|b", shape=record, style=rounded];
4 [label="4|b", shape=record, style=rounded];
5 [label="5|a", shape=record, style=rounded];
6 [label="6|b", shape=record, style=rounded];
7 [label="7|b", shape=record, style=rounded];
8 [label="8|a", shape=record, style=rounded];
9 [label="9|a", shape=record, style=rounded];
10 [label="10|a", shape=record, style=rounded];
0 -> 10  [label="x (29)"];
0 -> 0  [label="y (10)"];
0 -> 6  [label="z (11)"];
0 -> 10  [label="!z [2]"];
0 -> 5  [label="!y [1]"];
0 -> 7  [label="!x [1]"];
1 -> 0  [label="z (55)"];
1 -> 6  [label="y (97)"];
1 -> 3  [label="x (110)"];
1 -> 8  [label="!y [2]"];
1 -> 10  [label="!x [2]"];
1 -> 4  [label="!x [1]"];
1 -> 7  [label="!y [1]"];
2 -> 7  [label="x (36)"];
2 -> 4  [label="y (18)"];
2 -> 6  [label="z (24)"];
2 -> 10  [label="!y [1]"];
3 -> 2  [label="x (51)"];
3 -> 7  [label="z (41)"];
3 -> 8  [label="y (39)"];
3 -> 7  [label="!x [1]"];
3 -> 0  [label="!y [1]"];
4 -> 2  [label="x (18)"];
4 -> 2  [label="y (9)"];
4 -> 6  [label="z (6)"];
5 -> 2  [label="x (18)"];
5 -> 7  [label="z (13)"];
5 -> 2  [label="y (13)"];
6 -> 5  [label="x (51)"];
6 -> 9  [label="y (35)"];
6 -> 4  [label="z (32)"];
6 -> 3  [label="!x [1]"];
7 -> 3  [label="x (28)"];
7 -> 2  [label="y (16)"];
7 -> 5  [label="z (18)"];
8 -> 3  [label="x (16)"];
8 -> 1  [label="y (9)"];
8 -> 1  [label="z (9)"];
9 -> 7  [label="y (9)"];
9 -> 1  [label="z (8)"];
9 -> 6  [label="x (13)"];
10 -> 10  [label="x (22)"];
10 -> 8  [label="y (13)"];
10 -> 10  [label="z (12)"];
__start0 [label="", shape=none];
__start0 -> 1  [label=""];
}
