digraph "pmsatLearned-N9" {
0 [label="0|a", shape=record, style=rounded];
1 [label="1|b", shape=record, style=rounded];
2 [label="2|c", shape=record, style=rounded];
3 [label="3|d", shape=record, style=rounded];
4 [label="4|e", shape=record, style=rounded];
5 [label="5|e", shape=record, style=rounded];
6 [label="6|e", shape=record, style=rounded];
7 [label="7|e", shape=record, style=rounded];
8 [label="8|b", shape=record, style=rounded];
0 -> 7  [label="x"];
0 -> 3  [label="y"];
0 -> 3  [label="z"];
1 -> 4  [label="z"];
1 -> 0  [label="y"];
1 -> 5  [label="x"];
2 -> 0  [label="x"];
2 -> 3  [label="y"];
2 -> 1  [label="z"];
3 -> 3  [label="x"];
3 -> 7  [label="y"];
3 -> 6  [label="z"];
4 -> 6  [label="x"];
4 -> 8  [label="y"];
4 -> 6  [label="z"];
5 -> 2  [label="x"];
5 -> 8  [label="y"];
5 -> 6  [label="z"];
6 -> 1  [label="y"];
6 -> 2  [label="z"];
6 -> 2  [label="x"];
7 -> 7  [label="x"];
7 -> 3  [label="y"];
7 -> 3  [label="z"];
8 -> 5  [label="x"];
8 -> 1  [label="z"];
8 -> 6  [label="y"];
__start0 [label="", shape=none];
__start0 -> 1  [label=""];
}
