digraph "benchmarks-true-state-lstar-songp/n_states=8-n_outputs=3-glitch_percent=0.02-pmstrat='fm'/1946d0444b740b086f25c210deddb993/pmsatLearned-N8-STOC" {
0 [label="0|a", shape=record, style=rounded];
1 [label="1|b", shape=record, style=rounded];
2 [label="2|c", shape=record, style=rounded];
3 [label="3|a", shape=record, style=rounded];
4 [label="4|c", shape=record, style=rounded];
5 [label="5|c", shape=record, style=rounded];
6 [label="6|b", shape=record, style=rounded];
7 [label="7|b", shape=record, style=rounded];
0 -> 1  [label="z (18)"];
0 -> 7  [label="y (30)"];
0 -> 4  [label="x (53)"];
1 -> 2  [label="x (6)"];
1 -> 5  [label="y (6)"];
1 -> 0  [label="z (5)"];
2 -> 7  [label="y (10)"];
2 -> 2  [label="z (10)"];
2 -> 7  [label="x (9)"];
3 -> 6  [label="x (5)"];
3 -> 5  [label="y (5)"];
3 -> 2  [label="z (5)"];
4 -> 6  [label="y (18)"];
4 -> 5  [label="z (18)"];
4 -> 2  [label="x (17)"];
5 -> 4  [label="x (10)"];
5 -> 5  [label="y (10)"];
5 -> 2  [label="z (8)"];
6 -> 5  [label="x (6)"];
6 -> 7  [label="y (6)"];
6 -> 5  [label="z (6)"];
7 -> 3  [label="x (20)"];
7 -> 1  [label="y (8)"];
7 -> 2  [label="z (8)"];
__start0 [label="", shape=none];
__start0 -> 0  [label=""];
}
