digraph "benchmarks-true-state-lstar-3seeds/n_states=10-n_outputs=3-glitch_percent=0.01/910522b515f5c53c71ab58716b795ff9/alergiaLearned" {
q0 [label="a"];
q1 [label="a"];
q2 [label="c"];
q3 [label="b"];
q4 [label="c"];
q5 [label="c"];
q6 [label="b"];
q0 -> q1  [label="z:0.9629629629629629"];
q0 -> q3  [label="z:0.037037037037037035"];
q0 -> q2  [label="y:0.9506172839506173"];
q0 -> q0  [label="y:0.012345679012345678"];
q0 -> q3  [label="y:0.037037037037037035"];
q0 -> q3  [label="x:0.9390243902439024"];
q0 -> q2  [label="x:0.06097560975609756"];
q1 -> q2  [label="x:1.0"];
q1 -> q3  [label="x:0.0"];
q1 -> q0  [label="y:0.7037037037037037"];
q1 -> q2  [label="y:0.037037037037037035"];
q1 -> q3  [label="y:0.25925925925925924"];
q1 -> q3  [label="z:0.35"];
q1 -> q0  [label="z:0.3"];
q1 -> q2  [label="z:0.35"];
q2 -> q4  [label="x:0.7142857142857143"];
q2 -> q0  [label="x:0.2857142857142857"];
q2 -> q1  [label="y:0.8857142857142857"];
q2 -> q2  [label="y:0.11428571428571428"];
q2 -> q5  [label="z:0.8518518518518519"];
q2 -> q3  [label="z:0.14814814814814814"];
q3 -> q5  [label="x:0.7647058823529411"];
q3 -> q1  [label="x:0.23529411764705882"];
q3 -> q1  [label="y:1.0"];
q3 -> q6  [label="z:1.0"];
q4 -> q1  [label="x:1.0"];
q4 -> q0  [label="y:1.0"];
q4 -> q3  [label="z:1.0"];
q5 -> q0  [label="x:1.0"];
q5 -> q2  [label="y:0.4166666666666667"];
q5 -> q0  [label="y:0.5833333333333334"];
q5 -> q2  [label="z:0.5"];
q5 -> q3  [label="z:0.5"];
q6 -> q0  [label="x:1.0"];
q6 -> q1  [label="y:1.0"];
q6 -> q3  [label="z:1.0"];
__start0 [label="", shape=none];
__start0 -> q0  [label=""];
}
