digraph "benchmarks-true-state-lstar-songp/n_states=7-n_outputs=6-glitch_percent=0.1-pmstrat='rc2'/f542d0767e64fe22d3543138a4dafe67/pmsatLearned-N7" {
0 [label="0|a", shape=record, style=rounded];
1 [label="1|b", shape=record, style=rounded];
2 [label="2|c", shape=record, style=rounded];
3 [label="3|d", shape=record, style=rounded];
4 [label="4|f", shape=record, style=rounded];
5 [label="5|f", shape=record, style=rounded];
6 [label="6|c", shape=record, style=rounded];
0 -> 6  [label="z"];
0 -> 2  [label="y"];
0 -> 5  [label="x"];
1 -> 1  [label="x"];
1 -> 2  [label="y"];
1 -> 0  [label="z"];
2 -> 3  [label="x"];
2 -> 1  [label="y"];
2 -> 3  [label="z"];
3 -> 3  [label="x"];
3 -> 1  [label="z"];
3 -> 5  [label="y"];
4 -> 5  [label="z"];
4 -> 5  [label="x"];
4 -> 0  [label="y"];
5 -> 1  [label="y"];
5 -> 4  [label="z"];
5 -> 3  [label="x"];
6 -> 4  [label="x"];
6 -> 3  [label="y"];
6 -> 5  [label="z"];
__start0 [label="", shape=none];
__start0 -> 0  [label=""];
}
