digraph "benchmarks-true-state-lstar-3seeds/n_states=4-n_outputs=3-glitch_percent=0.02/81191aae32fe784a35d024a6289493b2/pmsatLearned-N4" {
0 [label="0|a", shape=record, style=rounded];
1 [label="1|b", shape=record, style=rounded];
2 [label="2|c", shape=record, style=rounded];
3 [label="3|c", shape=record, style=rounded];
0 -> 2  [label="x"];
0 -> 3  [label="y"];
0 -> 1  [label="z"];
1 -> 1  [label="x"];
1 -> 1  [label="y"];
1 -> 3  [label="z"];
2 -> 1  [label="z"];
2 -> 0  [label="y"];
2 -> 3  [label="x"];
3 -> 3  [label="x"];
3 -> 1  [label="y"];
3 -> 1  [label="z"];
__start0 [label="", shape=none];
__start0 -> 2  [label=""];
}
