digraph "benchmarks-true-state-lstar-rc10seeds/n_states=15-n_outputs=8-glitch_percent=0.05/6e329b1a8d601584a8e6e94355da61af/pmsatLearned_NOP-N15-STOC" {
0 [label="0|c", shape=record, style=rounded];
1 [label="1|a", shape=record, style=rounded];
2 [label="2|e", shape=record, style=rounded];
3 [label="3|a", shape=record, style=rounded];
4 [label="4|f", shape=record, style=rounded];
5 [label="5|g", shape=record, style=rounded];
6 [label="6|a", shape=record, style=rounded];
7 [label="7|h", shape=record, style=rounded];
8 [label="8|c", shape=record, style=rounded];
9 [label="9|g", shape=record, style=rounded];
10 [label="10|g", shape=record, style=rounded];
11 [label="11|c", shape=record, style=rounded];
12 [label="12|h", shape=record, style=rounded];
13 [label="13|f", shape=record, style=rounded];
14 [label="14|a", shape=record, style=rounded];
0 -> 2  [label="x (18)"];
0 -> 5  [label="y (15)"];
0 -> 11  [label="z (10)"];
0 -> 6  [label="!y [1]"];
1 -> 14  [label="y (31)"];
1 -> 11  [label="z (20)"];
1 -> 13  [label="x (21)"];
1 -> 1  [label="!y [1]"];
2 -> 1  [label="z (69)"];
2 -> 4  [label="!x [6]"];
2 -> 6  [label="y (67)"];
2 -> 9  [label="x (85)"];
2 -> 8  [label="!z [4]"];
2 -> 14  [label="!z [1]"];
2 -> 10  [label="!x [2]"];
2 -> 0  [label="!y [1]"];
3 -> 9  [label="x (6)"];
3 -> 12  [label="y (10)"];
3 -> 12  [label="z (7)"];
4 -> 7  [label="x (18)"];
4 -> 12  [label="y (19)"];
4 -> 3  [label="z (5)"];
4 -> 8  [label="!x [1]"];
4 -> 3  [label="!y [2]"];
5 -> 11  [label="x (16)"];
5 -> 0  [label="y (14)"];
5 -> 13  [label="z (9)"];
6 -> 5  [label="x (25)"];
6 -> 10  [label="y (25)"];
6 -> 3  [label="z (20)"];
6 -> 11  [label="!x [1]"];
6 -> 0  [label="!y [1]"];
7 -> 12  [label="x (13)"];
7 -> 14  [label="y (9)"];
7 -> 7  [label="z (8)"];
8 -> 5  [label="x (5)"];
8 -> 0  [label="y (6)"];
8 -> 6  [label="z (5)"];
8 -> 2  [label="!x [1]"];
9 -> 4  [label="x (47)"];
9 -> 0  [label="y (27)"];
9 -> 8  [label="z (18)"];
9 -> 12  [label="!y [2]"];
9 -> 7  [label="!x [1]"];
10 -> 5  [label="x (11)"];
10 -> 5  [label="y (10)"];
10 -> 1  [label="z (8)"];
11 -> 10  [label="x (9)"];
11 -> 1  [label="z (9)"];
11 -> 6  [label="y (10)"];
11 -> 10  [label="!y [1]"];
12 -> 0  [label="x (13)"];
12 -> 14  [label="y (14)"];
12 -> 11  [label="z (10)"];
13 -> 0  [label="x (8)"];
13 -> 13  [label="z (8)"];
13 -> 9  [label="y (7)"];
13 -> 11  [label="!z [1]"];
13 -> 4  [label="!x [1]"];
14 -> 9  [label="x (18)"];
14 -> 7  [label="y (13)"];
14 -> 12  [label="z (7)"];
__start0 [label="", shape=none];
__start0 -> 2  [label=""];
}
