digraph "benchmarks-true-state-lstar-3seeds/n_states=10-n_outputs=3-glitch_percent=0.01/f6893ef9d7a4919893357b04bfa462d1/pmsatLearned-N10-STOC" {
0 [label="0|a", shape=record, style=rounded];
1 [label="1|b", shape=record, style=rounded];
2 [label="2|c", shape=record, style=rounded];
3 [label="3|c", shape=record, style=rounded];
4 [label="4|b", shape=record, style=rounded];
5 [label="5|b", shape=record, style=rounded];
6 [label="6|c", shape=record, style=rounded];
7 [label="7|b", shape=record, style=rounded];
8 [label="8|b", shape=record, style=rounded];
9 [label="9|b", shape=record, style=rounded];
0 -> 8  [label="x (26)"];
0 -> 3  [label="y (28)"];
0 -> 5  [label="z (26)"];
0 -> 6  [label="!z [1]"];
1 -> 4  [label="z (33)"];
1 -> 0  [label="y (85)"];
1 -> 7  [label="x (86)"];
1 -> 5  [label="!y [1]"];
2 -> 6  [label="x (34)"];
2 -> 7  [label="y (10)"];
2 -> 2  [label="z (16)"];
3 -> 6  [label="x (28)"];
3 -> 4  [label="y (12)"];
3 -> 6  [label="z (22)"];
4 -> 3  [label="x (26)"];
4 -> 1  [label="y (10)"];
4 -> 6  [label="z (13)"];
5 -> 3  [label="x (11)"];
5 -> 4  [label="y (7)"];
5 -> 2  [label="z (11)"];
6 -> 4  [label="x (47)"];
6 -> 5  [label="y (11)"];
6 -> 2  [label="z (18)"];
7 -> 6  [label="x (30)"];
7 -> 9  [label="y (26)"];
7 -> 2  [label="z (28)"];
8 -> 1  [label="x (9)"];
8 -> 3  [label="y (7)"];
8 -> 6  [label="z (8)"];
9 -> 2  [label="x (8)"];
9 -> 3  [label="y (7)"];
9 -> 3  [label="z (8)"];
__start0 [label="", shape=none];
__start0 -> 1  [label=""];
}
