digraph "benchmarks-true-state-lstar-3seeds/n_states=10-n_outputs=3-glitch_percent=0.01/f6893ef9d7a4919893357b04bfa462d1/RealModel" {
s1 [label="s1|b", shape=record, style=rounded];
s2 [label="s2|a", shape=record, style=rounded];
s3 [label="s3|b", shape=record, style=rounded];
s4 [label="s4|c", shape=record, style=rounded];
s5 [label="s5|b", shape=record, style=rounded];
s6 [label="s6|c", shape=record, style=rounded];
s7 [label="s7|b", shape=record, style=rounded];
s8 [label="s8|b", shape=record, style=rounded];
s9 [label="s9|c", shape=record, style=rounded];
s10 [label="s10|b", shape=record, style=rounded];
s1 -> s8  [label="x"];
s1 -> s2  [label="y"];
s1 -> s10  [label="z"];
s2 -> s5  [label="x"];
s2 -> s9  [label="y"];
s2 -> s7  [label="z"];
s3 -> s4  [label="x"];
s3 -> s9  [label="y"];
s3 -> s9  [label="z"];
s4 -> s6  [label="x"];
s4 -> s8  [label="y"];
s4 -> s4  [label="z"];
s5 -> s1  [label="x"];
s5 -> s9  [label="y"];
s5 -> s6  [label="z"];
s6 -> s10  [label="x"];
s6 -> s7  [label="y"];
s6 -> s4  [label="z"];
s7 -> s9  [label="x"];
s7 -> s10  [label="y"];
s7 -> s4  [label="z"];
s8 -> s6  [label="x"];
s8 -> s3  [label="y"];
s8 -> s4  [label="z"];
s9 -> s6  [label="x"];
s9 -> s10  [label="y"];
s9 -> s6  [label="z"];
s10 -> s9  [label="x"];
s10 -> s1  [label="y"];
s10 -> s6  [label="z"];
__start0 [label="", shape=none];
__start0 -> s1  [label=""];
}
