digraph "pmsatLearned-N8-STOC" {
0 [label="0|b", shape=record, style=rounded];
1 [label="1|c", shape=record, style=rounded];
2 [label="2|d", shape=record, style=rounded];
3 [label="3|e", shape=record, style=rounded];
4 [label="4|b", shape=record, style=rounded];
5 [label="5|b", shape=record, style=rounded];
6 [label="6|b", shape=record, style=rounded];
7 [label="7|c", shape=record, style=rounded];
0 -> 6  [label="z (125)"];
0 -> 2  [label="y (149)"];
0 -> 4  [label="x (173)"];
0 -> 0  [label="!x [1]"];
0 -> 1  [label="!x [1] t1"];
0 -> 4  [label="!z [1]"];
0 -> 3  [label="!z [1] t1"];
1 -> 5  [label="x (88)"];
1 -> 0  [label="y (70)"];
1 -> 6  [label="z (69)"];
2 -> 1  [label="x (144)"];
2 -> 5  [label="y (116)"];
2 -> 3  [label="z (140)"];
2 -> 5  [label="!x [1]"];
2 -> 5  [label="!z [1]"];
2 -> 0  [label="!x [1] t1"];
2 -> 7  [label="!x [1] t2"];
3 -> 0  [label="x (89)"];
3 -> 1  [label="y (107)"];
3 -> 6  [label="z (89)"];
3 -> 4  [label="!z [1]"];
3 -> 0  [label="!y [1]"];
4 -> 7  [label="x (109)"];
4 -> 5  [label="y (120)"];
4 -> 3  [label="z (121)"];
4 -> 2  [label="!x [1]"];
4 -> 6  [label="!x [1] t1"];
5 -> 2  [label="x (101)"];
5 -> 4  [label="y (97)"];
5 -> 3  [label="z (91)"];
6 -> 2  [label="x (107)"];
6 -> 4  [label="y (92)"];
6 -> 2  [label="z (101)"];
7 -> 6  [label="x (25)"];
7 -> 6  [label="y (35)"];
7 -> 4  [label="z (35)"];
7 -> 4  [label="!x [1]"];
__start0 [label="", shape=none];
__start0 -> 0  [label=""];
}
