digraph "pmsatLearned-N8-STOC" {
0 [label="0|a", shape=record, style=rounded];
1 [label="1|c", shape=record, style=rounded];
2 [label="2|d", shape=record, style=rounded];
3 [label="3|e", shape=record, style=rounded];
4 [label="4|d", shape=record, style=rounded];
5 [label="5|d", shape=record, style=rounded];
6 [label="6|e", shape=record, style=rounded];
7 [label="7|d", shape=record, style=rounded];
0 -> 0  [label="x (161)"];
0 -> 5  [label="y (170)"];
0 -> 2  [label="z (188)"];
0 -> 6  [label="!x [1]"];
0 -> 1  [label="!y [1]"];
1 -> 7  [label="x (210)"];
1 -> 3  [label="y (213)"];
1 -> 1  [label="z (192)"];
1 -> 0  [label="!z [1]"];
1 -> 2  [label="!x [1]"];
2 -> 0  [label="z (211)"];
2 -> 1  [label="y (195)"];
2 -> 6  [label="x (255)"];
2 -> 3  [label="!x [1]"];
2 -> 3  [label="!y [1]"];
2 -> 4  [label="!x [1] t1"];
2 -> 5  [label="!z [1]"];
2 -> 1  [label="!z [1] t1"];
3 -> 4  [label="x (82)"];
3 -> 7  [label="y (88)"];
3 -> 4  [label="z (82)"];
3 -> 0  [label="!z [1]"];
3 -> 7  [label="!z [2]"];
4 -> 5  [label="x (114)"];
4 -> 1  [label="y (100)"];
4 -> 7  [label="z (105)"];
4 -> 5  [label="!z [1]"];
5 -> 0  [label="x (94)"];
5 -> 1  [label="y (98)"];
5 -> 4  [label="z (109)"];
6 -> 4  [label="x (94)"];
6 -> 3  [label="y (80)"];
6 -> 5  [label="z (58)"];
6 -> 0  [label="!x [1]"];
6 -> 4  [label="!z [1]"];
6 -> 7  [label="!y [2]"];
7 -> 1  [label="x (104)"];
7 -> 2  [label="y (127)"];
7 -> 0  [label="z (121)"];
7 -> 1  [label="!y [2]"];
__start0 [label="", shape=none];
__start0 -> 2  [label=""];
}
