digraph "benchmarks-true-state-lstar-3seeds/n_states=16-n_outputs=6-glitch_percent=0.0/d26ea48a8e2321e9b7478478312c407b/alergiaLearned" {
q0 [label="a"];
q1 [label="a"];
q2 [label="d"];
q3 [label="c"];
q4 [label="e"];
q5 [label="e"];
q6 [label="a"];
q7 [label="f"];
q8 [label="b"];
q9 [label="b"];
q10 [label="f"];
q11 [label="e"];
q12 [label="a"];
q0 -> q1  [label="z:0.9710144927536232"];
q0 -> q3  [label="z:0.028985507246376812"];
q0 -> q2  [label="y:0.9705882352941176"];
q0 -> q0  [label="y:0.029411764705882353"];
q0 -> q3  [label="x:1.0"];
q1 -> q4  [label="x:0.8666666666666667"];
q1 -> q1  [label="x:0.13333333333333333"];
q1 -> q5  [label="y:1.0"];
q1 -> q6  [label="z:0.8620689655172413"];
q1 -> q3  [label="z:0.10344827586206896"];
q1 -> q4  [label="z:0.034482758620689655"];
q2 -> q7  [label="x:1.0"];
q2 -> q5  [label="y:1.0"];
q2 -> q6  [label="z:1.0"];
q3 -> q8  [label="x:1.0"];
q3 -> q6  [label="y:1.0"];
q3 -> q9  [label="z:1.0"];
q4 -> q0  [label="x:0.7428571428571429"];
q4 -> q8  [label="x:0.11428571428571428"];
q4 -> q4  [label="x:0.14285714285714285"];
q4 -> q8  [label="y:0.7142857142857143"];
q4 -> q7  [label="y:0.14285714285714285"];
q4 -> q4  [label="y:0.07142857142857142"];
q4 -> q0  [label="y:0.07142857142857142"];
q4 -> q0  [label="z:0.9285714285714286"];
q4 -> q7  [label="z:0.07142857142857142"];
q5 -> q5  [label="x:0.7241379310344828"];
q5 -> q6  [label="x:0.034482758620689655"];
q5 -> q8  [label="x:0.2413793103448276"];
q5 -> q1  [label="y:0.35"];
q5 -> q4  [label="y:0.35"];
q5 -> q8  [label="y:0.0"];
q5 -> q7  [label="y:0.3"];
q5 -> q7  [label="z:0.35"];
q5 -> q1  [label="z:0.65"];
q6 -> q4  [label="x:0.3181818181818182"];
q6 -> q1  [label="x:0.36363636363636365"];
q6 -> q3  [label="x:0.3181818181818182"];
q6 -> q4  [label="y:0.6666666666666666"];
q6 -> q1  [label="y:0.3333333333333333"];
q6 -> q4  [label="z:0.3333333333333333"];
q6 -> q3  [label="z:0.6666666666666666"];
q7 -> q5  [label="x:0.6666666666666666"];
q7 -> q1  [label="x:0.3333333333333333"];
q7 -> q3  [label="y:0.75"];
q7 -> q4  [label="y:0.25"];
q7 -> q8  [label="z:0.75"];
q7 -> q4  [label="z:0.25"];
q8 -> q10  [label="x:0.9444444444444444"];
q8 -> q4  [label="x:0.05555555555555555"];
q8 -> q11  [label="y:0.9655172413793104"];
q8 -> q0  [label="y:0.034482758620689655"];
q8 -> q5  [label="z:1.0"];
q9 -> q4  [label="x:1.0"];
q9 -> q1  [label="y:1.0"];
q9 -> q4  [label="z:1.0"];
q10 -> q1  [label="x:1.0"];
q10 -> q4  [label="y:1.0"];
q10 -> q4  [label="z:1.0"];
q11 -> q12  [label="x:1.0"];
q11 -> q8  [label="y:1.0"];
q11 -> q1  [label="z:1.0"];
q12 -> q1  [label="x:1.0"];
q12 -> q4  [label="y:1.0"];
q12 -> q3  [label="z:1.0"];
__start0 [label="", shape=none];
__start0 -> q0  [label=""];
}
