digraph "benchmarks-true-state-lstar-rc10seeds/n_states=16-n_outputs=6-glitch_percent=0.02/e3ef5bfb36b9808fb7e73b839942fc6e/pmsatLearned_NOP-N16-STOC" {
0 [label="0|d", shape=record, style=rounded];
1 [label="1|e", shape=record, style=rounded];
2 [label="2|a", shape=record, style=rounded];
3 [label="3|a", shape=record, style=rounded];
4 [label="4|e", shape=record, style=rounded];
5 [label="5|b", shape=record, style=rounded];
6 [label="6|c", shape=record, style=rounded];
7 [label="7|f", shape=record, style=rounded];
8 [label="8|d", shape=record, style=rounded];
9 [label="9|b", shape=record, style=rounded];
10 [label="10|a", shape=record, style=rounded];
11 [label="11|e", shape=record, style=rounded];
12 [label="12|e", shape=record, style=rounded];
13 [label="13|a", shape=record, style=rounded];
14 [label="14|f", shape=record, style=rounded];
15 [label="15|e", shape=record, style=rounded];
0 -> 13  [label="z (66)"];
0 -> 8  [label="y (66)"];
0 -> 6  [label="x (113)"];
0 -> 9  [label="!x [3]"];
0 -> 11  [label="!y [1]"];
1 -> 10  [label="x (16)"];
1 -> 9  [label="y (7)"];
1 -> 10  [label="z (6)"];
2 -> 6  [label="x (16)"];
2 -> 13  [label="y (8)"];
2 -> 6  [label="z (8)"];
3 -> 4  [label="x (8)"];
3 -> 12  [label="y (6)"];
3 -> 15  [label="z (7)"];
4 -> 2  [label="x (26)"];
4 -> 9  [label="y (10)"];
4 -> 2  [label="z (10)"];
5 -> 4  [label="x (9)"];
5 -> 3  [label="y (7)"];
5 -> 12  [label="z (6)"];
6 -> 9  [label="x (80)"];
6 -> 2  [label="y (23)"];
6 -> 5  [label="z (25)"];
6 -> 6  [label="!x [1]"];
7 -> 15  [label="x (9)"];
7 -> 6  [label="y (5)"];
7 -> 5  [label="z (6)"];
7 -> 10  [label="!y [1]"];
8 -> 7  [label="x (22)"];
8 -> 15  [label="y (19)"];
8 -> 10  [label="z (22)"];
8 -> 4  [label="!y [1]"];
9 -> 14  [label="x (35)"];
9 -> 1  [label="y (26)"];
9 -> 12  [label="z (24)"];
9 -> 7  [label="!x [1]"];
9 -> 10  [label="!z [1]"];
10 -> 13  [label="x (21)"];
10 -> 6  [label="z (10)"];
10 -> 15  [label="y (9)"];
11 -> 11  [label="x (14)"];
11 -> 10  [label="y (8)"];
11 -> 14  [label="z (7)"];
11 -> 9  [label="!x [1]"];
12 -> 9  [label="x (10)"];
12 -> 14  [label="y (8)"];
12 -> 13  [label="z (6)"];
13 -> 4  [label="x (39)"];
13 -> 11  [label="y (25)"];
13 -> 3  [label="z (23)"];
14 -> 11  [label="y (8)"];
14 -> 4  [label="z (8)"];
14 -> 13  [label="x (13)"];
15 -> 1  [label="x (13)"];
15 -> 4  [label="y (9)"];
15 -> 10  [label="z (8)"];
__start0 [label="", shape=none];
__start0 -> 0  [label=""];
}
