digraph "benchmarks-true-state-lstar-songp/n_states=4-n_outputs=3-glitch_percent=0.05-pmstrat='lsu'/c75a3e949a7329e5ac1018e3abb3a148/alergiaLearned" {
q0 [label="a"];
q1 [label="b"];
q2 [label="a"];
q3 [label="c"];
q0 -> q1  [label="z:0.76"];
q0 -> q0  [label="z:0.24"];
q0 -> q2  [label="y:0.7916666666666666"];
q0 -> q3  [label="y:0.20833333333333334"];
q0 -> q3  [label="x:0.8571428571428571"];
q0 -> q0  [label="x:0.14285714285714285"];
q1 -> q0  [label="x:1.0"];
q1 -> q1  [label="y:1.0"];
q1 -> q0  [label="z:1.0"];
q2 -> q0  [label="x:1.0"];
q2 -> q0  [label="z:1.0"];
q2 -> q3  [label="y:1.0"];
q3 -> q0  [label="x:1.0"];
q3 -> q0  [label="y:1.0"];
q3 -> q0  [label="z:1.0"];
__start0 [label="", shape=none];
__start0 -> q0  [label=""];
}
