digraph "benchmarks-true-state-lstar-3seeds/n_states=16-n_outputs=6-glitch_percent=0.02/e9296848affebb5df1241de377e8daa6/pmsatLearned-N16-STOC" {
0 [label="0|a", shape=record, style=rounded];
1 [label="1|c", shape=record, style=rounded];
2 [label="2|d", shape=record, style=rounded];
3 [label="3|e", shape=record, style=rounded];
4 [label="4|f", shape=record, style=rounded];
5 [label="5|c", shape=record, style=rounded];
6 [label="6|a", shape=record, style=rounded];
7 [label="7|a", shape=record, style=rounded];
8 [label="8|e", shape=record, style=rounded];
9 [label="9|e", shape=record, style=rounded];
10 [label="10|d", shape=record, style=rounded];
11 [label="11|c", shape=record, style=rounded];
12 [label="12|d", shape=record, style=rounded];
13 [label="13|d", shape=record, style=rounded];
14 [label="14|e", shape=record, style=rounded];
15 [label="15|d", shape=record, style=rounded];
0 -> 9  [label="x (8)"];
0 -> 0  [label="z (7)"];
0 -> 11  [label="y (7)"];
1 -> 5  [label="z (53)"];
1 -> 7  [label="y (52)"];
1 -> 12  [label="x (88)"];
1 -> 3  [label="!z [1]"];
1 -> 8  [label="!x [1]"];
2 -> 5  [label="x (6)"];
2 -> 14  [label="y (7)"];
2 -> 8  [label="z (7)"];
3 -> 9  [label="x (5)"];
3 -> 5  [label="y (5)"];
3 -> 10  [label="z (5)"];
4 -> 8  [label="x (5)"];
4 -> 0  [label="y (4)"];
4 -> 14  [label="z (5)"];
4 -> 1  [label="!y [1]"];
5 -> 11  [label="x (21)"];
5 -> 6  [label="y (21)"];
5 -> 2  [label="z (21)"];
6 -> 15  [label="x (8)"];
6 -> 8  [label="y (7)"];
6 -> 2  [label="z (6)"];
6 -> 1  [label="!x [1]"];
7 -> 10  [label="x (18)"];
7 -> 4  [label="y (19)"];
7 -> 3  [label="z (18)"];
8 -> 14  [label="x (20)"];
8 -> 13  [label="y (22)"];
8 -> 0  [label="z (22)"];
8 -> 6  [label="!y [1]"];
9 -> 11  [label="x (9)"];
9 -> 5  [label="y (9)"];
9 -> 7  [label="z (9)"];
10 -> 13  [label="x (7)"];
10 -> 10  [label="y (6)"];
10 -> 9  [label="z (8)"];
11 -> 6  [label="y (8)"];
11 -> 9  [label="z (7)"];
11 -> 11  [label="x (7)"];
12 -> 8  [label="x (51)"];
12 -> 15  [label="y (17)"];
12 -> 9  [label="z (17)"];
12 -> 6  [label="!x [1]"];
13 -> 0  [label="x (6)"];
13 -> 14  [label="y (6)"];
13 -> 5  [label="z (6)"];
14 -> 7  [label="x (7)"];
14 -> 6  [label="y (7)"];
14 -> 2  [label="z (8)"];
15 -> 8  [label="x (6)"];
15 -> 8  [label="y (6)"];
15 -> 10  [label="z (6)"];
__start0 [label="", shape=none];
__start0 -> 1  [label=""];
}
