digraph "benchmarks-true-state-lstar-3seeds/n_states=9-n_outputs=7-glitch_percent=0.02/89fd0187ade639d1ba2173519d057910/RealModel" {
s1 [label="s1|e", shape=record, style=rounded];
s2 [label="s2|c", shape=record, style=rounded];
s3 [label="s3|b", shape=record, style=rounded];
s4 [label="s4|e", shape=record, style=rounded];
s5 [label="s5|f", shape=record, style=rounded];
s6 [label="s6|e", shape=record, style=rounded];
s7 [label="s7|c", shape=record, style=rounded];
s8 [label="s8|g", shape=record, style=rounded];
s9 [label="s9|e", shape=record, style=rounded];
s1 -> s5  [label="x"];
s1 -> s8  [label="y"];
s1 -> s6  [label="z"];
s2 -> s8  [label="x"];
s2 -> s3  [label="y"];
s2 -> s3  [label="z"];
s3 -> s9  [label="x"];
s3 -> s3  [label="y"];
s3 -> s8  [label="z"];
s4 -> s4  [label="x"];
s4 -> s1  [label="y"];
s4 -> s2  [label="z"];
s5 -> s3  [label="x"];
s5 -> s4  [label="y"];
s5 -> s9  [label="z"];
s6 -> s4  [label="x"];
s6 -> s9  [label="y"];
s6 -> s9  [label="z"];
s7 -> s1  [label="x"];
s7 -> s9  [label="y"];
s7 -> s5  [label="z"];
s8 -> s2  [label="x"];
s8 -> s7  [label="y"];
s8 -> s4  [label="z"];
s9 -> s7  [label="x"];
s9 -> s2  [label="y"];
s9 -> s3  [label="z"];
__start0 [label="", shape=none];
__start0 -> s1  [label=""];
}
