digraph "pmsatLearned-N8-STOC" {
0 [label="0|a", shape=record, style=rounded];
1 [label="1|b", shape=record, style=rounded];
2 [label="2|c", shape=record, style=rounded];
3 [label="3|d", shape=record, style=rounded];
4 [label="4|b", shape=record, style=rounded];
5 [label="5|b", shape=record, style=rounded];
6 [label="6|b", shape=record, style=rounded];
7 [label="7|a", shape=record, style=rounded];
0 -> 6  [label="x (405)"];
0 -> 4  [label="y (362)"];
0 -> 4  [label="z (367)"];
0 -> 2  [label="!y [2]"];
0 -> 5  [label="!x [1]"];
0 -> 0  [label="!x [5]"];
0 -> 5  [label="!z [1]"];
0 -> 2  [label="!x [1] t1"];
0 -> 6  [label="!y [1]"];
1 -> 5  [label="z (166)"];
1 -> 0  [label="y (168)"];
1 -> 3  [label="x (198)"];
1 -> 0  [label="!x [1]"];
1 -> 4  [label="!z [1]"];
2 -> 0  [label="x (293)"];
2 -> 4  [label="y (241)"];
2 -> 0  [label="z (238)"];
2 -> 4  [label="!z [1]"];
2 -> 5  [label="!z [1] t1"];
2 -> 1  [label="!x [1]"];
3 -> 4  [label="x (70)"];
3 -> 7  [label="y (62)"];
3 -> 2  [label="z (53)"];
4 -> 0  [label="x (493)"];
4 -> 2  [label="y (458)"];
4 -> 4  [label="z (472)"];
4 -> 6  [label="!x [3]"];
4 -> 4  [label="!y [1]"];
4 -> 7  [label="!x [1]"];
5 -> 0  [label="x (89)"];
5 -> 4  [label="y (73)"];
5 -> 5  [label="z (62)"];
6 -> 2  [label="x (172)"];
6 -> 6  [label="y (183)"];
6 -> 2  [label="z (172)"];
6 -> 2  [label="!y [1]"];
6 -> 0  [label="!z [1]"];
6 -> 4  [label="!y [1] t1"];
7 -> 5  [label="x (19)"];
7 -> 1  [label="y (18)"];
7 -> 6  [label="z (19)"];
7 -> 4  [label="!x [1]"];
7 -> 6  [label="!y [1]"];
7 -> 2  [label="!x [1] t1"];
__start0 [label="", shape=none];
__start0 -> 1  [label=""];
}
