digraph "benchmarks-true-state-lstar-3seeds/n_states=8-n_outputs=4-glitch_percent=0.1/d9e6bc91481b877f8756efe491b1b1bf/alergiaLearned" {
q0 [label="d"];
q1 [label="b"];
q2 [label="a"];
q3 [label="a"];
q4 [label="c"];
q5 [label="d"];
q0 -> q1  [label="z:0.9411764705882353"];
q0 -> q2  [label="z:0.058823529411764705"];
q0 -> q2  [label="y:0.8484848484848485"];
q0 -> q1  [label="y:0.15151515151515152"];
q0 -> q3  [label="x:0.9583333333333334"];
q0 -> q4  [label="x:0.020833333333333332"];
q0 -> q1  [label="x:0.020833333333333332"];
q1 -> q2  [label="y:0.9411764705882353"];
q1 -> q4  [label="y:0.058823529411764705"];
q1 -> q4  [label="z:0.3125"];
q1 -> q2  [label="z:0.0625"];
q1 -> q1  [label="z:0.625"];
q1 -> q4  [label="x:0.4375"];
q1 -> q2  [label="x:0.5"];
q1 -> q0  [label="x:0.0625"];
q2 -> q4  [label="x:0.8"];
q2 -> q0  [label="x:0.2"];
q2 -> q4  [label="z:0.6363636363636364"];
q2 -> q2  [label="z:0.09090909090909091"];
q2 -> q1  [label="z:0.2727272727272727"];
q2 -> q2  [label="y:0.5"];
q2 -> q1  [label="y:0.5"];
q3 -> q5  [label="x:0.7777777777777778"];
q3 -> q4  [label="x:0.1111111111111111"];
q3 -> q1  [label="x:0.1111111111111111"];
q3 -> q1  [label="y:1.0"];
q3 -> q1  [label="z:1.0"];
q4 -> q4  [label="y:1.0"];
q4 -> q0  [label="x:1.0"];
q4 -> q2  [label="z:1.0"];
q5 -> q1  [label="x:1.0"];
q5 -> q1  [label="y:1.0"];
q5 -> q2  [label="z:1.0"];
__start0 [label="", shape=none];
__start0 -> q0  [label=""];
}
