digraph "benchmarks-true-state-lstar-rc10seeds/n_states=4-n_outputs=3-glitch_percent=0.0/d211ebbafef8b9f10931f1cbd5327495/pmsatLearned_NOP-N4-STOC" {
0 [label="0|b", shape=record, style=rounded];
1 [label="1|c", shape=record, style=rounded];
2 [label="2|c", shape=record, style=rounded];
3 [label="3|c", shape=record, style=rounded];
0 -> 3  [label="z (21)"];
0 -> 2  [label="y (21)"];
0 -> 1  [label="x (21)"];
1 -> 1  [label="x (8)"];
1 -> 2  [label="y (8)"];
1 -> 0  [label="z (8)"];
2 -> 1  [label="x (7)"];
2 -> 0  [label="y (7)"];
2 -> 0  [label="z (7)"];
3 -> 0  [label="x (5)"];
3 -> 1  [label="y (5)"];
3 -> 2  [label="z (5)"];
__start0 [label="", shape=none];
__start0 -> 0  [label=""];
}
