digraph alergiaLearned {
q0 [label="b"];
q1 [label="e"];
q2 [label="b"];
q3 [label="a"];
q4 [label="c"];
q5 [label="d"];
q0 -> q1  [label="z:0.9090909090909091"];
q0 -> q4  [label="z:0.045454545454545456"];
q0 -> q3  [label="z:0.045454545454545456"];
q0 -> q2  [label="y:0.9821428571428571"];
q0 -> q5  [label="y:0.017857142857142856"];
q0 -> q3  [label="x:0.9636363636363636"];
q0 -> q5  [label="x:0.03636363636363636"];
q1 -> q4  [label="x:1.0"];
q1 -> q0  [label="y:1.0"];
q1 -> q1  [label="z:1.0"];
q2 -> q5  [label="x:1.0"];
q2 -> q5  [label="y:1.0"];
q2 -> q3  [label="z:1.0"];
q3 -> q5  [label="x:0.7619047619047619"];
q3 -> q4  [label="x:0.23809523809523808"];
q3 -> q5  [label="y:1.0"];
q3 -> q4  [label="z:1.0"];
q4 -> q5  [label="z:1.0"];
q4 -> q5  [label="x:1.0"];
q4 -> q4  [label="y:1.0"];
q5 -> q0  [label="y:0.21739130434782608"];
q5 -> q5  [label="y:0.782608695652174"];
q5 -> q0  [label="x:0.5416666666666666"];
q5 -> q5  [label="x:0.4583333333333333"];
q5 -> q4  [label="z:0.30434782608695654"];
q5 -> q5  [label="z:0.21739130434782608"];
q5 -> q0  [label="z:0.4782608695652174"];
__start0 [label="", shape=none];
__start0 -> q0  [label=""];
}
