digraph "benchmarks-true-state-lstar-3seeds/n_states=16-n_outputs=5-glitch_percent=0.01/bb375aeb9d60a4fc9c058169ee67d0a8/pmsatLearned-N16" {
0 [label="0|a", shape=record, style=rounded];
1 [label="1|b", shape=record, style=rounded];
2 [label="2|c", shape=record, style=rounded];
3 [label="3|d", shape=record, style=rounded];
4 [label="4|e", shape=record, style=rounded];
5 [label="5|c", shape=record, style=rounded];
6 [label="6|a", shape=record, style=rounded];
7 [label="7|a", shape=record, style=rounded];
8 [label="8|b", shape=record, style=rounded];
9 [label="9|a", shape=record, style=rounded];
10 [label="10|c", shape=record, style=rounded];
11 [label="11|b", shape=record, style=rounded];
12 [label="12|d", shape=record, style=rounded];
13 [label="13|d", shape=record, style=rounded];
14 [label="14|e", shape=record, style=rounded];
15 [label="15|d", shape=record, style=rounded];
0 -> 10  [label="x"];
0 -> 15  [label="y"];
0 -> 3  [label="z"];
1 -> 10  [label="x"];
1 -> 13  [label="y"];
1 -> 15  [label="z"];
2 -> 7  [label="z"];
2 -> 12  [label="y"];
2 -> 8  [label="x"];
3 -> 7  [label="x"];
3 -> 13  [label="y"];
3 -> 14  [label="z"];
4 -> 1  [label="x"];
4 -> 14  [label="y"];
4 -> 11  [label="z"];
5 -> 6  [label="x"];
5 -> 4  [label="y"];
5 -> 9  [label="z"];
6 -> 5  [label="y"];
6 -> 10  [label="z"];
6 -> 13  [label="x"];
7 -> 9  [label="x"];
7 -> 5  [label="y"];
7 -> 0  [label="z"];
8 -> 15  [label="x"];
8 -> 3  [label="y"];
8 -> 6  [label="z"];
9 -> 2  [label="x"];
9 -> 6  [label="y"];
9 -> 2  [label="z"];
10 -> 15  [label="x"];
10 -> 0  [label="y"];
10 -> 0  [label="z"];
11 -> 15  [label="x"];
11 -> 14  [label="y"];
11 -> 10  [label="z"];
12 -> 1  [label="x"];
12 -> 4  [label="y"];
12 -> 10  [label="z"];
13 -> 6  [label="x"];
13 -> 12  [label="y"];
13 -> 6  [label="z"];
14 -> 0  [label="x"];
14 -> 14  [label="y"];
14 -> 15  [label="z"];
15 -> 11  [label="x"];
15 -> 13  [label="y"];
15 -> 14  [label="z"];
__start0 [label="", shape=none];
__start0 -> 2  [label=""];
}
