digraph "benchmarks-true-state-lstar-songp/n_states=10-n_outputs=9-glitch_percent=0.02-pmstrat='rc2'/91cb2dcf6d08fa3cae7945ecaa6e35c8/alergiaLearned" {
q0 [label="a"];
q1 [label="b"];
q2 [label="h"];
q3 [label="h"];
q4 [label="c"];
q5 [label="e"];
q6 [label="h"];
q7 [label="a"];
q8 [label="f"];
q9 [label="i"];
q0 -> q1  [label="z:0.9047619047619048"];
q0 -> q0  [label="z:0.09523809523809523"];
q0 -> q2  [label="y:0.9464285714285714"];
q0 -> q4  [label="y:0.05357142857142857"];
q0 -> q3  [label="x:0.9482758620689655"];
q0 -> q5  [label="x:0.05172413793103448"];
q1 -> q5  [label="x:1.0"];
q1 -> q2  [label="y:1.0"];
q1 -> q4  [label="z:1.0"];
q2 -> q5  [label="x:0.9473684210526315"];
q2 -> q0  [label="x:0.05263157894736842"];
q2 -> q4  [label="y:0.9473684210526315"];
q2 -> q8  [label="y:0.05263157894736842"];
q2 -> q6  [label="z:0.9523809523809523"];
q2 -> q9  [label="z:0.047619047619047616"];
q3 -> q7  [label="x:1.0"];
q3 -> q8  [label="y:1.0"];
q3 -> q9  [label="z:1.0"];
q4 -> q5  [label="x:1.0"];
q4 -> q0  [label="y:1.0"];
q4 -> q9  [label="z:1.0"];
q5 -> q2  [label="z:1.0"];
q5 -> q9  [label="x:1.0"];
q5 -> q4  [label="y:1.0"];
q6 -> q0  [label="x:1.0"];
q6 -> q4  [label="y:1.0"];
q6 -> q0  [label="z:1.0"];
q7 -> q5  [label="x:1.0"];
q7 -> q4  [label="y:1.0"];
q7 -> q0  [label="z:1.0"];
q8 -> q2  [label="x:1.0"];
q8 -> q2  [label="z:1.0"];
q8 -> q4  [label="y:1.0"];
q9 -> q9  [label="x:1.0"];
q9 -> q0  [label="y:1.0"];
q9 -> q8  [label="z:1.0"];
__start0 [label="", shape=none];
__start0 -> q0  [label=""];
}
