digraph "benchmarks-true-state-lstar-3seeds/n_states=7-n_outputs=7-glitch_percent=0.05/6a483cefdaadf0f6e379cb284152acb4/RealModel" {
s1 [label="s1|b", shape=record, style=rounded];
s2 [label="s2|g", shape=record, style=rounded];
s3 [label="s3|e", shape=record, style=rounded];
s4 [label="s4|e", shape=record, style=rounded];
s5 [label="s5|b", shape=record, style=rounded];
s6 [label="s6|b", shape=record, style=rounded];
s7 [label="s7|g", shape=record, style=rounded];
s1 -> s3  [label="x"];
s1 -> s7  [label="y"];
s1 -> s5  [label="z"];
s2 -> s3  [label="x"];
s2 -> s1  [label="y"];
s2 -> s4  [label="z"];
s3 -> s4  [label="x"];
s3 -> s6  [label="y"];
s3 -> s2  [label="z"];
s4 -> s6  [label="x"];
s4 -> s1  [label="y"];
s4 -> s7  [label="z"];
s5 -> s4  [label="x"];
s5 -> s3  [label="y"];
s5 -> s4  [label="z"];
s6 -> s1  [label="x"];
s6 -> s1  [label="y"];
s6 -> s5  [label="z"];
s7 -> s5  [label="x"];
s7 -> s6  [label="y"];
s7 -> s3  [label="z"];
__start0 [label="", shape=none];
__start0 -> s1  [label=""];
}
