digraph "benchmarks-true-state-lstar-3seeds/n_states=4-n_outputs=3-glitch_percent=0.0/ece83f0b5e7c9a7cadf842a992f8d62c/rpniGroundTruth" {
s0 [label="s0|c", shape=record, style=rounded];
s1 [label="s1|b", shape=record, style=rounded];
s2 [label="s2|a", shape=record, style=rounded];
s3 [label="s3|c", shape=record, style=rounded];
s0 -> s1  [label="z"];
s0 -> s2  [label="y"];
s0 -> s3  [label="x"];
s1 -> s1  [label="y"];
s1 -> s3  [label="z"];
s1 -> s1  [label="x"];
s2 -> s3  [label="y"];
s2 -> s0  [label="x"];
s2 -> s1  [label="z"];
s3 -> s1  [label="z"];
s3 -> s3  [label="x"];
s3 -> s1  [label="y"];
__start0 [label="", shape=none];
__start0 -> s0  [label=""];
}
