digraph "benchmarks-true-state-lstar-3seeds/n_states=17-n_outputs=5-glitch_percent=0.05/d9a3e4c0072c40bb500aad036c7a76f3/pmsatLearned-N17" {
0 [label="0|a", shape=record, style=rounded];
1 [label="1|b", shape=record, style=rounded];
2 [label="2|c", shape=record, style=rounded];
3 [label="3|d", shape=record, style=rounded];
4 [label="4|e", shape=record, style=rounded];
5 [label="5|b", shape=record, style=rounded];
6 [label="6|e", shape=record, style=rounded];
7 [label="7|a", shape=record, style=rounded];
8 [label="8|c", shape=record, style=rounded];
9 [label="9|a", shape=record, style=rounded];
10 [label="10|e", shape=record, style=rounded];
11 [label="11|d", shape=record, style=rounded];
12 [label="12|e", shape=record, style=rounded];
13 [label="13|a", shape=record, style=rounded];
14 [label="14|c", shape=record, style=rounded];
15 [label="15|a", shape=record, style=rounded];
16 [label="16|e", shape=record, style=rounded];
0 -> 12  [label="z"];
0 -> 11  [label="y"];
0 -> 1  [label="x"];
1 -> 14  [label="y"];
1 -> 6  [label="z"];
1 -> 15  [label="x"];
2 -> 5  [label="y"];
2 -> 9  [label="z"];
2 -> 2  [label="x"];
3 -> 5  [label="x"];
3 -> 6  [label="y"];
3 -> 7  [label="z"];
4 -> 12  [label="x"];
4 -> 10  [label="y"];
4 -> 8  [label="z"];
5 -> 5  [label="x"];
5 -> 5  [label="y"];
5 -> 13  [label="z"];
6 -> 3  [label="x"];
6 -> 15  [label="y"];
6 -> 1  [label="z"];
7 -> 1  [label="x"];
7 -> 15  [label="y"];
7 -> 10  [label="z"];
8 -> 8  [label="x"];
8 -> 3  [label="y"];
8 -> 14  [label="z"];
9 -> 1  [label="x"];
9 -> 3  [label="y"];
9 -> 5  [label="z"];
10 -> 11  [label="x"];
10 -> 10  [label="z"];
10 -> 14  [label="y"];
11 -> 2  [label="x"];
11 -> 7  [label="y"];
11 -> 5  [label="z"];
12 -> 16  [label="x"];
12 -> 13  [label="y"];
12 -> 8  [label="z"];
13 -> 0  [label="x"];
13 -> 12  [label="y"];
13 -> 3  [label="z"];
14 -> 3  [label="x"];
14 -> 10  [label="y"];
14 -> 12  [label="z"];
15 -> 10  [label="x"];
15 -> 4  [label="z"];
15 -> 9  [label="y"];
16 -> 15  [label="x"];
16 -> 0  [label="y"];
16 -> 2  [label="z"];
__start0 [label="", shape=none];
__start0 -> 0  [label=""];
}
