digraph "benchmarks-true-state-lstar-3seeds/n_states=14-n_outputs=3-glitch_percent=0.0/253c21a8835bee701e9cb3c332586e84/alergiaLearned" {
q0 [label="b"];
q1 [label="a"];
q2 [label="a"];
q3 [label="c"];
q4 [label="b"];
q5 [label="c"];
q6 [label="a"];
q0 -> q1  [label="z:0.9166666666666666"];
q0 -> q0  [label="z:0.06666666666666667"];
q0 -> q3  [label="z:0.016666666666666666"];
q0 -> q2  [label="y:0.9166666666666666"];
q0 -> q3  [label="y:0.05"];
q0 -> q0  [label="y:0.03333333333333333"];
q0 -> q3  [label="x:0.9722222222222222"];
q0 -> q0  [label="x:0.027777777777777776"];
q1 -> q4  [label="x:0.8181818181818182"];
q1 -> q1  [label="x:0.09090909090909091"];
q1 -> q3  [label="x:0.09090909090909091"];
q1 -> q5  [label="y:0.9090909090909091"];
q1 -> q0  [label="y:0.09090909090909091"];
q1 -> q1  [label="y:0.0"];
q1 -> q4  [label="z:0.8181818181818182"];
q1 -> q3  [label="z:0.09090909090909091"];
q1 -> q1  [label="z:0.09090909090909091"];
q2 -> q6  [label="x:1.0"];
q2 -> q4  [label="y:1.0"];
q2 -> q5  [label="z:1.0"];
q3 -> q6  [label="x:0.9722222222222222"];
q3 -> q0  [label="x:0.027777777777777776"];
q3 -> q4  [label="y:0.7916666666666666"];
q3 -> q3  [label="y:0.041666666666666664"];
q3 -> q1  [label="y:0.16666666666666666"];
q3 -> q5  [label="z:0.7916666666666666"];
q3 -> q0  [label="z:0.16666666666666666"];
q3 -> q1  [label="z:0.041666666666666664"];
q4 -> q3  [label="x:0.75"];
q4 -> q0  [label="x:0.25"];
q4 -> q3  [label="y:0.5"];
q4 -> q0  [label="y:0.5"];
q4 -> q3  [label="z:0.25"];
q4 -> q0  [label="z:0.5"];
q4 -> q1  [label="z:0.25"];
q5 -> q0  [label="x:0.3333333333333333"];
q5 -> q1  [label="x:0.6666666666666666"];
q5 -> q0  [label="y:0.3333333333333333"];
q5 -> q3  [label="y:0.3333333333333333"];
q5 -> q1  [label="y:0.3333333333333333"];
q5 -> q3  [label="z:0.3333333333333333"];
q5 -> q0  [label="z:0.6666666666666666"];
q6 -> q3  [label="x:1.0"];
q6 -> q3  [label="y:0.5"];
q6 -> q1  [label="y:0.5"];
q6 -> q1  [label="z:0.5"];
q6 -> q0  [label="z:0.5"];
__start0 [label="", shape=none];
__start0 -> q0  [label=""];
}
