digraph "benchmarks-true-state-lstar-3seeds/n_states=17-n_outputs=9-glitch_percent=0.0/abcfa6942ffd12120ee0a36c79b662b3/pmsatLearned-N17" {
0 [label="0|a", shape=record, style=rounded];
1 [label="1|b", shape=record, style=rounded];
2 [label="2|e", shape=record, style=rounded];
3 [label="3|f", shape=record, style=rounded];
4 [label="4|g", shape=record, style=rounded];
5 [label="5|h", shape=record, style=rounded];
6 [label="6|i", shape=record, style=rounded];
7 [label="7|g", shape=record, style=rounded];
8 [label="8|e", shape=record, style=rounded];
9 [label="9|g", shape=record, style=rounded];
10 [label="10|i", shape=record, style=rounded];
11 [label="11|a", shape=record, style=rounded];
12 [label="12|b", shape=record, style=rounded];
13 [label="13|g", shape=record, style=rounded];
14 [label="14|f", shape=record, style=rounded];
15 [label="15|a", shape=record, style=rounded];
16 [label="16|h", shape=record, style=rounded];
0 -> 5  [label="x"];
0 -> 8  [label="y"];
0 -> 10  [label="z"];
1 -> 10  [label="x"];
1 -> 0  [label="y"];
1 -> 13  [label="z"];
2 -> 4  [label="x"];
2 -> 6  [label="y"];
2 -> 7  [label="z"];
3 -> 2  [label="z"];
3 -> 16  [label="y"];
3 -> 1  [label="x"];
4 -> 2  [label="x"];
4 -> 6  [label="y"];
4 -> 12  [label="z"];
5 -> 2  [label="x"];
5 -> 4  [label="y"];
5 -> 5  [label="z"];
6 -> 9  [label="x"];
6 -> 13  [label="y"];
6 -> 10  [label="z"];
7 -> 4  [label="x"];
7 -> 9  [label="y"];
7 -> 1  [label="z"];
8 -> 16  [label="x"];
8 -> 4  [label="y"];
8 -> 6  [label="z"];
9 -> 10  [label="x"];
9 -> 15  [label="y"];
9 -> 8  [label="z"];
10 -> 12  [label="x"];
10 -> 11  [label="y"];
10 -> 15  [label="z"];
11 -> 4  [label="x"];
11 -> 16  [label="y"];
11 -> 10  [label="z"];
12 -> 2  [label="x"];
12 -> 13  [label="y"];
12 -> 0  [label="z"];
13 -> 1  [label="x"];
13 -> 5  [label="y"];
13 -> 15  [label="z"];
14 -> 6  [label="x"];
14 -> 9  [label="y"];
14 -> 0  [label="z"];
15 -> 6  [label="x"];
15 -> 8  [label="y"];
15 -> 0  [label="z"];
16 -> 14  [label="x"];
16 -> 8  [label="y"];
16 -> 9  [label="z"];
__start0 [label="", shape=none];
__start0 -> 3  [label=""];
}
