digraph "benchmarks-true-state-lstar-3seeds/n_states=8-n_outputs=7-glitch_percent=0.02/b8adfdbf5429fd57894eeda5ace0ce49/pmsatLearned-N8-STOC" {
0 [label="0|b", shape=record, style=rounded];
1 [label="1|c", shape=record, style=rounded];
2 [label="2|e", shape=record, style=rounded];
3 [label="3|f", shape=record, style=rounded];
4 [label="4|g", shape=record, style=rounded];
5 [label="5|e", shape=record, style=rounded];
6 [label="6|e", shape=record, style=rounded];
7 [label="7|c", shape=record, style=rounded];
0 -> 4  [label="x (21)"];
0 -> 2  [label="y (8)"];
0 -> 6  [label="z (9)"];
0 -> 1  [label="!y [1]"];
1 -> 0  [label="x (6)"];
1 -> 6  [label="z (6)"];
1 -> 4  [label="y (5)"];
2 -> 1  [label="z (19)"];
2 -> 4  [label="!y [1]"];
2 -> 0  [label="y (31)"];
2 -> 5  [label="x (54)"];
2 -> 6  [label="!x [1]"];
3 -> 0  [label="x (6)"];
3 -> 0  [label="y (6)"];
3 -> 2  [label="z (6)"];
4 -> 3  [label="x (7)"];
4 -> 5  [label="y (7)"];
4 -> 5  [label="z (7)"];
5 -> 6  [label="x (17)"];
5 -> 7  [label="y (19)"];
5 -> 3  [label="z (19)"];
6 -> 2  [label="x (7)"];
6 -> 7  [label="y (7)"];
6 -> 1  [label="z (5)"];
7 -> 7  [label="x (7)"];
7 -> 0  [label="y (7)"];
7 -> 4  [label="z (7)"];
__start0 [label="", shape=none];
__start0 -> 2  [label=""];
}
