digraph "benchmarks-true-state-lstar-3seeds/n_states=15-n_outputs=4-glitch_percent=0.02/638cf65a99e9f61927b42407776d1974/pmsatLearned-N15-STOC" {
0 [label="0|a", shape=record, style=rounded];
1 [label="1|b", shape=record, style=rounded];
2 [label="2|c", shape=record, style=rounded];
3 [label="3|d", shape=record, style=rounded];
4 [label="4|d", shape=record, style=rounded];
5 [label="5|c", shape=record, style=rounded];
6 [label="6|c", shape=record, style=rounded];
7 [label="7|b", shape=record, style=rounded];
8 [label="8|a", shape=record, style=rounded];
9 [label="9|c", shape=record, style=rounded];
10 [label="10|c", shape=record, style=rounded];
11 [label="11|b", shape=record, style=rounded];
12 [label="12|c", shape=record, style=rounded];
13 [label="13|c", shape=record, style=rounded];
14 [label="14|a", shape=record, style=rounded];
0 -> 10  [label="x (30)"];
0 -> 11  [label="z (9)"];
0 -> 14  [label="y (29)"];
0 -> 5  [label="!x [1]"];
1 -> 11  [label="x (9)"];
1 -> 1  [label="y (7)"];
1 -> 0  [label="z (7)"];
2 -> 5  [label="x (14)"];
2 -> 14  [label="y (16)"];
2 -> 2  [label="z (7)"];
3 -> 6  [label="z (64)"];
3 -> 13  [label="y (69)"];
3 -> 4  [label="x (95)"];
3 -> 5  [label="!y [1]"];
3 -> 7  [label="!z [1]"];
3 -> 0  [label="!x [2]"];
3 -> 8  [label="!x [1]"];
4 -> 0  [label="x (55)"];
4 -> 5  [label="y (23)"];
4 -> 2  [label="z (24)"];
4 -> 8  [label="!z [1]"];
4 -> 14  [label="!x [1]"];
5 -> 13  [label="x (15)"];
5 -> 4  [label="y (15)"];
5 -> 8  [label="z (9)"];
6 -> 8  [label="x (22)"];
6 -> 1  [label="y (24)"];
6 -> 7  [label="z (21)"];
6 -> 6  [label="!x [1]"];
7 -> 12  [label="x (9)"];
7 -> 14  [label="y (7)"];
7 -> 7  [label="z (7)"];
8 -> 6  [label="x (8)"];
8 -> 4  [label="y (9)"];
8 -> 0  [label="z (7)"];
9 -> 2  [label="x (15)"];
9 -> 0  [label="y (11)"];
9 -> 10  [label="z (8)"];
10 -> 0  [label="x (11)"];
10 -> 5  [label="y (17)"];
10 -> 2  [label="z (7)"];
11 -> 12  [label="x (11)"];
11 -> 11  [label="y (13)"];
11 -> 5  [label="z (9)"];
12 -> 10  [label="x (12)"];
12 -> 4  [label="y (14)"];
12 -> 5  [label="z (9)"];
13 -> 11  [label="x (24)"];
13 -> 12  [label="y (26)"];
13 -> 9  [label="z (27)"];
14 -> 9  [label="x (11)"];
14 -> 12  [label="y (8)"];
14 -> 9  [label="z (8)"];
__start0 [label="", shape=none];
__start0 -> 3  [label=""];
}
