digraph "benchmarks-true-state-lstar-rc10seeds/n_states=13-n_outputs=5-glitch_percent=0.0/3071f16e24fcfedd545ac2515f6aabca/pmsatLearned_NOP-N13" {
0 [label="0|d", shape=record, style=rounded];
1 [label="1|a", shape=record, style=rounded];
2 [label="2|c", shape=record, style=rounded];
3 [label="3|c", shape=record, style=rounded];
4 [label="4|e", shape=record, style=rounded];
5 [label="5|b", shape=record, style=rounded];
6 [label="6|d", shape=record, style=rounded];
7 [label="7|a", shape=record, style=rounded];
8 [label="8|e", shape=record, style=rounded];
9 [label="9|b", shape=record, style=rounded];
10 [label="10|e", shape=record, style=rounded];
11 [label="11|d", shape=record, style=rounded];
12 [label="12|b", shape=record, style=rounded];
0 -> 1  [label="x"];
0 -> 5  [label="y"];
0 -> 9  [label="z"];
1 -> 3  [label="x"];
1 -> 3  [label="y"];
1 -> 6  [label="z"];
2 -> 0  [label="x"];
2 -> 5  [label="y"];
2 -> 4  [label="z"];
3 -> 3  [label="x"];
3 -> 4  [label="y"];
3 -> 10  [label="z"];
4 -> 11  [label="z"];
4 -> 12  [label="y"];
4 -> 10  [label="x"];
5 -> 6  [label="x"];
5 -> 9  [label="y"];
5 -> 6  [label="z"];
6 -> 5  [label="x"];
6 -> 9  [label="y"];
6 -> 1  [label="z"];
7 -> 11  [label="x"];
7 -> 0  [label="y"];
7 -> 12  [label="z"];
8 -> 8  [label="x"];
8 -> 9  [label="y"];
8 -> 5  [label="z"];
9 -> 10  [label="x"];
9 -> 1  [label="y"];
9 -> 9  [label="z"];
10 -> 0  [label="x"];
10 -> 9  [label="y"];
10 -> 3  [label="z"];
11 -> 8  [label="x"];
11 -> 2  [label="y"];
11 -> 5  [label="z"];
12 -> 7  [label="x"];
12 -> 6  [label="y"];
12 -> 1  [label="z"];
__start0 [label="", shape=none];
__start0 -> 4  [label=""];
}
