digraph "benchmarks-true-state-lstar-3seeds/n_states=14-n_outputs=8-glitch_percent=0.01/1a8525a164f941e2c37d7ed174f3bda5/alergiaLearned" {
q0 [label="d"];
q1 [label="h"];
q2 [label="e"];
q3 [label="c"];
q4 [label="g"];
q5 [label="f"];
q6 [label="e"];
q7 [label="d"];
q8 [label="d"];
q9 [label="a"];
q10 [label="b"];
q0 -> q1  [label="z:0.9322033898305084"];
q0 -> q5  [label="z:0.03389830508474576"];
q0 -> q10  [label="z:0.03389830508474576"];
q0 -> q2  [label="y:0.9649122807017544"];
q0 -> q3  [label="y:0.017543859649122806"];
q0 -> q5  [label="y:0.017543859649122806"];
q0 -> q3  [label="x:0.9444444444444444"];
q0 -> q4  [label="x:0.027777777777777776"];
q0 -> q10  [label="x:0.027777777777777776"];
q1 -> q4  [label="x:1.0"];
q1 -> q6  [label="y:1.0"];
q1 -> q7  [label="z:1.0"];
q2 -> q5  [label="x:1.0"];
q2 -> q4  [label="y:1.0"];
q2 -> q5  [label="z:1.0"];
q3 -> q8  [label="x:1.0"];
q3 -> q9  [label="y:1.0"];
q3 -> q4  [label="z:1.0"];
q4 -> q5  [label="x:0.3333333333333333"];
q4 -> q10  [label="x:0.3333333333333333"];
q4 -> q0  [label="x:0.3333333333333333"];
q4 -> q0  [label="y:0.3333333333333333"];
q4 -> q9  [label="y:0.3333333333333333"];
q4 -> q3  [label="y:0.3333333333333333"];
q4 -> q2  [label="z:0.3333333333333333"];
q4 -> q4  [label="z:0.3333333333333333"];
q4 -> q10  [label="z:0.3333333333333333"];
q5 -> q3  [label="x:0.4"];
q5 -> q9  [label="x:0.6"];
q5 -> q10  [label="y:0.5714285714285714"];
q5 -> q0  [label="y:0.42857142857142855"];
q5 -> q4  [label="z:0.5714285714285714"];
q5 -> q5  [label="z:0.42857142857142855"];
q6 -> q1  [label="x:1.0"];
q6 -> q1  [label="y:1.0"];
q6 -> q0  [label="z:1.0"];
q7 -> q4  [label="x:1.0"];
q7 -> q3  [label="y:1.0"];
q7 -> q5  [label="z:1.0"];
q8 -> q10  [label="x:1.0"];
q8 -> q5  [label="y:1.0"];
q8 -> q10  [label="z:1.0"];
q9 -> q0  [label="x:1.0"];
q9 -> q5  [label="y:1.0"];
q9 -> q0  [label="z:1.0"];
q10 -> q9  [label="y:1.0"];
q10 -> q0  [label="z:1.0"];
q10 -> q5  [label="x:1.0"];
__start0 [label="", shape=none];
__start0 -> q0  [label=""];
}
