digraph "benchmarks-true-state-lstar-rc10seeds/n_states=13-n_outputs=7-glitch_percent=0.01/486d6e05b6322b347a5064d8ba8effa2/pmsatLearned_NOP-N13" {
0 [label="0|e", shape=record, style=rounded];
1 [label="1|a", shape=record, style=rounded];
2 [label="2|b", shape=record, style=rounded];
3 [label="3|d", shape=record, style=rounded];
4 [label="4|a", shape=record, style=rounded];
5 [label="5|e", shape=record, style=rounded];
6 [label="6|b", shape=record, style=rounded];
7 [label="7|b", shape=record, style=rounded];
8 [label="8|d", shape=record, style=rounded];
9 [label="9|g", shape=record, style=rounded];
10 [label="10|a", shape=record, style=rounded];
11 [label="11|c", shape=record, style=rounded];
12 [label="12|f", shape=record, style=rounded];
0 -> 9  [label="x"];
0 -> 2  [label="y"];
0 -> 12  [label="z"];
1 -> 5  [label="x"];
1 -> 1  [label="y"];
1 -> 9  [label="z"];
2 -> 7  [label="x"];
2 -> 5  [label="y"];
2 -> 11  [label="z"];
3 -> 12  [label="z"];
3 -> 5  [label="y"];
3 -> 10  [label="x"];
4 -> 5  [label="x"];
4 -> 9  [label="y"];
4 -> 1  [label="z"];
5 -> 4  [label="x"];
5 -> 8  [label="y"];
5 -> 11  [label="z"];
6 -> 5  [label="x"];
6 -> 8  [label="y"];
6 -> 8  [label="z"];
7 -> 11  [label="x"];
7 -> 0  [label="y"];
7 -> 5  [label="z"];
8 -> 5  [label="x"];
8 -> 10  [label="y"];
8 -> 9  [label="z"];
9 -> 12  [label="x"];
9 -> 12  [label="y"];
9 -> 0  [label="z"];
10 -> 1  [label="x"];
10 -> 2  [label="z"];
10 -> 7  [label="y"];
11 -> 3  [label="x"];
11 -> 1  [label="y"];
11 -> 6  [label="z"];
12 -> 6  [label="x"];
12 -> 9  [label="y"];
12 -> 0  [label="z"];
__start0 [label="", shape=none];
__start0 -> 3  [label=""];
}
