digraph "benchmarks-true-state-lstar-3seeds/n_states=17-n_outputs=2-glitch_percent=0.0/7346858b24638abad375a590c659a767/rpniGroundTruth" {
s0 [label="s0|b", shape=record, style=rounded];
s1 [label="s1|b", shape=record, style=rounded];
s2 [label="s2|b", shape=record, style=rounded];
s3 [label="s3|a", shape=record, style=rounded];
s4 [label="s4|b", shape=record, style=rounded];
s5 [label="s5|a", shape=record, style=rounded];
s6 [label="s6|b", shape=record, style=rounded];
s7 [label="s7|a", shape=record, style=rounded];
s8 [label="s8|a", shape=record, style=rounded];
s9 [label="s9|b", shape=record, style=rounded];
s10 [label="s10|a", shape=record, style=rounded];
s11 [label="s11|b", shape=record, style=rounded];
s12 [label="s12|a", shape=record, style=rounded];
s13 [label="s13|a", shape=record, style=rounded];
s14 [label="s14|b", shape=record, style=rounded];
s15 [label="s15|b", shape=record, style=rounded];
s16 [label="s16|a", shape=record, style=rounded];
s0 -> s1  [label="x"];
s0 -> s2  [label="y"];
s0 -> s3  [label="z"];
s1 -> s4  [label="y"];
s1 -> s5  [label="z"];
s1 -> s6  [label="x"];
s2 -> s7  [label="x"];
s2 -> s8  [label="z"];
s2 -> s9  [label="y"];
s3 -> s10  [label="x"];
s3 -> s11  [label="z"];
s3 -> s12  [label="y"];
s4 -> s13  [label="x"];
s4 -> s7  [label="y"];
s4 -> s13  [label="z"];
s5 -> s8  [label="y"];
s5 -> s4  [label="x"];
s5 -> s9  [label="z"];
s6 -> s14  [label="z"];
s6 -> s15  [label="y"];
s6 -> s16  [label="x"];
s7 -> s0  [label="x"];
s7 -> s13  [label="y"];
s7 -> s13  [label="z"];
s8 -> s11  [label="x"];
s8 -> s3  [label="y"];
s8 -> s7  [label="z"];
s9 -> s12  [label="y"];
s9 -> s14  [label="x"];
s9 -> s16  [label="z"];
s10 -> s10  [label="z"];
s10 -> s2  [label="x"];
s10 -> s7  [label="y"];
s11 -> s8  [label="x"];
s11 -> s15  [label="y"];
s11 -> s2  [label="z"];
s12 -> s3  [label="z"];
s12 -> s5  [label="y"];
s12 -> s0  [label="x"];
s13 -> s0  [label="x"];
s13 -> s15  [label="z"];
s13 -> s12  [label="y"];
s14 -> s14  [label="x"];
s14 -> s11  [label="y"];
s14 -> s12  [label="z"];
s15 -> s6  [label="y"];
s15 -> s9  [label="z"];
s15 -> s10  [label="x"];
s16 -> s8  [label="x"];
s16 -> s14  [label="y"];
s16 -> s14  [label="z"];
__start0 [label="", shape=none];
__start0 -> s0  [label=""];
}
