digraph "benchmarks-true-state-lstar-rc10seeds/n_states=11-n_outputs=3-glitch_percent=0.0/85241ece4edbfd810fb5ccc1ea632ffa/pmsatLearned_NOP-N11-STOC" {
0 [label="0|b", shape=record, style=rounded];
1 [label="1|b", shape=record, style=rounded];
2 [label="2|a", shape=record, style=rounded];
3 [label="3|b", shape=record, style=rounded];
4 [label="4|a", shape=record, style=rounded];
5 [label="5|b", shape=record, style=rounded];
6 [label="6|a", shape=record, style=rounded];
7 [label="7|b", shape=record, style=rounded];
8 [label="8|a", shape=record, style=rounded];
9 [label="9|b", shape=record, style=rounded];
10 [label="10|b", shape=record, style=rounded];
0 -> 10  [label="x (19)"];
0 -> 10  [label="y (9)"];
0 -> 9  [label="z (9)"];
1 -> 5  [label="z (53)"];
1 -> 9  [label="y (103)"];
1 -> 7  [label="x (114)"];
2 -> 10  [label="x (20)"];
2 -> 10  [label="y (14)"];
2 -> 3  [label="z (14)"];
3 -> 7  [label="x (29)"];
3 -> 10  [label="y (21)"];
3 -> 2  [label="z (18)"];
4 -> 9  [label="x (15)"];
4 -> 3  [label="y (8)"];
4 -> 1  [label="z (8)"];
5 -> 6  [label="x (36)"];
5 -> 5  [label="y (9)"];
5 -> 9  [label="z (9)"];
6 -> 6  [label="x (24)"];
6 -> 8  [label="y (15)"];
6 -> 6  [label="z (15)"];
7 -> 10  [label="x (56)"];
7 -> 8  [label="y (43)"];
7 -> 3  [label="z (41)"];
8 -> 7  [label="x (16)"];
8 -> 1  [label="y (9)"];
8 -> 1  [label="z (9)"];
9 -> 2  [label="x (53)"];
9 -> 4  [label="y (38)"];
9 -> 0  [label="z (38)"];
10 -> 3  [label="x (43)"];
10 -> 0  [label="y (20)"];
10 -> 9  [label="z (24)"];
__start0 [label="", shape=none];
__start0 -> 1  [label=""];
}
