digraph "benchmarks-true-state-lstar-songp/n_states=15-n_outputs=2-glitch_percent=0.05-pmstrat='lsu'/872dda68319f32821032f4fe31d386d5/pmsatLearned-N15" {
0 [label="0|a", shape=record, style=rounded];
1 [label="1|b", shape=record, style=rounded];
2 [label="2|b", shape=record, style=rounded];
3 [label="3|b", shape=record, style=rounded];
4 [label="4|b", shape=record, style=rounded];
5 [label="5|b", shape=record, style=rounded];
6 [label="6|b", shape=record, style=rounded];
7 [label="7|b", shape=record, style=rounded];
8 [label="8|a", shape=record, style=rounded];
9 [label="9|b", shape=record, style=rounded];
10 [label="10|a", shape=record, style=rounded];
11 [label="11|a", shape=record, style=rounded];
12 [label="12|a", shape=record, style=rounded];
13 [label="13|b", shape=record, style=rounded];
14 [label="14|b", shape=record, style=rounded];
0 -> 12  [label="y"];
0 -> 1  [label="x"];
1 -> 0  [label="x"];
1 -> 1  [label="y"];
1 -> 0  [label="z"];
2 -> 2  [label="z"];
2 -> 1  [label="y"];
2 -> 10  [label="x"];
3 -> 12  [label="x"];
3 -> 1  [label="y"];
3 -> 0  [label="z"];
4 -> 12  [label="x"];
4 -> 2  [label="y"];
5 -> 2  [label="x"];
5 -> 12  [label="y"];
5 -> 0  [label="z"];
6 -> 0  [label="y"];
6 -> 6  [label="z"];
6 -> 8  [label="x"];
7 -> 7  [label="z"];
7 -> 13  [label="y"];
7 -> 5  [label="x"];
8 -> 4  [label="x"];
8 -> 9  [label="y"];
9 -> 12  [label="y"];
9 -> 9  [label="z"];
9 -> 11  [label="x"];
10 -> 3  [label="z"];
10 -> 0  [label="x"];
10 -> 1  [label="y"];
11 -> 0  [label="z"];
11 -> 1  [label="y"];
11 -> 8  [label="x"];
12 -> 1  [label="x"];
12 -> 9  [label="y"];
12 -> 0  [label="z"];
13 -> 13  [label="z"];
13 -> 4  [label="x"];
13 -> 12  [label="y"];
14 -> 9  [label="x"];
14 -> 7  [label="y"];
__start0 [label="", shape=none];
__start0 -> 0  [label=""];
}
