digraph "benchmarks-true-state-lstar-3seeds/n_states=4-n_outputs=4-glitch_percent=0.01/b6b22b438e038c61f0b1f96b960515b3/RealModel" {
s1 [label="s1|c", shape=record, style=rounded];
s2 [label="s2|d", shape=record, style=rounded];
s3 [label="s3|d", shape=record, style=rounded];
s4 [label="s4|c", shape=record, style=rounded];
s1 -> s2  [label="x"];
s1 -> s4  [label="y"];
s1 -> s3  [label="z"];
s2 -> s1  [label="x"];
s2 -> s1  [label="y"];
s2 -> s4  [label="z"];
s3 -> s1  [label="x"];
s3 -> s3  [label="y"];
s3 -> s1  [label="z"];
s4 -> s1  [label="x"];
s4 -> s1  [label="y"];
s4 -> s3  [label="z"];
__start0 [label="", shape=none];
__start0 -> s1  [label=""];
}
