digraph "pmsatLearned-N8-STOC" {
0 [label="0|a", shape=record, style=rounded];
1 [label="1|b", shape=record, style=rounded];
2 [label="2|c", shape=record, style=rounded];
3 [label="3|d", shape=record, style=rounded];
4 [label="4|e", shape=record, style=rounded];
5 [label="5|a", shape=record, style=rounded];
6 [label="6|e", shape=record, style=rounded];
7 [label="7|a", shape=record, style=rounded];
0 -> 0  [label="z (73)"];
0 -> 5  [label="x (76)"];
0 -> 1  [label="y (64)"];
0 -> 1  [label="!z [1]"];
1 -> 7  [label="x (74)"];
1 -> 5  [label="z (70)"];
1 -> 6  [label="y (51)"];
1 -> 5  [label="!x [1]"];
1 -> 0  [label="!z [1]"];
1 -> 5  [label="!y [1]"];
2 -> 5  [label="x (43)"];
2 -> 2  [label="y (35)"];
2 -> 7  [label="z (32)"];
3 -> 2  [label="x (11)"];
3 -> 7  [label="y (14)"];
3 -> 5  [label="z (10)"];
4 -> 2  [label="z (54)"];
4 -> 6  [label="y (58)"];
4 -> 7  [label="x (107)"];
4 -> 4  [label="!y [1]"];
4 -> 0  [label="!x [1]"];
4 -> 3  [label="!x [1] t1"];
4 -> 1  [label="!z [1]"];
5 -> 5  [label="x (133)"];
5 -> 0  [label="y (116)"];
5 -> 1  [label="z (88)"];
5 -> 5  [label="!y [1]"];
6 -> 3  [label="x (38)"];
6 -> 2  [label="y (32)"];
6 -> 1  [label="z (26)"];
7 -> 0  [label="x (67)"];
7 -> 5  [label="y (71)"];
7 -> 1  [label="z (63)"];
__start0 [label="", shape=none];
__start0 -> 4  [label=""];
}
