digraph "benchmarks-true-state-lstar-3seeds/n_states=10-n_outputs=5-glitch_percent=0.1/db5fa5d02c52720331e11387418b945e/pmsatLearned-N10-STOC" {
0 [label="0|a", shape=record, style=rounded];
1 [label="1|b", shape=record, style=rounded];
2 [label="2|c", shape=record, style=rounded];
3 [label="3|d", shape=record, style=rounded];
4 [label="4|e", shape=record, style=rounded];
5 [label="5|e", shape=record, style=rounded];
6 [label="6|b", shape=record, style=rounded];
7 [label="7|d", shape=record, style=rounded];
8 [label="8|a", shape=record, style=rounded];
9 [label="9|b", shape=record, style=rounded];
0 -> 1  [label="x (6)"];
0 -> 7  [label="y (4)"];
0 -> 4  [label="z (3)"];
0 -> 9  [label="!y [1]"];
1 -> 9  [label="x (8)"];
1 -> 4  [label="y (8)"];
1 -> 2  [label="z (6)"];
1 -> 9  [label="!y [1]"];
1 -> 9  [label="!z [1]"];
2 -> 4  [label="x (5)"];
2 -> 1  [label="y (3)"];
2 -> 5  [label="z (5)"];
2 -> 1  [label="!z [1]"];
3 -> 8  [label="z (18)"];
3 -> 4  [label="y (48)"];
3 -> 5  [label="x (47)"];
3 -> 2  [label="!z [2]"];
3 -> 7  [label="!x [2]"];
3 -> 9  [label="!y [3]"];
3 -> 1  [label="!y [1]"];
4 -> 0  [label="x (19)"];
4 -> 9  [label="y (18)"];
4 -> 1  [label="z (17)"];
4 -> 4  [label="!z [1]"];
4 -> 1  [label="!x [1]"];
5 -> 7  [label="x (16)"];
5 -> 6  [label="y (18)"];
5 -> 2  [label="z (13)"];
5 -> 5  [label="!x [1]"];
6 -> 5  [label="x (6)"];
6 -> 4  [label="y (5)"];
6 -> 0  [label="z (6)"];
6 -> 9  [label="!z [1]"];
7 -> 1  [label="y (7)"];
7 -> 7  [label="x (7)"];
7 -> 6  [label="z (8)"];
7 -> 2  [label="!z [1]"];
8 -> 7  [label="y (5)"];
8 -> 4  [label="z (5)"];
8 -> 7  [label="x (3)"];
8 -> 9  [label="!y [1]"];
9 -> 1  [label="x (5)"];
9 -> 3  [label="y (6)"];
9 -> 7  [label="z (5)"];
__start0 [label="", shape=none];
__start0 -> 3  [label=""];
}
