digraph "benchmarks-true-state-lstar-3seeds/n_states=5-n_outputs=5-glitch_percent=0.1/161aebfd67f253bd507725ed73aa2c6e/alergiaLearned" {
q0 [label="e"];
q1 [label="c"];
q2 [label="e"];
q3 [label="e"];
q4 [label="b"];
q0 -> q1  [label="z:0.9583333333333334"];
q0 -> q0  [label="z:0.041666666666666664"];
q0 -> q2  [label="y:0.9032258064516129"];
q0 -> q1  [label="y:0.0967741935483871"];
q0 -> q3  [label="x:0.8367346938775511"];
q0 -> q1  [label="x:0.04081632653061224"];
q0 -> q4  [label="x:0.12244897959183673"];
q1 -> q1  [label="x:1.0"];
q1 -> q0  [label="y:1.0"];
q1 -> q0  [label="z:1.0"];
q2 -> q0  [label="x:0.9166666666666666"];
q2 -> q1  [label="x:0.08333333333333333"];
q2 -> q0  [label="y:1.0"];
q2 -> q1  [label="z:1.0"];
q3 -> q4  [label="x:0.875"];
q3 -> q0  [label="x:0.125"];
q3 -> q1  [label="y:0.8"];
q3 -> q0  [label="y:0.2"];
q3 -> q1  [label="z:0.8"];
q3 -> q0  [label="z:0.2"];
q4 -> q0  [label="x:1.0"];
q4 -> q1  [label="y:1.0"];
q4 -> q0  [label="z:1.0"];
__start0 [label="", shape=none];
__start0 -> q0  [label=""];
}
