digraph "benchmarks-true-state-lstar-3seeds/n_states=8-n_outputs=6-glitch_percent=0.1/f6da3435ff553f79c4bd63728f494692/RealModel" {
s1 [label="s1|b", shape=record, style=rounded];
s2 [label="s2|e", shape=record, style=rounded];
s3 [label="s3|e", shape=record, style=rounded];
s4 [label="s4|b", shape=record, style=rounded];
s5 [label="s5|b", shape=record, style=rounded];
s6 [label="s6|b", shape=record, style=rounded];
s7 [label="s7|e", shape=record, style=rounded];
s8 [label="s8|c", shape=record, style=rounded];
s1 -> s8  [label="x"];
s1 -> s5  [label="y"];
s1 -> s7  [label="z"];
s2 -> s4  [label="x"];
s2 -> s1  [label="y"];
s2 -> s8  [label="z"];
s3 -> s5  [label="x"];
s3 -> s6  [label="y"];
s3 -> s8  [label="z"];
s4 -> s8  [label="x"];
s4 -> s3  [label="y"];
s4 -> s6  [label="z"];
s5 -> s2  [label="x"];
s5 -> s7  [label="y"];
s5 -> s5  [label="z"];
s6 -> s1  [label="x"];
s6 -> s5  [label="y"];
s6 -> s1  [label="z"];
s7 -> s7  [label="x"];
s7 -> s1  [label="y"];
s7 -> s2  [label="z"];
s8 -> s6  [label="x"];
s8 -> s4  [label="y"];
s8 -> s3  [label="z"];
__start0 [label="", shape=none];
__start0 -> s1  [label=""];
}
