digraph "benchmarks-true-state-lstar-songp/n_states=10-n_outputs=6-glitch_percent=0.02-pmstrat='lsu'/76e025c3b0fdb7faa9be1e3048b6c683/pmsatLearned-N10" {
0 [label="0|a", shape=record, style=rounded];
1 [label="1|b", shape=record, style=rounded];
2 [label="2|c", shape=record, style=rounded];
3 [label="3|d", shape=record, style=rounded];
4 [label="4|f", shape=record, style=rounded];
5 [label="5|d", shape=record, style=rounded];
6 [label="6|c", shape=record, style=rounded];
7 [label="7|f", shape=record, style=rounded];
8 [label="8|f", shape=record, style=rounded];
9 [label="9|a", shape=record, style=rounded];
0 -> 8  [label="z"];
0 -> 6  [label="y"];
0 -> 9  [label="x"];
1 -> 3  [label="x"];
1 -> 4  [label="y"];
1 -> 8  [label="z"];
2 -> 4  [label="z"];
2 -> 6  [label="x"];
2 -> 8  [label="y"];
3 -> 6  [label="x"];
3 -> 9  [label="z"];
3 -> 4  [label="y"];
4 -> 6  [label="x"];
4 -> 0  [label="y"];
4 -> 3  [label="z"];
5 -> 7  [label="x"];
5 -> 4  [label="y"];
5 -> 8  [label="z"];
6 -> 7  [label="x"];
6 -> 1  [label="y"];
6 -> 4  [label="z"];
7 -> 3  [label="x"];
7 -> 9  [label="y"];
7 -> 5  [label="z"];
8 -> 4  [label="x"];
8 -> 0  [label="y"];
8 -> 6  [label="z"];
9 -> 2  [label="x"];
9 -> 3  [label="y"];
9 -> 5  [label="z"];
__start0 [label="", shape=none];
__start0 -> 0  [label=""];
}
