digraph "benchmarks-true-state-lstar-3seeds/n_states=15-n_outputs=9-glitch_percent=0.05/11046931c12f478ec3782201c8168afc/pmsatLearned-N15-STOC" {
0 [label="0|a", shape=record, style=rounded];
1 [label="1|c", shape=record, style=rounded];
2 [label="2|e", shape=record, style=rounded];
3 [label="3|f", shape=record, style=rounded];
4 [label="4|g", shape=record, style=rounded];
5 [label="5|h", shape=record, style=rounded];
6 [label="6|i", shape=record, style=rounded];
7 [label="7|g", shape=record, style=rounded];
8 [label="8|c", shape=record, style=rounded];
9 [label="9|f", shape=record, style=rounded];
10 [label="10|a", shape=record, style=rounded];
11 [label="11|a", shape=record, style=rounded];
12 [label="12|h", shape=record, style=rounded];
13 [label="13|a", shape=record, style=rounded];
14 [label="14|c", shape=record, style=rounded];
0 -> 14  [label="x (6)"];
0 -> 8  [label="y (6)"];
0 -> 9  [label="z (5)"];
1 -> 11  [label="x (15)"];
1 -> 3  [label="y (15)"];
1 -> 5  [label="z (16)"];
1 -> 13  [label="!z [1]"];
1 -> 13  [label="!y [1]"];
2 -> 14  [label="z (51)"];
2 -> 1  [label="y (51)"];
2 -> 7  [label="x (72)"];
2 -> 4  [label="!y [1]"];
2 -> 4  [label="!x [1]"];
2 -> 5  [label="!z [1]"];
2 -> 11  [label="!x [2]"];
3 -> 14  [label="x (6)"];
3 -> 13  [label="y (5)"];
3 -> 13  [label="z (4)"];
4 -> 0  [label="x (6)"];
4 -> 2  [label="y (6)"];
4 -> 13  [label="z (7)"];
5 -> 4  [label="x (7)"];
5 -> 8  [label="y (7)"];
5 -> 6  [label="z (7)"];
6 -> 9  [label="x (9)"];
6 -> 11  [label="y (9)"];
6 -> 5  [label="z (9)"];
7 -> 10  [label="x (39)"];
7 -> 4  [label="y (16)"];
7 -> 12  [label="z (16)"];
7 -> 13  [label="!x [1]"];
7 -> 6  [label="!y [1]"];
8 -> 6  [label="x (8)"];
8 -> 11  [label="y (8)"];
8 -> 8  [label="z (8)"];
9 -> 6  [label="x (7)"];
9 -> 3  [label="y (7)"];
9 -> 10  [label="z (5)"];
9 -> 13  [label="!x [1]"];
10 -> 13  [label="x (16)"];
10 -> 10  [label="z (9)"];
10 -> 6  [label="y (19)"];
10 -> 5  [label="!z [1]"];
11 -> 10  [label="x (8)"];
11 -> 7  [label="y (8)"];
11 -> 10  [label="z (5)"];
12 -> 7  [label="x (4)"];
12 -> 13  [label="y (5)"];
12 -> 11  [label="z (4)"];
12 -> 0  [label="!x [1]"];
13 -> 4  [label="x (9)"];
13 -> 6  [label="y (8)"];
13 -> 5  [label="z (7)"];
14 -> 8  [label="x (18)"];
14 -> 0  [label="y (18)"];
14 -> 9  [label="z (17)"];
14 -> 11  [label="!z [1]"];
__start0 [label="", shape=none];
__start0 -> 2  [label=""];
}
