digraph "benchmarks-true-state-lstar-rc10seeds/n_states=16-n_outputs=7-glitch_percent=0.05/a8a6d3b7d333ab17fb974f28df75affa/pmsatLearned_NOP-N16" {
0 [label="0|e", shape=record, style=rounded];
1 [label="1|c", shape=record, style=rounded];
2 [label="2|c", shape=record, style=rounded];
3 [label="3|d", shape=record, style=rounded];
4 [label="4|e", shape=record, style=rounded];
5 [label="5|d", shape=record, style=rounded];
6 [label="6|a", shape=record, style=rounded];
7 [label="7|c", shape=record, style=rounded];
8 [label="8|f", shape=record, style=rounded];
9 [label="9|d", shape=record, style=rounded];
10 [label="10|d", shape=record, style=rounded];
11 [label="11|e", shape=record, style=rounded];
12 [label="12|e", shape=record, style=rounded];
13 [label="13|a", shape=record, style=rounded];
14 [label="14|d", shape=record, style=rounded];
15 [label="15|g", shape=record, style=rounded];
0 -> 14  [label="x"];
0 -> 4  [label="y"];
0 -> 0  [label="z"];
1 -> 5  [label="z"];
1 -> 4  [label="y"];
1 -> 13  [label="x"];
2 -> 0  [label="x"];
2 -> 10  [label="y"];
2 -> 2  [label="z"];
3 -> 2  [label="x"];
3 -> 13  [label="y"];
3 -> 3  [label="z"];
4 -> 3  [label="x"];
4 -> 0  [label="y"];
4 -> 14  [label="z"];
5 -> 10  [label="x"];
5 -> 7  [label="y"];
5 -> 2  [label="z"];
6 -> 2  [label="x"];
6 -> 13  [label="y"];
6 -> 0  [label="z"];
7 -> 8  [label="x"];
7 -> 4  [label="y"];
7 -> 15  [label="z"];
8 -> 11  [label="x"];
8 -> 13  [label="z"];
8 -> 0  [label="y"];
9 -> 0  [label="x"];
9 -> 14  [label="y"];
9 -> 7  [label="z"];
10 -> 2  [label="x"];
10 -> 14  [label="y"];
10 -> 7  [label="z"];
11 -> 8  [label="x"];
11 -> 15  [label="y"];
11 -> 12  [label="z"];
12 -> 11  [label="x"];
12 -> 2  [label="y"];
12 -> 4  [label="z"];
13 -> 11  [label="x"];
13 -> 9  [label="z"];
13 -> 6  [label="y"];
14 -> 13  [label="x"];
14 -> 11  [label="y"];
14 -> 4  [label="z"];
15 -> 8  [label="x"];
15 -> 10  [label="y"];
15 -> 6  [label="z"];
__start0 [label="", shape=none];
__start0 -> 1  [label=""];
}
