digraph "benchmarks-true-state-lstar-3seeds/n_states=12-n_outputs=2-glitch_percent=0.0/f4a9d62aab1db1c25d3abc25443586f6/pmsatLearned-N12-STOC" {
0 [label="0|a", shape=record, style=rounded];
1 [label="1|b", shape=record, style=rounded];
2 [label="2|a", shape=record, style=rounded];
3 [label="3|b", shape=record, style=rounded];
4 [label="4|b", shape=record, style=rounded];
5 [label="5|b", shape=record, style=rounded];
6 [label="6|b", shape=record, style=rounded];
7 [label="7|a", shape=record, style=rounded];
8 [label="8|a", shape=record, style=rounded];
9 [label="9|b", shape=record, style=rounded];
10 [label="10|a", shape=record, style=rounded];
11 [label="11|b", shape=record, style=rounded];
0 -> 5  [label="x (18)"];
0 -> 5  [label="y (12)"];
0 -> 6  [label="z (10)"];
1 -> 2  [label="z (84)"];
1 -> 9  [label="y (100)"];
1 -> 5  [label="x (114)"];
2 -> 0  [label="x (31)"];
2 -> 7  [label="y (35)"];
2 -> 10  [label="z (8)"];
3 -> 6  [label="x (33)"];
3 -> 3  [label="y (22)"];
3 -> 11  [label="z (18)"];
4 -> 1  [label="x (14)"];
4 -> 1  [label="y (9)"];
4 -> 9  [label="z (8)"];
5 -> 3  [label="x (55)"];
5 -> 11  [label="y (51)"];
5 -> 4  [label="z (49)"];
6 -> 5  [label="x (22)"];
6 -> 0  [label="y (36)"];
6 -> 5  [label="z (27)"];
7 -> 10  [label="x (15)"];
7 -> 10  [label="y (15)"];
7 -> 7  [label="z (9)"];
8 -> 10  [label="x (13)"];
8 -> 5  [label="y (9)"];
8 -> 3  [label="z (8)"];
9 -> 6  [label="x (43)"];
9 -> 8  [label="y (34)"];
9 -> 10  [label="z (31)"];
10 -> 6  [label="x (31)"];
10 -> 3  [label="y (22)"];
10 -> 1  [label="z (16)"];
11 -> 6  [label="x (19)"];
11 -> 9  [label="y (11)"];
11 -> 10  [label="z (9)"];
__start0 [label="", shape=none];
__start0 -> 1  [label=""];
}
