digraph "benchmarks-true-state-lstar-3seeds/n_states=2-n_outputs=2-glitch_percent=0.01/ac312377cdd0c76320f0035d59573add/pmsatLearned-N2" {
0 [label="0|a", shape=record, style=rounded];
1 [label="1|b", shape=record, style=rounded];
0 -> 1  [label="z"];
0 -> 0  [label="y"];
0 -> 1  [label="x"];
1 -> 0  [label="x"];
1 -> 0  [label="y"];
1 -> 1  [label="z"];
__start0 [label="", shape=none];
__start0 -> 0  [label=""];
}
