digraph "benchmarks-true-state-lstar-3seeds/n_states=15-n_outputs=2-glitch_percent=0.02/6432c9efff8df460bfb28ab87ee4379a/pmsatLearned-N15" {
0 [label="0|a", shape=record, style=rounded];
1 [label="1|b", shape=record, style=rounded];
2 [label="2|a", shape=record, style=rounded];
3 [label="3|a", shape=record, style=rounded];
4 [label="4|a", shape=record, style=rounded];
5 [label="5|b", shape=record, style=rounded];
6 [label="6|a", shape=record, style=rounded];
7 [label="7|b", shape=record, style=rounded];
8 [label="8|a", shape=record, style=rounded];
9 [label="9|a", shape=record, style=rounded];
10 [label="10|a", shape=record, style=rounded];
11 [label="11|b", shape=record, style=rounded];
12 [label="12|a", shape=record, style=rounded];
13 [label="13|b", shape=record, style=rounded];
14 [label="14|b", shape=record, style=rounded];
0 -> 7  [label="x"];
0 -> 3  [label="y"];
0 -> 10  [label="z"];
1 -> 4  [label="z"];
1 -> 13  [label="y"];
1 -> 11  [label="x"];
2 -> 7  [label="x"];
2 -> 9  [label="y"];
2 -> 3  [label="z"];
3 -> 10  [label="x"];
3 -> 11  [label="y"];
3 -> 10  [label="z"];
4 -> 10  [label="x"];
4 -> 5  [label="y"];
4 -> 3  [label="z"];
5 -> 13  [label="x"];
5 -> 1  [label="z"];
5 -> 1  [label="y"];
6 -> 11  [label="x"];
6 -> 12  [label="y"];
6 -> 1  [label="z"];
7 -> 9  [label="x"];
7 -> 4  [label="y"];
7 -> 1  [label="z"];
8 -> 4  [label="y"];
8 -> 4  [label="z"];
8 -> 4  [label="x"];
9 -> 7  [label="x"];
9 -> 8  [label="y"];
9 -> 12  [label="z"];
10 -> 12  [label="x"];
10 -> 4  [label="y"];
10 -> 5  [label="z"];
11 -> 9  [label="x"];
11 -> 0  [label="y"];
11 -> 6  [label="z"];
12 -> 5  [label="x"];
12 -> 5  [label="y"];
12 -> 6  [label="z"];
13 -> 2  [label="x"];
13 -> 14  [label="y"];
13 -> 12  [label="z"];
14 -> 0  [label="x"];
14 -> 0  [label="y"];
14 -> 14  [label="z"];
__start0 [label="", shape=none];
__start0 -> 1  [label=""];
}
