digraph "benchmarks-true-state-lstar-songp/n_states=9-n_outputs=3-glitch_percent=0.02-pmstrat='rc2'/5281f8dee30048972d1b912956b206d8/pmsatLearned-N9-STOC" {
0 [label="0|a", shape=record, style=rounded];
1 [label="1|b", shape=record, style=rounded];
2 [label="2|c", shape=record, style=rounded];
3 [label="3|a", shape=record, style=rounded];
4 [label="4|c", shape=record, style=rounded];
5 [label="5|c", shape=record, style=rounded];
6 [label="6|a", shape=record, style=rounded];
7 [label="7|b", shape=record, style=rounded];
8 [label="8|b", shape=record, style=rounded];
0 -> 7  [label="z (18)"];
0 -> 8  [label="y (40)"];
0 -> 6  [label="x (54)"];
0 -> 0  [label="!z [1]"];
1 -> 4  [label="x (8)"];
1 -> 5  [label="y (8)"];
1 -> 1  [label="z (8)"];
2 -> 0  [label="x (6)"];
2 -> 1  [label="y (6)"];
2 -> 1  [label="z (6)"];
3 -> 5  [label="x (5)"];
3 -> 4  [label="y (5)"];
3 -> 6  [label="z (4)"];
4 -> 5  [label="x (10)"];
4 -> 6  [label="y (9)"];
4 -> 2  [label="z (9)"];
5 -> 7  [label="x (10)"];
5 -> 5  [label="y (10)"];
5 -> 4  [label="z (10)"];
6 -> 2  [label="x (20)"];
6 -> 4  [label="z (20)"];
6 -> 1  [label="y (19)"];
6 -> 0  [label="!z [1]"];
7 -> 4  [label="x (6)"];
7 -> 4  [label="y (6)"];
7 -> 5  [label="z (6)"];
8 -> 3  [label="x (16)"];
8 -> 5  [label="y (17)"];
8 -> 6  [label="z (4)"];
__start0 [label="", shape=none];
__start0 -> 0  [label=""];
}
