digraph "benchmarks-true-state-lstar-3seeds/n_states=13-n_outputs=2-glitch_percent=0.1/f477ddda6b6657e9ba956b898a825215/alergiaLearned" {
q0 [label="b"];
q1 [label="a"];
q2 [label="b"];
q3 [label="b"];
q4 [label="a"];
q5 [label="a"];
q6 [label="b"];
q7 [label="b"];
q8 [label="b"];
q0 -> q1  [label="z:0.8620689655172413"];
q0 -> q0  [label="z:0.13793103448275862"];
q0 -> q2  [label="y:0.944954128440367"];
q0 -> q4  [label="y:0.05504587155963303"];
q0 -> q3  [label="x:0.9008264462809917"];
q0 -> q4  [label="x:0.09917355371900827"];
q1 -> q5  [label="x:0.7209302325581395"];
q1 -> q2  [label="x:0.27906976744186046"];
q1 -> q4  [label="y:0.9361702127659575"];
q1 -> q6  [label="y:0.06382978723404255"];
q1 -> q6  [label="z:0.8857142857142857"];
q1 -> q1  [label="z:0.11428571428571428"];
q2 -> q0  [label="y:0.8809523809523809"];
q2 -> q1  [label="y:0.11904761904761904"];
q2 -> q6  [label="z:0.9032258064516129"];
q2 -> q1  [label="z:0.0967741935483871"];
q2 -> q1  [label="x:0.08333333333333333"];
q2 -> q7  [label="x:0.9166666666666666"];
q3 -> q4  [label="x:0.9024390243902439"];
q3 -> q0  [label="x:0.0975609756097561"];
q3 -> q8  [label="z:0.8421052631578947"];
q3 -> q1  [label="z:0.15789473684210525"];
q3 -> q5  [label="y:0.8536585365853658"];
q3 -> q0  [label="y:0.14634146341463414"];
q4 -> q0  [label="x:0.9444444444444444"];
q4 -> q1  [label="x:0.05555555555555555"];
q4 -> q3  [label="y:0.9545454545454546"];
q4 -> q1  [label="y:0.045454545454545456"];
q4 -> q4  [label="z:1.0"];
q4 -> q0  [label="z:0.0"];
q5 -> q0  [label="x:0.88"];
q5 -> q4  [label="x:0.12"];
q5 -> q2  [label="z:0.5384615384615384"];
q5 -> q1  [label="z:0.46153846153846156"];
q5 -> q4  [label="y:1.0"];
q6 -> q1  [label="x:0.88"];
q6 -> q0  [label="x:0.12"];
q6 -> q1  [label="z:0.42857142857142855"];
q6 -> q3  [label="z:0.5714285714285714"];
q6 -> q6  [label="y:1.0"];
q7 -> q2  [label="y:0.9166666666666666"];
q7 -> q1  [label="y:0.08333333333333333"];
q7 -> q1  [label="z:1.0"];
q7 -> q1  [label="x:1.0"];
q8 -> q3  [label="x:0.9090909090909091"];
q8 -> q1  [label="x:0.09090909090909091"];
q8 -> q0  [label="y:1.0"];
q8 -> q3  [label="z:1.0"];
__start0 [label="", shape=none];
__start0 -> q0  [label=""];
}
