digraph "benchmarks-true-state-lstar-3seeds/n_states=17-n_outputs=5-glitch_percent=0.02/72a39620a3448751789750c80c4b393e/pmsatLearned-N17" {
0 [label="0|b", shape=record, style=rounded];
1 [label="1|c", shape=record, style=rounded];
2 [label="2|d", shape=record, style=rounded];
3 [label="3|e", shape=record, style=rounded];
4 [label="4|d", shape=record, style=rounded];
5 [label="5|e", shape=record, style=rounded];
6 [label="6|d", shape=record, style=rounded];
7 [label="7|b", shape=record, style=rounded];
8 [label="8|c", shape=record, style=rounded];
9 [label="9|b", shape=record, style=rounded];
10 [label="10|e", shape=record, style=rounded];
11 [label="11|e", shape=record, style=rounded];
12 [label="12|e", shape=record, style=rounded];
13 [label="13|e", shape=record, style=rounded];
14 [label="14|b", shape=record, style=rounded];
15 [label="15|c", shape=record, style=rounded];
16 [label="16|e", shape=record, style=rounded];
0 -> 12  [label="z"];
0 -> 1  [label="y"];
0 -> 11  [label="x"];
1 -> 15  [label="x"];
1 -> 2  [label="y"];
1 -> 14  [label="z"];
2 -> 9  [label="x"];
2 -> 9  [label="y"];
2 -> 7  [label="z"];
3 -> 8  [label="x"];
3 -> 13  [label="y"];
3 -> 3  [label="z"];
4 -> 15  [label="x"];
4 -> 6  [label="y"];
4 -> 9  [label="z"];
5 -> 12  [label="z"];
5 -> 9  [label="x"];
5 -> 6  [label="y"];
6 -> 9  [label="x"];
6 -> 15  [label="y"];
6 -> 7  [label="z"];
7 -> 6  [label="x"];
7 -> 11  [label="y"];
7 -> 11  [label="z"];
8 -> 0  [label="x"];
8 -> 8  [label="y"];
8 -> 16  [label="z"];
9 -> 7  [label="x"];
9 -> 12  [label="y"];
9 -> 13  [label="z"];
10 -> 7  [label="x"];
10 -> 12  [label="y"];
10 -> 7  [label="z"];
11 -> 9  [label="y"];
11 -> 10  [label="z"];
11 -> 16  [label="x"];
12 -> 3  [label="x"];
12 -> 6  [label="y"];
12 -> 13  [label="z"];
13 -> 3  [label="x"];
13 -> 11  [label="y"];
13 -> 15  [label="z"];
14 -> 12  [label="x"];
14 -> 0  [label="y"];
14 -> 8  [label="z"];
15 -> 15  [label="x"];
15 -> 0  [label="y"];
15 -> 16  [label="z"];
16 -> 5  [label="x"];
16 -> 8  [label="y"];
16 -> 4  [label="z"];
__start0 [label="", shape=none];
__start0 -> 0  [label=""];
}
