digraph "benchmarks-true-state-lstar-3seeds/n_states=9-n_outputs=4-glitch_percent=0.1/c45fbd9c36a531b736a2fa976c0d6074/alergiaLearned" {
q0 [label="b"];
q1 [label="c"];
q2 [label="d"];
q3 [label="c"];
q4 [label="a"];
q5 [label="b"];
q0 -> q1  [label="z:0.9444444444444444"];
q0 -> q2  [label="z:0.05555555555555555"];
q0 -> q2  [label="y:0.9302325581395349"];
q0 -> q4  [label="y:0.06976744186046512"];
q0 -> q2  [label="x:0.1111111111111111"];
q0 -> q3  [label="x:0.8518518518518519"];
q0 -> q0  [label="x:0.037037037037037035"];
q1 -> q1  [label="x:0.75"];
q1 -> q2  [label="x:0.25"];
q1 -> q1  [label="y:0.7777777777777778"];
q1 -> q4  [label="y:0.2222222222222222"];
q1 -> q2  [label="z:1.0"];
q2 -> q5  [label="x:0.7142857142857143"];
q2 -> q2  [label="x:0.21428571428571427"];
q2 -> q4  [label="x:0.07142857142857142"];
q2 -> q4  [label="y:1.0"];
q2 -> q0  [label="z:0.3125"];
q2 -> q1  [label="z:0.3125"];
q2 -> q2  [label="z:0.375"];
q3 -> q4  [label="y:1.0"];
q3 -> q2  [label="z:0.8823529411764706"];
q3 -> q4  [label="z:0.058823529411764705"];
q3 -> q1  [label="z:0.058823529411764705"];
q3 -> q2  [label="x:1.0"];
q4 -> q1  [label="y:0.4666666666666667"];
q4 -> q4  [label="y:0.5333333333333333"];
q4 -> q4  [label="x:1.0"];
q4 -> q0  [label="z:0.5833333333333334"];
q4 -> q4  [label="z:0.4166666666666667"];
q5 -> q2  [label="y:1.0"];
q5 -> q1  [label="z:1.0"];
q5 -> q0  [label="x:0.25"];
q5 -> q2  [label="x:0.5"];
q5 -> q1  [label="x:0.25"];
__start0 [label="", shape=none];
__start0 -> q0  [label=""];
}
