digraph "benchmarks-true-state-lstar-songp/n_states=4-n_outputs=4-glitch_percent=0.1-pmstrat='lsu'/c5978eb5b48d25da88c99970fe2e95a9/RealModel" {
s1 [label="s1|a", shape=record, style=rounded];
s2 [label="s2|c", shape=record, style=rounded];
s3 [label="s3|b", shape=record, style=rounded];
s4 [label="s4|d", shape=record, style=rounded];
s1 -> s3  [label="x"];
s1 -> s2  [label="y"];
s1 -> s4  [label="z"];
s2 -> s3  [label="x"];
s2 -> s4  [label="y"];
s2 -> s4  [label="z"];
s3 -> s4  [label="x"];
s3 -> s1  [label="y"];
s3 -> s4  [label="z"];
s4 -> s2  [label="x"];
s4 -> s1  [label="y"];
s4 -> s1  [label="z"];
__start0 [label="", shape=none];
__start0 -> s1  [label=""];
}
