digraph "benchmarks-true-state-lstar-3seeds/n_states=8-n_outputs=7-glitch_percent=0.1/949604c65c09e3501544ebf38026d665/pmsatLearned-N8-STOC" {
0 [label="0|a", shape=record, style=rounded];
1 [label="1|b", shape=record, style=rounded];
2 [label="2|d", shape=record, style=rounded];
3 [label="3|e", shape=record, style=rounded];
4 [label="4|f", shape=record, style=rounded];
5 [label="5|g", shape=record, style=rounded];
6 [label="6|d", shape=record, style=rounded];
7 [label="7|e", shape=record, style=rounded];
0 -> 0  [label="x (9)"];
0 -> 7  [label="y (8)"];
0 -> 0  [label="z (9)"];
1 -> 7  [label="x (4)"];
1 -> 5  [label="z (6)"];
1 -> 7  [label="y (4)"];
1 -> 1  [label="!x [1]"];
2 -> 7  [label="z (16)"];
2 -> 5  [label="y (23)"];
2 -> 5  [label="!z [1]"];
2 -> 3  [label="x (48)"];
2 -> 1  [label="!x [1]"];
2 -> 3  [label="!y [2]"];
2 -> 4  [label="!y [3]"];
2 -> 6  [label="!x [2]"];
2 -> 1  [label="!z [2]"];
3 -> 0  [label="x (18)"];
3 -> 4  [label="y (14)"];
3 -> 1  [label="z (15)"];
3 -> 5  [label="!z [1]"];
3 -> 7  [label="!y [2]"];
3 -> 5  [label="!x [2]"];
4 -> 5  [label="x (3)"];
4 -> 3  [label="y (5)"];
4 -> 7  [label="z (4)"];
4 -> 1  [label="!y [1]"];
5 -> 5  [label="z (6)"];
5 -> 6  [label="x (16)"];
5 -> 3  [label="y (6)"];
6 -> 0  [label="x (5)"];
6 -> 7  [label="y (5)"];
6 -> 5  [label="z (4)"];
7 -> 1  [label="x (8)"];
7 -> 1  [label="y (8)"];
7 -> 0  [label="z (10)"];
7 -> 3  [label="!y [1]"];
__start0 [label="", shape=none];
__start0 -> 2  [label=""];
}
