digraph "benchmarks-true-state-lstar-3seeds/n_states=16-n_outputs=6-glitch_percent=0.01/41250b10558bd9da512378447dd71516/pmsatLearned-N16-STOC" {
0 [label="0|a", shape=record, style=rounded];
1 [label="1|b", shape=record, style=rounded];
2 [label="2|c", shape=record, style=rounded];
3 [label="3|d", shape=record, style=rounded];
4 [label="4|e", shape=record, style=rounded];
5 [label="5|f", shape=record, style=rounded];
6 [label="6|f", shape=record, style=rounded];
7 [label="7|d", shape=record, style=rounded];
8 [label="8|b", shape=record, style=rounded];
9 [label="9|e", shape=record, style=rounded];
10 [label="10|e", shape=record, style=rounded];
11 [label="11|c", shape=record, style=rounded];
12 [label="12|e", shape=record, style=rounded];
13 [label="13|b", shape=record, style=rounded];
14 [label="14|b", shape=record, style=rounded];
15 [label="15|f", shape=record, style=rounded];
0 -> 15  [label="x (5)"];
0 -> 7  [label="y (5)"];
0 -> 7  [label="z (5)"];
1 -> 10  [label="x (18)"];
1 -> 13  [label="y (18)"];
1 -> 15  [label="z (17)"];
2 -> 13  [label="x (6)"];
2 -> 4  [label="y (6)"];
2 -> 8  [label="z (6)"];
3 -> 13  [label="x (7)"];
3 -> 4  [label="y (7)"];
3 -> 15  [label="z (7)"];
4 -> 12  [label="z (55)"];
4 -> 5  [label="y (55)"];
4 -> 8  [label="x (91)"];
5 -> 9  [label="x (20)"];
5 -> 3  [label="y (19)"];
5 -> 14  [label="z (20)"];
6 -> 12  [label="x (7)"];
6 -> 5  [label="y (7)"];
6 -> 11  [label="z (7)"];
7 -> 9  [label="x (9)"];
7 -> 15  [label="y (9)"];
7 -> 15  [label="z (9)"];
8 -> 1  [label="x (54)"];
8 -> 6  [label="y (18)"];
8 -> 0  [label="z (19)"];
8 -> 15  [label="!z [1]"];
9 -> 9  [label="x (9)"];
9 -> 10  [label="y (9)"];
9 -> 13  [label="z (9)"];
10 -> 3  [label="x (7)"];
10 -> 9  [label="y (7)"];
10 -> 9  [label="z (7)"];
11 -> 12  [label="x (5)"];
11 -> 2  [label="y (6)"];
11 -> 1  [label="z (6)"];
12 -> 11  [label="x (19)"];
12 -> 2  [label="y (19)"];
12 -> 7  [label="z (18)"];
13 -> 10  [label="x (8)"];
13 -> 5  [label="y (8)"];
13 -> 7  [label="z (7)"];
14 -> 5  [label="x (5)"];
14 -> 8  [label="y (4)"];
14 -> 6  [label="z (5)"];
14 -> 6  [label="!y [1]"];
15 -> 3  [label="x (9)"];
15 -> 7  [label="y (9)"];
15 -> 6  [label="z (9)"];
__start0 [label="", shape=none];
__start0 -> 4  [label=""];
}
