digraph "benchmarks-true-state-lstar-3seeds/n_states=15-n_outputs=4-glitch_percent=0.02/8dd6b50646cdd9decc3b754bcf2f9c39/RealModel" {
s1 [label="s1|b", shape=record, style=rounded];
s2 [label="s2|b", shape=record, style=rounded];
s3 [label="s3|b", shape=record, style=rounded];
s4 [label="s4|b", shape=record, style=rounded];
s5 [label="s5|c", shape=record, style=rounded];
s6 [label="s6|d", shape=record, style=rounded];
s7 [label="s7|d", shape=record, style=rounded];
s8 [label="s8|c", shape=record, style=rounded];
s9 [label="s9|c", shape=record, style=rounded];
s10 [label="s10|d", shape=record, style=rounded];
s11 [label="s11|c", shape=record, style=rounded];
s12 [label="s12|d", shape=record, style=rounded];
s13 [label="s13|a", shape=record, style=rounded];
s14 [label="s14|a", shape=record, style=rounded];
s15 [label="s15|a", shape=record, style=rounded];
s1 -> s10  [label="x"];
s1 -> s6  [label="y"];
s1 -> s2  [label="z"];
s2 -> s4  [label="x"];
s2 -> s3  [label="y"];
s2 -> s14  [label="z"];
s3 -> s15  [label="x"];
s3 -> s7  [label="y"];
s3 -> s15  [label="z"];
s4 -> s1  [label="x"];
s4 -> s11  [label="y"];
s4 -> s7  [label="z"];
s5 -> s15  [label="x"];
s5 -> s1  [label="y"];
s5 -> s2  [label="z"];
s6 -> s9  [label="x"];
s6 -> s7  [label="y"];
s6 -> s13  [label="z"];
s7 -> s10  [label="x"];
s7 -> s2  [label="y"];
s7 -> s3  [label="z"];
s8 -> s8  [label="x"];
s8 -> s15  [label="y"];
s8 -> s9  [label="z"];
s9 -> s12  [label="x"];
s9 -> s14  [label="y"];
s9 -> s13  [label="z"];
s10 -> s12  [label="x"];
s10 -> s5  [label="y"];
s10 -> s11  [label="z"];
s11 -> s14  [label="x"];
s11 -> s13  [label="y"];
s11 -> s14  [label="z"];
s12 -> s8  [label="x"];
s12 -> s15  [label="y"];
s12 -> s1  [label="z"];
s13 -> s9  [label="x"];
s13 -> s8  [label="y"];
s13 -> s15  [label="z"];
s14 -> s4  [label="x"];
s14 -> s6  [label="y"];
s14 -> s2  [label="z"];
s15 -> s13  [label="x"];
s15 -> s3  [label="y"];
s15 -> s10  [label="z"];
__start0 [label="", shape=none];
__start0 -> s1  [label=""];
}
