digraph "benchmarks-true-state-lstar-3seeds/n_states=13-n_outputs=7-glitch_percent=0.01/2f13e4bedbdbd5600de530e41fb567fe/RealModel" {
s1 [label="s1|e", shape=record, style=rounded];
s2 [label="s2|g", shape=record, style=rounded];
s3 [label="s3|b", shape=record, style=rounded];
s4 [label="s4|d", shape=record, style=rounded];
s5 [label="s5|e", shape=record, style=rounded];
s6 [label="s6|f", shape=record, style=rounded];
s7 [label="s7|d", shape=record, style=rounded];
s8 [label="s8|f", shape=record, style=rounded];
s9 [label="s9|e", shape=record, style=rounded];
s10 [label="s10|c", shape=record, style=rounded];
s11 [label="s11|f", shape=record, style=rounded];
s12 [label="s12|d", shape=record, style=rounded];
s13 [label="s13|f", shape=record, style=rounded];
s1 -> s2  [label="x"];
s1 -> s3  [label="y"];
s1 -> s6  [label="z"];
s2 -> s10  [label="x"];
s2 -> s7  [label="y"];
s2 -> s8  [label="z"];
s3 -> s13  [label="x"];
s3 -> s4  [label="y"];
s3 -> s9  [label="z"];
s4 -> s7  [label="x"];
s4 -> s1  [label="y"];
s4 -> s6  [label="z"];
s5 -> s13  [label="x"];
s5 -> s11  [label="y"];
s5 -> s9  [label="z"];
s6 -> s5  [label="x"];
s6 -> s12  [label="y"];
s6 -> s11  [label="z"];
s7 -> s3  [label="x"];
s7 -> s3  [label="y"];
s7 -> s6  [label="z"];
s8 -> s9  [label="x"];
s8 -> s13  [label="y"];
s8 -> s11  [label="z"];
s9 -> s5  [label="x"];
s9 -> s3  [label="y"];
s9 -> s2  [label="z"];
s10 -> s8  [label="x"];
s10 -> s4  [label="y"];
s10 -> s4  [label="z"];
s11 -> s4  [label="x"];
s11 -> s11  [label="y"];
s11 -> s13  [label="z"];
s12 -> s7  [label="x"];
s12 -> s7  [label="y"];
s12 -> s8  [label="z"];
s13 -> s6  [label="x"];
s13 -> s9  [label="y"];
s13 -> s11  [label="z"];
__start0 [label="", shape=none];
__start0 -> s1  [label=""];
}
