digraph "benchmarks-true-state-lstar-rc10seeds/n_states=12-n_outputs=9-glitch_percent=0.0/f65553dce9a9c17eff623941459f709e/pmsatLearned_NOP-N12-STOC" {
0 [label="0|g", shape=record, style=rounded];
1 [label="1|g", shape=record, style=rounded];
2 [label="2|e", shape=record, style=rounded];
3 [label="3|f", shape=record, style=rounded];
4 [label="4|f", shape=record, style=rounded];
5 [label="5|c", shape=record, style=rounded];
6 [label="6|a", shape=record, style=rounded];
7 [label="7|c", shape=record, style=rounded];
8 [label="8|c", shape=record, style=rounded];
9 [label="9|a", shape=record, style=rounded];
10 [label="10|h", shape=record, style=rounded];
11 [label="11|i", shape=record, style=rounded];
0 -> 6  [label="x (6)"];
0 -> 1  [label="y (6)"];
0 -> 9  [label="z (6)"];
1 -> 8  [label="x (7)"];
1 -> 5  [label="y (7)"];
1 -> 8  [label="z (7)"];
2 -> 11  [label="z (42)"];
2 -> 6  [label="y (54)"];
2 -> 8  [label="x (54)"];
3 -> 5  [label="x (7)"];
3 -> 0  [label="y (7)"];
3 -> 8  [label="z (7)"];
4 -> 4  [label="x (6)"];
4 -> 11  [label="y (6)"];
4 -> 3  [label="z (6)"];
5 -> 5  [label="x (8)"];
5 -> 3  [label="y (8)"];
5 -> 7  [label="z (8)"];
6 -> 0  [label="x (19)"];
6 -> 3  [label="y (19)"];
6 -> 7  [label="z (19)"];
7 -> 11  [label="x (7)"];
7 -> 11  [label="y (7)"];
7 -> 9  [label="z (7)"];
8 -> 5  [label="x (20)"];
8 -> 9  [label="y (20)"];
8 -> 10  [label="z (20)"];
9 -> 7  [label="x (9)"];
9 -> 9  [label="y (9)"];
9 -> 6  [label="z (9)"];
10 -> 2  [label="x (6)"];
10 -> 1  [label="y (6)"];
10 -> 9  [label="z (6)"];
11 -> 1  [label="x (20)"];
11 -> 4  [label="y (20)"];
11 -> 10  [label="z (8)"];
__start0 [label="", shape=none];
__start0 -> 2  [label=""];
}
