digraph "benchmarks-true-state-lstar-3seeds/n_states=9-n_outputs=2-glitch_percent=0.1/0bc2f0e9f87a85ab986ba505b826fd0d/alergiaLearned" {
q0 [label="b"];
q1 [label="a"];
q2 [label="a"];
q3 [label="b"];
q0 -> q1  [label="z:0.9310344827586207"];
q0 -> q0  [label="z:0.06896551724137931"];
q0 -> q1  [label="y:0.9692307692307692"];
q0 -> q0  [label="y:0.03076923076923077"];
q0 -> q2  [label="x:1.0"];
q1 -> q3  [label="z:0.3389830508474576"];
q1 -> q1  [label="z:0.6610169491525424"];
q1 -> q0  [label="y:0.5138888888888888"];
q1 -> q1  [label="y:0.4861111111111111"];
q1 -> q1  [label="x:0.5116279069767442"];
q1 -> q3  [label="x:0.4883720930232558"];
q2 -> q1  [label="x:0.9722222222222222"];
q2 -> q0  [label="x:0.027777777777777776"];
q2 -> q1  [label="y:1.0"];
q2 -> q1  [label="z:1.0"];
q3 -> q1  [label="x:1.0"];
q3 -> q3  [label="z:1.0"];
q3 -> q0  [label="y:1.0"];
q3 -> q1  [label="y:0.0"];
__start0 [label="", shape=none];
__start0 -> q0  [label=""];
}
