digraph "benchmarks-true-state-lstar-rc10seeds/n_states=11-n_outputs=5-glitch_percent=0.05/ee836571716cca964696177c5dfc230f/pmsatLearned_NOP-N11-STOC" {
0 [label="0|b", shape=record, style=rounded];
1 [label="1|a", shape=record, style=rounded];
2 [label="2|a", shape=record, style=rounded];
3 [label="3|d", shape=record, style=rounded];
4 [label="4|d", shape=record, style=rounded];
5 [label="5|a", shape=record, style=rounded];
6 [label="6|e", shape=record, style=rounded];
7 [label="7|c", shape=record, style=rounded];
8 [label="8|b", shape=record, style=rounded];
9 [label="9|b", shape=record, style=rounded];
10 [label="10|e", shape=record, style=rounded];
0 -> 4  [label="x (8)"];
0 -> 0  [label="y (8)"];
0 -> 9  [label="z (8)"];
1 -> 10  [label="y (5)"];
1 -> 1  [label="z (6)"];
1 -> 6  [label="x (5)"];
2 -> 0  [label="x (18)"];
2 -> 8  [label="z (13)"];
2 -> 1  [label="y (15)"];
2 -> 8  [label="!y [1]"];
3 -> 5  [label="z (30)"];
3 -> 10  [label="y (50)"];
3 -> 4  [label="!z [1]"];
3 -> 2  [label="x (48)"];
3 -> 7  [label="!y [2]"];
3 -> 9  [label="!z [2]"];
3 -> 1  [label="!y [1]"];
3 -> 9  [label="!x [1]"];
4 -> 4  [label="x (9)"];
4 -> 8  [label="y (6)"];
4 -> 10  [label="z (9)"];
5 -> 6  [label="x (19)"];
5 -> 4  [label="y (6)"];
5 -> 10  [label="z (5)"];
6 -> 7  [label="x (6)"];
6 -> 7  [label="y (5)"];
6 -> 5  [label="z (5)"];
6 -> 6  [label="!z [1]"];
6 -> 5  [label="!x [1]"];
7 -> 2  [label="x (6)"];
7 -> 0  [label="y (6)"];
7 -> 3  [label="z (7)"];
8 -> 10  [label="x (6)"];
8 -> 9  [label="y (5)"];
8 -> 10  [label="z (4)"];
9 -> 0  [label="x (6)"];
9 -> 4  [label="y (6)"];
9 -> 10  [label="z (8)"];
9 -> 4  [label="!z [1]"];
9 -> 9  [label="!y [1]"];
10 -> 9  [label="x (21)"];
10 -> 7  [label="y (20)"];
10 -> 4  [label="z (20)"];
10 -> 0  [label="!y [1]"];
10 -> 0  [label="!x [1]"];
__start0 [label="", shape=none];
__start0 -> 3  [label=""];
}
