digraph "benchmarks-true-state-lstar-3seeds/n_states=3-n_outputs=2-glitch_percent=0.02/77fa5373ca6d8dcdd50771caa3eac87f/alergiaLearned" {
q0 [label="b"];
q1 [label="a"];
q2 [label="b"];
q0 -> q0  [label="z:1.0"];
q0 -> q1  [label="y:1.0"];
q0 -> q2  [label="x:1.0"];
q1 -> q0  [label="x:1.0"];
q1 -> q1  [label="y:1.0"];
q1 -> q1  [label="z:1.0"];
q2 -> q0  [label="x:1.0"];
q2 -> q0  [label="y:1.0"];
q2 -> q1  [label="z:0.8333333333333334"];
q2 -> q0  [label="z:0.16666666666666666"];
__start0 [label="", shape=none];
__start0 -> q0  [label=""];
}
