digraph "benchmarks-true-state-lstar-3seeds/n_states=8-n_outputs=7-glitch_percent=0.05/6c56a465d35798f6de50e82dcd6a892f/pmsatLearned-N8-STOC" {
0 [label="0|a", shape=record, style=rounded];
1 [label="1|c", shape=record, style=rounded];
2 [label="2|d", shape=record, style=rounded];
3 [label="3|e", shape=record, style=rounded];
4 [label="4|g", shape=record, style=rounded];
5 [label="5|e", shape=record, style=rounded];
6 [label="6|a", shape=record, style=rounded];
7 [label="7|c", shape=record, style=rounded];
0 -> 2  [label="z (17)"];
0 -> 1  [label="y (28)"];
0 -> 5  [label="x (51)"];
0 -> 5  [label="!y [1]"];
0 -> 3  [label="!z [3]"];
0 -> 7  [label="!x [3]"];
0 -> 4  [label="!x [1]"];
1 -> 7  [label="x (15)"];
1 -> 6  [label="y (6)"];
1 -> 7  [label="z (6)"];
2 -> 4  [label="x (6)"];
2 -> 3  [label="y (4)"];
2 -> 0  [label="z (6)"];
3 -> 4  [label="x (9)"];
3 -> 7  [label="y (10)"];
3 -> 3  [label="z (10)"];
3 -> 2  [label="!y [1]"];
4 -> 6  [label="x (7)"];
4 -> 2  [label="y (6)"];
4 -> 1  [label="z (8)"];
5 -> 4  [label="x (15)"];
5 -> 6  [label="y (17)"];
5 -> 3  [label="z (14)"];
5 -> 0  [label="!x [1]"];
6 -> 3  [label="x (8)"];
6 -> 4  [label="z (8)"];
6 -> 3  [label="y (6)"];
7 -> 0  [label="x (6)"];
7 -> 3  [label="y (7)"];
7 -> 6  [label="z (7)"];
7 -> 2  [label="!z [1]"];
__start0 [label="", shape=none];
__start0 -> 0  [label=""];
}
