digraph "benchmarks-true-state-lstar-3seeds/n_states=6-n_outputs=4-glitch_percent=0.05/ed3f8fbfd497f46655c718ddc06a6a4d/RealModel" {
s1 [label="s1|c", shape=record, style=rounded];
s2 [label="s2|b", shape=record, style=rounded];
s3 [label="s3|c", shape=record, style=rounded];
s4 [label="s4|b", shape=record, style=rounded];
s5 [label="s5|d", shape=record, style=rounded];
s6 [label="s6|b", shape=record, style=rounded];
s1 -> s3  [label="x"];
s1 -> s2  [label="y"];
s1 -> s5  [label="z"];
s2 -> s5  [label="x"];
s2 -> s5  [label="y"];
s2 -> s2  [label="z"];
s3 -> s4  [label="x"];
s3 -> s6  [label="y"];
s3 -> s5  [label="z"];
s4 -> s1  [label="x"];
s4 -> s4  [label="y"];
s4 -> s1  [label="z"];
s5 -> s4  [label="x"];
s5 -> s2  [label="y"];
s5 -> s1  [label="z"];
s6 -> s2  [label="x"];
s6 -> s4  [label="y"];
s6 -> s6  [label="z"];
__start0 [label="", shape=none];
__start0 -> s1  [label=""];
}
