digraph "benchmarks-true-state-lstar-3seeds/n_states=13-n_outputs=7-glitch_percent=0.1/90aa06dfc73eb53f333bca50e6256e8f/alergiaLearned" {
q0 [label="d"];
q1 [label="f"];
q2 [label="b"];
q3 [label="e"];
q4 [label="a"];
q5 [label="e"];
q6 [label="d"];
q7 [label="g"];
q8 [label="c"];
q9 [label="a"];
q0 -> q1  [label="z:0.9259259259259259"];
q0 -> q5  [label="z:0.037037037037037035"];
q0 -> q2  [label="z:0.018518518518518517"];
q0 -> q7  [label="z:0.018518518518518517"];
q0 -> q2  [label="x:0.03508771929824561"];
q0 -> q4  [label="x:0.9122807017543859"];
q0 -> q3  [label="x:0.05263157894736842"];
q0 -> q3  [label="y:0.9622641509433962"];
q0 -> q6  [label="y:0.03773584905660377"];
q1 -> q3  [label="z:1.0"];
q1 -> q7  [label="x:0.05555555555555555"];
q1 -> q2  [label="x:0.9444444444444444"];
q1 -> q7  [label="y:0.9473684210526315"];
q1 -> q2  [label="y:0.05263157894736842"];
q2 -> q3  [label="x:0.29411764705882354"];
q2 -> q4  [label="x:0.058823529411764705"];
q2 -> q2  [label="x:0.35294117647058826"];
q2 -> q8  [label="x:0.29411764705882354"];
q2 -> q8  [label="z:0.3888888888888889"];
q2 -> q0  [label="z:0.2777777777777778"];
q2 -> q3  [label="z:0.2777777777777778"];
q2 -> q1  [label="z:0.05555555555555555"];
q2 -> q6  [label="y:0.25"];
q2 -> q3  [label="y:0.75"];
q3 -> q4  [label="x:0.68"];
q3 -> q3  [label="x:0.04"];
q3 -> q0  [label="x:0.08"];
q3 -> q7  [label="x:0.2"];
q3 -> q6  [label="y:0.6923076923076923"];
q3 -> q9  [label="y:0.07692307692307693"];
q3 -> q7  [label="y:0.038461538461538464"];
q3 -> q2  [label="y:0.19230769230769232"];
q3 -> q8  [label="z:0.85"];
q3 -> q1  [label="z:0.15"];
q4 -> q9  [label="x:0.7619047619047619"];
q4 -> q3  [label="x:0.23809523809523808"];
q4 -> q2  [label="z:0.6538461538461539"];
q4 -> q3  [label="z:0.07692307692307693"];
q4 -> q7  [label="z:0.15384615384615385"];
q4 -> q9  [label="z:0.11538461538461539"];
q4 -> q2  [label="y:0.7894736842105263"];
q4 -> q3  [label="y:0.05263157894736842"];
q4 -> q7  [label="y:0.10526315789473684"];
q4 -> q4  [label="y:0.05263157894736842"];
q5 -> q1  [label="z:1.0"];
q6 -> q7  [label="z:1.0"];
q6 -> q4  [label="y:1.0"];
q6 -> q3  [label="x:1.0"];
q7 -> q1  [label="x:0.875"];
q7 -> q2  [label="x:0.125"];
q7 -> q1  [label="y:1.0"];
q7 -> q3  [label="z:1.0"];
q8 -> q2  [label="z:0.8333333333333334"];
q8 -> q0  [label="z:0.16666666666666666"];
q8 -> q0  [label="x:1.0"];
q8 -> q4  [label="y:1.0"];
q9 -> q7  [label="z:1.0"];
q9 -> q3  [label="x:1.0"];
q9 -> q4  [label="y:1.0"];
__start0 [label="", shape=none];
__start0 -> q0  [label=""];
}
