digraph "benchmarks-true-state-lstar-3seeds/n_states=11-n_outputs=8-glitch_percent=0.05/10ae00a67df6ec9d201b01ac54050f81/pmsatLearned-N11-STOC" {
0 [label="0|a", shape=record, style=rounded];
1 [label="1|c", shape=record, style=rounded];
2 [label="2|e", shape=record, style=rounded];
3 [label="3|f", shape=record, style=rounded];
4 [label="4|g", shape=record, style=rounded];
5 [label="5|h", shape=record, style=rounded];
6 [label="6|a", shape=record, style=rounded];
7 [label="7|c", shape=record, style=rounded];
8 [label="8|c", shape=record, style=rounded];
9 [label="9|g", shape=record, style=rounded];
10 [label="10|f", shape=record, style=rounded];
0 -> 10  [label="x (18)"];
0 -> 6  [label="z (16)"];
0 -> 4  [label="y (13)"];
0 -> 5  [label="!z [1]"];
0 -> 9  [label="!y [1]"];
1 -> 10  [label="x (8)"];
1 -> 3  [label="y (8)"];
1 -> 4  [label="z (8)"];
2 -> 5  [label="z (27)"];
2 -> 3  [label="!x [3]"];
2 -> 0  [label="y (47)"];
2 -> 4  [label="!y [2]"];
2 -> 9  [label="x (53)"];
2 -> 1  [label="!z [1]"];
2 -> 7  [label="!y [1]"];
2 -> 6  [label="!z [2]"];
3 -> 9  [label="y (9)"];
3 -> 3  [label="z (7)"];
3 -> 7  [label="x (7)"];
4 -> 3  [label="y (6)"];
4 -> 6  [label="z (5)"];
4 -> 7  [label="x (4)"];
5 -> 5  [label="y (7)"];
5 -> 1  [label="z (7)"];
5 -> 3  [label="x (18)"];
6 -> 9  [label="x (6)"];
6 -> 5  [label="y (6)"];
6 -> 5  [label="z (5)"];
7 -> 1  [label="x (9)"];
7 -> 1  [label="y (9)"];
7 -> 7  [label="z (7)"];
8 -> 0  [label="x (7)"];
8 -> 2  [label="y (7)"];
8 -> 8  [label="z (7)"];
9 -> 1  [label="x (19)"];
9 -> 7  [label="y (18)"];
9 -> 8  [label="z (20)"];
10 -> 7  [label="x (6)"];
10 -> 0  [label="y (5)"];
10 -> 8  [label="z (6)"];
__start0 [label="", shape=none];
__start0 -> 2  [label=""];
}
