digraph "benchmarks-true-state-lstar-songp/n_states=5-n_outputs=2-glitch_percent=0.05-pmstrat='lsu'/e1d456a7da9ce09fbe90d70ee52c6b69/pmsatLearned-N5-STOC" {
0 [label="0|a", shape=record, style=rounded];
1 [label="1|b", shape=record, style=rounded];
2 [label="2|b", shape=record, style=rounded];
3 [label="3|b", shape=record, style=rounded];
4 [label="4|a", shape=record, style=rounded];
0 -> 2  [label="z (20)"];
0 -> 3  [label="y (17)"];
0 -> 1  [label="x (30)"];
0 -> 4  [label="!x [1]"];
1 -> 4  [label="x (16)"];
1 -> 2  [label="y (6)"];
1 -> 2  [label="z (5)"];
1 -> 0  [label="!z [1]"];
2 -> 2  [label="x (8)"];
2 -> 3  [label="y (9)"];
2 -> 3  [label="z (10)"];
2 -> 0  [label="!y [1]"];
3 -> 2  [label="x (6)"];
3 -> 4  [label="y (7)"];
3 -> 2  [label="z (6)"];
4 -> 1  [label="x (6)"];
4 -> 0  [label="y (6)"];
4 -> 0  [label="z (5)"];
__start0 [label="", shape=none];
__start0 -> 0  [label=""];
}
