digraph "benchmarks-true-state-lstar-3seeds/n_states=15-n_outputs=5-glitch_percent=0.05/25942f0e0d81af7ccbf9f745a9ef33e1/pmsatLearned-N15" {
0 [label="0|a", shape=record, style=rounded];
1 [label="1|b", shape=record, style=rounded];
2 [label="2|c", shape=record, style=rounded];
3 [label="3|d", shape=record, style=rounded];
4 [label="4|e", shape=record, style=rounded];
5 [label="5|b", shape=record, style=rounded];
6 [label="6|a", shape=record, style=rounded];
7 [label="7|a", shape=record, style=rounded];
8 [label="8|a", shape=record, style=rounded];
9 [label="9|d", shape=record, style=rounded];
10 [label="10|d", shape=record, style=rounded];
11 [label="11|c", shape=record, style=rounded];
12 [label="12|b", shape=record, style=rounded];
13 [label="13|d", shape=record, style=rounded];
14 [label="14|c", shape=record, style=rounded];
0 -> 8  [label="x"];
0 -> 0  [label="z"];
0 -> 4  [label="y"];
1 -> 4  [label="x"];
1 -> 7  [label="y"];
1 -> 1  [label="z"];
2 -> 12  [label="z"];
2 -> 5  [label="y"];
2 -> 3  [label="x"];
3 -> 0  [label="x"];
3 -> 10  [label="y"];
3 -> 9  [label="z"];
4 -> 11  [label="x"];
4 -> 7  [label="y"];
4 -> 13  [label="z"];
5 -> 7  [label="x"];
5 -> 14  [label="y"];
5 -> 13  [label="z"];
6 -> 12  [label="x"];
6 -> 1  [label="y"];
6 -> 11  [label="z"];
7 -> 0  [label="x"];
7 -> 3  [label="y"];
7 -> 0  [label="z"];
8 -> 10  [label="x"];
8 -> 13  [label="z"];
8 -> 4  [label="y"];
9 -> 3  [label="x"];
9 -> 8  [label="y"];
9 -> 7  [label="z"];
10 -> 6  [label="x"];
10 -> 2  [label="y"];
10 -> 8  [label="z"];
11 -> 4  [label="x"];
11 -> 14  [label="y"];
11 -> 0  [label="z"];
12 -> 1  [label="x"];
12 -> 6  [label="y"];
12 -> 11  [label="z"];
13 -> 10  [label="x"];
13 -> 1  [label="y"];
13 -> 4  [label="z"];
14 -> 12  [label="x"];
14 -> 8  [label="y"];
14 -> 8  [label="z"];
__start0 [label="", shape=none];
__start0 -> 2  [label=""];
}
