digraph "benchmarks-true-state-lstar-3seeds/n_states=14-n_outputs=2-glitch_percent=0.0/c359db943d6ce9e506cb2d413185b147/alergiaLearned" {
q0 [label="b"];
q1 [label="b"];
q2 [label="a"];
q3 [label="b"];
q4 [label="a"];
q5 [label="b"];
q6 [label="a"];
q7 [label="b"];
q8 [label="b"];
q9 [label="b"];
q0 -> q1  [label="z:1.0"];
q0 -> q2  [label="y:0.946236559139785"];
q0 -> q0  [label="y:0.053763440860215055"];
q0 -> q3  [label="x:0.9924812030075187"];
q0 -> q2  [label="x:0.007518796992481203"];
q1 -> q4  [label="x:0.9791666666666666"];
q1 -> q0  [label="x:0.020833333333333332"];
q1 -> q4  [label="y:0.9722222222222222"];
q1 -> q0  [label="y:0.027777777777777776"];
q1 -> q5  [label="z:0.9"];
q1 -> q2  [label="z:0.1"];
q2 -> q6  [label="x:0.9047619047619048"];
q2 -> q0  [label="x:0.09523809523809523"];
q2 -> q6  [label="y:0.78125"];
q2 -> q0  [label="y:0.21875"];
q2 -> q4  [label="z:0.8620689655172413"];
q2 -> q0  [label="z:0.13793103448275862"];
q3 -> q7  [label="x:1.0"];
q3 -> q2  [label="x:0.0"];
q3 -> q8  [label="y:0.9696969696969697"];
q3 -> q2  [label="y:0.030303030303030304"];
q3 -> q9  [label="z:1.0"];
q4 -> q1  [label="x:0.9183673469387755"];
q4 -> q2  [label="x:0.08163265306122448"];
q4 -> q0  [label="y:0.9696969696969697"];
q4 -> q2  [label="y:0.030303030303030304"];
q4 -> q0  [label="z:0.6153846153846154"];
q4 -> q2  [label="z:0.38461538461538464"];
q5 -> q2  [label="x:1.0"];
q5 -> q4  [label="y:1.0"];
q5 -> q4  [label="z:1.0"];
q6 -> q4  [label="x:1.0"];
q6 -> q0  [label="y:1.0"];
q6 -> q1  [label="z:1.0"];
q7 -> q5  [label="x:1.0"];
q7 -> q1  [label="y:1.0"];
q7 -> q0  [label="z:1.0"];
q8 -> q1  [label="x:1.0"];
q8 -> q2  [label="y:1.0"];
q8 -> q0  [label="z:1.0"];
q9 -> q0  [label="x:1.0"];
q9 -> q1  [label="y:1.0"];
q9 -> q0  [label="z:1.0"];
__start0 [label="", shape=none];
__start0 -> q0  [label=""];
}
