digraph "benchmarks-true-state-lstar-3seeds/n_states=14-n_outputs=7-glitch_percent=0.02/b4fbd622e3344eac86e2de79ec3fccc3/rpniGroundTruth" {
s0 [label="s0|d", shape=record, style=rounded];
s1 [label="s1|f", shape=record, style=rounded];
s2 [label="s2|a", shape=record, style=rounded];
s3 [label="s3|e", shape=record, style=rounded];
s4 [label="s4|d", shape=record, style=rounded];
s5 [label="s5|c", shape=record, style=rounded];
s6 [label="s6|b", shape=record, style=rounded];
s7 [label="s7|e", shape=record, style=rounded];
s8 [label="s8|e", shape=record, style=rounded];
s9 [label="s9|a", shape=record, style=rounded];
s10 [label="s10|b", shape=record, style=rounded];
s11 [label="s11|a", shape=record, style=rounded];
s12 [label="s12|b", shape=record, style=rounded];
s13 [label="s13|g", shape=record, style=rounded];
s0 -> s1  [label="y"];
s0 -> s2  [label="z"];
s0 -> s3  [label="x"];
s1 -> s4  [label="y"];
s1 -> s5  [label="x"];
s1 -> s6  [label="z"];
s2 -> s7  [label="z"];
s2 -> s8  [label="y"];
s2 -> s9  [label="x"];
s3 -> s10  [label="y"];
s3 -> s11  [label="x"];
s3 -> s12  [label="z"];
s4 -> s7  [label="x"];
s4 -> s0  [label="z"];
s4 -> s13  [label="y"];
s5 -> s2  [label="x"];
s5 -> s3  [label="y"];
s5 -> s9  [label="z"];
s6 -> s2  [label="x"];
s6 -> s3  [label="z"];
s6 -> s6  [label="y"];
s7 -> s12  [label="x"];
s7 -> s1  [label="y"];
s7 -> s11  [label="z"];
s8 -> s8  [label="y"];
s8 -> s13  [label="z"];
s8 -> s1  [label="x"];
s9 -> s1  [label="z"];
s9 -> s4  [label="x"];
s9 -> s4  [label="y"];
s10 -> s10  [label="y"];
s10 -> s3  [label="z"];
s10 -> s3  [label="x"];
s11 -> s5  [label="y"];
s11 -> s8  [label="z"];
s11 -> s13  [label="x"];
s12 -> s5  [label="x"];
s12 -> s13  [label="z"];
s12 -> s3  [label="y"];
s13 -> s0  [label="y"];
s13 -> s9  [label="z"];
s13 -> s0  [label="x"];
__start0 [label="", shape=none];
__start0 -> s0  [label=""];
}
