digraph "benchmarks-true-state-lstar-songp/n_states=7-n_outputs=3-glitch_percent=0.05-pmstrat='rc2'/f431afcd09833ef676e6c87004acc10a/alergiaLearned" {
q0 [label="a"];
q1 [label="b"];
q2 [label="c"];
q3 [label="a"];
q0 -> q1  [label="z:0.8823529411764706"];
q0 -> q2  [label="z:0.058823529411764705"];
q0 -> q0  [label="z:0.058823529411764705"];
q0 -> q1  [label="y:1.0"];
q0 -> q2  [label="x:0.9444444444444444"];
q0 -> q1  [label="x:0.037037037037037035"];
q0 -> q0  [label="x:0.018518518518518517"];
q1 -> q2  [label="x:0.2631578947368421"];
q1 -> q1  [label="x:0.7368421052631579"];
q1 -> q1  [label="y:0.21428571428571427"];
q1 -> q3  [label="y:0.35714285714285715"];
q1 -> q2  [label="y:0.42857142857142855"];
q1 -> q2  [label="z:0.23529411764705882"];
q1 -> q1  [label="z:0.23529411764705882"];
q1 -> q0  [label="z:0.5294117647058824"];
q2 -> q1  [label="x:0.7727272727272727"];
q2 -> q2  [label="x:0.22727272727272727"];
q2 -> q3  [label="y:1.0"];
q2 -> q2  [label="z:1.0"];
q3 -> q0  [label="x:1.0"];
q3 -> q2  [label="x:0.0"];
q3 -> q1  [label="y:1.0"];
q3 -> q0  [label="z:0.8571428571428571"];
q3 -> q1  [label="z:0.14285714285714285"];
__start0 [label="", shape=none];
__start0 -> q0  [label=""];
}
