digraph "benchmarks-true-state-lstar-rc10seeds/n_states=9-n_outputs=8-glitch_percent=0.01/672f63584b31456f8a6c16cb5e24d66e/pmsatLearned_NOP-N9" {
0 [label="0|c", shape=record, style=rounded];
1 [label="1|d", shape=record, style=rounded];
2 [label="2|e", shape=record, style=rounded];
3 [label="3|b", shape=record, style=rounded];
4 [label="4|b", shape=record, style=rounded];
5 [label="5|g", shape=record, style=rounded];
6 [label="6|d", shape=record, style=rounded];
7 [label="7|g", shape=record, style=rounded];
8 [label="8|a", shape=record, style=rounded];
0 -> 2  [label="x"];
0 -> 7  [label="y"];
0 -> 2  [label="z"];
1 -> 2  [label="x"];
1 -> 3  [label="y"];
1 -> 2  [label="z"];
2 -> 1  [label="x"];
2 -> 5  [label="y"];
2 -> 2  [label="z"];
3 -> 4  [label="x"];
3 -> 8  [label="y"];
3 -> 6  [label="z"];
4 -> 1  [label="x"];
4 -> 0  [label="y"];
4 -> 3  [label="z"];
5 -> 1  [label="z"];
5 -> 0  [label="y"];
5 -> 3  [label="x"];
6 -> 1  [label="x"];
6 -> 2  [label="y"];
6 -> 3  [label="z"];
7 -> 8  [label="x"];
7 -> 3  [label="y"];
7 -> 6  [label="z"];
8 -> 4  [label="x"];
8 -> 3  [label="y"];
8 -> 3  [label="z"];
__start0 [label="", shape=none];
__start0 -> 5  [label=""];
}
