digraph "benchmarks-true-state-lstar-3seeds/n_states=11-n_outputs=5-glitch_percent=0.01/827fd4c9d6b631c1ca209c3a0f317dcc/alergiaLearned" {
q0 [label="a"];
q1 [label="e"];
q2 [label="c"];
q3 [label="a"];
q4 [label="c"];
q5 [label="d"];
q6 [label="e"];
q7 [label="a"];
q8 [label="b"];
q0 -> q1  [label="z:0.9375"];
q0 -> q2  [label="z:0.0625"];
q0 -> q2  [label="y:0.9649122807017544"];
q0 -> q0  [label="y:0.03508771929824561"];
q0 -> q3  [label="x:0.9649122807017544"];
q0 -> q8  [label="x:0.03508771929824561"];
q1 -> q4  [label="x:0.8260869565217391"];
q1 -> q0  [label="x:0.17391304347826086"];
q1 -> q5  [label="y:0.6363636363636364"];
q1 -> q8  [label="y:0.36363636363636365"];
q1 -> q2  [label="z:0.6363636363636364"];
q1 -> q1  [label="z:0.36363636363636365"];
q2 -> q6  [label="x:0.8636363636363636"];
q2 -> q2  [label="x:0.13636363636363635"];
q2 -> q7  [label="y:0.9523809523809523"];
q2 -> q2  [label="y:0.047619047619047616"];
q2 -> q5  [label="z:0.8181818181818182"];
q2 -> q2  [label="z:0.18181818181818182"];
q3 -> q8  [label="x:1.0"];
q3 -> q7  [label="y:1.0"];
q3 -> q4  [label="z:1.0"];
q4 -> q2  [label="x:0.5"];
q4 -> q1  [label="x:0.5"];
q4 -> q2  [label="z:1.0"];
q4 -> q0  [label="y:0.4444444444444444"];
q4 -> q2  [label="y:0.5555555555555556"];
q5 -> q8  [label="x:1.0"];
q5 -> q2  [label="y:1.0"];
q5 -> q2  [label="z:1.0"];
q6 -> q0  [label="x:1.0"];
q6 -> q8  [label="y:1.0"];
q6 -> q1  [label="z:1.0"];
q7 -> q0  [label="x:0.5"];
q7 -> q1  [label="x:0.5"];
q7 -> q2  [label="y:1.0"];
q7 -> q0  [label="z:0.5"];
q7 -> q8  [label="z:0.5"];
q8 -> q1  [label="x:1.0"];
q8 -> q1  [label="y:1.0"];
q8 -> q1  [label="z:1.0"];
__start0 [label="", shape=none];
__start0 -> q0  [label=""];
}
