digraph "benchmarks-true-state-lstar-3seeds/n_states=10-n_outputs=7-glitch_percent=0.1/724dde9b724c748f13bcac3d42cb82ed/alergiaLearned" {
q0 [label="a"];
q1 [label="a"];
q2 [label="e"];
q3 [label="c"];
q4 [label="g"];
q5 [label="e"];
q6 [label="c"];
q7 [label="d"];
q8 [label="g"];
q9 [label="e"];
q0 -> q1  [label="z:0.75"];
q0 -> q4  [label="z:0.08333333333333333"];
q0 -> q6  [label="z:0.041666666666666664"];
q0 -> q2  [label="z:0.125"];
q0 -> q0  [label="y:0.07142857142857142"];
q0 -> q2  [label="y:0.8928571428571429"];
q0 -> q4  [label="y:0.017857142857142856"];
q0 -> q7  [label="y:0.017857142857142856"];
q0 -> q3  [label="x:0.8909090909090909"];
q0 -> q5  [label="x:0.05454545454545454"];
q0 -> q1  [label="x:0.05454545454545454"];
q1 -> q2  [label="x:0.5"];
q1 -> q0  [label="x:0.5"];
q1 -> q1  [label="z:0.5"];
q1 -> q2  [label="z:0.5"];
q1 -> q0  [label="y:1.0"];
q2 -> q1  [label="x:0.9545454545454546"];
q2 -> q4  [label="x:0.045454545454545456"];
q2 -> q8  [label="y:0.9444444444444444"];
q2 -> q0  [label="y:0.05555555555555555"];
q2 -> q6  [label="z:1.0"];
q3 -> q9  [label="x:0.875"];
q3 -> q3  [label="x:0.125"];
q3 -> q4  [label="z:0.8666666666666667"];
q3 -> q2  [label="z:0.06666666666666667"];
q3 -> q3  [label="z:0.06666666666666667"];
q3 -> q7  [label="y:0.9411764705882353"];
q3 -> q3  [label="y:0.058823529411764705"];
q3 -> q0  [label="y:0.0"];
q4 -> q2  [label="y:1.0"];
q4 -> q0  [label="z:1.0"];
q4 -> q4  [label="x:0.2"];
q4 -> q3  [label="x:0.8"];
q5 -> q3  [label="y:1.0"];
q6 -> q3  [label="z:1.0"];
q6 -> q3  [label="x:1.0"];
q6 -> q0  [label="y:1.0"];
q7 -> q4  [label="y:1.0"];
q7 -> q2  [label="x:1.0"];
q7 -> q4  [label="z:1.0"];
q8 -> q4  [label="x:0.6666666666666666"];
q8 -> q2  [label="x:0.16666666666666666"];
q8 -> q0  [label="x:0.16666666666666666"];
q8 -> q0  [label="y:1.0"];
q8 -> q1  [label="z:1.0"];
q9 -> q7  [label="x:1.0"];
q9 -> q2  [label="z:0.8"];
q9 -> q4  [label="z:0.2"];
__start0 [label="", shape=none];
__start0 -> q0  [label=""];
}
