digraph "benchmarks-true-state-lstar-3seeds/n_states=9-n_outputs=3-glitch_percent=0.05/1e69e60356cad7bf327b718b0a4d0010/pmsatLearned-N9" {
0 [label="0|a", shape=record, style=rounded];
1 [label="1|b", shape=record, style=rounded];
2 [label="2|c", shape=record, style=rounded];
3 [label="3|b", shape=record, style=rounded];
4 [label="4|a", shape=record, style=rounded];
5 [label="5|c", shape=record, style=rounded];
6 [label="6|b", shape=record, style=rounded];
7 [label="7|b", shape=record, style=rounded];
8 [label="8|a", shape=record, style=rounded];
0 -> 0  [label="y"];
0 -> 1  [label="z"];
0 -> 6  [label="x"];
1 -> 3  [label="z"];
1 -> 8  [label="y"];
1 -> 2  [label="x"];
2 -> 5  [label="x"];
2 -> 6  [label="y"];
2 -> 7  [label="z"];
3 -> 4  [label="y"];
3 -> 1  [label="z"];
3 -> 6  [label="x"];
4 -> 0  [label="y"];
4 -> 6  [label="z"];
4 -> 6  [label="x"];
5 -> 2  [label="x"];
5 -> 0  [label="y"];
5 -> 5  [label="z"];
6 -> 5  [label="x"];
6 -> 4  [label="y"];
6 -> 2  [label="z"];
7 -> 7  [label="x"];
7 -> 4  [label="y"];
7 -> 4  [label="z"];
8 -> 0  [label="x"];
8 -> 8  [label="z"];
8 -> 4  [label="y"];
__start0 [label="", shape=none];
__start0 -> 1  [label=""];
}
