digraph "benchmarks-true-state-lstar-rc10seeds/n_states=12-n_outputs=6-glitch_percent=0.0/bd9072e690bcd7bbc76eba494608d127/pmsatLearned_NOP-N12-STOC" {
0 [label="0|b", shape=record, style=rounded];
1 [label="1|d", shape=record, style=rounded];
2 [label="2|b", shape=record, style=rounded];
3 [label="3|d", shape=record, style=rounded];
4 [label="4|e", shape=record, style=rounded];
5 [label="5|c", shape=record, style=rounded];
6 [label="6|f", shape=record, style=rounded];
7 [label="7|e", shape=record, style=rounded];
8 [label="8|e", shape=record, style=rounded];
9 [label="9|b", shape=record, style=rounded];
10 [label="10|b", shape=record, style=rounded];
11 [label="11|e", shape=record, style=rounded];
0 -> 11  [label="z (46)"];
0 -> 1  [label="y (58)"];
0 -> 8  [label="x (58)"];
1 -> 3  [label="x (19)"];
1 -> 4  [label="y (19)"];
1 -> 7  [label="z (19)"];
2 -> 10  [label="x (6)"];
2 -> 8  [label="y (6)"];
2 -> 2  [label="z (6)"];
3 -> 9  [label="x (6)"];
3 -> 0  [label="y (6)"];
3 -> 5  [label="z (6)"];
4 -> 7  [label="x (7)"];
4 -> 5  [label="y (7)"];
4 -> 0  [label="z (7)"];
5 -> 5  [label="x (10)"];
5 -> 1  [label="y (10)"];
5 -> 7  [label="z (10)"];
6 -> 3  [label="x (6)"];
6 -> 5  [label="y (6)"];
6 -> 0  [label="z (6)"];
7 -> 0  [label="x (8)"];
7 -> 4  [label="y (8)"];
7 -> 6  [label="z (8)"];
8 -> 5  [label="x (19)"];
8 -> 2  [label="y (19)"];
8 -> 9  [label="z (19)"];
9 -> 10  [label="x (6)"];
9 -> 5  [label="y (6)"];
9 -> 1  [label="z (6)"];
10 -> 8  [label="x (7)"];
10 -> 4  [label="y (7)"];
10 -> 7  [label="z (7)"];
11 -> 10  [label="x (17)"];
11 -> 6  [label="y (17)"];
11 -> 0  [label="z (5)"];
__start0 [label="", shape=none];
__start0 -> 0  [label=""];
}
