digraph "benchmarks-true-state-lstar-3seeds/n_states=12-n_outputs=6-glitch_percent=0.1/edcf6d02b8c58f357fe920a933feb393/pmsatLearned-N12" {
0 [label="0|a", shape=record, style=rounded];
1 [label="1|b", shape=record, style=rounded];
2 [label="2|c", shape=record, style=rounded];
3 [label="3|d", shape=record, style=rounded];
4 [label="4|e", shape=record, style=rounded];
5 [label="5|f", shape=record, style=rounded];
6 [label="6|d", shape=record, style=rounded];
7 [label="7|a", shape=record, style=rounded];
8 [label="8|e", shape=record, style=rounded];
9 [label="9|a", shape=record, style=rounded];
10 [label="10|b", shape=record, style=rounded];
11 [label="11|b", shape=record, style=rounded];
0 -> 4  [label="x"];
0 -> 10  [label="y"];
0 -> 9  [label="z"];
1 -> 4  [label="x"];
1 -> 1  [label="y"];
1 -> 9  [label="z"];
2 -> 2  [label="x"];
2 -> 4  [label="y"];
2 -> 0  [label="z"];
3 -> 5  [label="z"];
3 -> 4  [label="y"];
3 -> 10  [label="x"];
4 -> 6  [label="x"];
4 -> 0  [label="y"];
4 -> 11  [label="z"];
5 -> 9  [label="x"];
5 -> 8  [label="y"];
5 -> 1  [label="z"];
6 -> 4  [label="x"];
6 -> 9  [label="y"];
6 -> 1  [label="z"];
7 -> 8  [label="y"];
7 -> 4  [label="z"];
7 -> 0  [label="x"];
8 -> 5  [label="x"];
8 -> 5  [label="y"];
8 -> 8  [label="z"];
9 -> 4  [label="x"];
9 -> 11  [label="z"];
9 -> 11  [label="y"];
10 -> 1  [label="x"];
10 -> 2  [label="z"];
10 -> 7  [label="y"];
11 -> 3  [label="x"];
11 -> 1  [label="y"];
11 -> 6  [label="z"];
__start0 [label="", shape=none];
__start0 -> 3  [label=""];
}
