digraph "benchmarks-true-state-lstar-3seeds/n_states=12-n_outputs=7-glitch_percent=0.1/38bf439889186937755662398fc55ff2/alergiaLearned" {
q0 [label="a"];
q1 [label="e"];
q2 [label="a"];
q3 [label="d"];
q4 [label="g"];
q5 [label="b"];
q6 [label="f"];
q7 [label="e"];
q0 -> q1  [label="z:1.0"];
q0 -> q2  [label="y:0.8679245283018868"];
q0 -> q5  [label="y:0.05660377358490566"];
q0 -> q6  [label="y:0.03773584905660377"];
q0 -> q1  [label="y:0.03773584905660377"];
q0 -> q3  [label="x:0.875"];
q0 -> q4  [label="x:0.07142857142857142"];
q0 -> q1  [label="x:0.03571428571428571"];
q0 -> q5  [label="x:0.017857142857142856"];
q1 -> q1  [label="x:0.7741935483870968"];
q1 -> q6  [label="x:0.16129032258064516"];
q1 -> q5  [label="x:0.06451612903225806"];
q1 -> q5  [label="y:0.56"];
q1 -> q1  [label="y:0.12"];
q1 -> q4  [label="y:0.12"];
q1 -> q6  [label="y:0.2"];
q1 -> q1  [label="z:0.47058823529411764"];
q1 -> q4  [label="z:0.23529411764705882"];
q1 -> q2  [label="z:0.23529411764705882"];
q1 -> q3  [label="z:0.058823529411764705"];
q2 -> q4  [label="x:0.8461538461538461"];
q2 -> q6  [label="x:0.07692307692307693"];
q2 -> q5  [label="x:0.07692307692307693"];
q2 -> q6  [label="y:0.9375"];
q2 -> q1  [label="y:0.0625"];
q2 -> q7  [label="z:0.9411764705882353"];
q2 -> q3  [label="z:0.058823529411764705"];
q3 -> q5  [label="x:0.9333333333333333"];
q3 -> q6  [label="x:0.06666666666666667"];
q3 -> q1  [label="y:0.8125"];
q3 -> q4  [label="y:0.0625"];
q3 -> q5  [label="y:0.125"];
q3 -> q7  [label="z:0.9444444444444444"];
q3 -> q2  [label="z:0.05555555555555555"];
q4 -> q1  [label="y:1.0"];
q4 -> q1  [label="z:1.0"];
q4 -> q6  [label="x:1.0"];
q5 -> q3  [label="z:0.5454545454545454"];
q5 -> q1  [label="z:0.45454545454545453"];
q5 -> q2  [label="y:0.6363636363636364"];
q5 -> q5  [label="y:0.36363636363636365"];
q5 -> q1  [label="x:0.5"];
q5 -> q3  [label="x:0.5"];
q6 -> q5  [label="y:1.0"];
q6 -> q1  [label="x:0.8888888888888888"];
q6 -> q3  [label="x:0.1111111111111111"];
q6 -> q3  [label="z:0.8888888888888888"];
q6 -> q1  [label="z:0.1111111111111111"];
q7 -> q5  [label="x:0.5555555555555556"];
q7 -> q6  [label="x:0.4444444444444444"];
q7 -> q1  [label="y:0.5555555555555556"];
q7 -> q6  [label="y:0.4444444444444444"];
q7 -> q4  [label="z:0.5714285714285714"];
q7 -> q3  [label="z:0.2857142857142857"];
q7 -> q1  [label="z:0.14285714285714285"];
__start0 [label="", shape=none];
__start0 -> q0  [label=""];
}
