digraph "benchmarks-true-state-lstar-3seeds/n_states=6-n_outputs=6-glitch_percent=0.01/404cd93c54649ca0ac6b0d5b07ca09b8/alergiaLearned" {
q0 [label="c"];
q1 [label="d"];
q2 [label="c"];
q3 [label="c"];
q4 [label="a"];
q0 -> q1  [label="z:1.0"];
q0 -> q1  [label="y:0.8695652173913043"];
q0 -> q0  [label="y:0.13043478260869565"];
q0 -> q2  [label="x:0.9565217391304348"];
q0 -> q4  [label="x:0.043478260869565216"];
q1 -> q0  [label="x:0.5333333333333333"];
q1 -> q1  [label="x:0.4666666666666667"];
q1 -> q0  [label="y:1.0"];
q1 -> q0  [label="z:0.5714285714285714"];
q1 -> q1  [label="z:0.42857142857142855"];
q2 -> q3  [label="x:1.0"];
q2 -> q4  [label="y:1.0"];
q2 -> q0  [label="z:1.0"];
q3 -> q4  [label="x:1.0"];
q3 -> q0  [label="y:1.0"];
q3 -> q1  [label="z:1.0"];
q4 -> q1  [label="x:1.0"];
q4 -> q0  [label="y:1.0"];
q4 -> q1  [label="z:1.0"];
__start0 [label="", shape=none];
__start0 -> q0  [label=""];
}
