digraph "benchmarks-true-state-lstar-3seeds/n_states=8-n_outputs=3-glitch_percent=0.05/e387d70c6b23d4c7b7e9e5ee823450de/alergiaLearned" {
q0 [label="b"];
q1 [label="a"];
q2 [label="b"];
q3 [label="b"];
q4 [label="c"];
q0 -> q1  [label="z:0.7692307692307693"];
q0 -> q4  [label="z:0.038461538461538464"];
q0 -> q0  [label="z:0.19230769230769232"];
q0 -> q2  [label="y:0.9777777777777777"];
q0 -> q4  [label="y:0.022222222222222223"];
q0 -> q3  [label="x:0.9615384615384616"];
q0 -> q4  [label="x:0.038461538461538464"];
q1 -> q4  [label="x:1.0"];
q1 -> q4  [label="y:1.0"];
q1 -> q4  [label="z:1.0"];
q2 -> q4  [label="x:0.9459459459459459"];
q2 -> q0  [label="x:0.05405405405405406"];
q2 -> q4  [label="y:0.3333333333333333"];
q2 -> q0  [label="y:0.6666666666666666"];
q2 -> q2  [label="z:0.9411764705882353"];
q2 -> q1  [label="z:0.058823529411764705"];
q3 -> q4  [label="x:1.0"];
q3 -> q0  [label="y:0.9130434782608695"];
q3 -> q4  [label="y:0.08695652173913043"];
q3 -> q2  [label="z:1.0"];
q4 -> q4  [label="y:0.5555555555555556"];
q4 -> q2  [label="y:0.4444444444444444"];
q4 -> q4  [label="x:1.0"];
q4 -> q1  [label="z:0.6923076923076923"];
q4 -> q4  [label="z:0.3076923076923077"];
__start0 [label="", shape=none];
__start0 -> q0  [label=""];
}
