digraph "benchmarks-true-state-lstar-3seeds/n_states=12-n_outputs=7-glitch_percent=0.05/3d649bc1a85c13079e21c06ee70bf43e/pmsatLearned-N12-STOC" {
0 [label="0|b", shape=record, style=rounded];
1 [label="1|c", shape=record, style=rounded];
2 [label="2|e", shape=record, style=rounded];
3 [label="3|g", shape=record, style=rounded];
4 [label="4|b", shape=record, style=rounded];
5 [label="5|g", shape=record, style=rounded];
6 [label="6|e", shape=record, style=rounded];
7 [label="7|b", shape=record, style=rounded];
8 [label="8|g", shape=record, style=rounded];
9 [label="9|b", shape=record, style=rounded];
10 [label="10|g", shape=record, style=rounded];
11 [label="11|e", shape=record, style=rounded];
0 -> 2  [label="z (44)"];
0 -> 1  [label="y (53)"];
0 -> 9  [label="x (55)"];
0 -> 0  [label="!z [1]"];
0 -> 5  [label="!y [1]"];
0 -> 4  [label="!x [1]"];
1 -> 6  [label="x (16)"];
1 -> 3  [label="y (17)"];
1 -> 11  [label="z (19)"];
1 -> 0  [label="!z [1]"];
2 -> 7  [label="x (18)"];
2 -> 10  [label="y (18)"];
2 -> 10  [label="z (6)"];
3 -> 1  [label="x (6)"];
3 -> 6  [label="y (6)"];
3 -> 0  [label="z (4)"];
4 -> 0  [label="x (7)"];
4 -> 9  [label="y (7)"];
4 -> 1  [label="z (6)"];
5 -> 4  [label="x (4)"];
5 -> 3  [label="y (4)"];
5 -> 7  [label="z (5)"];
5 -> 3  [label="!z [1]"];
6 -> 7  [label="x (6)"];
6 -> 4  [label="y (7)"];
6 -> 9  [label="z (4)"];
7 -> 0  [label="y (7)"];
7 -> 10  [label="z (6)"];
7 -> 0  [label="x (5)"];
7 -> 6  [label="!z [1]"];
8 -> 11  [label="x (6)"];
8 -> 4  [label="y (4)"];
8 -> 2  [label="z (6)"];
8 -> 1  [label="!z [1]"];
9 -> 5  [label="x (18)"];
9 -> 4  [label="y (20)"];
9 -> 8  [label="z (19)"];
9 -> 3  [label="!x [1]"];
10 -> 8  [label="x (8)"];
10 -> 2  [label="y (8)"];
10 -> 10  [label="z (8)"];
11 -> 9  [label="x (7)"];
11 -> 11  [label="y (7)"];
11 -> 9  [label="z (7)"];
__start0 [label="", shape=none];
__start0 -> 0  [label=""];
}
