digraph "benchmarks-true-state-lstar-3seeds/n_states=15-n_outputs=8-glitch_percent=0.1/cf336d1e83245f7fa2ee8f8ceae2294f/alergiaLearned" {
q0 [label="d"];
q1 [label="a"];
q2 [label="c"];
q3 [label="h"];
q4 [label="f"];
q5 [label="e"];
q6 [label="c"];
q7 [label="a"];
q8 [label="h"];
q9 [label="a"];
q0 -> q1  [label="z:0.9038461538461539"];
q0 -> q2  [label="z:0.038461538461538464"];
q0 -> q3  [label="z:0.019230769230769232"];
q0 -> q4  [label="z:0.038461538461538464"];
q0 -> q2  [label="y:0.8571428571428571"];
q0 -> q1  [label="y:0.08928571428571429"];
q0 -> q4  [label="y:0.05357142857142857"];
q0 -> q3  [label="x:0.9210526315789473"];
q0 -> q5  [label="x:0.013157894736842105"];
q0 -> q4  [label="x:0.02631578947368421"];
q0 -> q6  [label="x:0.013157894736842105"];
q0 -> q1  [label="x:0.02631578947368421"];
q1 -> q4  [label="x:0.8"];
q1 -> q5  [label="x:0.05"];
q1 -> q2  [label="x:0.15"];
q1 -> q7  [label="y:0.6666666666666666"];
q1 -> q2  [label="y:0.041666666666666664"];
q1 -> q8  [label="y:0.2916666666666667"];
q1 -> q3  [label="z:0.6363636363636364"];
q1 -> q4  [label="z:0.045454545454545456"];
q1 -> q2  [label="z:0.3181818181818182"];
q2 -> q2  [label="x:0.7777777777777778"];
q2 -> q3  [label="x:0.037037037037037035"];
q2 -> q4  [label="x:0.18518518518518517"];
q2 -> q1  [label="y:0.7307692307692307"];
q2 -> q4  [label="y:0.23076923076923078"];
q2 -> q3  [label="y:0.038461538461538464"];
q2 -> q4  [label="z:0.5769230769230769"];
q2 -> q5  [label="z:0.2692307692307692"];
q2 -> q1  [label="z:0.15384615384615385"];
q3 -> q9  [label="x:0.8636363636363636"];
q3 -> q3  [label="x:0.022727272727272728"];
q3 -> q5  [label="x:0.06818181818181818"];
q3 -> q2  [label="x:0.045454545454545456"];
q3 -> q4  [label="y:0.8260869565217391"];
q3 -> q7  [label="y:0.043478260869565216"];
q3 -> q8  [label="y:0.043478260869565216"];
q3 -> q5  [label="y:0.08695652173913043"];
q3 -> q2  [label="z:0.6666666666666666"];
q3 -> q4  [label="z:0.23809523809523808"];
q3 -> q3  [label="z:0.09523809523809523"];
q4 -> q5  [label="z:0.6666666666666666"];
q4 -> q4  [label="z:0.3333333333333333"];
q4 -> q3  [label="x:0.3333333333333333"];
q4 -> q0  [label="x:0.3888888888888889"];
q4 -> q1  [label="x:0.2222222222222222"];
q4 -> q2  [label="x:0.05555555555555555"];
q4 -> q6  [label="y:0.9444444444444444"];
q4 -> q3  [label="y:0.05555555555555555"];
q5 -> q3  [label="y:0.8"];
q5 -> q4  [label="y:0.2"];
q5 -> q3  [label="x:1.0"];
q5 -> q0  [label="z:1.0"];
q6 -> q4  [label="y:1.0"];
q6 -> q1  [label="y:0.0"];
q6 -> q1  [label="z:1.0"];
q6 -> q5  [label="z:0.0"];
q6 -> q4  [label="x:0.0"];
q6 -> q2  [label="x:1.0"];
q7 -> q4  [label="x:0.75"];
q7 -> q5  [label="x:0.25"];
q7 -> q2  [label="z:0.8"];
q7 -> q3  [label="z:0.2"];
q7 -> q1  [label="y:1.0"];
q8 -> q5  [label="y:0.8333333333333334"];
q8 -> q3  [label="y:0.16666666666666666"];
q8 -> q6  [label="x:1.0"];
q8 -> q3  [label="z:1.0"];
q9 -> q8  [label="y:0.9375"];
q9 -> q1  [label="y:0.0625"];
q9 -> q3  [label="z:0.8333333333333334"];
q9 -> q2  [label="z:0.16666666666666666"];
q9 -> q5  [label="x:0.8461538461538461"];
q9 -> q3  [label="x:0.07692307692307693"];
q9 -> q4  [label="x:0.07692307692307693"];
__start0 [label="", shape=none];
__start0 -> q0  [label=""];
}
