digraph "benchmarks-true-state-lstar-3seeds/n_states=16-n_outputs=5-glitch_percent=0.1/2e335b8a2569c50763788171e66d3519/alergiaLearned" {
q0 [label="b"];
q1 [label="e"];
q2 [label="b"];
q3 [label="c"];
q4 [label="c"];
q5 [label="d"];
q6 [label="e"];
q7 [label="e"];
q8 [label="b"];
q9 [label="e"];
q0 -> q1  [label="z:0.9078947368421053"];
q0 -> q4  [label="z:0.039473684210526314"];
q0 -> q0  [label="z:0.05263157894736842"];
q0 -> q2  [label="y:0.8648648648648649"];
q0 -> q5  [label="y:0.02702702702702703"];
q0 -> q1  [label="y:0.08108108108108109"];
q0 -> q4  [label="y:0.02702702702702703"];
q0 -> q3  [label="x:0.9327731092436975"];
q0 -> q1  [label="x:0.058823529411764705"];
q0 -> q0  [label="x:0.008403361344537815"];
q1 -> q6  [label="x:0.8846153846153846"];
q1 -> q0  [label="x:0.09615384615384616"];
q1 -> q3  [label="x:0.019230769230769232"];
q1 -> q5  [label="y:0.4523809523809524"];
q1 -> q1  [label="y:0.2619047619047619"];
q1 -> q2  [label="y:0.2857142857142857"];
q1 -> q4  [label="z:0.5121951219512195"];
q1 -> q0  [label="z:0.36585365853658536"];
q1 -> q1  [label="z:0.12195121951219512"];
q2 -> q7  [label="x:0.9473684210526315"];
q2 -> q0  [label="x:0.05263157894736842"];
q2 -> q3  [label="x:0.0"];
q2 -> q1  [label="y:0.76"];
q2 -> q2  [label="y:0.24"];
q2 -> q8  [label="z:0.782608695652174"];
q2 -> q3  [label="z:0.21739130434782608"];
q2 -> q1  [label="z:0.0"];
q3 -> q4  [label="x:0.847457627118644"];
q3 -> q9  [label="x:0.15254237288135594"];
q3 -> q1  [label="y:0.7419354838709677"];
q3 -> q5  [label="y:0.22580645161290322"];
q3 -> q3  [label="y:0.03225806451612903"];
q3 -> q2  [label="z:0.7037037037037037"];
q3 -> q3  [label="z:0.037037037037037035"];
q3 -> q1  [label="z:0.25925925925925924"];
q4 -> q1  [label="x:1.0"];
q4 -> q3  [label="y:0.35"];
q4 -> q5  [label="y:0.65"];
q4 -> q2  [label="z:0.3"];
q4 -> q1  [label="z:0.65"];
q4 -> q3  [label="z:0.05"];
q5 -> q6  [label="z:0.6"];
q5 -> q8  [label="z:0.4"];
q5 -> q4  [label="x:0.6363636363636364"];
q5 -> q1  [label="x:0.36363636363636365"];
q5 -> q2  [label="y:0.46153846153846156"];
q5 -> q3  [label="y:0.46153846153846156"];
q5 -> q1  [label="y:0.07692307692307693"];
q6 -> q6  [label="x:1.0"];
q6 -> q0  [label="x:0.0"];
q6 -> q1  [label="y:0.48"];
q6 -> q0  [label="y:0.36"];
q6 -> q5  [label="y:0.16"];
q6 -> q2  [label="z:0.7142857142857143"];
q6 -> q3  [label="z:0.2857142857142857"];
q6 -> q1  [label="z:0.0"];
q7 -> q0  [label="x:0.75"];
q7 -> q6  [label="x:0.25"];
q7 -> q1  [label="y:0.6153846153846154"];
q7 -> q0  [label="y:0.38461538461538464"];
q7 -> q2  [label="z:0.8333333333333334"];
q7 -> q3  [label="z:0.16666666666666666"];
q8 -> q0  [label="x:1.0"];
q8 -> q6  [label="x:0.0"];
q8 -> q4  [label="z:1.0"];
q8 -> q3  [label="y:1.0"];
q8 -> q0  [label="y:0.0"];
q9 -> q0  [label="y:1.0"];
q9 -> q1  [label="x:1.0"];
__start0 [label="", shape=none];
__start0 -> q0  [label=""];
}
