digraph "benchmarks-true-state-lstar-songp/n_states=11-n_outputs=4-glitch_percent=0.1-pmstrat='fm'/09969fc0cb3ac26e943fde02f1ca4629/pmsatLearned-N11-STOC" {
0 [label="0|a", shape=record, style=rounded];
1 [label="1|b", shape=record, style=rounded];
2 [label="2|c", shape=record, style=rounded];
3 [label="3|d", shape=record, style=rounded];
4 [label="4|c", shape=record, style=rounded];
5 [label="5|a", shape=record, style=rounded];
6 [label="6|d", shape=record, style=rounded];
7 [label="7|c", shape=record, style=rounded];
8 [label="8|a", shape=record, style=rounded];
9 [label="9|d", shape=record, style=rounded];
10 [label="10|d", shape=record, style=rounded];
0 -> 9  [label="z (29)"];
0 -> 6  [label="y (49)"];
0 -> 2  [label="x (53)"];
0 -> 3  [label="!z [1]"];
0 -> 2  [label="!y [1]"];
0 -> 0  [label="!z [2]"];
0 -> 5  [label="!z [3]"];
0 -> 7  [label="!x [1]"];
1 -> 10  [label="x (10)"];
1 -> 5  [label="z (8)"];
1 -> 6  [label="y (7)"];
2 -> 7  [label="x (18)"];
2 -> 1  [label="y (15)"];
2 -> 4  [label="z (14)"];
2 -> 1  [label="!z [2]"];
2 -> 5  [label="!z [1]"];
3 -> 7  [label="x (7)"];
3 -> 2  [label="y (4)"];
3 -> 5  [label="z (4)"];
3 -> 3  [label="!y [1]"];
4 -> 7  [label="x (3)"];
4 -> 6  [label="y (5)"];
4 -> 1  [label="z (4)"];
5 -> 0  [label="x (7)"];
5 -> 1  [label="y (4)"];
5 -> 7  [label="z (7)"];
6 -> 10  [label="x (17)"];
6 -> 8  [label="y (18)"];
6 -> 5  [label="z (15)"];
6 -> 2  [label="!y [1]"];
6 -> 6  [label="!x [1]"];
7 -> 9  [label="y (9)"];
7 -> 1  [label="z (6)"];
7 -> 5  [label="x (8)"];
8 -> 6  [label="x (3)"];
8 -> 0  [label="y (5)"];
8 -> 1  [label="z (5)"];
9 -> 3  [label="x (17)"];
9 -> 7  [label="y (5)"];
9 -> 1  [label="z (5)"];
9 -> 5  [label="!z [1]"];
10 -> 3  [label="x (3)"];
10 -> 2  [label="y (4)"];
10 -> 0  [label="z (6)"];
10 -> 6  [label="!y [1]"];
__start0 [label="", shape=none];
__start0 -> 0  [label=""];
}
