digraph "benchmarks-true-state-lstar-3seeds/n_states=14-n_outputs=2-glitch_percent=0.01/e02d88850b4895e88a9c739f7f5971e3/pmsatLearned-N14-STOC" {
0 [label="0|a", shape=record, style=rounded];
1 [label="1|b", shape=record, style=rounded];
2 [label="2|a", shape=record, style=rounded];
3 [label="3|b", shape=record, style=rounded];
4 [label="4|b", shape=record, style=rounded];
5 [label="5|b", shape=record, style=rounded];
6 [label="6|b", shape=record, style=rounded];
7 [label="7|b", shape=record, style=rounded];
8 [label="8|a", shape=record, style=rounded];
9 [label="9|a", shape=record, style=rounded];
10 [label="10|a", shape=record, style=rounded];
11 [label="11|b", shape=record, style=rounded];
12 [label="12|b", shape=record, style=rounded];
13 [label="13|a", shape=record, style=rounded];
0 -> 8  [label="x (45)"];
0 -> 0  [label="y (23)"];
0 -> 11  [label="z (12)"];
1 -> 12  [label="z (91)"];
1 -> 2  [label="!z [1]"];
1 -> 3  [label="y (101)"];
1 -> 2  [label="x (121)"];
1 -> 5  [label="!x [1]"];
2 -> 5  [label="x (64)"];
2 -> 10  [label="y (41)"];
2 -> 9  [label="z (30)"];
3 -> 6  [label="x (52)"];
3 -> 11  [label="y (51)"];
3 -> 13  [label="z (35)"];
3 -> 0  [label="!y [1]"];
4 -> 2  [label="x (22)"];
4 -> 10  [label="y (15)"];
4 -> 0  [label="z (10)"];
5 -> 7  [label="x (38)"];
5 -> 13  [label="y (15)"];
5 -> 12  [label="z (9)"];
5 -> 12  [label="!y [1]"];
6 -> 7  [label="x (28)"];
6 -> 3  [label="y (23)"];
6 -> 6  [label="z (11)"];
7 -> 4  [label="x (23)"];
7 -> 10  [label="y (20)"];
7 -> 9  [label="z (10)"];
8 -> 6  [label="x (18)"];
8 -> 4  [label="y (15)"];
8 -> 11  [label="z (8)"];
8 -> 5  [label="!y [1]"];
9 -> 6  [label="x (19)"];
9 -> 11  [label="y (13)"];
9 -> 13  [label="z (10)"];
10 -> 3  [label="x (29)"];
10 -> 9  [label="y (14)"];
10 -> 2  [label="z (9)"];
11 -> 0  [label="x (30)"];
11 -> 7  [label="y (14)"];
11 -> 5  [label="z (11)"];
12 -> 0  [label="x (34)"];
12 -> 4  [label="y (33)"];
12 -> 8  [label="z (28)"];
13 -> 3  [label="x (21)"];
13 -> 0  [label="y (18)"];
13 -> 13  [label="z (11)"];
__start0 [label="", shape=none];
__start0 -> 1  [label=""];
}
