digraph "benchmarks-true-state-lstar-rc10seeds/n_states=12-n_outputs=9-glitch_percent=0.02/59bc9dbd418455374a5e0800c1b6f8e4/pmsatLearned_NOP-N12" {
0 [label="0|f", shape=record, style=rounded];
1 [label="1|h", shape=record, style=rounded];
2 [label="2|i", shape=record, style=rounded];
3 [label="3|f", shape=record, style=rounded];
4 [label="4|g", shape=record, style=rounded];
5 [label="5|b", shape=record, style=rounded];
6 [label="6|a", shape=record, style=rounded];
7 [label="7|e", shape=record, style=rounded];
8 [label="8|g", shape=record, style=rounded];
9 [label="9|i", shape=record, style=rounded];
10 [label="10|g", shape=record, style=rounded];
11 [label="11|g", shape=record, style=rounded];
0 -> 5  [label="x"];
0 -> 0  [label="y"];
0 -> 10  [label="z"];
1 -> 0  [label="x"];
1 -> 8  [label="y"];
1 -> 10  [label="z"];
2 -> 9  [label="x"];
2 -> 9  [label="y"];
2 -> 4  [label="z"];
3 -> 9  [label="z"];
3 -> 5  [label="y"];
3 -> 4  [label="x"];
4 -> 11  [label="x"];
4 -> 7  [label="y"];
4 -> 8  [label="z"];
5 -> 6  [label="x"];
5 -> 1  [label="y"];
5 -> 2  [label="z"];
6 -> 4  [label="x"];
6 -> 0  [label="y"];
6 -> 10  [label="z"];
7 -> 2  [label="x"];
7 -> 9  [label="y"];
7 -> 3  [label="z"];
8 -> 8  [label="x"];
8 -> 8  [label="z"];
8 -> 0  [label="y"];
9 -> 10  [label="x"];
9 -> 0  [label="y"];
9 -> 9  [label="z"];
10 -> 3  [label="x"];
10 -> 11  [label="y"];
10 -> 0  [label="z"];
11 -> 8  [label="x"];
11 -> 8  [label="y"];
11 -> 0  [label="z"];
__start0 [label="", shape=none];
__start0 -> 3  [label=""];
}
