digraph "benchmarks-true-state-lstar-rc10seeds/n_states=9-n_outputs=9-glitch_percent=0.05/ccb8f788d3703e1a4a8c017026197672/pmsatLearned_NOP-N9" {
0 [label="0|h", shape=record, style=rounded];
1 [label="1|b", shape=record, style=rounded];
2 [label="2|e", shape=record, style=rounded];
3 [label="3|b", shape=record, style=rounded];
4 [label="4|a", shape=record, style=rounded];
5 [label="5|e", shape=record, style=rounded];
6 [label="6|f", shape=record, style=rounded];
7 [label="7|e", shape=record, style=rounded];
8 [label="8|g", shape=record, style=rounded];
0 -> 1  [label="x"];
0 -> 5  [label="z"];
0 -> 0  [label="y"];
1 -> 7  [label="x"];
1 -> 7  [label="y"];
1 -> 8  [label="z"];
2 -> 0  [label="z"];
2 -> 8  [label="y"];
2 -> 3  [label="x"];
3 -> 7  [label="x"];
3 -> 6  [label="z"];
3 -> 5  [label="y"];
4 -> 6  [label="x"];
4 -> 8  [label="y"];
4 -> 2  [label="z"];
5 -> 0  [label="x"];
5 -> 2  [label="y"];
5 -> 2  [label="z"];
6 -> 0  [label="x"];
6 -> 7  [label="y"];
6 -> 1  [label="z"];
7 -> 6  [label="x"];
7 -> 8  [label="y"];
7 -> 6  [label="z"];
8 -> 1  [label="x"];
8 -> 4  [label="y"];
8 -> 0  [label="z"];
__start0 [label="", shape=none];
__start0 -> 2  [label=""];
}
