digraph "benchmarks-true-state-lstar-rc10seeds/n_states=10-n_outputs=4-glitch_percent=0.01/127c1a86f8a168f43bd27e6bd94f17ab/pmsatLearned_NOP-N10" {
0 [label="0|d", shape=record, style=rounded];
1 [label="1|a", shape=record, style=rounded];
2 [label="2|a", shape=record, style=rounded];
3 [label="3|a", shape=record, style=rounded];
4 [label="4|b", shape=record, style=rounded];
5 [label="5|a", shape=record, style=rounded];
6 [label="6|a", shape=record, style=rounded];
7 [label="7|c", shape=record, style=rounded];
8 [label="8|b", shape=record, style=rounded];
9 [label="9|d", shape=record, style=rounded];
0 -> 3  [label="z"];
0 -> 4  [label="y"];
0 -> 9  [label="x"];
1 -> 4  [label="x"];
1 -> 1  [label="y"];
1 -> 9  [label="z"];
2 -> 3  [label="x"];
2 -> 7  [label="y"];
2 -> 2  [label="z"];
3 -> 3  [label="x"];
3 -> 5  [label="y"];
3 -> 1  [label="z"];
4 -> 7  [label="x"];
4 -> 1  [label="y"];
4 -> 8  [label="z"];
5 -> 3  [label="x"];
5 -> 3  [label="y"];
5 -> 9  [label="z"];
6 -> 9  [label="x"];
6 -> 6  [label="y"];
6 -> 8  [label="z"];
7 -> 5  [label="x"];
7 -> 7  [label="y"];
7 -> 3  [label="z"];
8 -> 2  [label="x"];
8 -> 5  [label="y"];
8 -> 9  [label="z"];
9 -> 5  [label="x"];
9 -> 2  [label="y"];
9 -> 6  [label="z"];
__start0 [label="", shape=none];
__start0 -> 0  [label=""];
}
