digraph "benchmarks-true-state-lstar-3seeds/n_states=6-n_outputs=5-glitch_percent=0.0/7a24ea6f41902017b7c73f71ea0c7ca7/pmsatLearned-N6" {
0 [label="0|b", shape=record, style=rounded];
1 [label="1|d", shape=record, style=rounded];
2 [label="2|e", shape=record, style=rounded];
3 [label="3|e", shape=record, style=rounded];
4 [label="4|d", shape=record, style=rounded];
5 [label="5|e", shape=record, style=rounded];
0 -> 0  [label="x"];
0 -> 2  [label="y"];
0 -> 4  [label="z"];
1 -> 4  [label="x"];
1 -> 3  [label="y"];
1 -> 2  [label="z"];
2 -> 1  [label="z"];
2 -> 3  [label="y"];
2 -> 5  [label="x"];
3 -> 4  [label="x"];
3 -> 3  [label="y"];
3 -> 0  [label="z"];
4 -> 0  [label="x"];
4 -> 5  [label="y"];
4 -> 0  [label="z"];
5 -> 0  [label="x"];
5 -> 4  [label="y"];
5 -> 0  [label="z"];
__start0 [label="", shape=none];
__start0 -> 2  [label=""];
}
