digraph "benchmarks-true-state-lstar-3seeds/n_states=10-n_outputs=2-glitch_percent=0.1/08e7f227a9cb6008290107c61e408686/alergiaLearned" {
q0 [label="a"];
q1 [label="b"];
q2 [label="a"];
q3 [label="b"];
q4 [label="b"];
q5 [label="b"];
q0 -> q1  [label="z:0.8064516129032258"];
q0 -> q0  [label="z:0.1935483870967742"];
q0 -> q2  [label="y:0.07692307692307693"];
q0 -> q3  [label="y:0.9230769230769231"];
q0 -> q4  [label="x:0.987012987012987"];
q0 -> q0  [label="x:0.012987012987012988"];
q1 -> q1  [label="x:0.65"];
q1 -> q0  [label="x:0.35"];
q1 -> q1  [label="z:0.4090909090909091"];
q1 -> q0  [label="z:0.5909090909090909"];
q1 -> q0  [label="y:0.9310344827586207"];
q1 -> q1  [label="y:0.06896551724137931"];
q2 -> q0  [label="y:0.47619047619047616"];
q2 -> q5  [label="y:0.5238095238095238"];
q2 -> q1  [label="z:0.6"];
q2 -> q0  [label="z:0.4"];
q2 -> q1  [label="x:1.0"];
q3 -> q1  [label="x:1.0"];
q3 -> q1  [label="y:0.9583333333333334"];
q3 -> q0  [label="y:0.041666666666666664"];
q3 -> q5  [label="z:0.9545454545454546"];
q3 -> q0  [label="z:0.045454545454545456"];
q4 -> q2  [label="x:0.92"];
q4 -> q1  [label="x:0.08"];
q4 -> q2  [label="z:0.95"];
q4 -> q1  [label="z:0.05"];
q4 -> q2  [label="y:1.0"];
q5 -> q3  [label="x:1.0"];
q5 -> q1  [label="y:1.0"];
q5 -> q0  [label="z:1.0"];
q5 -> q1  [label="z:0.0"];
__start0 [label="", shape=none];
__start0 -> q0  [label=""];
}
