digraph "benchmarks-true-state-lstar-3seeds/n_states=17-n_outputs=5-glitch_percent=0.0/d94cb4b2f44ae2e12be1f0c1fe74e444/rpniGroundTruth" {
s0 [label="s0|c", shape=record, style=rounded];
s1 [label="s1|d", shape=record, style=rounded];
s2 [label="s2|e", shape=record, style=rounded];
s3 [label="s3|a", shape=record, style=rounded];
s4 [label="s4|e", shape=record, style=rounded];
s5 [label="s5|a", shape=record, style=rounded];
s6 [label="s6|a", shape=record, style=rounded];
s7 [label="s7|d", shape=record, style=rounded];
s8 [label="s8|e", shape=record, style=rounded];
s9 [label="s9|a", shape=record, style=rounded];
s10 [label="s10|a", shape=record, style=rounded];
s11 [label="s11|e", shape=record, style=rounded];
s12 [label="s12|c", shape=record, style=rounded];
s13 [label="s13|d", shape=record, style=rounded];
s14 [label="s14|d", shape=record, style=rounded];
s15 [label="s15|d", shape=record, style=rounded];
s16 [label="s16|c", shape=record, style=rounded];
s0 -> s1  [label="x"];
s0 -> s2  [label="z"];
s0 -> s3  [label="y"];
s1 -> s4  [label="y"];
s1 -> s5  [label="x"];
s1 -> s6  [label="z"];
s2 -> s7  [label="y"];
s2 -> s8  [label="x"];
s2 -> s9  [label="z"];
s3 -> s10  [label="y"];
s3 -> s11  [label="z"];
s3 -> s12  [label="x"];
s4 -> s4  [label="y"];
s4 -> s13  [label="x"];
s4 -> s4  [label="z"];
s5 -> s14  [label="z"];
s5 -> s15  [label="y"];
s5 -> s16  [label="x"];
s6 -> s13  [label="x"];
s6 -> s16  [label="y"];
s6 -> s12  [label="z"];
s7 -> s8  [label="y"];
s7 -> s7  [label="z"];
s7 -> s5  [label="x"];
s8 -> s16  [label="z"];
s8 -> s12  [label="x"];
s8 -> s13  [label="y"];
s9 -> s1  [label="y"];
s9 -> s12  [label="z"];
s9 -> s4  [label="x"];
s10 -> s8  [label="x"];
s10 -> s4  [label="y"];
s10 -> s10  [label="z"];
s11 -> s9  [label="x"];
s11 -> s2  [label="y"];
s11 -> s8  [label="z"];
s12 -> s6  [label="x"];
s12 -> s15  [label="y"];
s12 -> s13  [label="z"];
s13 -> s10  [label="z"];
s13 -> s16  [label="y"];
s13 -> s8  [label="x"];
s14 -> s9  [label="y"];
s14 -> s2  [label="x"];
s14 -> s12  [label="z"];
s15 -> s10  [label="z"];
s15 -> s1  [label="y"];
s15 -> s5  [label="x"];
s16 -> s6  [label="z"];
s16 -> s2  [label="x"];
s16 -> s4  [label="y"];
__start0 [label="", shape=none];
__start0 -> s0  [label=""];
}
