digraph RealModel {
s1 [label="s1|b", shape=record, style=rounded];
s2 [label="s2|e", shape=record, style=rounded];
s3 [label="s3|a", shape=record, style=rounded];
s4 [label="s4|c", shape=record, style=rounded];
s5 [label="s5|a", shape=record, style=rounded];
s6 [label="s6|d", shape=record, style=rounded];
s7 [label="s7|d", shape=record, style=rounded];
s8 [label="s8|d", shape=record, style=rounded];
s9 [label="s9|d", shape=record, style=rounded];
s10 [label="s10|b", shape=record, style=rounded];
s11 [label="s11|a", shape=record, style=rounded];
s12 [label="s12|d", shape=record, style=rounded];
s13 [label="s13|a", shape=record, style=rounded];
s14 [label="s14|d", shape=record, style=rounded];
s15 [label="s15|d", shape=record, style=rounded];
s1 -> s11  [label="x"];
s1 -> s15  [label="y"];
s1 -> s2  [label="z"];
s2 -> s5  [label="x"];
s2 -> s9  [label="y"];
s2 -> s14  [label="z"];
s3 -> s4  [label="x"];
s3 -> s11  [label="y"];
s3 -> s4  [label="z"];
s4 -> s13  [label="x"];
s4 -> s8  [label="y"];
s4 -> s8  [label="z"];
s5 -> s13  [label="x"];
s5 -> s8  [label="y"];
s5 -> s5  [label="z"];
s6 -> s1  [label="x"];
s6 -> s9  [label="y"];
s6 -> s4  [label="z"];
s7 -> s4  [label="x"];
s7 -> s7  [label="y"];
s7 -> s12  [label="z"];
s8 -> s9  [label="x"];
s8 -> s4  [label="y"];
s8 -> s6  [label="z"];
s9 -> s15  [label="x"];
s9 -> s1  [label="y"];
s9 -> s7  [label="z"];
s10 -> s12  [label="x"];
s10 -> s13  [label="y"];
s10 -> s11  [label="z"];
s11 -> s10  [label="x"];
s11 -> s7  [label="y"];
s11 -> s6  [label="z"];
s12 -> s15  [label="x"];
s12 -> s11  [label="y"];
s12 -> s2  [label="z"];
s13 -> s3  [label="x"];
s13 -> s11  [label="y"];
s13 -> s12  [label="z"];
s14 -> s14  [label="x"];
s14 -> s15  [label="y"];
s14 -> s9  [label="z"];
s15 -> s4  [label="x"];
s15 -> s8  [label="y"];
s15 -> s3  [label="z"];
__start0 [label="", shape=none];
__start0 -> s1  [label=""];
}
