digraph "benchmarks-true-state-lstar-3seeds/n_states=13-n_outputs=2-glitch_percent=0.05/5fee40179c41e5fd232c2420bdde91f1/pmsatLearned-N13" {
0 [label="0|a", shape=record, style=rounded];
1 [label="1|b", shape=record, style=rounded];
2 [label="2|b", shape=record, style=rounded];
3 [label="3|a", shape=record, style=rounded];
4 [label="4|b", shape=record, style=rounded];
5 [label="5|a", shape=record, style=rounded];
6 [label="6|a", shape=record, style=rounded];
7 [label="7|b", shape=record, style=rounded];
8 [label="8|a", shape=record, style=rounded];
9 [label="9|b", shape=record, style=rounded];
10 [label="10|a", shape=record, style=rounded];
11 [label="11|a", shape=record, style=rounded];
12 [label="12|b", shape=record, style=rounded];
0 -> 12  [label="x"];
0 -> 4  [label="z"];
0 -> 2  [label="y"];
1 -> 6  [label="z"];
1 -> 8  [label="y"];
1 -> 11  [label="x"];
2 -> 2  [label="y"];
2 -> 9  [label="z"];
2 -> 7  [label="x"];
3 -> 5  [label="x"];
3 -> 9  [label="y"];
3 -> 4  [label="z"];
4 -> 9  [label="y"];
4 -> 5  [label="z"];
4 -> 8  [label="x"];
5 -> 4  [label="x"];
5 -> 7  [label="y"];
5 -> 2  [label="z"];
6 -> 2  [label="x"];
6 -> 0  [label="y"];
6 -> 7  [label="z"];
7 -> 2  [label="x"];
7 -> 1  [label="y"];
7 -> 6  [label="z"];
8 -> 9  [label="x"];
8 -> 12  [label="z"];
8 -> 4  [label="y"];
9 -> 3  [label="x"];
9 -> 7  [label="y"];
9 -> 12  [label="z"];
10 -> 6  [label="x"];
10 -> 6  [label="y"];
10 -> 2  [label="z"];
11 -> 10  [label="x"];
11 -> 3  [label="y"];
11 -> 5  [label="z"];
12 -> 8  [label="y"];
12 -> 4  [label="z"];
12 -> 2  [label="x"];
__start0 [label="", shape=none];
__start0 -> 1  [label=""];
}
