digraph "pmsatLearned-N8-STOC" {
0 [label="0|a", shape=record, style=rounded];
1 [label="1|b", shape=record, style=rounded];
2 [label="2|c", shape=record, style=rounded];
3 [label="3|d", shape=record, style=rounded];
4 [label="4|e", shape=record, style=rounded];
5 [label="5|e", shape=record, style=rounded];
6 [label="6|d", shape=record, style=rounded];
7 [label="7|c", shape=record, style=rounded];
0 -> 3  [label="x (70)"];
0 -> 0  [label="y (67)"];
0 -> 2  [label="z (68)"];
1 -> 7  [label="x (79)"];
1 -> 5  [label="y (61)"];
1 -> 4  [label="z (72)"];
1 -> 5  [label="!z [1]"];
1 -> 1  [label="!y [1]"];
2 -> 6  [label="z (132)"];
2 -> 0  [label="y (139)"];
2 -> 1  [label="x (164)"];
2 -> 3  [label="!x [2]"];
2 -> 2  [label="!z [2]"];
3 -> 0  [label="x (26)"];
3 -> 7  [label="y (37)"];
3 -> 1  [label="z (25)"];
4 -> 2  [label="x (50)"];
4 -> 3  [label="z (34)"];
4 -> 5  [label="y (32)"];
4 -> 0  [label="!y [1]"];
5 -> 7  [label="x (61)"];
5 -> 6  [label="y (66)"];
5 -> 4  [label="z (61)"];
6 -> 5  [label="x (119)"];
6 -> 6  [label="y (135)"];
6 -> 2  [label="z (123)"];
6 -> 6  [label="!z [1]"];
7 -> 6  [label="x (43)"];
7 -> 1  [label="y (54)"];
7 -> 6  [label="z (57)"];
7 -> 6  [label="!y [1]"];
7 -> 2  [label="!z [1]"];
__start0 [label="", shape=none];
__start0 -> 2  [label=""];
}
