digraph "benchmarks-true-state-lstar-3seeds/n_states=9-n_outputs=4-glitch_percent=0.01/3984f4521bebf833aea1ff8a4d4344c5/RealModel" {
s1 [label="s1|d", shape=record, style=rounded];
s2 [label="s2|c", shape=record, style=rounded];
s3 [label="s3|c", shape=record, style=rounded];
s4 [label="s4|b", shape=record, style=rounded];
s5 [label="s5|d", shape=record, style=rounded];
s6 [label="s6|c", shape=record, style=rounded];
s7 [label="s7|a", shape=record, style=rounded];
s8 [label="s8|c", shape=record, style=rounded];
s9 [label="s9|b", shape=record, style=rounded];
s1 -> s3  [label="x"];
s1 -> s4  [label="y"];
s1 -> s6  [label="z"];
s2 -> s2  [label="x"];
s2 -> s6  [label="y"];
s2 -> s7  [label="z"];
s3 -> s2  [label="x"];
s3 -> s8  [label="y"];
s3 -> s7  [label="z"];
s4 -> s5  [label="x"];
s4 -> s9  [label="y"];
s4 -> s2  [label="z"];
s5 -> s4  [label="x"];
s5 -> s8  [label="y"];
s5 -> s5  [label="z"];
s6 -> s6  [label="x"];
s6 -> s7  [label="y"];
s6 -> s2  [label="z"];
s7 -> s5  [label="x"];
s7 -> s7  [label="y"];
s7 -> s2  [label="z"];
s8 -> s1  [label="x"];
s8 -> s4  [label="y"];
s8 -> s6  [label="z"];
s9 -> s8  [label="x"];
s9 -> s3  [label="y"];
s9 -> s5  [label="z"];
__start0 [label="", shape=none];
__start0 -> s1  [label=""];
}
