digraph "benchmarks-true-state-lstar-3seeds/n_states=8-n_outputs=6-glitch_percent=0.01/505783dc7cfa1002c447c0e35efb7f76/pmsatLearned-N8" {
0 [label="0|a", shape=record, style=rounded];
1 [label="1|c", shape=record, style=rounded];
2 [label="2|d", shape=record, style=rounded];
3 [label="3|e", shape=record, style=rounded];
4 [label="4|f", shape=record, style=rounded];
5 [label="5|a", shape=record, style=rounded];
6 [label="6|d", shape=record, style=rounded];
7 [label="7|c", shape=record, style=rounded];
0 -> 0  [label="x"];
0 -> 1  [label="y"];
0 -> 6  [label="z"];
1 -> 6  [label="z"];
1 -> 3  [label="y"];
1 -> 4  [label="x"];
2 -> 0  [label="x"];
2 -> 4  [label="y"];
2 -> 4  [label="z"];
3 -> 0  [label="x"];
3 -> 1  [label="y"];
3 -> 6  [label="z"];
4 -> 2  [label="x"];
4 -> 7  [label="y"];
4 -> 5  [label="z"];
5 -> 5  [label="x"];
5 -> 5  [label="y"];
5 -> 6  [label="z"];
6 -> 5  [label="x"];
6 -> 1  [label="y"];
6 -> 3  [label="z"];
7 -> 5  [label="x"];
7 -> 3  [label="y"];
7 -> 2  [label="z"];
__start0 [label="", shape=none];
__start0 -> 1  [label=""];
}
