digraph "benchmarks-true-state-lstar-songp/n_states=8-n_outputs=8-glitch_percent=0.05-pmstrat='lsu'/f7532af4c505ea615496e030dd82dcbb/pmsatLearned-N8" {
0 [label="0|a", shape=record, style=rounded];
1 [label="1|b", shape=record, style=rounded];
2 [label="2|c", shape=record, style=rounded];
3 [label="3|e", shape=record, style=rounded];
4 [label="4|f", shape=record, style=rounded];
5 [label="5|h", shape=record, style=rounded];
6 [label="6|h", shape=record, style=rounded];
7 [label="7|h", shape=record, style=rounded];
0 -> 7  [label="z"];
0 -> 3  [label="y"];
0 -> 1  [label="x"];
1 -> 4  [label="y"];
1 -> 6  [label="z"];
1 -> 5  [label="x"];
2 -> 5  [label="x"];
2 -> 3  [label="y"];
2 -> 0  [label="z"];
3 -> 2  [label="x"];
3 -> 5  [label="y"];
3 -> 2  [label="z"];
4 -> 2  [label="x"];
4 -> 7  [label="y"];
4 -> 2  [label="z"];
5 -> 5  [label="x"];
5 -> 2  [label="y"];
5 -> 3  [label="z"];
6 -> 5  [label="x"];
6 -> 4  [label="y"];
6 -> 2  [label="z"];
7 -> 0  [label="x"];
7 -> 3  [label="y"];
7 -> 3  [label="z"];
__start0 [label="", shape=none];
__start0 -> 0  [label=""];
}
