digraph "benchmarks-true-state-lstar-songp/n_states=12-n_outputs=7-glitch_percent=0.05-pmstrat='lsu'/41bfceeb72798836dd8d05a4b4fc7a9c/pmsatLearned-N12-STOC" {
0 [label="0|a", shape=record, style=rounded];
1 [label="1|b", shape=record, style=rounded];
2 [label="2|c", shape=record, style=rounded];
3 [label="3|d", shape=record, style=rounded];
4 [label="4|f", shape=record, style=rounded];
5 [label="5|g", shape=record, style=rounded];
6 [label="6|a", shape=record, style=rounded];
7 [label="7|f", shape=record, style=rounded];
8 [label="8|c", shape=record, style=rounded];
9 [label="9|g", shape=record, style=rounded];
10 [label="10|d", shape=record, style=rounded];
11 [label="11|f", shape=record, style=rounded];
0 -> 8  [label="z (43)"];
0 -> 7  [label="y (54)"];
0 -> 6  [label="x (52)"];
0 -> 1  [label="!z [2]"];
0 -> 5  [label="!x [1]"];
0 -> 11  [label="!y [2]"];
0 -> 2  [label="!y [1]"];
1 -> 11  [label="x (8)"];
1 -> 4  [label="y (7)"];
1 -> 2  [label="z (7)"];
1 -> 0  [label="!z [1]"];
2 -> 8  [label="x (8)"];
2 -> 4  [label="y (7)"];
2 -> 7  [label="z (8)"];
3 -> 1  [label="y (5)"];
3 -> 1  [label="z (4)"];
3 -> 4  [label="x (4)"];
4 -> 0  [label="x (10)"];
4 -> 4  [label="y (10)"];
4 -> 0  [label="z (10)"];
5 -> 8  [label="x (8)"];
5 -> 2  [label="y (8)"];
5 -> 4  [label="z (7)"];
6 -> 5  [label="x (15)"];
6 -> 2  [label="y (16)"];
6 -> 1  [label="z (15)"];
6 -> 4  [label="!z [1]"];
7 -> 10  [label="x (16)"];
7 -> 11  [label="y (17)"];
7 -> 9  [label="z (18)"];
7 -> 2  [label="!x [1]"];
7 -> 4  [label="!y [1]"];
8 -> 4  [label="x (19)"];
8 -> 3  [label="y (19)"];
8 -> 8  [label="z (9)"];
8 -> 1  [label="!z [1]"];
9 -> 8  [label="x (4)"];
9 -> 0  [label="y (5)"];
9 -> 5  [label="z (5)"];
10 -> 7  [label="y (4)"];
10 -> 1  [label="z (5)"];
10 -> 5  [label="x (3)"];
11 -> 4  [label="y (5)"];
11 -> 2  [label="z (5)"];
11 -> 5  [label="x (5)"];
11 -> 3  [label="!x [1]"];
__start0 [label="", shape=none];
__start0 -> 0  [label=""];
}
