digraph "benchmarks-true-state-lstar-songp/n_states=8-n_outputs=6-glitch_percent=0.02-pmstrat='lsu'/2ea68abaafa2aa43e7d24780d7d33ee4/pmsatLearned-N8" {
0 [label="0|a", shape=record, style=rounded];
1 [label="1|b", shape=record, style=rounded];
2 [label="2|c", shape=record, style=rounded];
3 [label="3|d", shape=record, style=rounded];
4 [label="4|f", shape=record, style=rounded];
5 [label="5|c", shape=record, style=rounded];
6 [label="6|f", shape=record, style=rounded];
7 [label="7|f", shape=record, style=rounded];
0 -> 2  [label="z"];
0 -> 5  [label="y"];
0 -> 4  [label="x"];
1 -> 3  [label="x"];
1 -> 6  [label="y"];
1 -> 7  [label="z"];
2 -> 7  [label="x"];
2 -> 6  [label="y"];
2 -> 0  [label="z"];
3 -> 6  [label="x"];
3 -> 5  [label="y"];
3 -> 6  [label="z"];
4 -> 3  [label="y"];
4 -> 6  [label="z"];
4 -> 7  [label="x"];
5 -> 1  [label="x"];
5 -> 2  [label="y"];
5 -> 7  [label="z"];
6 -> 4  [label="x"];
6 -> 6  [label="y"];
6 -> 7  [label="z"];
7 -> 5  [label="y"];
7 -> 7  [label="z"];
7 -> 5  [label="x"];
__start0 [label="", shape=none];
__start0 -> 0  [label=""];
}
