digraph "benchmarks-true-state-lstar-3seeds/n_states=7-n_outputs=3-glitch_percent=0.01/0ee054d595bb0e8ca0c30155cf0bf5c4/pmsatLearned-N7" {
0 [label="0|a", shape=record, style=rounded];
1 [label="1|b", shape=record, style=rounded];
2 [label="2|c", shape=record, style=rounded];
3 [label="3|a", shape=record, style=rounded];
4 [label="4|b", shape=record, style=rounded];
5 [label="5|b", shape=record, style=rounded];
6 [label="6|c", shape=record, style=rounded];
0 -> 2  [label="z"];
0 -> 1  [label="y"];
0 -> 5  [label="x"];
1 -> 2  [label="x"];
1 -> 4  [label="y"];
1 -> 4  [label="z"];
2 -> 5  [label="x"];
2 -> 6  [label="y"];
2 -> 4  [label="z"];
3 -> 1  [label="x"];
3 -> 4  [label="y"];
3 -> 1  [label="z"];
4 -> 2  [label="x"];
4 -> 5  [label="y"];
4 -> 0  [label="z"];
5 -> 3  [label="x"];
5 -> 6  [label="y"];
5 -> 4  [label="z"];
6 -> 3  [label="x"];
6 -> 0  [label="y"];
6 -> 5  [label="z"];
__start0 [label="", shape=none];
__start0 -> 0  [label=""];
}
