digraph "benchmarks-true-state-lstar-3seeds/n_states=13-n_outputs=3-glitch_percent=0.0/0d864a8f0e9a04f866edd7be0a1a3608/pmsatLearned-N13-STOC" {
0 [label="0|a", shape=record, style=rounded];
1 [label="1|b", shape=record, style=rounded];
2 [label="2|c", shape=record, style=rounded];
3 [label="3|c", shape=record, style=rounded];
4 [label="4|c", shape=record, style=rounded];
5 [label="5|a", shape=record, style=rounded];
6 [label="6|a", shape=record, style=rounded];
7 [label="7|c", shape=record, style=rounded];
8 [label="8|a", shape=record, style=rounded];
9 [label="9|c", shape=record, style=rounded];
10 [label="10|a", shape=record, style=rounded];
11 [label="11|a", shape=record, style=rounded];
12 [label="12|c", shape=record, style=rounded];
0 -> 1  [label="z (66)"];
0 -> 9  [label="y (71)"];
0 -> 10  [label="x (67)"];
1 -> 11  [label="x (30)"];
1 -> 3  [label="y (28)"];
1 -> 5  [label="z (25)"];
2 -> 1  [label="x (7)"];
2 -> 9  [label="y (6)"];
2 -> 11  [label="z (6)"];
3 -> 10  [label="x (9)"];
3 -> 1  [label="y (7)"];
3 -> 7  [label="z (7)"];
4 -> 11  [label="x (9)"];
4 -> 9  [label="y (10)"];
4 -> 5  [label="z (7)"];
5 -> 5  [label="x (13)"];
5 -> 1  [label="y (21)"];
5 -> 7  [label="z (9)"];
6 -> 1  [label="x (9)"];
6 -> 12  [label="y (12)"];
6 -> 4  [label="z (7)"];
7 -> 5  [label="x (17)"];
7 -> 8  [label="y (9)"];
7 -> 9  [label="z (9)"];
8 -> 11  [label="x (11)"];
8 -> 8  [label="y (15)"];
8 -> 7  [label="z (8)"];
9 -> 8  [label="x (33)"];
9 -> 6  [label="y (26)"];
9 -> 7  [label="z (30)"];
10 -> 4  [label="x (26)"];
10 -> 12  [label="y (28)"];
10 -> 2  [label="z (23)"];
11 -> 6  [label="x (15)"];
11 -> 11  [label="y (20)"];
11 -> 3  [label="z (10)"];
12 -> 10  [label="x (9)"];
12 -> 9  [label="y (7)"];
12 -> 9  [label="z (7)"];
__start0 [label="", shape=none];
__start0 -> 0  [label=""];
}
