digraph "benchmarks-true-state-lstar-3seeds/n_states=17-n_outputs=8-glitch_percent=0.0/ef2c4e0baa660c8da07b710b7253655e/pmsatLearned-N17-STOC" {
0 [label="0|a", shape=record, style=rounded];
1 [label="1|b", shape=record, style=rounded];
2 [label="2|c", shape=record, style=rounded];
3 [label="3|d", shape=record, style=rounded];
4 [label="4|e", shape=record, style=rounded];
5 [label="5|f", shape=record, style=rounded];
6 [label="6|g", shape=record, style=rounded];
7 [label="7|b", shape=record, style=rounded];
8 [label="8|b", shape=record, style=rounded];
9 [label="9|c", shape=record, style=rounded];
10 [label="10|g", shape=record, style=rounded];
11 [label="11|g", shape=record, style=rounded];
12 [label="12|e", shape=record, style=rounded];
13 [label="13|f", shape=record, style=rounded];
14 [label="14|g", shape=record, style=rounded];
15 [label="15|d", shape=record, style=rounded];
16 [label="16|a", shape=record, style=rounded];
0 -> 12  [label="x (20)"];
0 -> 1  [label="y (20)"];
0 -> 14  [label="z (20)"];
1 -> 6  [label="x (7)"];
1 -> 3  [label="y (7)"];
1 -> 6  [label="z (7)"];
2 -> 7  [label="x (10)"];
2 -> 2  [label="y (10)"];
2 -> 13  [label="z (10)"];
3 -> 9  [label="x (20)"];
3 -> 13  [label="y (20)"];
3 -> 4  [label="z (20)"];
4 -> 8  [label="x (6)"];
4 -> 11  [label="y (6)"];
4 -> 8  [label="z (6)"];
5 -> 2  [label="x (17)"];
5 -> 8  [label="y (17)"];
5 -> 7  [label="z (17)"];
6 -> 5  [label="z (55)"];
6 -> 3  [label="y (55)"];
6 -> 10  [label="x (103)"];
7 -> 13  [label="x (6)"];
7 -> 14  [label="y (6)"];
7 -> 2  [label="z (6)"];
8 -> 14  [label="x (9)"];
8 -> 15  [label="y (9)"];
8 -> 3  [label="z (9)"];
9 -> 0  [label="x (5)"];
9 -> 0  [label="y (5)"];
9 -> 15  [label="z (5)"];
10 -> 0  [label="x (55)"];
10 -> 11  [label="y (31)"];
10 -> 15  [label="z (19)"];
11 -> 16  [label="x (18)"];
11 -> 2  [label="y (6)"];
11 -> 12  [label="z (6)"];
12 -> 8  [label="x (7)"];
12 -> 1  [label="y (7)"];
12 -> 4  [label="z (7)"];
13 -> 1  [label="x (9)"];
13 -> 3  [label="y (9)"];
13 -> 8  [label="z (9)"];
14 -> 16  [label="x (7)"];
14 -> 2  [label="y (7)"];
14 -> 0  [label="z (7)"];
15 -> 10  [label="x (7)"];
15 -> 13  [label="y (7)"];
15 -> 13  [label="z (7)"];
16 -> 12  [label="x (6)"];
16 -> 10  [label="y (6)"];
16 -> 2  [label="z (6)"];
__start0 [label="", shape=none];
__start0 -> 6  [label=""];
}
