digraph "benchmarks-true-state-lstar-songp/n_states=9-n_outputs=7-glitch_percent=0.02-pmstrat='lsu'/e4aba21f2a6fb79f4bde012a81b9543b/alergiaLearned" {
q0 [label="a"];
q1 [label="f"];
q2 [label="d"];
q3 [label="f"];
q4 [label="c"];
q5 [label="b"];
q6 [label="g"];
q7 [label="f"];
q0 -> q1  [label="z:1.0"];
q0 -> q2  [label="y:1.0"];
q0 -> q3  [label="x:1.0"];
q1 -> q4  [label="x:0.65"];
q1 -> q1  [label="x:0.35"];
q1 -> q4  [label="y:0.8214285714285714"];
q1 -> q1  [label="y:0.17857142857142858"];
q1 -> q1  [label="z:1.0"];
q2 -> q5  [label="x:1.0"];
q2 -> q6  [label="y:1.0"];
q2 -> q1  [label="z:1.0"];
q3 -> q4  [label="x:1.0"];
q3 -> q4  [label="y:1.0"];
q3 -> q7  [label="z:1.0"];
q4 -> q0  [label="x:0.5151515151515151"];
q4 -> q4  [label="x:0.48484848484848486"];
q4 -> q4  [label="y:0.65"];
q4 -> q1  [label="y:0.35"];
q4 -> q4  [label="z:1.0"];
q5 -> q1  [label="x:1.0"];
q5 -> q4  [label="y:1.0"];
q5 -> q1  [label="z:1.0"];
q6 -> q5  [label="x:0.8571428571428571"];
q6 -> q1  [label="x:0.14285714285714285"];
q6 -> q1  [label="y:1.0"];
q6 -> q4  [label="z:1.0"];
q7 -> q1  [label="x:1.0"];
q7 -> q1  [label="y:1.0"];
q7 -> q1  [label="z:1.0"];
__start0 [label="", shape=none];
__start0 -> q0  [label=""];
}
