digraph "benchmarks-true-state-lstar-3seeds/n_states=15-n_outputs=5-glitch_percent=0.05/cffd87e52a9561450edf24fc33c2f7ee/rpniGroundTruth" {
s0 [label="s0|c", shape=record, style=rounded];
s1 [label="s1|d", shape=record, style=rounded];
s2 [label="s2|a", shape=record, style=rounded];
s3 [label="s3|c", shape=record, style=rounded];
s4 [label="s4|e", shape=record, style=rounded];
s5 [label="s5|d", shape=record, style=rounded];
s6 [label="s6|e", shape=record, style=rounded];
s7 [label="s7|d", shape=record, style=rounded];
s8 [label="s8|e", shape=record, style=rounded];
s9 [label="s9|d", shape=record, style=rounded];
s10 [label="s10|c", shape=record, style=rounded];
s11 [label="s11|e", shape=record, style=rounded];
s12 [label="s12|a", shape=record, style=rounded];
s13 [label="s13|d", shape=record, style=rounded];
s14 [label="s14|a", shape=record, style=rounded];
s0 -> s1  [label="x"];
s0 -> s2  [label="y"];
s0 -> s3  [label="z"];
s1 -> s4  [label="x"];
s1 -> s5  [label="y"];
s1 -> s6  [label="z"];
s2 -> s7  [label="x"];
s2 -> s8  [label="z"];
s2 -> s9  [label="y"];
s3 -> s10  [label="y"];
s3 -> s11  [label="x"];
s3 -> s12  [label="z"];
s4 -> s13  [label="y"];
s4 -> s14  [label="x"];
s4 -> s6  [label="z"];
s5 -> s8  [label="y"];
s5 -> s11  [label="z"];
s5 -> s0  [label="x"];
s6 -> s11  [label="z"];
s6 -> s4  [label="x"];
s6 -> s4  [label="y"];
s7 -> s9  [label="x"];
s7 -> s11  [label="y"];
s7 -> s8  [label="z"];
s8 -> s14  [label="y"];
s8 -> s5  [label="z"];
s8 -> s6  [label="x"];
s9 -> s6  [label="z"];
s9 -> s9  [label="x"];
s9 -> s14  [label="y"];
s10 -> s0  [label="x"];
s10 -> s11  [label="z"];
s10 -> s1  [label="y"];
s11 -> s12  [label="z"];
s11 -> s4  [label="x"];
s11 -> s12  [label="y"];
s12 -> s2  [label="x"];
s12 -> s9  [label="z"];
s12 -> s11  [label="y"];
s13 -> s2  [label="z"];
s13 -> s13  [label="y"];
s13 -> s5  [label="x"];
s14 -> s10  [label="x"];
s14 -> s8  [label="y"];
s14 -> s8  [label="z"];
__start0 [label="", shape=none];
__start0 -> s0  [label=""];
}
