digraph "benchmarks-true-state-lstar-songp/n_states=9-n_outputs=9-glitch_percent=0.1-pmstrat='lsu'/50d0b8bd0a9cc62ac2144b8c67b66087/pmsatLearned-N9" {
0 [label="0|a", shape=record, style=rounded];
1 [label="1|b", shape=record, style=rounded];
2 [label="2|c", shape=record, style=rounded];
3 [label="3|e", shape=record, style=rounded];
4 [label="4|f", shape=record, style=rounded];
5 [label="5|h", shape=record, style=rounded];
6 [label="6|h", shape=record, style=rounded];
7 [label="7|h", shape=record, style=rounded];
8 [label="8|a", shape=record, style=rounded];
0 -> 5  [label="z"];
0 -> 1  [label="y"];
0 -> 6  [label="x"];
1 -> 3  [label="x"];
1 -> 4  [label="y"];
1 -> 3  [label="z"];
2 -> 8  [label="x"];
2 -> 2  [label="z"];
2 -> 4  [label="y"];
3 -> 7  [label="x"];
3 -> 0  [label="z"];
3 -> 3  [label="y"];
4 -> 0  [label="x"];
4 -> 2  [label="y"];
4 -> 0  [label="z"];
5 -> 3  [label="x"];
5 -> 7  [label="y"];
5 -> 2  [label="z"];
6 -> 8  [label="x"];
6 -> 7  [label="y"];
6 -> 2  [label="z"];
7 -> 6  [label="x"];
7 -> 2  [label="y"];
7 -> 7  [label="z"];
8 -> 3  [label="x"];
8 -> 2  [label="y"];
8 -> 8  [label="z"];
__start0 [label="", shape=none];
__start0 -> 0  [label=""];
}
