digraph "benchmarks-true-state-lstar-3seeds/n_states=9-n_outputs=2-glitch_percent=0.1/268da666d3e7cbca8573f500fb72bd74/alergiaLearned" {
q0 [label="a"];
q1 [label="b"];
q2 [label="a"];
q3 [label="b"];
q0 -> q1  [label="z:0.8695652173913043"];
q0 -> q0  [label="z:0.13043478260869565"];
q0 -> q2  [label="y:0.9318181818181818"];
q0 -> q1  [label="y:0.06818181818181818"];
q0 -> q1  [label="x:0.9649122807017544"];
q0 -> q0  [label="x:0.03508771929824561"];
q1 -> q1  [label="y:0.35714285714285715"];
q1 -> q2  [label="y:0.6428571428571429"];
q1 -> q1  [label="z:0.7272727272727273"];
q1 -> q0  [label="z:0.2727272727272727"];
q1 -> q1  [label="x:0.14814814814814814"];
q1 -> q0  [label="x:0.8518518518518519"];
q2 -> q3  [label="x:0.6842105263157895"];
q2 -> q0  [label="x:0.3157894736842105"];
q2 -> q1  [label="z:0.5"];
q2 -> q2  [label="z:0.5"];
q2 -> q1  [label="y:1.0"];
q2 -> q0  [label="y:0.0"];
q3 -> q0  [label="x:1.0"];
q3 -> q0  [label="y:1.0"];
q3 -> q0  [label="z:1.0"];
__start0 [label="", shape=none];
__start0 -> q0  [label=""];
}
