digraph "benchmarks-true-state-lstar-3seeds/n_states=11-n_outputs=5-glitch_percent=0.0/a132ef8ea3f614dd19639e4f2c006353/pmsatLearned-N11" {
0 [label="0|a", shape=record, style=rounded];
1 [label="1|b", shape=record, style=rounded];
2 [label="2|c", shape=record, style=rounded];
3 [label="3|d", shape=record, style=rounded];
4 [label="4|e", shape=record, style=rounded];
5 [label="5|d", shape=record, style=rounded];
6 [label="6|b", shape=record, style=rounded];
7 [label="7|a", shape=record, style=rounded];
8 [label="8|d", shape=record, style=rounded];
9 [label="9|c", shape=record, style=rounded];
10 [label="10|b", shape=record, style=rounded];
0 -> 8  [label="x"];
0 -> 4  [label="y"];
0 -> 4  [label="z"];
1 -> 9  [label="x"];
1 -> 6  [label="y"];
1 -> 6  [label="z"];
2 -> 0  [label="z"];
2 -> 3  [label="y"];
2 -> 7  [label="x"];
3 -> 10  [label="x"];
3 -> 5  [label="y"];
3 -> 9  [label="z"];
4 -> 6  [label="x"];
4 -> 5  [label="y"];
4 -> 10  [label="z"];
5 -> 3  [label="x"];
5 -> 7  [label="y"];
5 -> 10  [label="z"];
6 -> 7  [label="x"];
6 -> 0  [label="y"];
6 -> 2  [label="z"];
7 -> 4  [label="x"];
7 -> 1  [label="y"];
7 -> 6  [label="z"];
8 -> 4  [label="x"];
8 -> 7  [label="y"];
8 -> 1  [label="z"];
9 -> 8  [label="x"];
9 -> 1  [label="y"];
9 -> 4  [label="z"];
10 -> 3  [label="x"];
10 -> 7  [label="y"];
10 -> 0  [label="z"];
__start0 [label="", shape=none];
__start0 -> 2  [label=""];
}
