digraph "benchmarks-true-state-lstar-songp/n_states=5-n_outputs=2-glitch_percent=0.1-pmstrat='lsu'/affed61cc74d6d464cca0d664a270720/alergiaLearned" {
q0 [label="a"];
q1 [label="b"];
q2 [label="b"];
q0 -> q1  [label="z:0.84"];
q0 -> q0  [label="z:0.16"];
q0 -> q2  [label="x:0.9117647058823529"];
q0 -> q0  [label="x:0.08823529411764706"];
q0 -> q1  [label="y:0.8095238095238095"];
q0 -> q0  [label="y:0.19047619047619047"];
q1 -> q1  [label="x:1.0"];
q1 -> q1  [label="y:0.4666666666666667"];
q1 -> q0  [label="y:0.5333333333333333"];
q1 -> q1  [label="z:1.0"];
q2 -> q0  [label="x:1.0"];
q2 -> q1  [label="y:1.0"];
q2 -> q1  [label="z:1.0"];
__start0 [label="", shape=none];
__start0 -> q0  [label=""];
}
