digraph "benchmarks-true-state-lstar-3seeds/n_states=11-n_outputs=7-glitch_percent=0.01/7f1c27135ac2c9131e1cd461c2bd63c1/alergiaLearned" {
q0 [label="b"];
q1 [label="e"];
q2 [label="c"];
q3 [label="b"];
q4 [label="g"];
q5 [label="e"];
q6 [label="b"];
q7 [label="b"];
q8 [label="e"];
q0 -> q1  [label="z:0.9069767441860465"];
q0 -> q4  [label="z:0.023255813953488372"];
q0 -> q2  [label="z:0.046511627906976744"];
q0 -> q0  [label="z:0.023255813953488372"];
q0 -> q2  [label="y:0.9710144927536232"];
q0 -> q0  [label="y:0.014492753623188406"];
q0 -> q4  [label="y:0.014492753623188406"];
q0 -> q3  [label="x:0.9873417721518988"];
q0 -> q4  [label="x:0.012658227848101266"];
q1 -> q4  [label="x:1.0"];
q1 -> q3  [label="y:1.0"];
q1 -> q4  [label="z:1.0"];
q2 -> q5  [label="x:1.0"];
q2 -> q6  [label="y:1.0"];
q2 -> q5  [label="z:1.0"];
q3 -> q4  [label="x:0.8846153846153846"];
q3 -> q0  [label="x:0.11538461538461539"];
q3 -> q4  [label="y:0.8846153846153846"];
q3 -> q0  [label="y:0.038461538461538464"];
q3 -> q2  [label="y:0.07692307692307693"];
q3 -> q7  [label="z:0.8378378378378378"];
q3 -> q2  [label="z:0.05405405405405406"];
q3 -> q5  [label="z:0.10810810810810811"];
q4 -> q0  [label="z:1.0"];
q4 -> q5  [label="x:0.2727272727272727"];
q4 -> q0  [label="x:0.4090909090909091"];
q4 -> q4  [label="x:0.3181818181818182"];
q4 -> q3  [label="y:0.65"];
q4 -> q4  [label="y:0.35"];
q5 -> q3  [label="x:0.3888888888888889"];
q5 -> q5  [label="x:0.6111111111111112"];
q5 -> q1  [label="y:0.5"];
q5 -> q0  [label="y:0.5"];
q5 -> q0  [label="z:1.0"];
q6 -> q3  [label="x:1.0"];
q6 -> q3  [label="y:1.0"];
q6 -> q2  [label="z:1.0"];
q7 -> q0  [label="x:1.0"];
q7 -> q2  [label="y:1.0"];
q7 -> q8  [label="z:1.0"];
q8 -> q1  [label="x:1.0"];
q8 -> q0  [label="y:1.0"];
q8 -> q3  [label="z:1.0"];
__start0 [label="", shape=none];
__start0 -> q0  [label=""];
}
