digraph "benchmarks-true-state-lstar-3seeds/n_states=15-n_outputs=9-glitch_percent=0.0/fbff2769ed352e2a6308fb1b0a228691/pmsatLearned-N15" {
0 [label="0|a", shape=record, style=rounded];
1 [label="1|b", shape=record, style=rounded];
2 [label="2|e", shape=record, style=rounded];
3 [label="3|f", shape=record, style=rounded];
4 [label="4|g", shape=record, style=rounded];
5 [label="5|h", shape=record, style=rounded];
6 [label="6|e", shape=record, style=rounded];
7 [label="7|e", shape=record, style=rounded];
8 [label="8|a", shape=record, style=rounded];
9 [label="9|b", shape=record, style=rounded];
10 [label="10|b", shape=record, style=rounded];
11 [label="11|e", shape=record, style=rounded];
12 [label="12|h", shape=record, style=rounded];
13 [label="13|b", shape=record, style=rounded];
14 [label="14|e", shape=record, style=rounded];
0 -> 7  [label="x"];
0 -> 7  [label="y"];
0 -> 6  [label="z"];
1 -> 14  [label="x"];
1 -> 13  [label="y"];
1 -> 1  [label="z"];
2 -> 13  [label="z"];
2 -> 6  [label="y"];
2 -> 14  [label="x"];
3 -> 7  [label="x"];
3 -> 6  [label="y"];
3 -> 13  [label="z"];
4 -> 1  [label="x"];
4 -> 12  [label="y"];
4 -> 5  [label="z"];
5 -> 3  [label="x"];
5 -> 13  [label="y"];
5 -> 14  [label="z"];
6 -> 7  [label="x"];
6 -> 3  [label="y"];
6 -> 8  [label="z"];
7 -> 12  [label="x"];
7 -> 7  [label="y"];
7 -> 9  [label="z"];
8 -> 7  [label="x"];
8 -> 4  [label="y"];
8 -> 3  [label="z"];
9 -> 4  [label="x"];
9 -> 2  [label="y"];
9 -> 6  [label="z"];
10 -> 3  [label="x"];
10 -> 12  [label="y"];
10 -> 13  [label="z"];
11 -> 2  [label="x"];
11 -> 14  [label="y"];
11 -> 2  [label="z"];
12 -> 8  [label="x"];
12 -> 1  [label="y"];
12 -> 10  [label="z"];
13 -> 9  [label="x"];
13 -> 0  [label="y"];
13 -> 5  [label="z"];
14 -> 4  [label="x"];
14 -> 10  [label="y"];
14 -> 11  [label="z"];
__start0 [label="", shape=none];
__start0 -> 2  [label=""];
}
