digraph "benchmarks-true-state-lstar-3seeds/n_states=15-n_outputs=4-glitch_percent=0.1/ede247ca8f5f4a53fd9592dfbd57b1a0/pmsatLearned-N15-STOC" {
0 [label="0|a", shape=record, style=rounded];
1 [label="1|b", shape=record, style=rounded];
2 [label="2|c", shape=record, style=rounded];
3 [label="3|d", shape=record, style=rounded];
4 [label="4|a", shape=record, style=rounded];
5 [label="5|a", shape=record, style=rounded];
6 [label="6|a", shape=record, style=rounded];
7 [label="7|a", shape=record, style=rounded];
8 [label="8|b", shape=record, style=rounded];
9 [label="9|a", shape=record, style=rounded];
10 [label="10|a", shape=record, style=rounded];
11 [label="11|b", shape=record, style=rounded];
12 [label="12|a", shape=record, style=rounded];
13 [label="13|c", shape=record, style=rounded];
14 [label="14|c", shape=record, style=rounded];
0 -> 10  [label="z (42)"];
0 -> 13  [label="y (50)"];
0 -> 12  [label="!z [1]"];
0 -> 5  [label="x (70)"];
0 -> 2  [label="!z [2]"];
0 -> 6  [label="!y [1]"];
0 -> 4  [label="!x [1]"];
0 -> 6  [label="!x [3]"];
1 -> 7  [label="x (8)"];
1 -> 8  [label="z (7)"];
1 -> 2  [label="y (4)"];
1 -> 11  [label="!x [1]"];
2 -> 5  [label="y (6)"];
2 -> 11  [label="x (6)"];
2 -> 3  [label="z (8)"];
2 -> 7  [label="!x [1]"];
2 -> 13  [label="!y [1]"];
3 -> 5  [label="x (8)"];
3 -> 13  [label="y (8)"];
3 -> 6  [label="z (7)"];
4 -> 10  [label="x (6)"];
4 -> 4  [label="z (4)"];
4 -> 9  [label="y (5)"];
5 -> 6  [label="x (36)"];
5 -> 2  [label="z (17)"];
5 -> 1  [label="y (16)"];
5 -> 4  [label="!y [1]"];
5 -> 8  [label="!x [1]"];
6 -> 11  [label="x (18)"];
6 -> 12  [label="y (17)"];
6 -> 14  [label="z (6)"];
7 -> 9  [label="x (6)"];
7 -> 2  [label="y (3)"];
7 -> 2  [label="z (5)"];
7 -> 10  [label="!y [1]"];
8 -> 3  [label="x (7)"];
8 -> 9  [label="z (9)"];
8 -> 10  [label="y (7)"];
9 -> 3  [label="z (8)"];
9 -> 2  [label="y (8)"];
9 -> 1  [label="x (8)"];
10 -> 14  [label="x (13)"];
10 -> 7  [label="y (18)"];
10 -> 9  [label="z (16)"];
10 -> 9  [label="!y [1]"];
10 -> 10  [label="!x [1]"];
10 -> 11  [label="!z [1]"];
11 -> 1  [label="y (6)"];
11 -> 10  [label="x (5)"];
11 -> 4  [label="z (5)"];
12 -> 8  [label="z (6)"];
12 -> 8  [label="x (3)"];
12 -> 8  [label="y (5)"];
12 -> 0  [label="!z [1]"];
13 -> 4  [label="x (15)"];
13 -> 8  [label="y (16)"];
13 -> 3  [label="z (16)"];
13 -> 10  [label="!z [1]"];
13 -> 3  [label="!x [1]"];
14 -> 7  [label="x (6)"];
14 -> 4  [label="y (2)"];
14 -> 1  [label="z (3)"];
__start0 [label="", shape=none];
__start0 -> 0  [label=""];
}
