digraph "benchmarks-true-state-lstar-rc10seeds/n_states=11-n_outputs=7-glitch_percent=0.05/1b802078f124f242eee320e6346bbc03/pmsatLearned_NOP-N11-STOC" {
0 [label="0|e", shape=record, style=rounded];
1 [label="1|d", shape=record, style=rounded];
2 [label="2|b", shape=record, style=rounded];
3 [label="3|e", shape=record, style=rounded];
4 [label="4|e", shape=record, style=rounded];
5 [label="5|e", shape=record, style=rounded];
6 [label="6|a", shape=record, style=rounded];
7 [label="7|e", shape=record, style=rounded];
8 [label="8|b", shape=record, style=rounded];
9 [label="9|f", shape=record, style=rounded];
10 [label="10|g", shape=record, style=rounded];
0 -> 6  [label="z (27)"];
0 -> 1  [label="y (49)"];
0 -> 2  [label="x (50)"];
0 -> 8  [label="!y [1]"];
0 -> 10  [label="!x [1]"];
0 -> 3  [label="!z [2]"];
0 -> 1  [label="!z [1]"];
1 -> 10  [label="x (21)"];
1 -> 9  [label="y (20)"];
1 -> 3  [label="z (20)"];
1 -> 9  [label="!z [1]"];
2 -> 7  [label="x (18)"];
2 -> 8  [label="y (16)"];
2 -> 5  [label="z (17)"];
2 -> 4  [label="!y [1]"];
3 -> 5  [label="x (5)"];
3 -> 6  [label="y (5)"];
3 -> 1  [label="z (6)"];
4 -> 2  [label="x (6)"];
4 -> 10  [label="y (7)"];
4 -> 1  [label="z (6)"];
4 -> 5  [label="!x [1]"];
5 -> 9  [label="x (5)"];
5 -> 4  [label="y (5)"];
5 -> 2  [label="z (5)"];
5 -> 10  [label="!x [1]"];
6 -> 4  [label="x (17)"];
6 -> 1  [label="y (7)"];
6 -> 8  [label="z (7)"];
7 -> 9  [label="x (5)"];
7 -> 10  [label="y (6)"];
7 -> 6  [label="z (6)"];
8 -> 9  [label="x (7)"];
8 -> 9  [label="y (7)"];
8 -> 1  [label="z (6)"];
9 -> 10  [label="x (8)"];
9 -> 4  [label="y (10)"];
9 -> 9  [label="z (8)"];
9 -> 1  [label="!x [1]"];
10 -> 1  [label="x (7)"];
10 -> 8  [label="y (6)"];
10 -> 7  [label="z (8)"];
__start0 [label="", shape=none];
__start0 -> 0  [label=""];
}
