digraph "benchmarks-true-state-lstar-3seeds/n_states=6-n_outputs=6-glitch_percent=0.1/8595f8fe767fe2cdc411487fc704217c/alergiaLearned" {
q0 [label="a"];
q1 [label="e"];
q2 [label="a"];
q3 [label="b"];
q4 [label="d"];
q0 -> q1  [label="z:0.8636363636363636"];
q0 -> q0  [label="z:0.13636363636363635"];
q0 -> q2  [label="y:0.8636363636363636"];
q0 -> q1  [label="y:0.045454545454545456"];
q0 -> q3  [label="y:0.09090909090909091"];
q0 -> q3  [label="x:0.8888888888888888"];
q0 -> q0  [label="x:0.08888888888888889"];
q0 -> q4  [label="x:0.022222222222222223"];
q1 -> q0  [label="x:0.6"];
q1 -> q3  [label="x:0.4"];
q1 -> q4  [label="y:0.45454545454545453"];
q1 -> q0  [label="y:0.5454545454545454"];
q1 -> q1  [label="z:1.0"];
q2 -> q0  [label="x:0.8333333333333334"];
q2 -> q3  [label="x:0.16666666666666666"];
q2 -> q3  [label="y:1.0"];
q2 -> q0  [label="z:1.0"];
q3 -> q4  [label="x:0.9444444444444444"];
q3 -> q3  [label="x:0.05555555555555555"];
q3 -> q1  [label="y:1.0"];
q3 -> q0  [label="z:1.0"];
q4 -> q1  [label="y:0.8571428571428571"];
q4 -> q3  [label="y:0.14285714285714285"];
q4 -> q0  [label="x:1.0"];
q4 -> q0  [label="z:1.0"];
__start0 [label="", shape=none];
__start0 -> q0  [label=""];
}
