digraph "benchmarks-true-state-lstar-3seeds/n_states=14-n_outputs=4-glitch_percent=0.01/a8ae58bce95d67e1c1319dba572af6f3/alergiaLearned" {
q0 [label="d"];
q1 [label="d"];
q2 [label="b"];
q3 [label="a"];
q4 [label="d"];
q5 [label="a"];
q6 [label="a"];
q7 [label="b"];
q8 [label="c"];
q9 [label="a"];
q10 [label="b"];
q11 [label="b"];
q0 -> q1  [label="z:0.9736842105263158"];
q0 -> q2  [label="z:0.02631578947368421"];
q0 -> q2  [label="y:1.0"];
q0 -> q3  [label="x:1.0"];
q1 -> q4  [label="x:1.0"];
q1 -> q5  [label="y:0.88"];
q1 -> q8  [label="y:0.12"];
q1 -> q6  [label="z:0.9285714285714286"];
q1 -> q0  [label="z:0.07142857142857142"];
q2 -> q7  [label="x:0.6923076923076923"];
q2 -> q0  [label="x:0.20512820512820512"];
q2 -> q5  [label="x:0.10256410256410256"];
q2 -> q8  [label="y:0.7419354838709677"];
q2 -> q5  [label="y:0.0967741935483871"];
q2 -> q0  [label="y:0.03225806451612903"];
q2 -> q2  [label="y:0.12903225806451613"];
q2 -> q8  [label="z:0.8"];
q2 -> q2  [label="z:0.2"];
q3 -> q9  [label="x:0.9122807017543859"];
q3 -> q0  [label="x:0.05263157894736842"];
q3 -> q7  [label="x:0.03508771929824561"];
q3 -> q5  [label="y:0.96"];
q3 -> q2  [label="y:0.04"];
q3 -> q10  [label="z:0.875"];
q3 -> q0  [label="z:0.08333333333333333"];
q3 -> q8  [label="z:0.041666666666666664"];
q4 -> q1  [label="x:1.0"];
q4 -> q8  [label="y:1.0"];
q4 -> q0  [label="z:1.0"];
q5 -> q0  [label="x:0.5333333333333333"];
q5 -> q3  [label="x:0.4"];
q5 -> q2  [label="x:0.06666666666666667"];
q5 -> q3  [label="y:1.0"];
q5 -> q1  [label="z:1.0"];
q6 -> q3  [label="x:1.0"];
q6 -> q3  [label="y:1.0"];
q6 -> q2  [label="z:1.0"];
q7 -> q9  [label="x:0.9285714285714286"];
q7 -> q0  [label="x:0.07142857142857142"];
q7 -> q3  [label="y:1.0"];
q7 -> q2  [label="z:1.0"];
q8 -> q2  [label="x:1.0"];
q8 -> q1  [label="y:0.5333333333333333"];
q8 -> q2  [label="y:0.4666666666666667"];
q8 -> q1  [label="z:0.5333333333333333"];
q8 -> q2  [label="z:0.4666666666666667"];
q9 -> q11  [label="x:0.967741935483871"];
q9 -> q0  [label="x:0.03225806451612903"];
q9 -> q2  [label="y:1.0"];
q9 -> q8  [label="z:1.0"];
q10 -> q7  [label="x:1.0"];
q10 -> q0  [label="y:1.0"];
q10 -> q8  [label="z:1.0"];
q11 -> q0  [label="x:1.0"];
q11 -> q2  [label="y:1.0"];
q11 -> q2  [label="z:1.0"];
__start0 [label="", shape=none];
__start0 -> q0  [label=""];
}
