digraph "benchmarks-true-state-lstar-3seeds/n_states=16-n_outputs=7-glitch_percent=0.02/30d8f0502e5e53c74030f530629f9be8/rpniGroundTruth" {
s0 [label="s0|c", shape=record, style=rounded];
s1 [label="s1|a", shape=record, style=rounded];
s2 [label="s2|d", shape=record, style=rounded];
s3 [label="s3|e", shape=record, style=rounded];
s4 [label="s4|d", shape=record, style=rounded];
s5 [label="s5|a", shape=record, style=rounded];
s6 [label="s6|e", shape=record, style=rounded];
s7 [label="s7|c", shape=record, style=rounded];
s8 [label="s8|c", shape=record, style=rounded];
s9 [label="s9|d", shape=record, style=rounded];
s10 [label="s10|e", shape=record, style=rounded];
s11 [label="s11|d", shape=record, style=rounded];
s12 [label="s12|d", shape=record, style=rounded];
s13 [label="s13|g", shape=record, style=rounded];
s14 [label="s14|f", shape=record, style=rounded];
s15 [label="s15|e", shape=record, style=rounded];
s0 -> s1  [label="x"];
s0 -> s2  [label="z"];
s0 -> s3  [label="y"];
s1 -> s4  [label="z"];
s1 -> s5  [label="y"];
s1 -> s6  [label="x"];
s2 -> s7  [label="y"];
s2 -> s8  [label="z"];
s2 -> s9  [label="x"];
s3 -> s10  [label="y"];
s3 -> s11  [label="x"];
s3 -> s12  [label="z"];
s4 -> s12  [label="y"];
s4 -> s7  [label="z"];
s4 -> s10  [label="x"];
s5 -> s10  [label="z"];
s5 -> s8  [label="x"];
s5 -> s1  [label="y"];
s6 -> s13  [label="y"];
s6 -> s14  [label="x"];
s6 -> s15  [label="z"];
s7 -> s3  [label="y"];
s7 -> s13  [label="z"];
s7 -> s14  [label="x"];
s8 -> s9  [label="y"];
s8 -> s8  [label="z"];
s8 -> s10  [label="x"];
s9 -> s7  [label="z"];
s9 -> s8  [label="x"];
s9 -> s12  [label="y"];
s10 -> s3  [label="y"];
s10 -> s10  [label="z"];
s10 -> s12  [label="x"];
s11 -> s8  [label="x"];
s11 -> s1  [label="y"];
s11 -> s11  [label="z"];
s12 -> s5  [label="x"];
s12 -> s6  [label="y"];
s12 -> s3  [label="z"];
s13 -> s5  [label="z"];
s13 -> s9  [label="y"];
s13 -> s14  [label="x"];
s14 -> s1  [label="z"];
s14 -> s6  [label="x"];
s14 -> s10  [label="y"];
s15 -> s3  [label="z"];
s15 -> s6  [label="x"];
s15 -> s8  [label="y"];
__start0 [label="", shape=none];
__start0 -> s0  [label=""];
}
