digraph "benchmarks-true-state-lstar-3seeds/n_states=3-n_outputs=3-glitch_percent=0.0/318def23f08974223c83ddec3a3d9370/pmsatLearned-N3-STOC" {
0 [label="0|a", shape=record, style=rounded];
1 [label="1|b", shape=record, style=rounded];
2 [label="2|c", shape=record, style=rounded];
0 -> 0  [label="x (7)"];
0 -> 1  [label="y (7)"];
0 -> 1  [label="z (7)"];
1 -> 1  [label="x (9)"];
1 -> 0  [label="y (9)"];
1 -> 2  [label="z (9)"];
2 -> 1  [label="z (6)"];
2 -> 1  [label="y (18)"];
2 -> 0  [label="x (18)"];
__start0 [label="", shape=none];
__start0 -> 2  [label=""];
}
