digraph "benchmarks-true-state-lstar-3seeds/n_states=13-n_outputs=7-glitch_percent=0.01/432e9de9b2a3f23384194e1c472267bd/pmsatLearned-N13-STOC" {
0 [label="0|b", shape=record, style=rounded];
1 [label="1|c", shape=record, style=rounded];
2 [label="2|d", shape=record, style=rounded];
3 [label="3|e", shape=record, style=rounded];
4 [label="4|g", shape=record, style=rounded];
5 [label="5|e", shape=record, style=rounded];
6 [label="6|g", shape=record, style=rounded];
7 [label="7|g", shape=record, style=rounded];
8 [label="8|b", shape=record, style=rounded];
9 [label="9|b", shape=record, style=rounded];
10 [label="10|e", shape=record, style=rounded];
11 [label="11|b", shape=record, style=rounded];
12 [label="12|g", shape=record, style=rounded];
0 -> 4  [label="z (58)"];
0 -> 7  [label="y (57)"];
0 -> 10  [label="x (58)"];
0 -> 3  [label="!y [1]"];
1 -> 9  [label="y (6)"];
1 -> 11  [label="z (7)"];
1 -> 10  [label="x (6)"];
2 -> 12  [label="x (10)"];
2 -> 0  [label="y (10)"];
2 -> 7  [label="z (10)"];
3 -> 8  [label="x (6)"];
3 -> 2  [label="y (6)"];
3 -> 2  [label="z (6)"];
4 -> 5  [label="x (17)"];
4 -> 9  [label="y (17)"];
4 -> 12  [label="z (17)"];
5 -> 2  [label="x (7)"];
5 -> 2  [label="y (7)"];
5 -> 0  [label="z (7)"];
6 -> 9  [label="x (5)"];
6 -> 0  [label="y (5)"];
6 -> 8  [label="z (5)"];
7 -> 1  [label="x (17)"];
7 -> 3  [label="y (17)"];
7 -> 8  [label="z (18)"];
7 -> 3  [label="!x [1]"];
8 -> 2  [label="x (9)"];
8 -> 1  [label="y (9)"];
8 -> 3  [label="z (9)"];
9 -> 8  [label="x (7)"];
9 -> 5  [label="y (7)"];
9 -> 8  [label="z (7)"];
10 -> 2  [label="x (18)"];
10 -> 6  [label="y (18)"];
10 -> 11  [label="z (16)"];
10 -> 1  [label="!x [2]"];
11 -> 1  [label="x (5)"];
11 -> 5  [label="y (7)"];
11 -> 11  [label="z (7)"];
12 -> 0  [label="x (7)"];
12 -> 0  [label="y (7)"];
12 -> 12  [label="z (7)"];
__start0 [label="", shape=none];
__start0 -> 0  [label=""];
}
