digraph "benchmarks-true-state-lstar-rc10seeds/n_states=16-n_outputs=3-glitch_percent=0.05/0bdd69d6f8b0fa90bc34d8b526982078/pmsatLearned_NOP-N16-STOC" {
0 [label="0|c", shape=record, style=rounded];
1 [label="1|b", shape=record, style=rounded];
2 [label="2|c", shape=record, style=rounded];
3 [label="3|c", shape=record, style=rounded];
4 [label="4|c", shape=record, style=rounded];
5 [label="5|a", shape=record, style=rounded];
6 [label="6|c", shape=record, style=rounded];
7 [label="7|a", shape=record, style=rounded];
8 [label="8|a", shape=record, style=rounded];
9 [label="9|c", shape=record, style=rounded];
10 [label="10|a", shape=record, style=rounded];
11 [label="11|c", shape=record, style=rounded];
12 [label="12|c", shape=record, style=rounded];
13 [label="13|a", shape=record, style=rounded];
14 [label="14|a", shape=record, style=rounded];
15 [label="15|b", shape=record, style=rounded];
0 -> 14  [label="z (74)"];
0 -> 1  [label="y (61)"];
0 -> 15  [label="x (106)"];
0 -> 6  [label="!y [1]"];
0 -> 6  [label="!x [2]"];
0 -> 8  [label="!z [1]"];
0 -> 7  [label="!x [3]"];
0 -> 1  [label="!x [1]"];
1 -> 6  [label="x (18)"];
1 -> 11  [label="y (21)"];
1 -> 5  [label="z (19)"];
1 -> 4  [label="!x [1]"];
2 -> 10  [label="x (9)"];
2 -> 7  [label="y (15)"];
2 -> 10  [label="z (5)"];
3 -> 14  [label="x (12)"];
3 -> 4  [label="y (13)"];
3 -> 9  [label="z (9)"];
4 -> 4  [label="x (10)"];
4 -> 5  [label="y (12)"];
4 -> 3  [label="z (7)"];
5 -> 14  [label="x (11)"];
5 -> 15  [label="z (10)"];
5 -> 11  [label="y (12)"];
6 -> 11  [label="x (6)"];
6 -> 15  [label="y (7)"];
6 -> 13  [label="z (7)"];
7 -> 3  [label="x (26)"];
7 -> 9  [label="y (28)"];
7 -> 12  [label="z (20)"];
8 -> 9  [label="x (10)"];
8 -> 12  [label="y (6)"];
8 -> 11  [label="z (6)"];
8 -> 10  [label="!x [1]"];
9 -> 5  [label="x (13)"];
9 -> 7  [label="y (19)"];
9 -> 5  [label="z (7)"];
10 -> 15  [label="x (9)"];
10 -> 14  [label="y (10)"];
10 -> 15  [label="z (8)"];
10 -> 1  [label="!x [1]"];
11 -> 9  [label="x (11)"];
11 -> 9  [label="y (9)"];
11 -> 5  [label="z (10)"];
12 -> 7  [label="x (8)"];
12 -> 3  [label="y (5)"];
12 -> 14  [label="z (6)"];
13 -> 2  [label="x (11)"];
13 -> 13  [label="y (7)"];
13 -> 3  [label="z (8)"];
14 -> 4  [label="y (32)"];
14 -> 8  [label="z (29)"];
14 -> 2  [label="x (28)"];
14 -> 8  [label="!x [1]"];
14 -> 14  [label="!z [1]"];
15 -> 7  [label="x (65)"];
15 -> 10  [label="y (28)"];
15 -> 13  [label="z (21)"];
15 -> 10  [label="!x [1]"];
15 -> 6  [label="!z [1]"];
15 -> 9  [label="!y [1]"];
__start0 [label="", shape=none];
__start0 -> 0  [label=""];
}
