digraph "benchmarks-true-state-lstar-rc10seeds/n_states=9-n_outputs=2-glitch_percent=0.02/c9437107425cd3a44d182f6b49dc7859/pmsatLearned_NOP-N9" {
0 [label="0|b", shape=record, style=rounded];
1 [label="1|b", shape=record, style=rounded];
2 [label="2|b", shape=record, style=rounded];
3 [label="3|b", shape=record, style=rounded];
4 [label="4|a", shape=record, style=rounded];
5 [label="5|b", shape=record, style=rounded];
6 [label="6|b", shape=record, style=rounded];
7 [label="7|a", shape=record, style=rounded];
8 [label="8|a", shape=record, style=rounded];
0 -> 2  [label="x"];
0 -> 6  [label="y"];
0 -> 8  [label="z"];
1 -> 6  [label="z"];
1 -> 4  [label="y"];
1 -> 2  [label="x"];
2 -> 0  [label="x"];
2 -> 3  [label="y"];
2 -> 8  [label="z"];
3 -> 1  [label="x"];
3 -> 4  [label="y"];
3 -> 6  [label="z"];
4 -> 5  [label="x"];
4 -> 7  [label="y"];
4 -> 0  [label="z"];
5 -> 4  [label="x"];
5 -> 3  [label="y"];
5 -> 5  [label="z"];
6 -> 6  [label="x"];
6 -> 8  [label="y"];
6 -> 2  [label="z"];
7 -> 3  [label="x"];
7 -> 2  [label="y"];
7 -> 5  [label="z"];
8 -> 5  [label="x"];
8 -> 8  [label="y"];
8 -> 0  [label="z"];
__start0 [label="", shape=none];
__start0 -> 1  [label=""];
}
