digraph "pmsatLearned-N11" {
0 [label="0|a", shape=record, style=rounded];
1 [label="1|b", shape=record, style=rounded];
2 [label="2|c", shape=record, style=rounded];
3 [label="3|d", shape=record, style=rounded];
4 [label="4|e", shape=record, style=rounded];
5 [label="5|a", shape=record, style=rounded];
6 [label="6|a", shape=record, style=rounded];
7 [label="7|e", shape=record, style=rounded];
8 [label="8|e", shape=record, style=rounded];
9 [label="9|c", shape=record, style=rounded];
10 [label="10|a", shape=record, style=rounded];
0 -> 10  [label="x"];
0 -> 10  [label="y"];
0 -> 1  [label="z"];
1 -> 6  [label="x"];
1 -> 7  [label="y"];
1 -> 4  [label="z"];
2 -> 0  [label="z"];
2 -> 1  [label="y"];
2 -> 5  [label="x"];
3 -> 10  [label="x"];
3 -> 6  [label="y"];
3 -> 2  [label="z"];
4 -> 3  [label="x"];
4 -> 8  [label="y"];
4 -> 1  [label="z"];
5 -> 9  [label="x"];
5 -> 8  [label="y"];
5 -> 3  [label="z"];
6 -> 0  [label="x"];
6 -> 2  [label="y"];
6 -> 8  [label="z"];
7 -> 3  [label="x"];
7 -> 5  [label="y"];
7 -> 6  [label="z"];
8 -> 10  [label="x"];
8 -> 2  [label="y"];
8 -> 10  [label="z"];
9 -> 0  [label="x"];
9 -> 4  [label="y"];
9 -> 4  [label="z"];
10 -> 10  [label="x"];
10 -> 5  [label="y"];
10 -> 8  [label="z"];
__start0 [label="", shape=none];
__start0 -> 2  [label=""];
}
