digraph "benchmarks-true-state-lstar-3seeds/n_states=4-n_outputs=3-glitch_percent=0.02/3f2ee6a2d99d6b603ef9b4da5745ee2d/alergiaLearned" {
q0 [label="b"];
q1 [label="a"];
q2 [label="c"];
q3 [label="b"];
q0 -> q1  [label="z:0.9523809523809523"];
q0 -> q0  [label="z:0.047619047619047616"];
q0 -> q2  [label="y:1.0"];
q0 -> q3  [label="x:0.9545454545454546"];
q0 -> q2  [label="x:0.045454545454545456"];
q1 -> q0  [label="x:1.0"];
q1 -> q0  [label="y:1.0"];
q1 -> q2  [label="z:1.0"];
q2 -> q2  [label="x:1.0"];
q2 -> q0  [label="y:1.0"];
q2 -> q0  [label="z:1.0"];
q3 -> q2  [label="x:1.0"];
q3 -> q2  [label="y:1.0"];
q3 -> q0  [label="z:1.0"];
__start0 [label="", shape=none];
__start0 -> q0  [label=""];
}
