digraph "benchmarks-true-state-lstar-3seeds/n_states=12-n_outputs=9-glitch_percent=0.01/166ac5c2767a83ff9f3b42d035b60ede/pmsatLearned-N12" {
0 [label="0|a", shape=record, style=rounded];
1 [label="1|b", shape=record, style=rounded];
2 [label="2|e", shape=record, style=rounded];
3 [label="3|f", shape=record, style=rounded];
4 [label="4|g", shape=record, style=rounded];
5 [label="5|h", shape=record, style=rounded];
6 [label="6|i", shape=record, style=rounded];
7 [label="7|g", shape=record, style=rounded];
8 [label="8|i", shape=record, style=rounded];
9 [label="9|f", shape=record, style=rounded];
10 [label="10|g", shape=record, style=rounded];
11 [label="11|g", shape=record, style=rounded];
0 -> 11  [label="x"];
0 -> 9  [label="y"];
0 -> 4  [label="z"];
1 -> 0  [label="x"];
1 -> 5  [label="y"];
1 -> 6  [label="z"];
2 -> 6  [label="x"];
2 -> 8  [label="y"];
2 -> 3  [label="z"];
3 -> 8  [label="z"];
3 -> 1  [label="y"];
3 -> 11  [label="x"];
4 -> 7  [label="x"];
4 -> 7  [label="y"];
4 -> 9  [label="z"];
5 -> 9  [label="x"];
5 -> 7  [label="y"];
5 -> 10  [label="z"];
6 -> 8  [label="x"];
6 -> 8  [label="y"];
6 -> 11  [label="z"];
7 -> 7  [label="x"];
7 -> 9  [label="y"];
7 -> 11  [label="z"];
8 -> 10  [label="x"];
8 -> 9  [label="y"];
8 -> 8  [label="z"];
9 -> 1  [label="x"];
9 -> 9  [label="y"];
9 -> 10  [label="z"];
10 -> 3  [label="x"];
10 -> 4  [label="y"];
10 -> 9  [label="z"];
11 -> 4  [label="x"];
11 -> 2  [label="y"];
11 -> 7  [label="z"];
__start0 [label="", shape=none];
__start0 -> 3  [label=""];
}
