digraph "pmsatLearned-N6-STOC" {
0 [label="0|a", shape=record, style=rounded];
1 [label="1|b", shape=record, style=rounded];
2 [label="2|c", shape=record, style=rounded];
3 [label="3|d", shape=record, style=rounded];
4 [label="4|e", shape=record, style=rounded];
5 [label="5|a", shape=record, style=rounded];
0 -> 5  [label="x (19)"];
0 -> 4  [label="y (19)"];
0 -> 1  [label="z (7)"];
1 -> 2  [label="z (20)"];
1 -> 3  [label="y (20)"];
1 -> 0  [label="x (44)"];
2 -> 2  [label="x (9)"];
2 -> 0  [label="y (9)"];
2 -> 1  [label="z (9)"];
3 -> 2  [label="x (7)"];
3 -> 1  [label="y (7)"];
3 -> 2  [label="z (7)"];
4 -> 3  [label="x (6)"];
4 -> 4  [label="y (6)"];
4 -> 0  [label="z (6)"];
5 -> 3  [label="x (6)"];
5 -> 2  [label="y (6)"];
5 -> 5  [label="z (6)"];
__start0 [label="", shape=none];
__start0 -> 1  [label=""];
}
