digraph "benchmarks-true-state-lstar-rc10seeds/n_states=6-n_outputs=6-glitch_percent=0.0/027658f47cdbca4fa7eba3e97b09a894/pmsatLearned_NOP-N6" {
0 [label="0|a", shape=record, style=rounded];
1 [label="1|c", shape=record, style=rounded];
2 [label="2|d", shape=record, style=rounded];
3 [label="3|e", shape=record, style=rounded];
4 [label="4|a", shape=record, style=rounded];
5 [label="5|c", shape=record, style=rounded];
0 -> 5  [label="z"];
0 -> 1  [label="y"];
0 -> 3  [label="x"];
1 -> 4  [label="x"];
1 -> 3  [label="y"];
1 -> 0  [label="z"];
2 -> 1  [label="x"];
2 -> 5  [label="y"];
2 -> 2  [label="z"];
3 -> 2  [label="x"];
3 -> 4  [label="y"];
3 -> 1  [label="z"];
4 -> 5  [label="x"];
4 -> 2  [label="y"];
4 -> 4  [label="z"];
5 -> 3  [label="x"];
5 -> 5  [label="y"];
5 -> 5  [label="z"];
__start0 [label="", shape=none];
__start0 -> 0  [label=""];
}
