digraph "benchmarks-true-state-lstar-3seeds/n_states=6-n_outputs=6-glitch_percent=0.0/027658f47cdbca4fa7eba3e97b09a894/RealModel" {
s1 [label="s1|a", shape=record, style=rounded];
s2 [label="s2|c", shape=record, style=rounded];
s3 [label="s3|d", shape=record, style=rounded];
s4 [label="s4|a", shape=record, style=rounded];
s5 [label="s5|c", shape=record, style=rounded];
s6 [label="s6|e", shape=record, style=rounded];
s1 -> s6  [label="x"];
s1 -> s2  [label="y"];
s1 -> s5  [label="z"];
s2 -> s4  [label="x"];
s2 -> s6  [label="y"];
s2 -> s1  [label="z"];
s3 -> s2  [label="x"];
s3 -> s5  [label="y"];
s3 -> s3  [label="z"];
s4 -> s5  [label="x"];
s4 -> s3  [label="y"];
s4 -> s4  [label="z"];
s5 -> s6  [label="x"];
s5 -> s5  [label="y"];
s5 -> s5  [label="z"];
s6 -> s3  [label="x"];
s6 -> s4  [label="y"];
s6 -> s2  [label="z"];
__start0 [label="", shape=none];
__start0 -> s1  [label=""];
}
