digraph "benchmarks-true-state-lstar-3seeds/n_states=13-n_outputs=8-glitch_percent=0.01/35d99e7920352f94587012f4b5f4c416/pmsatLearned-N13-STOC" {
0 [label="0|a", shape=record, style=rounded];
1 [label="1|b", shape=record, style=rounded];
2 [label="2|c", shape=record, style=rounded];
3 [label="3|d", shape=record, style=rounded];
4 [label="4|e", shape=record, style=rounded];
5 [label="5|f", shape=record, style=rounded];
6 [label="6|g", shape=record, style=rounded];
7 [label="7|c", shape=record, style=rounded];
8 [label="8|b", shape=record, style=rounded];
9 [label="9|a", shape=record, style=rounded];
10 [label="10|a", shape=record, style=rounded];
11 [label="11|a", shape=record, style=rounded];
12 [label="12|a", shape=record, style=rounded];
0 -> 6  [label="x (8)"];
0 -> 11  [label="y (10)"];
0 -> 3  [label="z (9)"];
1 -> 9  [label="z (53)"];
1 -> 10  [label="y (52)"];
1 -> 11  [label="x (53)"];
1 -> 0  [label="!y [1]"];
2 -> 8  [label="x (6)"];
2 -> 10  [label="y (6)"];
2 -> 9  [label="z (6)"];
3 -> 6  [label="x (8)"];
3 -> 11  [label="y (6)"];
3 -> 0  [label="z (8)"];
3 -> 11  [label="!x [1]"];
4 -> 5  [label="x (8)"];
4 -> 8  [label="y (8)"];
4 -> 4  [label="z (8)"];
5 -> 6  [label="x (6)"];
5 -> 11  [label="y (6)"];
5 -> 0  [label="z (6)"];
6 -> 10  [label="x (8)"];
6 -> 7  [label="y (8)"];
6 -> 0  [label="z (8)"];
7 -> 2  [label="x (7)"];
7 -> 7  [label="y (7)"];
7 -> 9  [label="z (6)"];
7 -> 6  [label="!x [1]"];
8 -> 4  [label="x (7)"];
8 -> 4  [label="y (7)"];
8 -> 3  [label="z (7)"];
9 -> 6  [label="x (19)"];
9 -> 8  [label="y (19)"];
9 -> 0  [label="z (18)"];
10 -> 3  [label="x (19)"];
10 -> 5  [label="y (20)"];
10 -> 2  [label="z (19)"];
11 -> 12  [label="x (19)"];
11 -> 4  [label="y (20)"];
11 -> 7  [label="z (20)"];
12 -> 10  [label="x (4)"];
12 -> 3  [label="y (5)"];
12 -> 0  [label="z (5)"];
12 -> 7  [label="!z [1]"];
__start0 [label="", shape=none];
__start0 -> 1  [label=""];
}
