digraph "benchmarks-true-state-lstar-3seeds/n_states=6-n_outputs=5-glitch_percent=0.01/db885d14012636463d21ab6bb4acd46a/pmsatLearned-N6-STOC" {
0 [label="0|b", shape=record, style=rounded];
1 [label="1|d", shape=record, style=rounded];
2 [label="2|e", shape=record, style=rounded];
3 [label="3|e", shape=record, style=rounded];
4 [label="4|d", shape=record, style=rounded];
5 [label="5|e", shape=record, style=rounded];
0 -> 0  [label="x (10)"];
0 -> 2  [label="y (10)"];
0 -> 4  [label="z (10)"];
1 -> 4  [label="x (5)"];
1 -> 3  [label="y (5)"];
1 -> 2  [label="z (4)"];
2 -> 1  [label="z (19)"];
2 -> 3  [label="y (19)"];
2 -> 5  [label="x (43)"];
3 -> 4  [label="x (7)"];
3 -> 3  [label="y (7)"];
3 -> 0  [label="z (6)"];
4 -> 0  [label="x (8)"];
4 -> 5  [label="y (8)"];
4 -> 0  [label="z (8)"];
5 -> 0  [label="x (18)"];
5 -> 4  [label="y (18)"];
5 -> 0  [label="z (6)"];
__start0 [label="", shape=none];
__start0 -> 2  [label=""];
}
