digraph "benchmarks-true-state-lstar-3seeds/n_states=14-n_outputs=3-glitch_percent=0.01/93f2c8357613b14031b699fc94957afa/pmsatLearned-N14-STOC" {
0 [label="0|a", shape=record, style=rounded];
1 [label="1|b", shape=record, style=rounded];
2 [label="2|c", shape=record, style=rounded];
3 [label="3|a", shape=record, style=rounded];
4 [label="4|b", shape=record, style=rounded];
5 [label="5|b", shape=record, style=rounded];
6 [label="6|b", shape=record, style=rounded];
7 [label="7|c", shape=record, style=rounded];
8 [label="8|c", shape=record, style=rounded];
9 [label="9|c", shape=record, style=rounded];
10 [label="10|a", shape=record, style=rounded];
11 [label="11|c", shape=record, style=rounded];
12 [label="12|b", shape=record, style=rounded];
13 [label="13|a", shape=record, style=rounded];
0 -> 11  [label="x (18)"];
0 -> 3  [label="y (6)"];
0 -> 5  [label="z (6)"];
1 -> 10  [label="z (56)"];
1 -> 3  [label="y (56)"];
1 -> 2  [label="x (68)"];
2 -> 0  [label="x (32)"];
2 -> 4  [label="y (18)"];
2 -> 7  [label="z (19)"];
2 -> 9  [label="!x [1]"];
3 -> 13  [label="x (20)"];
3 -> 6  [label="y (20)"];
3 -> 8  [label="z (20)"];
4 -> 2  [label="x (6)"];
4 -> 9  [label="y (7)"];
4 -> 12  [label="z (7)"];
5 -> 4  [label="x (8)"];
5 -> 12  [label="y (8)"];
5 -> 5  [label="z (8)"];
6 -> 6  [label="y (6)"];
6 -> 3  [label="z (6)"];
6 -> 9  [label="x (5)"];
7 -> 10  [label="x (8)"];
7 -> 13  [label="y (8)"];
7 -> 1  [label="z (8)"];
8 -> 13  [label="x (6)"];
8 -> 7  [label="y (6)"];
8 -> 1  [label="z (6)"];
9 -> 1  [label="x (7)"];
9 -> 4  [label="y (8)"];
9 -> 11  [label="z (7)"];
10 -> 12  [label="x (19)"];
10 -> 9  [label="y (19)"];
10 -> 5  [label="z (19)"];
11 -> 5  [label="x (6)"];
11 -> 3  [label="y (6)"];
11 -> 0  [label="z (6)"];
12 -> 8  [label="x (7)"];
12 -> 7  [label="y (7)"];
12 -> 2  [label="z (5)"];
13 -> 7  [label="x (7)"];
13 -> 2  [label="y (7)"];
13 -> 10  [label="z (7)"];
__start0 [label="", shape=none];
__start0 -> 1  [label=""];
}
