digraph "benchmarks-true-state-lstar-rc10seeds/n_states=5-n_outputs=3-glitch_percent=0.0/28f6982f1b0e19e1747e1556dcb59909/pmsatLearned_NOP-N5-STOC" {
0 [label="0|a", shape=record, style=rounded];
1 [label="1|c", shape=record, style=rounded];
2 [label="2|a", shape=record, style=rounded];
3 [label="3|c", shape=record, style=rounded];
4 [label="4|a", shape=record, style=rounded];
0 -> 4  [label="z (22)"];
0 -> 2  [label="y (24)"];
0 -> 1  [label="x (42)"];
1 -> 3  [label="x (28)"];
1 -> 2  [label="y (18)"];
1 -> 4  [label="z (9)"];
2 -> 2  [label="x (10)"];
2 -> 2  [label="y (27)"];
2 -> 1  [label="z (10)"];
3 -> 1  [label="x (6)"];
3 -> 4  [label="y (11)"];
3 -> 0  [label="z (6)"];
4 -> 2  [label="x (9)"];
4 -> 1  [label="y (18)"];
4 -> 4  [label="z (9)"];
__start0 [label="", shape=none];
__start0 -> 0  [label=""];
}
