digraph "benchmarks-true-state-lstar-rc10seeds/n_states=8-n_outputs=4-glitch_percent=0.01/55f08a4fd7f0df020cb91287dcca0df9/pmsatLearned_NOP-N8-STOC" {
0 [label="0|a", shape=record, style=rounded];
1 [label="1|b", shape=record, style=rounded];
2 [label="2|b", shape=record, style=rounded];
3 [label="3|c", shape=record, style=rounded];
4 [label="4|a", shape=record, style=rounded];
5 [label="5|d", shape=record, style=rounded];
6 [label="6|d", shape=record, style=rounded];
7 [label="7|d", shape=record, style=rounded];
0 -> 4  [label="x (7)"];
0 -> 4  [label="y (7)"];
0 -> 0  [label="z (7)"];
1 -> 7  [label="z (19)"];
1 -> 2  [label="y (31)"];
1 -> 3  [label="x (53)"];
1 -> 0  [label="!y [1]"];
1 -> 5  [label="!z [1]"];
2 -> 6  [label="x (18)"];
2 -> 1  [label="y (6)"];
2 -> 4  [label="z (6)"];
3 -> 4  [label="x (20)"];
3 -> 0  [label="y (19)"];
3 -> 5  [label="z (18)"];
4 -> 3  [label="x (9)"];
4 -> 7  [label="y (9)"];
4 -> 7  [label="z (9)"];
5 -> 1  [label="x (6)"];
5 -> 4  [label="y (6)"];
5 -> 6  [label="z (6)"];
6 -> 7  [label="x (6)"];
6 -> 5  [label="y (6)"];
6 -> 0  [label="z (6)"];
7 -> 3  [label="x (8)"];
7 -> 2  [label="y (8)"];
7 -> 3  [label="z (8)"];
__start0 [label="", shape=none];
__start0 -> 1  [label=""];
}
