digraph "benchmarks-true-state-lstar-3seeds/n_states=9-n_outputs=7-glitch_percent=0.1/c24560302ff3b5a2b59fdcd52fce430f/pmsatLearned-N9" {
0 [label="0|b", shape=record, style=rounded];
1 [label="1|d", shape=record, style=rounded];
2 [label="2|e", shape=record, style=rounded];
3 [label="3|f", shape=record, style=rounded];
4 [label="4|g", shape=record, style=rounded];
5 [label="5|e", shape=record, style=rounded];
6 [label="6|f", shape=record, style=rounded];
7 [label="7|d", shape=record, style=rounded];
8 [label="8|e", shape=record, style=rounded];
0 -> 7  [label="x"];
0 -> 7  [label="y"];
0 -> 0  [label="z"];
1 -> 4  [label="x"];
1 -> 0  [label="y"];
1 -> 7  [label="z"];
2 -> 8  [label="z"];
2 -> 6  [label="y"];
2 -> 1  [label="x"];
3 -> 2  [label="x"];
3 -> 3  [label="y"];
3 -> 8  [label="z"];
4 -> 7  [label="y"];
4 -> 3  [label="z"];
4 -> 3  [label="x"];
5 -> 3  [label="x"];
5 -> 5  [label="y"];
5 -> 1  [label="z"];
6 -> 5  [label="x"];
6 -> 3  [label="y"];
6 -> 8  [label="z"];
7 -> 0  [label="x"];
7 -> 3  [label="y"];
7 -> 5  [label="z"];
8 -> 2  [label="x"];
8 -> 0  [label="y"];
8 -> 2  [label="z"];
__start0 [label="", shape=none];
__start0 -> 2  [label=""];
}
