digraph "benchmarks-true-state-lstar-3seeds/n_states=7-n_outputs=7-glitch_percent=0.02/7189242c0a0a8ba5dd0994515f2e5959/alergiaLearned" {
q0 [label="c"];
q1 [label="e"];
q2 [label="a"];
q3 [label="d"];
q4 [label="f"];
q5 [label="g"];
q6 [label="c"];
q0 -> q1  [label="z:0.95"];
q0 -> q3  [label="z:0.05"];
q0 -> q2  [label="y:1.0"];
q0 -> q3  [label="x:1.0"];
q1 -> q0  [label="x:1.0"];
q1 -> q0  [label="y:1.0"];
q1 -> q3  [label="z:1.0"];
q2 -> q4  [label="x:1.0"];
q2 -> q1  [label="y:1.0"];
q2 -> q5  [label="z:1.0"];
q3 -> q4  [label="x:1.0"];
q3 -> q6  [label="y:1.0"];
q3 -> q5  [label="z:0.9473684210526315"];
q3 -> q0  [label="z:0.05263157894736842"];
q4 -> q1  [label="x:1.0"];
q4 -> q1  [label="y:1.0"];
q4 -> q0  [label="z:1.0"];
q5 -> q2  [label="x:0.8333333333333334"];
q5 -> q4  [label="x:0.16666666666666666"];
q5 -> q1  [label="y:1.0"];
q5 -> q2  [label="z:1.0"];
q6 -> q2  [label="x:1.0"];
q6 -> q0  [label="y:1.0"];
q6 -> q2  [label="z:1.0"];
__start0 [label="", shape=none];
__start0 -> q0  [label=""];
}
