digraph "benchmarks-true-state-lstar-3seeds/n_states=8-n_outputs=6-glitch_percent=0.01/d4414bcde98ae0828be773f770659fcc/alergiaLearned" {
q0 [label="b"];
q1 [label="e"];
q2 [label="b"];
q3 [label="c"];
q4 [label="e"];
q5 [label="b"];
q6 [label="b"];
q7 [label="e"];
q0 -> q1  [label="z:0.9230769230769231"];
q0 -> q2  [label="z:0.07692307692307693"];
q0 -> q2  [label="y:0.9777777777777777"];
q0 -> q1  [label="y:0.022222222222222223"];
q0 -> q3  [label="x:0.9883720930232558"];
q0 -> q1  [label="x:0.011627906976744186"];
q1 -> q1  [label="x:0.7777777777777778"];
q1 -> q0  [label="x:0.2222222222222222"];
q1 -> q1  [label="z:0.8"];
q1 -> q3  [label="z:0.2"];
q1 -> q0  [label="y:1.0"];
q2 -> q4  [label="x:1.0"];
q2 -> q1  [label="y:1.0"];
q2 -> q2  [label="z:1.0"];
q3 -> q5  [label="x:1.0"];
q3 -> q6  [label="y:1.0"];
q3 -> q7  [label="z:1.0"];
q4 -> q0  [label="x:1.0"];
q4 -> q0  [label="y:1.0"];
q4 -> q3  [label="z:1.0"];
q5 -> q0  [label="x:1.0"];
q5 -> q2  [label="y:1.0"];
q5 -> q0  [label="z:1.0"];
q6 -> q3  [label="x:1.0"];
q6 -> q1  [label="y:1.0"];
q6 -> q5  [label="z:1.0"];
q7 -> q2  [label="x:1.0"];
q7 -> q5  [label="y:1.0"];
q7 -> q3  [label="z:1.0"];
__start0 [label="", shape=none];
__start0 -> q0  [label=""];
}
