digraph "benchmarks-true-state-lstar-songp/n_states=13-n_outputs=8-glitch_percent=0.01-pmstrat='lsu'/bf0f5b5456c109c2fda3d69b8c48b2d0/alergiaLearned" {
q0 [label="a"];
q1 [label="f"];
q2 [label="e"];
q3 [label="h"];
q4 [label="g"];
q5 [label="h"];
q6 [label="f"];
q7 [label="c"];
q8 [label="a"];
q9 [label="b"];
q0 -> q1  [label="z:0.9649122807017544"];
q0 -> q4  [label="z:0.03508771929824561"];
q0 -> q2  [label="y:0.9824561403508771"];
q0 -> q0  [label="y:0.017543859649122806"];
q0 -> q3  [label="x:0.9824561403508771"];
q0 -> q2  [label="x:0.017543859649122806"];
q1 -> q5  [label="x:0.8181818181818182"];
q1 -> q2  [label="x:0.18181818181818182"];
q1 -> q6  [label="y:0.8260869565217391"];
q1 -> q4  [label="y:0.17391304347826086"];
q1 -> q4  [label="z:0.8571428571428571"];
q1 -> q3  [label="z:0.14285714285714285"];
q2 -> q7  [label="x:1.0"];
q2 -> q8  [label="y:1.0"];
q2 -> q4  [label="z:1.0"];
q3 -> q9  [label="x:0.8947368421052632"];
q3 -> q1  [label="x:0.05263157894736842"];
q3 -> q0  [label="x:0.05263157894736842"];
q3 -> q4  [label="y:0.8888888888888888"];
q3 -> q1  [label="y:0.05555555555555555"];
q3 -> q7  [label="y:0.05555555555555555"];
q3 -> q5  [label="z:0.85"];
q3 -> q4  [label="z:0.05"];
q3 -> q0  [label="z:0.1"];
q4 -> q4  [label="x:0.45"];
q4 -> q2  [label="x:0.55"];
q4 -> q1  [label="y:0.47619047619047616"];
q4 -> q4  [label="y:0.23809523809523808"];
q4 -> q0  [label="y:0.2857142857142857"];
q4 -> q4  [label="z:0.7"];
q4 -> q1  [label="z:0.25"];
q4 -> q3  [label="z:0.05"];
q5 -> q1  [label="x:0.5"];
q5 -> q0  [label="x:0.5"];
q5 -> q1  [label="y:0.5"];
q5 -> q7  [label="y:0.5"];
q5 -> q0  [label="z:1.0"];
q6 -> q2  [label="x:1.0"];
q6 -> q4  [label="y:1.0"];
q6 -> q3  [label="z:1.0"];
q7 -> q7  [label="x:0.8888888888888888"];
q7 -> q3  [label="x:0.1111111111111111"];
q7 -> q1  [label="y:1.0"];
q7 -> q1  [label="z:1.0"];
q8 -> q2  [label="x:1.0"];
q8 -> q0  [label="y:1.0"];
q8 -> q4  [label="z:1.0"];
q9 -> q4  [label="x:1.0"];
q9 -> q7  [label="y:1.0"];
q9 -> q3  [label="z:1.0"];
__start0 [label="", shape=none];
__start0 -> q0  [label=""];
}
