digraph "benchmarks-true-state-lstar-rc10seeds/n_states=14-n_outputs=3-glitch_percent=0.01/f3525b1804eb8511aba7fee6c6c0a7c1/pmsatLearned_NOP-N14-STOC" {
0 [label="0|a", shape=record, style=rounded];
1 [label="1|b", shape=record, style=rounded];
2 [label="2|b", shape=record, style=rounded];
3 [label="3|b", shape=record, style=rounded];
4 [label="4|c", shape=record, style=rounded];
5 [label="5|b", shape=record, style=rounded];
6 [label="6|b", shape=record, style=rounded];
7 [label="7|c", shape=record, style=rounded];
8 [label="8|b", shape=record, style=rounded];
9 [label="9|b", shape=record, style=rounded];
10 [label="10|a", shape=record, style=rounded];
11 [label="11|b", shape=record, style=rounded];
12 [label="12|c", shape=record, style=rounded];
13 [label="13|c", shape=record, style=rounded];
0 -> 3  [label="x (8)"];
0 -> 12  [label="y (16)"];
0 -> 1  [label="z (7)"];
1 -> 7  [label="z (68)"];
1 -> 10  [label="y (75)"];
1 -> 12  [label="x (84)"];
1 -> 1  [label="!y [1]"];
2 -> 13  [label="x (6)"];
2 -> 12  [label="y (11)"];
2 -> 12  [label="z (6)"];
3 -> 13  [label="x (10)"];
3 -> 3  [label="y (30)"];
3 -> 13  [label="z (9)"];
4 -> 4  [label="x (10)"];
4 -> 13  [label="y (18)"];
4 -> 9  [label="z (10)"];
5 -> 13  [label="x (22)"];
5 -> 7  [label="y (10)"];
5 -> 4  [label="z (6)"];
6 -> 7  [label="x (6)"];
6 -> 1  [label="y (7)"];
6 -> 4  [label="z (6)"];
7 -> 9  [label="x (25)"];
7 -> 0  [label="y (33)"];
7 -> 11  [label="z (25)"];
8 -> 4  [label="x (6)"];
8 -> 3  [label="y (7)"];
8 -> 0  [label="z (6)"];
9 -> 7  [label="x (6)"];
9 -> 7  [label="y (8)"];
9 -> 0  [label="z (7)"];
9 -> 11  [label="!z [1]"];
9 -> 10  [label="!y [1]"];
10 -> 2  [label="x (26)"];
10 -> 3  [label="y (26)"];
10 -> 8  [label="z (22)"];
11 -> 5  [label="x (7)"];
11 -> 13  [label="y (9)"];
11 -> 10  [label="z (7)"];
12 -> 5  [label="x (39)"];
12 -> 4  [label="y (36)"];
12 -> 6  [label="z (24)"];
12 -> 13  [label="!z [1]"];
13 -> 13  [label="x (12)"];
13 -> 3  [label="y (25)"];
13 -> 11  [label="z (12)"];
__start0 [label="", shape=none];
__start0 -> 1  [label=""];
}
