digraph "benchmarks-true-state-lstar-rc10seeds/n_states=12-n_outputs=6-glitch_percent=0.02/d49bd37534c4c73d58320b58b7a833a6/pmsatLearned_NOP-N12" {
0 [label="0|d", shape=record, style=rounded];
1 [label="1|a", shape=record, style=rounded];
2 [label="2|e", shape=record, style=rounded];
3 [label="3|d", shape=record, style=rounded];
4 [label="4|e", shape=record, style=rounded];
5 [label="5|b", shape=record, style=rounded];
6 [label="6|a", shape=record, style=rounded];
7 [label="7|b", shape=record, style=rounded];
8 [label="8|f", shape=record, style=rounded];
9 [label="9|b", shape=record, style=rounded];
10 [label="10|a", shape=record, style=rounded];
11 [label="11|c", shape=record, style=rounded];
0 -> 4  [label="x"];
0 -> 1  [label="y"];
0 -> 7  [label="z"];
1 -> 4  [label="x"];
1 -> 9  [label="y"];
1 -> 9  [label="z"];
2 -> 8  [label="x"];
2 -> 8  [label="y"];
2 -> 2  [label="z"];
3 -> 8  [label="z"];
3 -> 4  [label="y"];
3 -> 5  [label="x"];
4 -> 0  [label="x"];
4 -> 6  [label="y"];
4 -> 9  [label="z"];
5 -> 7  [label="x"];
5 -> 10  [label="y"];
5 -> 11  [label="z"];
6 -> 4  [label="x"];
6 -> 5  [label="y"];
6 -> 1  [label="z"];
7 -> 4  [label="x"];
7 -> 7  [label="y"];
7 -> 1  [label="z"];
8 -> 1  [label="x"];
8 -> 2  [label="y"];
8 -> 7  [label="z"];
9 -> 3  [label="x"];
9 -> 7  [label="y"];
9 -> 0  [label="z"];
10 -> 6  [label="x"];
10 -> 2  [label="y"];
10 -> 4  [label="z"];
11 -> 11  [label="x"];
11 -> 4  [label="y"];
11 -> 6  [label="z"];
__start0 [label="", shape=none];
__start0 -> 3  [label=""];
}
