digraph "benchmarks-true-state-lstar-3seeds/n_states=5-n_outputs=4-glitch_percent=0.0/f4d220f88e6d50a6b64766c16d16dc66/rpniGroundTruth" {
s0 [label="s0|d", shape=record, style=rounded];
s1 [label="s1|b", shape=record, style=rounded];
s2 [label="s2|c", shape=record, style=rounded];
s3 [label="s3|d", shape=record, style=rounded];
s4 [label="s4|c", shape=record, style=rounded];
s0 -> s1  [label="x"];
s0 -> s2  [label="y"];
s0 -> s3  [label="z"];
s1 -> s4  [label="x"];
s1 -> s3  [label="y"];
s1 -> s0  [label="z"];
s2 -> s4  [label="y"];
s2 -> s0  [label="z"];
s2 -> s2  [label="x"];
s3 -> s4  [label="y"];
s3 -> s2  [label="z"];
s3 -> s4  [label="x"];
s4 -> s4  [label="z"];
s4 -> s2  [label="x"];
s4 -> s0  [label="y"];
__start0 [label="", shape=none];
__start0 -> s0  [label=""];
}
