digraph "benchmarks-true-state-lstar-3seeds/n_states=15-n_outputs=9-glitch_percent=0.01/22b3aa9171d47f75e7cbb5a5eefb01e0/pmsatLearned-N15" {
0 [label="0|a", shape=record, style=rounded];
1 [label="1|b", shape=record, style=rounded];
2 [label="2|c", shape=record, style=rounded];
3 [label="3|d", shape=record, style=rounded];
4 [label="4|f", shape=record, style=rounded];
5 [label="5|g", shape=record, style=rounded];
6 [label="6|i", shape=record, style=rounded];
7 [label="7|i", shape=record, style=rounded];
8 [label="8|a", shape=record, style=rounded];
9 [label="9|b", shape=record, style=rounded];
10 [label="10|i", shape=record, style=rounded];
11 [label="11|c", shape=record, style=rounded];
12 [label="12|a", shape=record, style=rounded];
13 [label="13|a", shape=record, style=rounded];
14 [label="14|a", shape=record, style=rounded];
0 -> 9  [label="x"];
0 -> 11  [label="y"];
0 -> 12  [label="z"];
1 -> 12  [label="z"];
1 -> 4  [label="y"];
1 -> 11  [label="x"];
2 -> 8  [label="x"];
2 -> 14  [label="y"];
2 -> 6  [label="z"];
3 -> 11  [label="x"];
3 -> 10  [label="y"];
3 -> 5  [label="z"];
4 -> 9  [label="x"];
4 -> 3  [label="y"];
4 -> 0  [label="z"];
5 -> 7  [label="x"];
5 -> 6  [label="y"];
5 -> 11  [label="z"];
6 -> 2  [label="x"];
6 -> 5  [label="y"];
6 -> 9  [label="z"];
7 -> 8  [label="x"];
7 -> 8  [label="y"];
7 -> 3  [label="z"];
8 -> 2  [label="x"];
8 -> 7  [label="y"];
8 -> 13  [label="z"];
9 -> 13  [label="x"];
9 -> 5  [label="y"];
9 -> 9  [label="z"];
10 -> 3  [label="x"];
10 -> 9  [label="y"];
10 -> 14  [label="z"];
11 -> 13  [label="x"];
11 -> 14  [label="y"];
11 -> 2  [label="z"];
12 -> 8  [label="x"];
12 -> 5  [label="y"];
12 -> 7  [label="z"];
13 -> 3  [label="z"];
13 -> 6  [label="x"];
13 -> 10  [label="y"];
14 -> 11  [label="x"];
14 -> 0  [label="y"];
14 -> 12  [label="z"];
__start0 [label="", shape=none];
__start0 -> 1  [label=""];
}
