digraph "benchmarks-true-state-lstar-3seeds/n_states=14-n_outputs=8-glitch_percent=0.01/e2f034a1ee4b3f5280b41202d0ccd0a4/alergiaLearned" {
q0 [label="b"];
q1 [label="a"];
q2 [label="f"];
q3 [label="h"];
q4 [label="e"];
q5 [label="f"];
q6 [label="a"];
q7 [label="d"];
q8 [label="c"];
q9 [label="b"];
q10 [label="e"];
q11 [label="g"];
q0 -> q1  [label="z:0.9464285714285714"];
q0 -> q4  [label="z:0.017857142857142856"];
q0 -> q3  [label="z:0.03571428571428571"];
q0 -> q2  [label="y:0.9454545454545454"];
q0 -> q3  [label="y:0.01818181818181818"];
q0 -> q8  [label="y:0.03636363636363636"];
q0 -> q4  [label="x:0.9545454545454546"];
q0 -> q5  [label="x:0.015151515151515152"];
q0 -> q7  [label="x:0.030303030303030304"];
q1 -> q6  [label="x:0.8636363636363636"];
q1 -> q0  [label="x:0.09090909090909091"];
q1 -> q3  [label="x:0.045454545454545456"];
q1 -> q6  [label="y:0.9565217391304348"];
q1 -> q7  [label="y:0.043478260869565216"];
q1 -> q5  [label="z:0.9523809523809523"];
q1 -> q3  [label="z:0.047619047619047616"];
q2 -> q7  [label="x:0.9"];
q2 -> q11  [label="x:0.1"];
q2 -> q8  [label="z:0.9"];
q2 -> q1  [label="z:0.1"];
q2 -> q3  [label="y:0.8947368421052632"];
q2 -> q1  [label="y:0.10526315789473684"];
q3 -> q8  [label="x:1.0"];
q3 -> q3  [label="y:1.0"];
q3 -> q8  [label="z:1.0"];
q4 -> q5  [label="x:0.96875"];
q4 -> q0  [label="x:0.03125"];
q4 -> q9  [label="y:0.9090909090909091"];
q4 -> q1  [label="y:0.09090909090909091"];
q4 -> q10  [label="z:1.0"];
q5 -> q11  [label="x:0.7619047619047619"];
q5 -> q4  [label="x:0.23809523809523808"];
q5 -> q7  [label="y:0.4444444444444444"];
q5 -> q1  [label="y:0.5555555555555556"];
q5 -> q7  [label="z:0.45454545454545453"];
q5 -> q1  [label="z:0.5454545454545454"];
q6 -> q0  [label="x:0.45454545454545453"];
q6 -> q3  [label="x:0.5454545454545454"];
q6 -> q1  [label="y:1.0"];
q6 -> q2  [label="z:0.5"];
q6 -> q3  [label="z:0.5"];
q7 -> q3  [label="y:1.0"];
q7 -> q2  [label="x:1.0"];
q7 -> q2  [label="z:1.0"];
q8 -> q1  [label="x:1.0"];
q8 -> q11  [label="y:1.0"];
q8 -> q4  [label="z:1.0"];
q9 -> q7  [label="x:1.0"];
q9 -> q8  [label="y:1.0"];
q9 -> q3  [label="z:1.0"];
q10 -> q0  [label="x:1.0"];
q10 -> q1  [label="y:1.0"];
q10 -> q4  [label="z:1.0"];
q11 -> q6  [label="z:1.0"];
q11 -> q4  [label="x:1.0"];
q11 -> q4  [label="y:1.0"];
__start0 [label="", shape=none];
__start0 -> q0  [label=""];
}
