digraph "benchmarks-true-state-lstar-songp/n_states=8-n_outputs=7-glitch_percent=0.02-pmstrat='lsu'/467f1a7498982cc66b52ca1f7554ca18/alergiaLearned" {
q0 [label="a"];
q1 [label="d"];
q2 [label="c"];
q3 [label="c"];
q4 [label="f"];
q5 [label="g"];
q6 [label="b"];
q0 -> q1  [label="z:1.0"];
q0 -> q2  [label="y:1.0"];
q0 -> q3  [label="x:1.0"];
q1 -> q2  [label="x:1.0"];
q1 -> q4  [label="y:1.0"];
q1 -> q0  [label="z:1.0"];
q2 -> q5  [label="x:0.8695652173913043"];
q2 -> q4  [label="x:0.13043478260869565"];
q2 -> q1  [label="y:0.6666666666666666"];
q2 -> q6  [label="y:0.3333333333333333"];
q2 -> q2  [label="z:0.6666666666666666"];
q2 -> q4  [label="z:0.3333333333333333"];
q3 -> q6  [label="y:1.0"];
q3 -> q4  [label="z:1.0"];
q3 -> q4  [label="x:1.0"];
q4 -> q4  [label="x:0.6428571428571429"];
q4 -> q2  [label="x:0.35714285714285715"];
q4 -> q4  [label="y:0.6428571428571429"];
q4 -> q2  [label="y:0.35714285714285715"];
q4 -> q2  [label="z:1.0"];
q5 -> q6  [label="x:1.0"];
q5 -> q4  [label="y:1.0"];
q5 -> q2  [label="z:1.0"];
q6 -> q4  [label="x:1.0"];
q6 -> q2  [label="y:1.0"];
q6 -> q4  [label="z:1.0"];
__start0 [label="", shape=none];
__start0 -> q0  [label=""];
}
