digraph "benchmarks-true-state-lstar-3seeds/n_states=14-n_outputs=5-glitch_percent=0.02/9bd943bb561dfeab5b8ed6b0fcb4a983/alergiaLearned" {
q0 [label="a"];
q1 [label="a"];
q2 [label="d"];
q3 [label="a"];
q4 [label="b"];
q5 [label="c"];
q6 [label="e"];
q7 [label="a"];
q8 [label="b"];
q0 -> q1  [label="z:0.9122807017543859"];
q0 -> q4  [label="z:0.05263157894736842"];
q0 -> q6  [label="z:0.03508771929824561"];
q0 -> q2  [label="y:0.9298245614035088"];
q0 -> q5  [label="y:0.03508771929824561"];
q0 -> q6  [label="y:0.0"];
q0 -> q0  [label="y:0.03508771929824561"];
q0 -> q3  [label="x:0.9848484848484849"];
q0 -> q4  [label="x:0.015151515151515152"];
q1 -> q7  [label="x:0.9444444444444444"];
q1 -> q2  [label="x:0.05555555555555555"];
q1 -> q7  [label="y:1.0"];
q1 -> q4  [label="z:1.0"];
q2 -> q6  [label="x:1.0"];
q2 -> q6  [label="y:1.0"];
q2 -> q6  [label="z:1.0"];
q3 -> q8  [label="x:1.0"];
q3 -> q5  [label="y:1.0"];
q3 -> q6  [label="z:1.0"];
q4 -> q6  [label="y:0.7692307692307693"];
q4 -> q0  [label="y:0.23076923076923078"];
q4 -> q2  [label="x:0.7272727272727273"];
q4 -> q6  [label="x:0.2727272727272727"];
q4 -> q4  [label="z:1.0"];
q5 -> q5  [label="y:1.0"];
q5 -> q4  [label="x:1.0"];
q5 -> q2  [label="z:1.0"];
q6 -> q0  [label="y:0.18518518518518517"];
q6 -> q6  [label="y:0.4074074074074074"];
q6 -> q4  [label="y:0.18518518518518517"];
q6 -> q5  [label="y:0.2222222222222222"];
q6 -> q6  [label="x:0.5555555555555556"];
q6 -> q4  [label="x:0.4444444444444444"];
q6 -> q2  [label="z:0.18518518518518517"];
q6 -> q0  [label="z:0.4074074074074074"];
q6 -> q4  [label="z:0.18518518518518517"];
q6 -> q6  [label="z:0.2222222222222222"];
q7 -> q0  [label="x:0.5"];
q7 -> q2  [label="x:0.5"];
q7 -> q6  [label="y:1.0"];
q7 -> q0  [label="z:0.5"];
q7 -> q4  [label="z:0.5"];
q8 -> q6  [label="x:1.0"];
q8 -> q0  [label="y:1.0"];
q8 -> q4  [label="z:1.0"];
__start0 [label="", shape=none];
__start0 -> q0  [label=""];
}
