digraph "benchmarks-true-state-lstar-3seeds/n_states=8-n_outputs=2-glitch_percent=0.05/d0e5e424d7e8d996675ec469a21c93b4/alergiaLearned" {
q0 [label="b"];
q1 [label="b"];
q2 [label="b"];
q3 [label="a"];
q4 [label="a"];
q5 [label="b"];
q0 -> q1  [label="z:0.875"];
q0 -> q3  [label="z:0.125"];
q0 -> q0  [label="x:0.025"];
q0 -> q3  [label="x:0.975"];
q0 -> q2  [label="y:0.9705882352941176"];
q0 -> q4  [label="y:0.029411764705882353"];
q1 -> q1  [label="y:0.9"];
q1 -> q3  [label="y:0.1"];
q1 -> q3  [label="z:1.0"];
q1 -> q0  [label="x:0.9"];
q1 -> q4  [label="x:0.1"];
q2 -> q3  [label="y:1.0"];
q2 -> q3  [label="z:1.0"];
q2 -> q4  [label="x:1.0"];
q3 -> q4  [label="x:0.9142857142857143"];
q3 -> q0  [label="x:0.08571428571428572"];
q3 -> q5  [label="y:0.84375"];
q3 -> q4  [label="y:0.15625"];
q3 -> q4  [label="z:1.0"];
q4 -> q0  [label="x:0.75"];
q4 -> q3  [label="x:0.25"];
q4 -> q3  [label="y:0.6875"];
q4 -> q1  [label="y:0.3125"];
q4 -> q3  [label="z:1.0"];
q5 -> q1  [label="x:1.0"];
q5 -> q1  [label="y:1.0"];
q5 -> q3  [label="z:1.0"];
__start0 [label="", shape=none];
__start0 -> q0  [label=""];
}
