digraph "benchmarks-true-state-lstar-3seeds/n_states=9-n_outputs=8-glitch_percent=0.05/c5e081472a3fe43602ea4b2765e7bc98/rpniGroundTruth" {
s0 [label="s0|h", shape=record, style=rounded];
s1 [label="s1|f", shape=record, style=rounded];
s2 [label="s2|f", shape=record, style=rounded];
s3 [label="s3|d", shape=record, style=rounded];
s4 [label="s4|e", shape=record, style=rounded];
s5 [label="s5|b", shape=record, style=rounded];
s6 [label="s6|f", shape=record, style=rounded];
s7 [label="s7|d", shape=record, style=rounded];
s8 [label="s8|h", shape=record, style=rounded];
s0 -> s1  [label="x"];
s0 -> s2  [label="z"];
s0 -> s3  [label="y"];
s1 -> s4  [label="x"];
s1 -> s5  [label="z"];
s1 -> s6  [label="y"];
s2 -> s5  [label="y"];
s2 -> s4  [label="z"];
s2 -> s2  [label="x"];
s3 -> s4  [label="z"];
s3 -> s7  [label="y"];
s3 -> s8  [label="x"];
s4 -> s2  [label="y"];
s4 -> s5  [label="z"];
s4 -> s4  [label="x"];
s5 -> s8  [label="x"];
s5 -> s5  [label="y"];
s5 -> s4  [label="z"];
s6 -> s0  [label="x"];
s6 -> s2  [label="z"];
s6 -> s3  [label="y"];
s7 -> s6  [label="x"];
s7 -> s8  [label="z"];
s7 -> s1  [label="y"];
s8 -> s3  [label="x"];
s8 -> s6  [label="y"];
s8 -> s8  [label="z"];
__start0 [label="", shape=none];
__start0 -> s0  [label=""];
}
