digraph "benchmarks-true-state-lstar-songp/n_states=17-n_outputs=3-glitch_percent=0.02-pmstrat='lsu'/ac0ad5a95f84201ee6a8bbcb5260554f/pmsatLearned-N17" {
0 [label="0|a", shape=record, style=rounded];
1 [label="1|b", shape=record, style=rounded];
2 [label="2|c", shape=record, style=rounded];
3 [label="3|a", shape=record, style=rounded];
4 [label="4|b", shape=record, style=rounded];
5 [label="5|c", shape=record, style=rounded];
6 [label="6|a", shape=record, style=rounded];
7 [label="7|c", shape=record, style=rounded];
8 [label="8|b", shape=record, style=rounded];
9 [label="9|c", shape=record, style=rounded];
10 [label="10|a", shape=record, style=rounded];
11 [label="11|a", shape=record, style=rounded];
12 [label="12|b", shape=record, style=rounded];
13 [label="13|c", shape=record, style=rounded];
14 [label="14|c", shape=record, style=rounded];
15 [label="15|b", shape=record, style=rounded];
16 [label="16|c", shape=record, style=rounded];
0 -> 2  [label="z"];
0 -> 9  [label="y"];
0 -> 5  [label="x"];
1 -> 1  [label="x"];
1 -> 1  [label="z"];
1 -> 5  [label="y"];
2 -> 2  [label="y"];
2 -> 2  [label="z"];
2 -> 0  [label="x"];
3 -> 3  [label="y"];
3 -> 7  [label="z"];
4 -> 0  [label="z"];
4 -> 0  [label="x"];
4 -> 2  [label="y"];
5 -> 1  [label="z"];
5 -> 1  [label="y"];
5 -> 0  [label="x"];
6 -> 1  [label="z"];
6 -> 2  [label="x"];
6 -> 5  [label="y"];
7 -> 4  [label="x"];
7 -> 9  [label="y"];
7 -> 3  [label="z"];
8 -> 1  [label="y"];
8 -> 3  [label="z"];
9 -> 2  [label="x"];
9 -> 0  [label="y"];
9 -> 9  [label="z"];
10 -> 12  [label="z"];
11 -> 0  [label="y"];
11 -> 1  [label="z"];
12 -> 16  [label="x"];
12 -> 4  [label="y"];
12 -> 12  [label="z"];
13 -> 12  [label="z"];
13 -> 1  [label="y"];
14 -> 0  [label="z"];
14 -> 0  [label="x"];
14 -> 1  [label="y"];
15 -> 1  [label="y"];
15 -> 15  [label="z"];
15 -> 0  [label="x"];
16 -> 7  [label="z"];
16 -> 0  [label="x"];
16 -> 0  [label="y"];
__start0 [label="", shape=none];
__start0 -> 0  [label=""];
}
