digraph "pmsatLearned-N8-STOC" {
0 [label="0|a", shape=record, style=rounded];
1 [label="1|b", shape=record, style=rounded];
2 [label="2|c", shape=record, style=rounded];
3 [label="3|a", shape=record, style=rounded];
4 [label="4|b", shape=record, style=rounded];
5 [label="5|c", shape=record, style=rounded];
6 [label="6|a", shape=record, style=rounded];
7 [label="7|b", shape=record, style=rounded];
0 -> 7  [label="z (20)"];
0 -> 3  [label="y (33)"];
0 -> 5  [label="x (57)"];
1 -> 5  [label="x (6)"];
1 -> 5  [label="y (6)"];
1 -> 2  [label="z (6)"];
2 -> 0  [label="x (9)"];
2 -> 3  [label="y (9)"];
2 -> 5  [label="z (9)"];
3 -> 1  [label="x (18)"];
3 -> 2  [label="y (6)"];
3 -> 0  [label="z (6)"];
4 -> 0  [label="x (5)"];
4 -> 2  [label="y (5)"];
4 -> 5  [label="z (5)"];
5 -> 2  [label="x (23)"];
5 -> 4  [label="y (23)"];
5 -> 6  [label="z (22)"];
5 -> 7  [label="!x [1]"];
6 -> 1  [label="x (5)"];
6 -> 2  [label="y (6)"];
6 -> 5  [label="z (6)"];
7 -> 0  [label="y (4)"];
7 -> 5  [label="z (5)"];
7 -> 1  [label="!z [1]"];
7 -> 6  [label="x (4)"];
__start0 [label="", shape=none];
__start0 -> 0  [label=""];
}
