digraph "benchmarks-true-state-lstar-rc10seeds/n_states=13-n_outputs=3-glitch_percent=0.0/cdec1842c357dcf3ac52c3aa84a8834e/pmsatLearned_NOP-N13" {
0 [label="0|b", shape=record, style=rounded];
1 [label="1|b", shape=record, style=rounded];
2 [label="2|c", shape=record, style=rounded];
3 [label="3|a", shape=record, style=rounded];
4 [label="4|b", shape=record, style=rounded];
5 [label="5|b", shape=record, style=rounded];
6 [label="6|b", shape=record, style=rounded];
7 [label="7|a", shape=record, style=rounded];
8 [label="8|c", shape=record, style=rounded];
9 [label="9|c", shape=record, style=rounded];
10 [label="10|b", shape=record, style=rounded];
11 [label="11|a", shape=record, style=rounded];
12 [label="12|c", shape=record, style=rounded];
0 -> 5  [label="x"];
0 -> 1  [label="y"];
0 -> 9  [label="z"];
1 -> 11  [label="z"];
1 -> 10  [label="y"];
1 -> 12  [label="x"];
2 -> 2  [label="x"];
2 -> 11  [label="y"];
2 -> 8  [label="z"];
3 -> 10  [label="x"];
3 -> 11  [label="y"];
3 -> 12  [label="z"];
4 -> 9  [label="x"];
4 -> 0  [label="y"];
4 -> 11  [label="z"];
5 -> 8  [label="x"];
5 -> 3  [label="y"];
5 -> 6  [label="z"];
6 -> 5  [label="x"];
6 -> 3  [label="y"];
6 -> 4  [label="z"];
7 -> 6  [label="x"];
7 -> 4  [label="y"];
7 -> 4  [label="z"];
8 -> 3  [label="x"];
8 -> 12  [label="y"];
8 -> 0  [label="z"];
9 -> 3  [label="x"];
9 -> 12  [label="y"];
9 -> 2  [label="z"];
10 -> 0  [label="x"];
10 -> 2  [label="y"];
10 -> 6  [label="z"];
11 -> 4  [label="x"];
11 -> 8  [label="y"];
11 -> 3  [label="z"];
12 -> 7  [label="x"];
12 -> 9  [label="y"];
12 -> 5  [label="z"];
__start0 [label="", shape=none];
__start0 -> 1  [label=""];
}
