digraph "benchmarks-true-state-lstar-3seeds/n_states=7-n_outputs=5-glitch_percent=0.05/90fc098fb2416f7253c782db3f69b036/pmsatLearned-N7-STOC" {
0 [label="0|b", shape=record, style=rounded];
1 [label="1|e", shape=record, style=rounded];
2 [label="2|b", shape=record, style=rounded];
3 [label="3|b", shape=record, style=rounded];
4 [label="4|e", shape=record, style=rounded];
5 [label="5|e", shape=record, style=rounded];
6 [label="6|b", shape=record, style=rounded];
0 -> 4  [label="z (19)"];
0 -> 6  [label="x (57)"];
0 -> 2  [label="y (19)"];
0 -> 2  [label="!z [1]"];
1 -> 3  [label="x (6)"];
1 -> 4  [label="y (6)"];
1 -> 1  [label="z (6)"];
2 -> 6  [label="x (5)"];
2 -> 5  [label="y (5)"];
2 -> 6  [label="z (5)"];
2 -> 4  [label="!x [1]"];
3 -> 0  [label="x (7)"];
3 -> 0  [label="y (6)"];
3 -> 3  [label="z (6)"];
4 -> 0  [label="y (7)"];
4 -> 4  [label="z (6)"];
4 -> 2  [label="x (6)"];
5 -> 0  [label="y (7)"];
5 -> 6  [label="z (6)"];
5 -> 5  [label="x (5)"];
6 -> 3  [label="x (20)"];
6 -> 5  [label="y (19)"];
6 -> 1  [label="z (20)"];
6 -> 5  [label="!x [1]"];
__start0 [label="", shape=none];
__start0 -> 0  [label=""];
}
