digraph "benchmarks-true-state-lstar-3seeds/n_states=10-n_outputs=6-glitch_percent=0.02/1dd36dfb53a467ddff00e0dbc26cadf8/pmsatLearned-N10" {
0 [label="0|b", shape=record, style=rounded];
1 [label="1|c", shape=record, style=rounded];
2 [label="2|e", shape=record, style=rounded];
3 [label="3|f", shape=record, style=rounded];
4 [label="4|f", shape=record, style=rounded];
5 [label="5|b", shape=record, style=rounded];
6 [label="6|e", shape=record, style=rounded];
7 [label="7|c", shape=record, style=rounded];
8 [label="8|e", shape=record, style=rounded];
9 [label="9|e", shape=record, style=rounded];
0 -> 5  [label="x"];
0 -> 5  [label="y"];
0 -> 5  [label="z"];
1 -> 2  [label="x"];
1 -> 1  [label="y"];
1 -> 7  [label="z"];
2 -> 0  [label="z"];
2 -> 8  [label="y"];
2 -> 6  [label="x"];
3 -> 5  [label="x"];
3 -> 3  [label="y"];
3 -> 9  [label="z"];
4 -> 0  [label="x"];
4 -> 6  [label="y"];
4 -> 8  [label="z"];
5 -> 1  [label="x"];
5 -> 0  [label="y"];
5 -> 6  [label="z"];
6 -> 4  [label="x"];
6 -> 1  [label="y"];
6 -> 5  [label="z"];
7 -> 0  [label="x"];
7 -> 0  [label="y"];
7 -> 2  [label="z"];
8 -> 7  [label="x"];
8 -> 3  [label="y"];
8 -> 9  [label="z"];
9 -> 9  [label="x"];
9 -> 1  [label="y"];
9 -> 8  [label="z"];
__start0 [label="", shape=none];
__start0 -> 2  [label=""];
}
