digraph "benchmarks-true-state-lstar-3seeds/n_states=10-n_outputs=8-glitch_percent=0.02/a1e377ba80bf151123e32670f61ab46b/alergiaLearned" {
q0 [label="h"];
q1 [label="b"];
q2 [label="f"];
q3 [label="d"];
q4 [label="f"];
q5 [label="h"];
q6 [label="d"];
q7 [label="e"];
q0 -> q1  [label="z:0.9"];
q0 -> q0  [label="z:0.1"];
q0 -> q2  [label="y:1.0"];
q0 -> q3  [label="x:1.0"];
q1 -> q2  [label="x:0.5294117647058824"];
q1 -> q0  [label="x:0.47058823529411764"];
q1 -> q1  [label="y:0.5625"];
q1 -> q3  [label="y:0.4375"];
q1 -> q1  [label="z:0.5294117647058824"];
q1 -> q2  [label="z:0.47058823529411764"];
q2 -> q4  [label="x:0.8181818181818182"];
q2 -> q1  [label="x:0.13636363636363635"];
q2 -> q0  [label="x:0.045454545454545456"];
q2 -> q5  [label="y:0.8260869565217391"];
q2 -> q1  [label="y:0.08695652173913043"];
q2 -> q2  [label="y:0.08695652173913043"];
q2 -> q6  [label="z:0.8571428571428571"];
q2 -> q1  [label="z:0.09523809523809523"];
q2 -> q7  [label="z:0.047619047619047616"];
q3 -> q7  [label="x:1.0"];
q3 -> q4  [label="y:1.0"];
q3 -> q1  [label="z:1.0"];
q4 -> q0  [label="x:0.5"];
q4 -> q1  [label="x:0.5"];
q4 -> q1  [label="y:0.5"];
q4 -> q2  [label="y:0.5"];
q4 -> q7  [label="z:0.5"];
q4 -> q1  [label="z:0.5"];
q5 -> q3  [label="x:1.0"];
q5 -> q0  [label="z:1.0"];
q5 -> q2  [label="y:1.0"];
q6 -> q1  [label="x:1.0"];
q6 -> q2  [label="y:1.0"];
q6 -> q2  [label="z:1.0"];
q7 -> q1  [label="x:1.0"];
q7 -> q7  [label="y:1.0"];
q7 -> q7  [label="z:1.0"];
__start0 [label="", shape=none];
__start0 -> q0  [label=""];
}
