digraph "benchmarks-true-state-lstar-3seeds/n_states=10-n_outputs=3-glitch_percent=0.1/be2cf21678e2a3d0620fca236d8f4d7d/pmsatLearned-N10" {
0 [label="0|a", shape=record, style=rounded];
1 [label="1|b", shape=record, style=rounded];
2 [label="2|c", shape=record, style=rounded];
3 [label="3|a", shape=record, style=rounded];
4 [label="4|b", shape=record, style=rounded];
5 [label="5|c", shape=record, style=rounded];
6 [label="6|b", shape=record, style=rounded];
7 [label="7|c", shape=record, style=rounded];
8 [label="8|a", shape=record, style=rounded];
9 [label="9|a", shape=record, style=rounded];
0 -> 2  [label="z"];
0 -> 9  [label="y"];
0 -> 5  [label="x"];
1 -> 4  [label="x"];
1 -> 8  [label="y"];
1 -> 6  [label="z"];
2 -> 2  [label="x"];
2 -> 0  [label="z"];
2 -> 0  [label="y"];
3 -> 7  [label="x"];
3 -> 8  [label="y"];
3 -> 0  [label="z"];
4 -> 5  [label="y"];
4 -> 2  [label="x"];
4 -> 5  [label="z"];
5 -> 8  [label="x"];
5 -> 6  [label="z"];
5 -> 4  [label="y"];
6 -> 8  [label="z"];
6 -> 6  [label="x"];
6 -> 2  [label="y"];
7 -> 8  [label="x"];
7 -> 0  [label="y"];
7 -> 2  [label="z"];
8 -> 1  [label="x"];
8 -> 6  [label="y"];
8 -> 2  [label="z"];
9 -> 7  [label="x"];
9 -> 3  [label="y"];
9 -> 1  [label="z"];
__start0 [label="", shape=none];
__start0 -> 0  [label=""];
}
