digraph "benchmarks-true-state-lstar-3seeds/n_states=9-n_outputs=4-glitch_percent=0.0/abd67f2374a4fa0da92f4b8759e041c7/pmsatLearned-N9-STOC" {
0 [label="0|a", shape=record, style=rounded];
1 [label="1|b", shape=record, style=rounded];
2 [label="2|c", shape=record, style=rounded];
3 [label="3|d", shape=record, style=rounded];
4 [label="4|c", shape=record, style=rounded];
5 [label="5|a", shape=record, style=rounded];
6 [label="6|d", shape=record, style=rounded];
7 [label="7|b", shape=record, style=rounded];
8 [label="8|d", shape=record, style=rounded];
0 -> 0  [label="x (11)"];
0 -> 8  [label="y (7)"];
0 -> 3  [label="z (7)"];
1 -> 7  [label="x (16)"];
1 -> 5  [label="y (9)"];
1 -> 7  [label="z (9)"];
2 -> 7  [label="z (23)"];
2 -> 6  [label="y (54)"];
2 -> 4  [label="x (75)"];
3 -> 6  [label="x (17)"];
3 -> 1  [label="y (9)"];
3 -> 1  [label="z (9)"];
4 -> 5  [label="x (33)"];
4 -> 3  [label="y (23)"];
4 -> 8  [label="z (27)"];
5 -> 3  [label="x (16)"];
5 -> 1  [label="y (9)"];
5 -> 4  [label="z (9)"];
6 -> 1  [label="x (29)"];
6 -> 0  [label="y (22)"];
6 -> 2  [label="z (7)"];
7 -> 4  [label="x (23)"];
7 -> 5  [label="y (9)"];
7 -> 3  [label="z (9)"];
8 -> 7  [label="x (13)"];
8 -> 5  [label="y (7)"];
8 -> 2  [label="z (7)"];
__start0 [label="", shape=none];
__start0 -> 2  [label=""];
}
