digraph "benchmarks-true-state-lstar-3seeds/n_states=14-n_outputs=4-glitch_percent=0.0/e3dcc2141379e463bc0c361fe9c79488/alergiaLearned" {
q0 [label="c"];
q1 [label="a"];
q2 [label="a"];
q3 [label="c"];
q4 [label="d"];
q5 [label="c"];
q6 [label="d"];
q7 [label="d"];
q8 [label="a"];
q9 [label="a"];
q0 -> q1  [label="z:1.0"];
q0 -> q2  [label="y:1.0"];
q0 -> q3  [label="x:1.0"];
q1 -> q4  [label="x:1.0"];
q1 -> q5  [label="y:0.7954545454545454"];
q1 -> q1  [label="y:0.20454545454545456"];
q1 -> q6  [label="z:0.7647058823529411"];
q1 -> q0  [label="z:0.058823529411764705"];
q1 -> q1  [label="z:0.17647058823529413"];
q2 -> q7  [label="x:1.0"];
q2 -> q5  [label="y:1.0"];
q2 -> q8  [label="z:1.0"];
q3 -> q9  [label="x:1.0"];
q3 -> q6  [label="y:1.0"];
q3 -> q9  [label="z:1.0"];
q4 -> q5  [label="x:0.6086956521739131"];
q4 -> q1  [label="x:0.21739130434782608"];
q4 -> q4  [label="x:0.17391304347826086"];
q4 -> q1  [label="y:1.0"];
q4 -> q5  [label="z:1.0"];
q5 -> q6  [label="x:0.9210526315789473"];
q5 -> q1  [label="x:0.07894736842105263"];
q5 -> q4  [label="y:0.6363636363636364"];
q5 -> q8  [label="y:0.36363636363636365"];
q5 -> q1  [label="z:0.6"];
q5 -> q3  [label="z:0.4"];
q6 -> q1  [label="x:0.9791666666666666"];
q6 -> q4  [label="x:0.020833333333333332"];
q6 -> q3  [label="y:0.25806451612903225"];
q6 -> q1  [label="y:0.7419354838709677"];
q6 -> q5  [label="z:1.0"];
q6 -> q4  [label="z:0.0"];
q7 -> q6  [label="x:1.0"];
q7 -> q8  [label="y:1.0"];
q7 -> q7  [label="z:1.0"];
q8 -> q1  [label="x:1.0"];
q8 -> q0  [label="y:1.0"];
q8 -> q6  [label="z:1.0"];
q9 -> q6  [label="x:1.0"];
q9 -> q1  [label="y:0.5882352941176471"];
q9 -> q5  [label="y:0.4117647058823529"];
q9 -> q5  [label="z:0.5"];
q9 -> q1  [label="z:0.5"];
__start0 [label="", shape=none];
__start0 -> q0  [label=""];
}
