digraph "benchmarks-true-state-lstar-rc10seeds/n_states=17-n_outputs=7-glitch_percent=0.01/221a805ff4d29ea2d1ea08df00dbb81d/pmsatLearned_NOP-N17-STOC" {
0 [label="0|d", shape=record, style=rounded];
1 [label="1|c", shape=record, style=rounded];
2 [label="2|d", shape=record, style=rounded];
3 [label="3|c", shape=record, style=rounded];
4 [label="4|g", shape=record, style=rounded];
5 [label="5|a", shape=record, style=rounded];
6 [label="6|c", shape=record, style=rounded];
7 [label="7|c", shape=record, style=rounded];
8 [label="8|d", shape=record, style=rounded];
9 [label="9|a", shape=record, style=rounded];
10 [label="10|g", shape=record, style=rounded];
11 [label="11|a", shape=record, style=rounded];
12 [label="12|a", shape=record, style=rounded];
13 [label="13|a", shape=record, style=rounded];
14 [label="14|c", shape=record, style=rounded];
15 [label="15|c", shape=record, style=rounded];
16 [label="16|a", shape=record, style=rounded];
0 -> 1  [label="x (9)"];
0 -> 13  [label="y (7)"];
0 -> 13  [label="z (7)"];
1 -> 9  [label="z (66)"];
1 -> 10  [label="y (68)"];
1 -> 8  [label="x (143)"];
1 -> 4  [label="!y [1]"];
2 -> 2  [label="x (18)"];
2 -> 15  [label="y (8)"];
2 -> 9  [label="z (7)"];
3 -> 14  [label="x (18)"];
3 -> 4  [label="y (7)"];
3 -> 8  [label="z (8)"];
4 -> 3  [label="x (20)"];
4 -> 9  [label="y (9)"];
4 -> 11  [label="z (9)"];
4 -> 16  [label="!x [1]"];
5 -> 4  [label="x (12)"];
5 -> 0  [label="y (7)"];
5 -> 3  [label="z (6)"];
6 -> 13  [label="x (13)"];
6 -> 6  [label="y (8)"];
6 -> 13  [label="z (7)"];
7 -> 1  [label="x (21)"];
7 -> 5  [label="y (10)"];
7 -> 15  [label="z (10)"];
8 -> 14  [label="x (74)"];
8 -> 6  [label="y (28)"];
8 -> 12  [label="z (38)"];
9 -> 2  [label="x (28)"];
9 -> 4  [label="y (23)"];
9 -> 7  [label="z (24)"];
10 -> 3  [label="x (23)"];
10 -> 0  [label="y (22)"];
10 -> 16  [label="z (22)"];
10 -> 4  [label="!y [1]"];
11 -> 16  [label="y (8)"];
11 -> 8  [label="z (8)"];
11 -> 11  [label="x (13)"];
12 -> 12  [label="x (14)"];
12 -> 9  [label="y (8)"];
12 -> 13  [label="z (23)"];
13 -> 7  [label="x (21)"];
13 -> 2  [label="y (9)"];
13 -> 10  [label="z (10)"];
13 -> 12  [label="!z [1]"];
14 -> 5  [label="x (30)"];
14 -> 15  [label="y (20)"];
14 -> 11  [label="z (22)"];
14 -> 7  [label="!y [1]"];
14 -> 3  [label="!z [1]"];
15 -> 4  [label="x (11)"];
15 -> 7  [label="y (6)"];
15 -> 7  [label="z (8)"];
16 -> 7  [label="x (9)"];
16 -> 4  [label="y (6)"];
16 -> 12  [label="z (7)"];
16 -> 0  [label="!y [1]"];
__start0 [label="", shape=none];
__start0 -> 1  [label=""];
}
