digraph "benchmarks-true-state-lstar-rc10seeds/n_states=9-n_outputs=5-glitch_percent=0.01/7bc508e3d8e570cfa7e7b1d6813c637f/pmsatLearned_NOP-N9-STOC" {
0 [label="0|d", shape=record, style=rounded];
1 [label="1|e", shape=record, style=rounded];
2 [label="2|c", shape=record, style=rounded];
3 [label="3|a", shape=record, style=rounded];
4 [label="4|b", shape=record, style=rounded];
5 [label="5|b", shape=record, style=rounded];
6 [label="6|c", shape=record, style=rounded];
7 [label="7|a", shape=record, style=rounded];
8 [label="8|d", shape=record, style=rounded];
0 -> 6  [label="x (5)"];
0 -> 5  [label="y (4)"];
0 -> 5  [label="z (5)"];
1 -> 7  [label="x (7)"];
1 -> 5  [label="y (7)"];
1 -> 2  [label="z (7)"];
2 -> 1  [label="z (19)"];
2 -> 4  [label="y (42)"];
2 -> 5  [label="x (55)"];
2 -> 3  [label="!x [1]"];
3 -> 7  [label="x (8)"];
3 -> 3  [label="y (8)"];
3 -> 2  [label="z (8)"];
4 -> 3  [label="x (17)"];
4 -> 8  [label="y (18)"];
4 -> 4  [label="z (6)"];
5 -> 6  [label="x (21)"];
5 -> 7  [label="y (21)"];
5 -> 0  [label="z (20)"];
5 -> 4  [label="!y [1]"];
6 -> 8  [label="x (6)"];
6 -> 3  [label="y (6)"];
6 -> 1  [label="z (5)"];
7 -> 1  [label="x (9)"];
7 -> 5  [label="y (9)"];
7 -> 8  [label="z (9)"];
8 -> 7  [label="x (7)"];
8 -> 3  [label="y (7)"];
8 -> 7  [label="z (7)"];
__start0 [label="", shape=none];
__start0 -> 2  [label=""];
}
