digraph "benchmarks-true-state-lstar-3seeds/n_states=9-n_outputs=5-glitch_percent=0.01/7bc508e3d8e570cfa7e7b1d6813c637f/RealModel" {
s1 [label="s1|c", shape=record, style=rounded];
s2 [label="s2|a", shape=record, style=rounded];
s3 [label="s3|e", shape=record, style=rounded];
s4 [label="s4|d", shape=record, style=rounded];
s5 [label="s5|c", shape=record, style=rounded];
s6 [label="s6|d", shape=record, style=rounded];
s7 [label="s7|a", shape=record, style=rounded];
s8 [label="s8|b", shape=record, style=rounded];
s9 [label="s9|b", shape=record, style=rounded];
s1 -> s8  [label="x"];
s1 -> s9  [label="y"];
s1 -> s3  [label="z"];
s2 -> s7  [label="x"];
s2 -> s2  [label="y"];
s2 -> s1  [label="z"];
s3 -> s7  [label="x"];
s3 -> s8  [label="y"];
s3 -> s1  [label="z"];
s4 -> s7  [label="x"];
s4 -> s2  [label="y"];
s4 -> s7  [label="z"];
s5 -> s4  [label="x"];
s5 -> s2  [label="y"];
s5 -> s3  [label="z"];
s6 -> s5  [label="x"];
s6 -> s8  [label="y"];
s6 -> s8  [label="z"];
s7 -> s3  [label="x"];
s7 -> s8  [label="y"];
s7 -> s4  [label="z"];
s8 -> s5  [label="x"];
s8 -> s7  [label="y"];
s8 -> s6  [label="z"];
s9 -> s2  [label="x"];
s9 -> s4  [label="y"];
s9 -> s9  [label="z"];
__start0 [label="", shape=none];
__start0 -> s1  [label=""];
}
