digraph "benchmarks-true-state-lstar-3seeds/n_states=9-n_outputs=8-glitch_percent=0.1/4c13cb5a9076e44b4f1af0386f0a36f0/alergiaLearned" {
q0 [label="b"];
q1 [label="f"];
q2 [label="a"];
q3 [label="c"];
q4 [label="b"];
q5 [label="g"];
q6 [label="a"];
q7 [label="e"];
q0 -> q1  [label="z:0.9"];
q0 -> q5  [label="z:0.05"];
q0 -> q6  [label="z:0.05"];
q0 -> q2  [label="y:0.8297872340425532"];
q0 -> q4  [label="y:0.06382978723404255"];
q0 -> q5  [label="y:0.10638297872340426"];
q0 -> q3  [label="x:0.9411764705882353"];
q0 -> q1  [label="x:0.0196078431372549"];
q0 -> q2  [label="x:0.0392156862745098"];
q1 -> q0  [label="x:0.5454545454545454"];
q1 -> q3  [label="x:0.45454545454545453"];
q1 -> q0  [label="y:1.0"];
q1 -> q5  [label="z:0.5"];
q1 -> q1  [label="z:0.5"];
q2 -> q1  [label="x:0.9090909090909091"];
q2 -> q3  [label="x:0.045454545454545456"];
q2 -> q2  [label="x:0.045454545454545456"];
q2 -> q5  [label="y:0.9375"];
q2 -> q0  [label="y:0.0625"];
q2 -> q2  [label="z:1.0"];
q3 -> q7  [label="x:0.8888888888888888"];
q3 -> q2  [label="x:0.1111111111111111"];
q3 -> q6  [label="z:0.9444444444444444"];
q3 -> q1  [label="z:0.05555555555555555"];
q3 -> q4  [label="y:1.0"];
q4 -> q6  [label="x:1.0"];
q4 -> q2  [label="y:1.0"];
q4 -> q1  [label="z:1.0"];
q5 -> q3  [label="y:1.0"];
q5 -> q1  [label="x:1.0"];
q5 -> q3  [label="z:0.8571428571428571"];
q5 -> q1  [label="z:0.14285714285714285"];
q6 -> q2  [label="y:0.16666666666666666"];
q6 -> q0  [label="y:0.8333333333333334"];
q6 -> q2  [label="x:1.0"];
q6 -> q2  [label="z:1.0"];
q7 -> q1  [label="x:1.0"];
q7 -> q2  [label="y:0.8"];
q7 -> q5  [label="y:0.2"];
q7 -> q2  [label="z:1.0"];
__start0 [label="", shape=none];
__start0 -> q0  [label=""];
}
