digraph "benchmarks-true-state-lstar-songp/n_states=13-n_outputs=4-glitch_percent=0.0-pmstrat='fm'/2f39f686f7d6aab3ad8d4b24c26ce8d1/pmsatLearned-N13" {
0 [label="0|a", shape=record, style=rounded];
1 [label="1|b", shape=record, style=rounded];
2 [label="2|c", shape=record, style=rounded];
3 [label="3|d", shape=record, style=rounded];
4 [label="4|a", shape=record, style=rounded];
5 [label="5|c", shape=record, style=rounded];
6 [label="6|a", shape=record, style=rounded];
7 [label="7|d", shape=record, style=rounded];
8 [label="8|d", shape=record, style=rounded];
9 [label="9|d", shape=record, style=rounded];
10 [label="10|c", shape=record, style=rounded];
11 [label="11|d", shape=record, style=rounded];
12 [label="12|d", shape=record, style=rounded];
0 -> 2  [label="z"];
0 -> 5  [label="y"];
0 -> 12  [label="x"];
1 -> 1  [label="x"];
1 -> 2  [label="y"];
1 -> 2  [label="z"];
2 -> 9  [label="x"];
2 -> 10  [label="y"];
2 -> 11  [label="z"];
3 -> 5  [label="x"];
3 -> 0  [label="y"];
3 -> 11  [label="z"];
4 -> 11  [label="x"];
4 -> 1  [label="y"];
4 -> 8  [label="z"];
5 -> 1  [label="x"];
5 -> 6  [label="y"];
5 -> 7  [label="z"];
6 -> 5  [label="x"];
6 -> 6  [label="y"];
6 -> 11  [label="z"];
7 -> 5  [label="x"];
7 -> 11  [label="y"];
7 -> 10  [label="z"];
8 -> 0  [label="x"];
8 -> 1  [label="y"];
8 -> 0  [label="z"];
9 -> 10  [label="x"];
9 -> 10  [label="y"];
9 -> 0  [label="z"];
10 -> 5  [label="x"];
10 -> 11  [label="y"];
10 -> 9  [label="z"];
11 -> 7  [label="x"];
11 -> 10  [label="y"];
11 -> 3  [label="z"];
12 -> 4  [label="x"];
12 -> 3  [label="y"];
12 -> 8  [label="z"];
__start0 [label="", shape=none];
__start0 -> 0  [label=""];
}
