digraph "benchmarks-true-state-lstar-3seeds/n_states=16-n_outputs=3-glitch_percent=0.0/3650e5a243b72c763531e21387f71325/pmsatLearned-N16" {
0 [label="0|a", shape=record, style=rounded];
1 [label="1|b", shape=record, style=rounded];
2 [label="2|c", shape=record, style=rounded];
3 [label="3|c", shape=record, style=rounded];
4 [label="4|c", shape=record, style=rounded];
5 [label="5|c", shape=record, style=rounded];
6 [label="6|c", shape=record, style=rounded];
7 [label="7|a", shape=record, style=rounded];
8 [label="8|c", shape=record, style=rounded];
9 [label="9|c", shape=record, style=rounded];
10 [label="10|b", shape=record, style=rounded];
11 [label="11|c", shape=record, style=rounded];
12 [label="12|a", shape=record, style=rounded];
13 [label="13|c", shape=record, style=rounded];
14 [label="14|a", shape=record, style=rounded];
15 [label="15|b", shape=record, style=rounded];
0 -> 6  [label="z"];
0 -> 3  [label="y"];
0 -> 13  [label="x"];
1 -> 12  [label="x"];
1 -> 2  [label="y"];
1 -> 10  [label="z"];
2 -> 2  [label="x"];
2 -> 0  [label="y"];
2 -> 6  [label="z"];
3 -> 11  [label="x"];
3 -> 4  [label="y"];
3 -> 9  [label="z"];
4 -> 0  [label="x"];
4 -> 4  [label="y"];
4 -> 7  [label="z"];
5 -> 3  [label="x"];
5 -> 5  [label="y"];
5 -> 3  [label="z"];
6 -> 8  [label="x"];
6 -> 7  [label="y"];
6 -> 15  [label="z"];
7 -> 13  [label="x"];
7 -> 3  [label="y"];
7 -> 7  [label="z"];
8 -> 0  [label="x"];
8 -> 6  [label="y"];
8 -> 6  [label="z"];
9 -> 7  [label="x"];
9 -> 14  [label="y"];
9 -> 2  [label="z"];
10 -> 4  [label="x"];
10 -> 9  [label="y"];
10 -> 7  [label="z"];
11 -> 2  [label="x"];
11 -> 14  [label="y"];
11 -> 9  [label="z"];
12 -> 2  [label="x"];
12 -> 9  [label="y"];
12 -> 7  [label="z"];
13 -> 1  [label="x"];
13 -> 5  [label="y"];
13 -> 14  [label="z"];
14 -> 2  [label="x"];
14 -> 13  [label="y"];
14 -> 0  [label="z"];
15 -> 9  [label="x"];
15 -> 14  [label="y"];
15 -> 3  [label="z"];
__start0 [label="", shape=none];
__start0 -> 0  [label=""];
}
