digraph "benchmarks-true-state-lstar-rc10seeds/n_states=10-n_outputs=3-glitch_percent=0.01/67618a1c38ba32ade15d8762d35037a1/pmsatLearned_NOP-N10" {
0 [label="0|a", shape=record, style=rounded];
1 [label="1|a", shape=record, style=rounded];
2 [label="2|a", shape=record, style=rounded];
3 [label="3|a", shape=record, style=rounded];
4 [label="4|b", shape=record, style=rounded];
5 [label="5|b", shape=record, style=rounded];
6 [label="6|c", shape=record, style=rounded];
7 [label="7|b", shape=record, style=rounded];
8 [label="8|c", shape=record, style=rounded];
9 [label="9|c", shape=record, style=rounded];
0 -> 8  [label="z"];
0 -> 2  [label="y"];
0 -> 6  [label="x"];
1 -> 9  [label="x"];
1 -> 3  [label="y"];
1 -> 2  [label="z"];
2 -> 9  [label="x"];
2 -> 1  [label="y"];
2 -> 7  [label="z"];
3 -> 7  [label="x"];
3 -> 4  [label="y"];
3 -> 8  [label="z"];
4 -> 8  [label="x"];
4 -> 6  [label="y"];
4 -> 6  [label="z"];
5 -> 5  [label="x"];
5 -> 8  [label="y"];
5 -> 3  [label="z"];
6 -> 3  [label="x"];
6 -> 4  [label="y"];
6 -> 5  [label="z"];
7 -> 4  [label="x"];
7 -> 3  [label="y"];
7 -> 5  [label="z"];
8 -> 8  [label="x"];
8 -> 0  [label="y"];
8 -> 2  [label="z"];
9 -> 3  [label="x"];
9 -> 0  [label="y"];
9 -> 8  [label="z"];
__start0 [label="", shape=none];
__start0 -> 0  [label=""];
}
