digraph "benchmarks-true-state-lstar-3seeds/n_states=9-n_outputs=7-glitch_percent=0.0/1765cb8198d27f4a2df68867d300e37f/pmsatLearned-N9-STOC" {
0 [label="0|b", shape=record, style=rounded];
1 [label="1|e", shape=record, style=rounded];
2 [label="2|g", shape=record, style=rounded];
3 [label="3|b", shape=record, style=rounded];
4 [label="4|g", shape=record, style=rounded];
5 [label="5|b", shape=record, style=rounded];
6 [label="6|b", shape=record, style=rounded];
7 [label="7|g", shape=record, style=rounded];
8 [label="8|e", shape=record, style=rounded];
0 -> 5  [label="z (30)"];
0 -> 2  [label="y (55)"];
0 -> 6  [label="x (76)"];
1 -> 8  [label="x (9)"];
1 -> 6  [label="y (7)"];
1 -> 5  [label="z (7)"];
2 -> 8  [label="x (24)"];
2 -> 7  [label="y (22)"];
2 -> 4  [label="z (7)"];
3 -> 7  [label="x (13)"];
3 -> 0  [label="y (9)"];
3 -> 2  [label="z (12)"];
4 -> 5  [label="x (11)"];
4 -> 0  [label="y (8)"];
4 -> 3  [label="z (8)"];
5 -> 5  [label="x (16)"];
5 -> 4  [label="y (9)"];
5 -> 0  [label="z (19)"];
6 -> 3  [label="x (26)"];
6 -> 4  [label="y (23)"];
6 -> 1  [label="z (32)"];
7 -> 0  [label="x (9)"];
7 -> 3  [label="y (7)"];
7 -> 8  [label="z (11)"];
8 -> 6  [label="x (11)"];
8 -> 3  [label="y (8)"];
8 -> 1  [label="z (12)"];
__start0 [label="", shape=none];
__start0 -> 0  [label=""];
}
