digraph "benchmarks-true-state-lstar-3seeds/n_states=7-n_outputs=5-glitch_percent=0.0/e45fc8147f652e1ee9cddf615da0344a/pmsatLearned-N7" {
0 [label="0|a", shape=record, style=rounded];
1 [label="1|b", shape=record, style=rounded];
2 [label="2|d", shape=record, style=rounded];
3 [label="3|e", shape=record, style=rounded];
4 [label="4|e", shape=record, style=rounded];
5 [label="5|e", shape=record, style=rounded];
6 [label="6|a", shape=record, style=rounded];
0 -> 2  [label="z"];
0 -> 4  [label="y"];
0 -> 6  [label="x"];
1 -> 0  [label="x"];
1 -> 5  [label="y"];
1 -> 1  [label="z"];
2 -> 4  [label="x"];
2 -> 0  [label="y"];
2 -> 2  [label="z"];
3 -> 6  [label="x"];
3 -> 1  [label="y"];
3 -> 4  [label="z"];
4 -> 1  [label="x"];
4 -> 4  [label="y"];
4 -> 0  [label="z"];
5 -> 3  [label="x"];
5 -> 6  [label="y"];
5 -> 3  [label="z"];
6 -> 5  [label="x"];
6 -> 3  [label="y"];
6 -> 1  [label="z"];
__start0 [label="", shape=none];
__start0 -> 0  [label=""];
}
