digraph "benchmarks-true-state-lstar-3seeds/n_states=12-n_outputs=2-glitch_percent=0.01/6b9481d85893c42b21e2642041f17f3c/alergiaLearned" {
q0 [label="b"];
q1 [label="a"];
q2 [label="b"];
q3 [label="a"];
q4 [label="a"];
q5 [label="a"];
q6 [label="b"];
q7 [label="a"];
q8 [label="a"];
q0 -> q1  [label="z:0.95"];
q0 -> q0  [label="z:0.05"];
q0 -> q2  [label="y:0.9426229508196722"];
q0 -> q1  [label="y:0.05737704918032787"];
q0 -> q3  [label="x:0.9754098360655737"];
q0 -> q0  [label="x:0.02459016393442623"];
q1 -> q4  [label="x:0.9069767441860465"];
q1 -> q0  [label="x:0.09302325581395349"];
q1 -> q5  [label="y:0.9743589743589743"];
q1 -> q0  [label="y:0.02564102564102564"];
q1 -> q1  [label="z:0.8333333333333334"];
q1 -> q0  [label="z:0.16666666666666666"];
q2 -> q6  [label="x:0.9761904761904762"];
q2 -> q1  [label="x:0.023809523809523808"];
q2 -> q7  [label="y:1.0"];
q2 -> q5  [label="z:0.9696969696969697"];
q2 -> q0  [label="z:0.030303030303030304"];
q3 -> q5  [label="x:1.0"];
q3 -> q5  [label="y:0.9736842105263158"];
q3 -> q0  [label="y:0.02631578947368421"];
q3 -> q8  [label="z:1.0"];
q3 -> q0  [label="z:0.0"];
q4 -> q0  [label="x:0.8181818181818182"];
q4 -> q1  [label="x:0.18181818181818182"];
q4 -> q1  [label="z:0.8888888888888888"];
q4 -> q0  [label="z:0.1111111111111111"];
q4 -> q1  [label="y:0.8333333333333334"];
q4 -> q0  [label="y:0.16666666666666666"];
q5 -> q1  [label="x:0.9649122807017544"];
q5 -> q0  [label="x:0.03508771929824561"];
q5 -> q6  [label="y:0.2571428571428571"];
q5 -> q3  [label="y:0.7428571428571429"];
q5 -> q0  [label="z:0.4444444444444444"];
q5 -> q3  [label="z:0.5555555555555556"];
q6 -> q1  [label="x:1.0"];
q6 -> q4  [label="y:1.0"];
q6 -> q0  [label="z:1.0"];
q7 -> q4  [label="y:1.0"];
q7 -> q1  [label="z:1.0"];
q7 -> q2  [label="x:1.0"];
q8 -> q4  [label="x:1.0"];
q8 -> q2  [label="y:1.0"];
q8 -> q1  [label="z:1.0"];
__start0 [label="", shape=none];
__start0 -> q0  [label=""];
}
