digraph "benchmarks-true-state-lstar-rc10seeds/n_states=11-n_outputs=9-glitch_percent=0.02/c5fb9f5378c363322fc57dcf5888914e/pmsatLearned_NOP-N11" {
0 [label="0|c", shape=record, style=rounded];
1 [label="1|e", shape=record, style=rounded];
2 [label="2|g", shape=record, style=rounded];
3 [label="3|i", shape=record, style=rounded];
4 [label="4|f", shape=record, style=rounded];
5 [label="5|i", shape=record, style=rounded];
6 [label="6|d", shape=record, style=rounded];
7 [label="7|i", shape=record, style=rounded];
8 [label="8|c", shape=record, style=rounded];
9 [label="9|i", shape=record, style=rounded];
10 [label="10|c", shape=record, style=rounded];
0 -> 5  [label="x"];
0 -> 2  [label="y"];
0 -> 7  [label="z"];
1 -> 6  [label="x"];
1 -> 4  [label="y"];
1 -> 3  [label="z"];
2 -> 0  [label="x"];
2 -> 8  [label="y"];
2 -> 8  [label="z"];
3 -> 9  [label="x"];
3 -> 7  [label="y"];
3 -> 7  [label="z"];
4 -> 0  [label="x"];
4 -> 5  [label="y"];
4 -> 10  [label="z"];
5 -> 1  [label="z"];
5 -> 10  [label="y"];
5 -> 8  [label="x"];
6 -> 7  [label="x"];
6 -> 0  [label="y"];
6 -> 8  [label="z"];
7 -> 1  [label="x"];
7 -> 1  [label="y"];
7 -> 4  [label="z"];
8 -> 9  [label="x"];
8 -> 2  [label="y"];
8 -> 0  [label="z"];
9 -> 4  [label="x"];
9 -> 8  [label="y"];
9 -> 6  [label="z"];
10 -> 3  [label="y"];
10 -> 4  [label="z"];
10 -> 7  [label="x"];
__start0 [label="", shape=none];
__start0 -> 5  [label=""];
}
