digraph "benchmarks-true-state-lstar-songp/n_states=11-n_outputs=5-glitch_percent=0.02-pmstrat='fm'/4006c062235cf1c724c2ca9b4da7001a/pmsatLearned-N11" {
0 [label="0|a", shape=record, style=rounded];
1 [label="1|b", shape=record, style=rounded];
2 [label="2|c", shape=record, style=rounded];
3 [label="3|d", shape=record, style=rounded];
4 [label="4|e", shape=record, style=rounded];
5 [label="5|e", shape=record, style=rounded];
6 [label="6|a", shape=record, style=rounded];
7 [label="7|c", shape=record, style=rounded];
8 [label="8|d", shape=record, style=rounded];
9 [label="9|d", shape=record, style=rounded];
10 [label="10|a", shape=record, style=rounded];
0 -> 3  [label="z"];
0 -> 5  [label="y"];
0 -> 4  [label="x"];
1 -> 4  [label="x"];
1 -> 0  [label="y"];
1 -> 1  [label="z"];
2 -> 3  [label="x"];
2 -> 2  [label="y"];
2 -> 0  [label="z"];
3 -> 9  [label="x"];
3 -> 2  [label="y"];
3 -> 3  [label="z"];
4 -> 10  [label="x"];
4 -> 8  [label="y"];
4 -> 7  [label="z"];
5 -> 6  [label="x"];
5 -> 2  [label="y"];
5 -> 1  [label="z"];
6 -> 7  [label="x"];
6 -> 4  [label="y"];
6 -> 1  [label="z"];
7 -> 3  [label="x"];
7 -> 4  [label="y"];
7 -> 8  [label="z"];
8 -> 8  [label="x"];
8 -> 5  [label="y"];
8 -> 1  [label="z"];
9 -> 0  [label="x"];
9 -> 1  [label="y"];
9 -> 7  [label="z"];
10 -> 1  [label="x"];
10 -> 2  [label="y"];
10 -> 1  [label="z"];
__start0 [label="", shape=none];
__start0 -> 0  [label=""];
}
