digraph "benchmarks-true-state-lstar-3seeds/n_states=8-n_outputs=4-glitch_percent=0.01/3cad3f7484f2f888a633f77314e8d787/pmsatLearned-N8" {
0 [label="0|a", shape=record, style=rounded];
1 [label="1|b", shape=record, style=rounded];
2 [label="2|c", shape=record, style=rounded];
3 [label="3|d", shape=record, style=rounded];
4 [label="4|c", shape=record, style=rounded];
5 [label="5|a", shape=record, style=rounded];
6 [label="6|b", shape=record, style=rounded];
7 [label="7|d", shape=record, style=rounded];
0 -> 6  [label="x"];
0 -> 1  [label="y"];
0 -> 0  [label="z"];
1 -> 2  [label="x"];
1 -> 1  [label="y"];
1 -> 0  [label="z"];
2 -> 3  [label="z"];
2 -> 7  [label="y"];
2 -> 6  [label="x"];
3 -> 2  [label="x"];
3 -> 4  [label="y"];
3 -> 0  [label="z"];
4 -> 4  [label="x"];
4 -> 7  [label="y"];
4 -> 6  [label="z"];
5 -> 3  [label="x"];
5 -> 3  [label="y"];
5 -> 6  [label="z"];
6 -> 5  [label="x"];
6 -> 4  [label="y"];
6 -> 0  [label="z"];
7 -> 1  [label="x"];
7 -> 1  [label="y"];
7 -> 6  [label="z"];
__start0 [label="", shape=none];
__start0 -> 2  [label=""];
}
