digraph "benchmarks-true-state-lstar-rc10seeds/n_states=16-n_outputs=6-glitch_percent=0.02/e9296848affebb5df1241de377e8daa6/pmsatLearned_NOP-N16" {
0 [label="0|d", shape=record, style=rounded];
1 [label="1|c", shape=record, style=rounded];
2 [label="2|f", shape=record, style=rounded];
3 [label="3|a", shape=record, style=rounded];
4 [label="4|c", shape=record, style=rounded];
5 [label="5|e", shape=record, style=rounded];
6 [label="6|e", shape=record, style=rounded];
7 [label="7|a", shape=record, style=rounded];
8 [label="8|d", shape=record, style=rounded];
9 [label="9|d", shape=record, style=rounded];
10 [label="10|d", shape=record, style=rounded];
11 [label="11|e", shape=record, style=rounded];
12 [label="12|a", shape=record, style=rounded];
13 [label="13|d", shape=record, style=rounded];
14 [label="14|c", shape=record, style=rounded];
15 [label="15|e", shape=record, style=rounded];
0 -> 4  [label="x"];
0 -> 6  [label="y"];
0 -> 5  [label="z"];
1 -> 4  [label="z"];
1 -> 3  [label="y"];
1 -> 8  [label="x"];
2 -> 5  [label="x"];
2 -> 7  [label="y"];
2 -> 6  [label="z"];
3 -> 13  [label="x"];
3 -> 2  [label="y"];
3 -> 15  [label="z"];
4 -> 14  [label="x"];
4 -> 12  [label="y"];
4 -> 0  [label="z"];
5 -> 6  [label="x"];
5 -> 9  [label="y"];
5 -> 7  [label="z"];
6 -> 3  [label="x"];
6 -> 12  [label="y"];
6 -> 0  [label="z"];
7 -> 11  [label="x"];
7 -> 7  [label="z"];
7 -> 4  [label="y"];
8 -> 5  [label="x"];
8 -> 10  [label="y"];
8 -> 11  [label="z"];
9 -> 7  [label="x"];
9 -> 6  [label="y"];
9 -> 4  [label="z"];
10 -> 5  [label="x"];
10 -> 5  [label="y"];
10 -> 13  [label="z"];
11 -> 14  [label="x"];
11 -> 4  [label="y"];
11 -> 3  [label="z"];
12 -> 10  [label="x"];
12 -> 5  [label="y"];
12 -> 0  [label="z"];
13 -> 9  [label="x"];
13 -> 13  [label="y"];
13 -> 11  [label="z"];
14 -> 12  [label="y"];
14 -> 11  [label="z"];
14 -> 14  [label="x"];
15 -> 11  [label="x"];
15 -> 4  [label="y"];
15 -> 13  [label="z"];
__start0 [label="", shape=none];
__start0 -> 1  [label=""];
}
