digraph "benchmarks-true-state-lstar-3seeds/n_states=17-n_outputs=6-glitch_percent=0.05/ac9ce36246d043b7d8e187ff31780c74/RealModel" {
s1 [label="s1|a", shape=record, style=rounded];
s2 [label="s2|c", shape=record, style=rounded];
s3 [label="s3|d", shape=record, style=rounded];
s4 [label="s4|a", shape=record, style=rounded];
s5 [label="s5|c", shape=record, style=rounded];
s6 [label="s6|e", shape=record, style=rounded];
s7 [label="s7|e", shape=record, style=rounded];
s8 [label="s8|a", shape=record, style=rounded];
s9 [label="s9|f", shape=record, style=rounded];
s10 [label="s10|a", shape=record, style=rounded];
s11 [label="s11|f", shape=record, style=rounded];
s12 [label="s12|c", shape=record, style=rounded];
s13 [label="s13|b", shape=record, style=rounded];
s14 [label="s14|d", shape=record, style=rounded];
s15 [label="s15|f", shape=record, style=rounded];
s16 [label="s16|a", shape=record, style=rounded];
s17 [label="s17|f", shape=record, style=rounded];
s1 -> s9  [label="x"];
s1 -> s16  [label="y"];
s1 -> s12  [label="z"];
s2 -> s11  [label="x"];
s2 -> s5  [label="y"];
s2 -> s16  [label="z"];
s3 -> s5  [label="x"];
s3 -> s1  [label="y"];
s3 -> s7  [label="z"];
s4 -> s13  [label="x"];
s4 -> s9  [label="y"];
s4 -> s1  [label="z"];
s5 -> s16  [label="x"];
s5 -> s7  [label="y"];
s5 -> s14  [label="z"];
s6 -> s17  [label="x"];
s6 -> s13  [label="y"];
s6 -> s10  [label="z"];
s7 -> s8  [label="x"];
s7 -> s11  [label="y"];
s7 -> s9  [label="z"];
s8 -> s13  [label="x"];
s8 -> s2  [label="y"];
s8 -> s14  [label="z"];
s9 -> s6  [label="x"];
s9 -> s14  [label="y"];
s9 -> s8  [label="z"];
s10 -> s14  [label="x"];
s10 -> s11  [label="y"];
s10 -> s3  [label="z"];
s11 -> s7  [label="x"];
s11 -> s3  [label="y"];
s11 -> s9  [label="z"];
s12 -> s15  [label="x"];
s12 -> s4  [label="y"];
s12 -> s3  [label="z"];
s13 -> s2  [label="x"];
s13 -> s12  [label="y"];
s13 -> s2  [label="z"];
s14 -> s5  [label="x"];
s14 -> s12  [label="y"];
s14 -> s9  [label="z"];
s15 -> s14  [label="x"];
s15 -> s16  [label="y"];
s15 -> s16  [label="z"];
s16 -> s11  [label="x"];
s16 -> s2  [label="y"];
s16 -> s7  [label="z"];
s17 -> s3  [label="x"];
s17 -> s10  [label="y"];
s17 -> s3  [label="z"];
__start0 [label="", shape=none];
__start0 -> s1  [label=""];
}
