digraph "benchmarks-true-state-lstar-3seeds/n_states=17-n_outputs=5-glitch_percent=0.05/26830e14b0d8bc1be01c01d4fee9dcef/pmsatLearned-N17-STOC" {
0 [label="0|b", shape=record, style=rounded];
1 [label="1|c", shape=record, style=rounded];
2 [label="2|d", shape=record, style=rounded];
3 [label="3|e", shape=record, style=rounded];
4 [label="4|b", shape=record, style=rounded];
5 [label="5|e", shape=record, style=rounded];
6 [label="6|b", shape=record, style=rounded];
7 [label="7|c", shape=record, style=rounded];
8 [label="8|d", shape=record, style=rounded];
9 [label="9|b", shape=record, style=rounded];
10 [label="10|e", shape=record, style=rounded];
11 [label="11|e", shape=record, style=rounded];
12 [label="12|e", shape=record, style=rounded];
13 [label="13|d", shape=record, style=rounded];
14 [label="14|c", shape=record, style=rounded];
15 [label="15|e", shape=record, style=rounded];
16 [label="16|e", shape=record, style=rounded];
0 -> 5  [label="z (58)"];
0 -> 1  [label="y (55)"];
0 -> 11  [label="x (98)"];
0 -> 4  [label="!y [1]"];
0 -> 3  [label="!z [1]"];
0 -> 3  [label="!x [1]"];
1 -> 7  [label="x (17)"];
1 -> 13  [label="y (15)"];
1 -> 6  [label="z (16)"];
1 -> 9  [label="!x [1]"];
2 -> 7  [label="x (5)"];
2 -> 8  [label="y (5)"];
2 -> 9  [label="z (4)"];
3 -> 5  [label="z (8)"];
3 -> 8  [label="y (5)"];
3 -> 4  [label="x (3)"];
4 -> 8  [label="x (6)"];
4 -> 11  [label="y (9)"];
4 -> 5  [label="z (8)"];
5 -> 15  [label="x (23)"];
5 -> 8  [label="y (23)"];
5 -> 10  [label="z (17)"];
5 -> 7  [label="!z [1]"];
5 -> 6  [label="!x [1]"];
6 -> 5  [label="x (5)"];
6 -> 0  [label="y (5)"];
6 -> 14  [label="z (5)"];
7 -> 7  [label="x (8)"];
7 -> 0  [label="y (8)"];
7 -> 12  [label="z (9)"];
7 -> 3  [label="!x [1]"];
8 -> 9  [label="x (7)"];
8 -> 7  [label="y (8)"];
8 -> 4  [label="z (8)"];
9 -> 4  [label="x (19)"];
9 -> 5  [label="y (9)"];
9 -> 10  [label="z (7)"];
10 -> 15  [label="x (6)"];
10 -> 11  [label="y (6)"];
10 -> 7  [label="z (6)"];
11 -> 9  [label="y (28)"];
11 -> 16  [label="z (16)"];
11 -> 12  [label="x (51)"];
11 -> 2  [label="!z [1]"];
11 -> 14  [label="!y [1]"];
11 -> 5  [label="!x [1]"];
12 -> 3  [label="x (15)"];
12 -> 14  [label="y (17)"];
12 -> 2  [label="z (18)"];
12 -> 11  [label="!z [1]"];
12 -> 9  [label="!x [1]"];
13 -> 4  [label="x (4)"];
13 -> 9  [label="y (5)"];
13 -> 9  [label="z (4)"];
14 -> 0  [label="x (7)"];
14 -> 14  [label="y (8)"];
14 -> 12  [label="z (7)"];
15 -> 14  [label="x (7)"];
15 -> 10  [label="y (8)"];
15 -> 15  [label="z (7)"];
16 -> 0  [label="x (4)"];
16 -> 3  [label="y (3)"];
16 -> 4  [label="z (3)"];
__start0 [label="", shape=none];
__start0 -> 0  [label=""];
}
