digraph "benchmarks-true-state-lstar-rc10seeds/n_states=8-n_outputs=3-glitch_percent=0.02/5af398b77b9c3e539a36e87e2e67d46f/pmsatLearned_NOP-N8" {
0 [label="0|b", shape=record, style=rounded];
1 [label="1|b", shape=record, style=rounded];
2 [label="2|a", shape=record, style=rounded];
3 [label="3|c", shape=record, style=rounded];
4 [label="4|b", shape=record, style=rounded];
5 [label="5|b", shape=record, style=rounded];
6 [label="6|a", shape=record, style=rounded];
7 [label="7|c", shape=record, style=rounded];
0 -> 2  [label="x"];
0 -> 7  [label="y"];
0 -> 7  [label="z"];
1 -> 5  [label="z"];
1 -> 3  [label="y"];
1 -> 7  [label="x"];
2 -> 2  [label="x"];
2 -> 1  [label="y"];
2 -> 5  [label="z"];
3 -> 2  [label="x"];
3 -> 1  [label="y"];
3 -> 5  [label="z"];
4 -> 6  [label="x"];
4 -> 3  [label="y"];
4 -> 0  [label="z"];
5 -> 6  [label="x"];
5 -> 1  [label="y"];
5 -> 3  [label="z"];
6 -> 6  [label="x"];
6 -> 6  [label="y"];
6 -> 5  [label="z"];
7 -> 0  [label="x"];
7 -> 4  [label="y"];
7 -> 6  [label="z"];
__start0 [label="", shape=none];
__start0 -> 1  [label=""];
}
