digraph "benchmarks-true-state-lstar-songp/n_states=9-n_outputs=8-glitch_percent=0.0-pmstrat='rc2'/3a407c81e48a408b3fb31033796a9b1b/pmsatLearned-N9-STOC" {
0 [label="0|a", shape=record, style=rounded];
1 [label="1|b", shape=record, style=rounded];
2 [label="2|c", shape=record, style=rounded];
3 [label="3|e", shape=record, style=rounded];
4 [label="4|f", shape=record, style=rounded];
5 [label="5|h", shape=record, style=rounded];
6 [label="6|h", shape=record, style=rounded];
7 [label="7|a", shape=record, style=rounded];
8 [label="8|h", shape=record, style=rounded];
0 -> 5  [label="z (20)"];
0 -> 1  [label="y (44)"];
0 -> 6  [label="x (56)"];
1 -> 3  [label="x (17)"];
1 -> 4  [label="y (17)"];
1 -> 3  [label="z (5)"];
2 -> 7  [label="x (10)"];
2 -> 4  [label="y (10)"];
2 -> 2  [label="z (10)"];
3 -> 8  [label="x (9)"];
3 -> 3  [label="y (9)"];
3 -> 0  [label="z (9)"];
4 -> 0  [label="x (6)"];
4 -> 2  [label="y (6)"];
4 -> 0  [label="z (6)"];
5 -> 3  [label="x (5)"];
5 -> 8  [label="y (5)"];
5 -> 2  [label="z (5)"];
6 -> 7  [label="x (18)"];
6 -> 8  [label="y (18)"];
6 -> 2  [label="z (18)"];
7 -> 3  [label="x (7)"];
7 -> 2  [label="y (7)"];
7 -> 7  [label="z (7)"];
8 -> 6  [label="x (8)"];
8 -> 2  [label="y (8)"];
8 -> 8  [label="z (8)"];
__start0 [label="", shape=none];
__start0 -> 0  [label=""];
}
