digraph "benchmarks-true-state-lstar-songp/n_states=9-n_outputs=3-glitch_percent=0.05-pmstrat='fm'/cfb4518feb78d4459cef7a433bfa4a26/pmsatLearned-N9-STOC" {
0 [label="0|a", shape=record, style=rounded];
1 [label="1|b", shape=record, style=rounded];
2 [label="2|c", shape=record, style=rounded];
3 [label="3|a", shape=record, style=rounded];
4 [label="4|b", shape=record, style=rounded];
5 [label="5|b", shape=record, style=rounded];
6 [label="6|c", shape=record, style=rounded];
7 [label="7|a", shape=record, style=rounded];
8 [label="8|c", shape=record, style=rounded];
0 -> 1  [label="z (16)"];
0 -> 4  [label="y (40)"];
0 -> 7  [label="x (51)"];
0 -> 2  [label="!x [1]"];
0 -> 2  [label="!z [1]"];
0 -> 8  [label="!y [1]"];
1 -> 2  [label="x (5)"];
1 -> 2  [label="y (6)"];
1 -> 8  [label="z (6)"];
2 -> 8  [label="x (9)"];
2 -> 7  [label="y (10)"];
2 -> 6  [label="z (8)"];
3 -> 8  [label="x (4)"];
3 -> 2  [label="y (4)"];
3 -> 7  [label="z (4)"];
3 -> 2  [label="!z [2]"];
4 -> 3  [label="x (16)"];
4 -> 8  [label="y (16)"];
4 -> 7  [label="z (5)"];
5 -> 2  [label="x (8)"];
5 -> 8  [label="y (8)"];
5 -> 5  [label="z (8)"];
6 -> 0  [label="x (5)"];
6 -> 5  [label="y (5)"];
6 -> 5  [label="z (7)"];
7 -> 6  [label="x (20)"];
7 -> 2  [label="z (18)"];
7 -> 5  [label="y (19)"];
8 -> 1  [label="x (10)"];
8 -> 8  [label="y (9)"];
8 -> 2  [label="z (9)"];
__start0 [label="", shape=none];
__start0 -> 0  [label=""];
}
