digraph "benchmarks-true-state-lstar-3seeds/n_states=8-n_outputs=6-glitch_percent=0.0/7263ae9db57133f5ae6c36b223cdaa71/pmsatLearned-N8-STOC" {
0 [label="0|a", shape=record, style=rounded];
1 [label="1|b", shape=record, style=rounded];
2 [label="2|d", shape=record, style=rounded];
3 [label="3|e", shape=record, style=rounded];
4 [label="4|f", shape=record, style=rounded];
5 [label="5|a", shape=record, style=rounded];
6 [label="6|e", shape=record, style=rounded];
7 [label="7|e", shape=record, style=rounded];
0 -> 7  [label="z (19)"];
0 -> 4  [label="y (31)"];
0 -> 5  [label="x (55)"];
1 -> 2  [label="x (7)"];
1 -> 4  [label="y (7)"];
1 -> 6  [label="z (7)"];
2 -> 2  [label="x (8)"];
2 -> 4  [label="y (8)"];
2 -> 7  [label="z (8)"];
3 -> 7  [label="x (6)"];
3 -> 2  [label="y (6)"];
3 -> 7  [label="z (6)"];
4 -> 1  [label="x (19)"];
4 -> 0  [label="y (7)"];
4 -> 0  [label="z (7)"];
5 -> 2  [label="x (19)"];
5 -> 6  [label="y (19)"];
5 -> 3  [label="z (19)"];
6 -> 1  [label="x (6)"];
6 -> 5  [label="y (6)"];
6 -> 7  [label="z (6)"];
7 -> 5  [label="x (9)"];
7 -> 3  [label="y (9)"];
7 -> 1  [label="z (9)"];
__start0 [label="", shape=none];
__start0 -> 0  [label=""];
}
