digraph "benchmarks-true-state-lstar-3seeds/n_states=11-n_outputs=3-glitch_percent=0.0/6e10481e538fb730a91b6f6377388344/pmsatLearned-N11" {
0 [label="0|a", shape=record, style=rounded];
1 [label="1|b", shape=record, style=rounded];
2 [label="2|c", shape=record, style=rounded];
3 [label="3|c", shape=record, style=rounded];
4 [label="4|c", shape=record, style=rounded];
5 [label="5|c", shape=record, style=rounded];
6 [label="6|b", shape=record, style=rounded];
7 [label="7|c", shape=record, style=rounded];
8 [label="8|c", shape=record, style=rounded];
9 [label="9|b", shape=record, style=rounded];
10 [label="10|b", shape=record, style=rounded];
0 -> 5  [label="x"];
0 -> 10  [label="y"];
0 -> 8  [label="z"];
1 -> 4  [label="x"];
1 -> 2  [label="y"];
1 -> 1  [label="z"];
2 -> 1  [label="z"];
2 -> 9  [label="y"];
2 -> 0  [label="x"];
3 -> 5  [label="x"];
3 -> 2  [label="y"];
3 -> 1  [label="z"];
4 -> 10  [label="x"];
4 -> 6  [label="y"];
4 -> 5  [label="z"];
5 -> 7  [label="x"];
5 -> 4  [label="y"];
5 -> 7  [label="z"];
6 -> 1  [label="x"];
6 -> 6  [label="y"];
6 -> 10  [label="z"];
7 -> 8  [label="x"];
7 -> 9  [label="y"];
7 -> 0  [label="z"];
8 -> 1  [label="x"];
8 -> 6  [label="y"];
8 -> 10  [label="z"];
9 -> 6  [label="x"];
9 -> 3  [label="y"];
9 -> 7  [label="z"];
10 -> 7  [label="x"];
10 -> 9  [label="y"];
10 -> 9  [label="z"];
__start0 [label="", shape=none];
__start0 -> 2  [label=""];
}
