digraph alergiaLearned {
q0 [label="b"];
q1 [label="d"];
q2 [label="e"];
q3 [label="d"];
q4 [label="b"];
q5 [label="a"];
q6 [label="b"];
q7 [label="c"];
q8 [label="a"];
q9 [label="e"];
q10 [label="d"];
q0 -> q1  [label="z:0.9642857142857143"];
q0 -> q5  [label="z:0.017857142857142856"];
q0 -> q0  [label="z:0.017857142857142856"];
q0 -> q2  [label="y:0.9298245614035088"];
q0 -> q0  [label="y:0.017543859649122806"];
q0 -> q5  [label="y:0.05263157894736842"];
q0 -> q3  [label="x:0.9444444444444444"];
q0 -> q4  [label="x:0.046296296296296294"];
q0 -> q5  [label="x:0.009259259259259259"];
q1 -> q6  [label="x:0.7142857142857143"];
q1 -> q5  [label="x:0.19047619047619047"];
q1 -> q1  [label="x:0.047619047619047616"];
q1 -> q7  [label="x:0.047619047619047616"];
q1 -> q5  [label="y:0.9565217391304348"];
q1 -> q0  [label="y:0.043478260869565216"];
q1 -> q4  [label="z:0.8"];
q1 -> q5  [label="z:0.2"];
q2 -> q7  [label="x:0.9523809523809523"];
q2 -> q5  [label="x:0.047619047619047616"];
q2 -> q7  [label="y:0.9523809523809523"];
q2 -> q2  [label="y:0.047619047619047616"];
q2 -> q5  [label="z:0.95"];
q2 -> q2  [label="z:0.05"];
q3 -> q8  [label="x:1.0"];
q3 -> q5  [label="y:1.0"];
q3 -> q5  [label="z:1.0"];
q4 -> q1  [label="z:1.0"];
q4 -> q0  [label="x:1.0"];
q4 -> q5  [label="y:1.0"];
q5 -> q9  [label="y:0.25"];
q5 -> q0  [label="y:0.25"];
q5 -> q1  [label="y:0.21428571428571427"];
q5 -> q5  [label="y:0.25"];
q5 -> q7  [label="y:0.03571428571428571"];
q5 -> q1  [label="x:0.8205128205128205"];
q5 -> q7  [label="x:0.15384615384615385"];
q5 -> q2  [label="x:0.02564102564102564"];
q5 -> q2  [label="z:0.3225806451612903"];
q5 -> q0  [label="z:0.22580645161290322"];
q5 -> q10  [label="z:0.03225806451612903"];
q5 -> q7  [label="z:0.1935483870967742"];
q5 -> q5  [label="z:0.22580645161290322"];
q6 -> q5  [label="x:1.0"];
q6 -> q0  [label="y:1.0"];
q6 -> q0  [label="z:1.0"];
q7 -> q5  [label="x:0.6111111111111112"];
q7 -> q7  [label="x:0.3888888888888889"];
q7 -> q2  [label="y:0.7222222222222222"];
q7 -> q1  [label="y:0.2777777777777778"];
q7 -> q5  [label="z:0.7222222222222222"];
q7 -> q0  [label="z:0.2777777777777778"];
q8 -> q9  [label="x:1.0"];
q8 -> q7  [label="y:1.0"];
q8 -> q9  [label="z:1.0"];
q9 -> q3  [label="x:0.08333333333333333"];
q9 -> q7  [label="x:0.5"];
q9 -> q5  [label="x:0.4166666666666667"];
q9 -> q2  [label="y:0.5454545454545454"];
q9 -> q7  [label="y:0.45454545454545453"];
q9 -> q5  [label="z:0.5"];
q9 -> q2  [label="z:0.5"];
q10 -> q0  [label="y:1.0"];
__start0 [label="", shape=none];
__start0 -> q0  [label=""];
}
