digraph "benchmarks-true-state-lstar-rc10seeds/n_states=7-n_outputs=6-glitch_percent=0.01/57b6574b58d5774f48dc06f6cf0e7306/pmsatLearned_NOP-N7-STOC" {
0 [label="0|e", shape=record, style=rounded];
1 [label="1|c", shape=record, style=rounded];
2 [label="2|e", shape=record, style=rounded];
3 [label="3|d", shape=record, style=rounded];
4 [label="4|a", shape=record, style=rounded];
5 [label="5|c", shape=record, style=rounded];
6 [label="6|d", shape=record, style=rounded];
0 -> 3  [label="x (19)"];
0 -> 4  [label="y (19)"];
0 -> 6  [label="z (18)"];
1 -> 2  [label="z (20)"];
1 -> 5  [label="y (21)"];
1 -> 0  [label="x (56)"];
1 -> 6  [label="!z [1]"];
2 -> 1  [label="x (6)"];
2 -> 3  [label="y (7)"];
2 -> 5  [label="z (7)"];
2 -> 2  [label="!z [1]"];
3 -> 0  [label="x (7)"];
3 -> 2  [label="y (7)"];
3 -> 6  [label="z (7)"];
4 -> 1  [label="x (6)"];
4 -> 5  [label="y (6)"];
4 -> 3  [label="z (6)"];
5 -> 2  [label="x (7)"];
5 -> 1  [label="y (7)"];
5 -> 1  [label="z (7)"];
6 -> 6  [label="x (7)"];
6 -> 0  [label="y (7)"];
6 -> 4  [label="z (7)"];
__start0 [label="", shape=none];
__start0 -> 1  [label=""];
}
