digraph "benchmarks-true-state-lstar-3seeds/n_states=16-n_outputs=7-glitch_percent=0.01/d145b3b33215a80233a47ecedbce0baa/RealModel" {
s1 [label="s1|b", shape=record, style=rounded];
s2 [label="s2|g", shape=record, style=rounded];
s3 [label="s3|e", shape=record, style=rounded];
s4 [label="s4|e", shape=record, style=rounded];
s5 [label="s5|b", shape=record, style=rounded];
s6 [label="s6|b", shape=record, style=rounded];
s7 [label="s7|g", shape=record, style=rounded];
s8 [label="s8|b", shape=record, style=rounded];
s9 [label="s9|g", shape=record, style=rounded];
s10 [label="s10|e", shape=record, style=rounded];
s11 [label="s11|c", shape=record, style=rounded];
s12 [label="s12|g", shape=record, style=rounded];
s13 [label="s13|d", shape=record, style=rounded];
s14 [label="s14|e", shape=record, style=rounded];
s15 [label="s15|d", shape=record, style=rounded];
s16 [label="s16|f", shape=record, style=rounded];
s1 -> s13  [label="x"];
s1 -> s10  [label="y"];
s1 -> s11  [label="z"];
s2 -> s14  [label="x"];
s2 -> s14  [label="y"];
s2 -> s7  [label="z"];
s3 -> s12  [label="x"];
s3 -> s4  [label="y"];
s3 -> s16  [label="z"];
s4 -> s2  [label="x"];
s4 -> s4  [label="y"];
s4 -> s4  [label="z"];
s5 -> s6  [label="x"];
s5 -> s12  [label="y"];
s5 -> s15  [label="z"];
s6 -> s6  [label="x"];
s6 -> s15  [label="y"];
s6 -> s1  [label="z"];
s7 -> s16  [label="x"];
s7 -> s6  [label="y"];
s7 -> s12  [label="z"];
s8 -> s7  [label="x"];
s8 -> s1  [label="y"];
s8 -> s15  [label="z"];
s9 -> s1  [label="x"];
s9 -> s14  [label="y"];
s9 -> s2  [label="z"];
s10 -> s8  [label="x"];
s10 -> s12  [label="y"];
s10 -> s4  [label="z"];
s11 -> s6  [label="x"];
s11 -> s2  [label="y"];
s11 -> s3  [label="z"];
s12 -> s6  [label="x"];
s12 -> s16  [label="y"];
s12 -> s1  [label="z"];
s13 -> s15  [label="x"];
s13 -> s7  [label="y"];
s13 -> s16  [label="z"];
s14 -> s16  [label="x"];
s14 -> s4  [label="y"];
s14 -> s15  [label="z"];
s15 -> s5  [label="x"];
s15 -> s14  [label="y"];
s15 -> s9  [label="z"];
s16 -> s10  [label="x"];
s16 -> s12  [label="y"];
s16 -> s15  [label="z"];
__start0 [label="", shape=none];
__start0 -> s1  [label=""];
}
