digraph "benchmarks-true-state-lstar-songp/n_states=6-n_outputs=4-glitch_percent=0.05-pmstrat='lsu'/5f9a494a77d0ff8a535f17807d8b4c4d/pmsatLearned-N6-STOC" {
0 [label="0|a", shape=record, style=rounded];
1 [label="1|b", shape=record, style=rounded];
2 [label="2|c", shape=record, style=rounded];
3 [label="3|d", shape=record, style=rounded];
4 [label="4|c", shape=record, style=rounded];
5 [label="5|a", shape=record, style=rounded];
0 -> 3  [label="z (19)"];
0 -> 5  [label="y (20)"];
0 -> 2  [label="!y [1]"];
0 -> 2  [label="x (43)"];
0 -> 0  [label="!z [1]"];
0 -> 4  [label="!x [2]"];
1 -> 3  [label="x (6)"];
1 -> 4  [label="y (6)"];
1 -> 0  [label="z (6)"];
2 -> 4  [label="x (17)"];
2 -> 1  [label="y (20)"];
2 -> 2  [label="z (7)"];
2 -> 0  [label="!z [1]"];
3 -> 3  [label="x (8)"];
3 -> 3  [label="y (7)"];
3 -> 4  [label="z (6)"];
3 -> 0  [label="!y [1]"];
4 -> 0  [label="x (7)"];
4 -> 0  [label="y (6)"];
4 -> 0  [label="z (5)"];
5 -> 1  [label="x (5)"];
5 -> 2  [label="z (5)"];
5 -> 2  [label="y (4)"];
__start0 [label="", shape=none];
__start0 -> 0  [label=""];
}
