digraph "benchmarks-true-state-lstar-rc10seeds/n_states=16-n_outputs=8-glitch_percent=0.01/192257bcee90329eb23f4dde86f05428/pmsatLearned_NOP-N16-STOC" {
0 [label="0|a", shape=record, style=rounded];
1 [label="1|f", shape=record, style=rounded];
2 [label="2|f", shape=record, style=rounded];
3 [label="3|d", shape=record, style=rounded];
4 [label="4|d", shape=record, style=rounded];
5 [label="5|e", shape=record, style=rounded];
6 [label="6|g", shape=record, style=rounded];
7 [label="7|c", shape=record, style=rounded];
8 [label="8|a", shape=record, style=rounded];
9 [label="9|d", shape=record, style=rounded];
10 [label="10|e", shape=record, style=rounded];
11 [label="11|h", shape=record, style=rounded];
12 [label="12|b", shape=record, style=rounded];
13 [label="13|g", shape=record, style=rounded];
14 [label="14|g", shape=record, style=rounded];
15 [label="15|e", shape=record, style=rounded];
0 -> 0  [label="x (9)"];
0 -> 15  [label="y (9)"];
0 -> 4  [label="z (8)"];
1 -> 3  [label="x (6)"];
1 -> 12  [label="y (5)"];
1 -> 12  [label="z (6)"];
1 -> 0  [label="!x [1]"];
2 -> 3  [label="x (6)"];
2 -> 7  [label="y (6)"];
2 -> 4  [label="z (6)"];
3 -> 12  [label="z (57)"];
3 -> 6  [label="y (57)"];
3 -> 7  [label="x (93)"];
4 -> 0  [label="x (10)"];
4 -> 3  [label="y (10)"];
4 -> 12  [label="z (9)"];
5 -> 6  [label="x (6)"];
5 -> 0  [label="y (6)"];
5 -> 3  [label="z (6)"];
6 -> 1  [label="x (18)"];
6 -> 14  [label="y (18)"];
6 -> 11  [label="z (18)"];
7 -> 10  [label="x (55)"];
7 -> 2  [label="y (19)"];
7 -> 15  [label="z (19)"];
8 -> 12  [label="x (5)"];
8 -> 2  [label="y (4)"];
8 -> 1  [label="z (5)"];
9 -> 7  [label="x (6)"];
9 -> 15  [label="y (6)"];
9 -> 4  [label="z (6)"];
10 -> 5  [label="x (18)"];
10 -> 13  [label="y (16)"];
10 -> 8  [label="z (16)"];
10 -> 2  [label="!y [1]"];
11 -> 15  [label="x (6)"];
11 -> 13  [label="y (6)"];
11 -> 14  [label="z (6)"];
12 -> 0  [label="x (20)"];
12 -> 4  [label="y (22)"];
12 -> 9  [label="z (23)"];
13 -> 5  [label="x (6)"];
13 -> 12  [label="y (7)"];
13 -> 9  [label="z (7)"];
14 -> 11  [label="x (7)"];
14 -> 14  [label="y (6)"];
14 -> 4  [label="z (7)"];
15 -> 4  [label="x (8)"];
15 -> 13  [label="y (8)"];
15 -> 0  [label="z (8)"];
__start0 [label="", shape=none];
__start0 -> 3  [label=""];
}
