digraph "benchmarks-true-state-lstar-3seeds/n_states=7-n_outputs=4-glitch_percent=0.01/6032d3eed19c1e3ae00ca293cb961a0c/rpniGroundTruth" {
s0 [label="s0|b", shape=record, style=rounded];
s1 [label="s1|b", shape=record, style=rounded];
s2 [label="s2|d", shape=record, style=rounded];
s3 [label="s3|d", shape=record, style=rounded];
s4 [label="s4|b", shape=record, style=rounded];
s5 [label="s5|b", shape=record, style=rounded];
s6 [label="s6|c", shape=record, style=rounded];
s0 -> s1  [label="z"];
s0 -> s2  [label="y"];
s0 -> s3  [label="x"];
s1 -> s0  [label="z"];
s1 -> s0  [label="x"];
s1 -> s3  [label="y"];
s2 -> s1  [label="y"];
s2 -> s2  [label="z"];
s2 -> s4  [label="x"];
s3 -> s5  [label="z"];
s3 -> s6  [label="x"];
s3 -> s4  [label="y"];
s4 -> s2  [label="z"];
s4 -> s0  [label="x"];
s4 -> s1  [label="y"];
s5 -> s3  [label="x"];
s5 -> s5  [label="y"];
s5 -> s4  [label="z"];
s6 -> s4  [label="z"];
s6 -> s0  [label="x"];
s6 -> s6  [label="y"];
__start0 [label="", shape=none];
__start0 -> s0  [label=""];
}
