digraph "benchmarks-true-state-lstar-3seeds/n_states=13-n_outputs=7-glitch_percent=0.05/bddb785f9fa774c85ae54ce3b5000544/pmsatLearned-N13-STOC" {
0 [label="0|a", shape=record, style=rounded];
1 [label="1|c", shape=record, style=rounded];
2 [label="2|d", shape=record, style=rounded];
3 [label="3|e", shape=record, style=rounded];
4 [label="4|f", shape=record, style=rounded];
5 [label="5|g", shape=record, style=rounded];
6 [label="6|e", shape=record, style=rounded];
7 [label="7|g", shape=record, style=rounded];
8 [label="8|a", shape=record, style=rounded];
9 [label="9|c", shape=record, style=rounded];
10 [label="10|g", shape=record, style=rounded];
11 [label="11|a", shape=record, style=rounded];
12 [label="12|a", shape=record, style=rounded];
0 -> 11  [label="z (55)"];
0 -> 1  [label="!z [1]"];
0 -> 5  [label="y (50)"];
0 -> 7  [label="x (53)"];
0 -> 9  [label="!z [2]"];
0 -> 4  [label="!x [1]"];
1 -> 8  [label="x (7)"];
1 -> 2  [label="y (6)"];
1 -> 1  [label="z (6)"];
2 -> 4  [label="x (5)"];
2 -> 7  [label="y (5)"];
2 -> 1  [label="z (6)"];
2 -> 11  [label="!y [1]"];
3 -> 4  [label="x (5)"];
3 -> 6  [label="y (5)"];
3 -> 8  [label="z (5)"];
4 -> 6  [label="x (8)"];
4 -> 0  [label="y (5)"];
4 -> 11  [label="z (6)"];
4 -> 5  [label="!y [1]"];
5 -> 8  [label="y (21)"];
5 -> 9  [label="z (14)"];
5 -> 10  [label="x (16)"];
5 -> 10  [label="!z [1]"];
6 -> 10  [label="x (10)"];
6 -> 12  [label="y (10)"];
6 -> 11  [label="z (10)"];
7 -> 4  [label="x (16)"];
7 -> 1  [label="y (18)"];
7 -> 12  [label="z (20)"];
8 -> 9  [label="x (8)"];
8 -> 4  [label="y (8)"];
8 -> 6  [label="z (7)"];
9 -> 12  [label="x (6)"];
9 -> 0  [label="z (6)"];
9 -> 12  [label="y (4)"];
10 -> 5  [label="x (6)"];
10 -> 7  [label="y (5)"];
10 -> 5  [label="z (5)"];
11 -> 3  [label="x (19)"];
11 -> 6  [label="y (19)"];
11 -> 2  [label="z (15)"];
11 -> 7  [label="!y [1]"];
11 -> 6  [label="!z [1]"];
12 -> 6  [label="x (8)"];
12 -> 8  [label="y (8)"];
12 -> 6  [label="z (6)"];
__start0 [label="", shape=none];
__start0 -> 0  [label=""];
}
