digraph "benchmarks-true-state-lstar-3seeds/n_states=9-n_outputs=7-glitch_percent=0.05/5e0252329c5cbedafe7ef8b751e5a53e/alergiaLearned" {
q0 [label="c"];
q1 [label="c"];
q2 [label="d"];
q3 [label="c"];
q4 [label="e"];
q5 [label="a"];
q6 [label="d"];
q0 -> q1  [label="z:0.9615384615384616"];
q0 -> q4  [label="z:0.038461538461538464"];
q0 -> q2  [label="y:0.9333333333333333"];
q0 -> q4  [label="y:0.06666666666666667"];
q0 -> q3  [label="x:0.9855072463768116"];
q0 -> q5  [label="x:0.014492753623188406"];
q1 -> q2  [label="x:0.6666666666666666"];
q1 -> q5  [label="x:0.3333333333333333"];
q1 -> q1  [label="y:0.875"];
q1 -> q4  [label="y:0.125"];
q1 -> q4  [label="z:1.0"];
q2 -> q6  [label="x:1.0"];
q2 -> q4  [label="y:1.0"];
q2 -> q0  [label="z:1.0"];
q3 -> q5  [label="x:0.8"];
q3 -> q4  [label="x:0.05"];
q3 -> q0  [label="x:0.15"];
q3 -> q4  [label="y:1.0"];
q3 -> q4  [label="z:0.9565217391304348"];
q3 -> q1  [label="z:0.043478260869565216"];
q4 -> q4  [label="x:1.0"];
q4 -> q4  [label="z:0.7407407407407407"];
q4 -> q1  [label="z:0.25925925925925924"];
q4 -> q4  [label="y:1.0"];
q5 -> q1  [label="z:1.0"];
q5 -> q0  [label="x:1.0"];
q5 -> q4  [label="y:1.0"];
q6 -> q4  [label="x:0.875"];
q6 -> q1  [label="x:0.125"];
q6 -> q0  [label="y:1.0"];
q6 -> q4  [label="z:1.0"];
__start0 [label="", shape=none];
__start0 -> q0  [label=""];
}
