digraph "benchmarks-true-state-lstar-rc10seeds/n_states=10-n_outputs=6-glitch_percent=0.0/f38cb0c021a12326db43ea5c74f41d32/pmsatLearned_NOP-N10-STOC" {
0 [label="0|a", shape=record, style=rounded];
1 [label="1|c", shape=record, style=rounded];
2 [label="2|c", shape=record, style=rounded];
3 [label="3|d", shape=record, style=rounded];
4 [label="4|a", shape=record, style=rounded];
5 [label="5|a", shape=record, style=rounded];
6 [label="6|c", shape=record, style=rounded];
7 [label="7|c", shape=record, style=rounded];
8 [label="8|d", shape=record, style=rounded];
9 [label="9|d", shape=record, style=rounded];
0 -> 1  [label="x (7)"];
0 -> 2  [label="y (6)"];
0 -> 2  [label="z (6)"];
1 -> 2  [label="z (32)"];
1 -> 7  [label="y (69)"];
1 -> 3  [label="x (78)"];
2 -> 5  [label="x (17)"];
2 -> 8  [label="y (11)"];
2 -> 7  [label="z (11)"];
3 -> 8  [label="x (28)"];
3 -> 4  [label="y (25)"];
3 -> 5  [label="z (36)"];
4 -> 6  [label="x (8)"];
4 -> 8  [label="y (6)"];
4 -> 1  [label="z (6)"];
5 -> 1  [label="x (15)"];
5 -> 8  [label="y (8)"];
5 -> 2  [label="z (16)"];
6 -> 3  [label="x (13)"];
6 -> 6  [label="y (9)"];
6 -> 3  [label="z (15)"];
7 -> 9  [label="x (24)"];
7 -> 6  [label="y (22)"];
7 -> 0  [label="z (22)"];
8 -> 6  [label="x (13)"];
8 -> 3  [label="y (9)"];
8 -> 9  [label="z (13)"];
9 -> 5  [label="x (9)"];
9 -> 2  [label="y (7)"];
9 -> 2  [label="z (9)"];
__start0 [label="", shape=none];
__start0 -> 1  [label=""];
}
