digraph "benchmarks-true-state-lstar-rc10seeds/n_states=13-n_outputs=6-glitch_percent=0.05/28da6683a1dc933a86709c9c32a38c35/pmsatLearned_NOP-N13-STOC" {
0 [label="0|a", shape=record, style=rounded];
1 [label="1|f", shape=record, style=rounded];
2 [label="2|a", shape=record, style=rounded];
3 [label="3|c", shape=record, style=rounded];
4 [label="4|d", shape=record, style=rounded];
5 [label="5|c", shape=record, style=rounded];
6 [label="6|e", shape=record, style=rounded];
7 [label="7|e", shape=record, style=rounded];
8 [label="8|c", shape=record, style=rounded];
9 [label="9|f", shape=record, style=rounded];
10 [label="10|b", shape=record, style=rounded];
11 [label="11|a", shape=record, style=rounded];
12 [label="12|a", shape=record, style=rounded];
0 -> 3  [label="z (50)"];
0 -> 5  [label="y (52)"];
0 -> 1  [label="x (52)"];
0 -> 9  [label="!z [1]"];
0 -> 8  [label="!y [1]"];
0 -> 4  [label="!y [2]"];
0 -> 9  [label="!x [1]"];
1 -> 10  [label="x (19)"];
1 -> 6  [label="y (17)"];
1 -> 9  [label="z (16)"];
1 -> 10  [label="!y [1]"];
2 -> 1  [label="x (5)"];
2 -> 12  [label="y (5)"];
2 -> 2  [label="z (5)"];
3 -> 2  [label="x (18)"];
3 -> 4  [label="y (17)"];
3 -> 12  [label="z (18)"];
3 -> 1  [label="!z [1]"];
3 -> 1  [label="!x [1]"];
4 -> 10  [label="y (6)"];
4 -> 5  [label="z (5)"];
4 -> 9  [label="x (5)"];
5 -> 11  [label="x (19)"];
5 -> 8  [label="y (17)"];
5 -> 7  [label="z (17)"];
5 -> 12  [label="!y [1]"];
6 -> 7  [label="x (7)"];
6 -> 3  [label="y (7)"];
6 -> 7  [label="z (7)"];
7 -> 9  [label="x (9)"];
7 -> 7  [label="y (8)"];
7 -> 3  [label="z (8)"];
8 -> 12  [label="y (6)"];
8 -> 0  [label="z (7)"];
8 -> 12  [label="x (6)"];
9 -> 6  [label="x (8)"];
9 -> 6  [label="z (8)"];
9 -> 10  [label="y (7)"];
10 -> 3  [label="x (7)"];
10 -> 4  [label="y (6)"];
10 -> 5  [label="z (7)"];
10 -> 6  [label="!z [1]"];
11 -> 8  [label="x (5)"];
11 -> 9  [label="y (5)"];
11 -> 7  [label="z (4)"];
12 -> 12  [label="x (7)"];
12 -> 8  [label="y (9)"];
12 -> 1  [label="z (6)"];
__start0 [label="", shape=none];
__start0 -> 0  [label=""];
}
