digraph "benchmarks-true-state-lstar-3seeds/n_states=16-n_outputs=6-glitch_percent=0.01/9b56753f512275764aaf3d01d193b689/rpniGroundTruth" {
s0 [label="s0|c", shape=record, style=rounded];
s1 [label="s1|a", shape=record, style=rounded];
s2 [label="s2|d", shape=record, style=rounded];
s3 [label="s3|c", shape=record, style=rounded];
s4 [label="s4|a", shape=record, style=rounded];
s5 [label="s5|c", shape=record, style=rounded];
s6 [label="s6|c", shape=record, style=rounded];
s7 [label="s7|d", shape=record, style=rounded];
s8 [label="s8|f", shape=record, style=rounded];
s9 [label="s9|c", shape=record, style=rounded];
s10 [label="s10|d", shape=record, style=rounded];
s11 [label="s11|a", shape=record, style=rounded];
s12 [label="s12|c", shape=record, style=rounded];
s13 [label="s13|a", shape=record, style=rounded];
s14 [label="s14|a", shape=record, style=rounded];
s15 [label="s15|a", shape=record, style=rounded];
s0 -> s1  [label="x"];
s0 -> s2  [label="y"];
s0 -> s3  [label="z"];
s1 -> s4  [label="z"];
s1 -> s5  [label="x"];
s1 -> s6  [label="y"];
s2 -> s7  [label="y"];
s2 -> s8  [label="z"];
s2 -> s9  [label="x"];
s3 -> s10  [label="z"];
s3 -> s11  [label="y"];
s3 -> s12  [label="x"];
s4 -> s4  [label="y"];
s4 -> s1  [label="z"];
s4 -> s11  [label="x"];
s5 -> s13  [label="x"];
s5 -> s14  [label="z"];
s5 -> s15  [label="y"];
s6 -> s6  [label="z"];
s6 -> s2  [label="x"];
s6 -> s2  [label="y"];
s7 -> s0  [label="y"];
s7 -> s10  [label="x"];
s7 -> s11  [label="z"];
s8 -> s11  [label="x"];
s8 -> s4  [label="z"];
s8 -> s3  [label="y"];
s9 -> s11  [label="x"];
s9 -> s5  [label="y"];
s9 -> s13  [label="z"];
s10 -> s15  [label="y"];
s10 -> s8  [label="z"];
s10 -> s0  [label="x"];
s11 -> s14  [label="z"];
s11 -> s1  [label="y"];
s11 -> s9  [label="x"];
s12 -> s1  [label="z"];
s12 -> s8  [label="y"];
s12 -> s2  [label="x"];
s13 -> s13  [label="x"];
s13 -> s7  [label="y"];
s13 -> s9  [label="z"];
s14 -> s14  [label="x"];
s14 -> s10  [label="z"];
s14 -> s12  [label="y"];
s15 -> s3  [label="y"];
s15 -> s3  [label="z"];
s15 -> s13  [label="x"];
__start0 [label="", shape=none];
__start0 -> s0  [label=""];
}
