digraph "benchmarks-true-state-lstar-songp/n_states=14-n_outputs=4-glitch_percent=0.0-pmstrat='lsu'/3773f733a729cf318505cadba58c3ecb/pmsatLearned-N14" {
0 [label="0|a", shape=record, style=rounded];
1 [label="1|b", shape=record, style=rounded];
2 [label="2|c", shape=record, style=rounded];
3 [label="3|d", shape=record, style=rounded];
4 [label="4|d", shape=record, style=rounded];
5 [label="5|d", shape=record, style=rounded];
6 [label="6|a", shape=record, style=rounded];
7 [label="7|a", shape=record, style=rounded];
8 [label="8|b", shape=record, style=rounded];
9 [label="9|d", shape=record, style=rounded];
10 [label="10|c", shape=record, style=rounded];
11 [label="11|d", shape=record, style=rounded];
12 [label="12|d", shape=record, style=rounded];
13 [label="13|c", shape=record, style=rounded];
0 -> 2  [label="z"];
0 -> 3  [label="y"];
0 -> 10  [label="x"];
1 -> 1  [label="x"];
1 -> 4  [label="y"];
1 -> 12  [label="z"];
2 -> 5  [label="y"];
2 -> 2  [label="x"];
2 -> 2  [label="z"];
3 -> 10  [label="z"];
3 -> 0  [label="y"];
3 -> 1  [label="x"];
4 -> 5  [label="y"];
4 -> 3  [label="z"];
5 -> 13  [label="x"];
5 -> 11  [label="z"];
5 -> 3  [label="y"];
6 -> 3  [label="x"];
6 -> 2  [label="y"];
6 -> 1  [label="z"];
7 -> 8  [label="x"];
7 -> 0  [label="y"];
7 -> 1  [label="z"];
8 -> 3  [label="x"];
8 -> 2  [label="y"];
8 -> 11  [label="z"];
9 -> 3  [label="y"];
9 -> 0  [label="x"];
9 -> 0  [label="z"];
10 -> 0  [label="x"];
10 -> 1  [label="z"];
10 -> 9  [label="y"];
11 -> 2  [label="x"];
11 -> 1  [label="y"];
11 -> 1  [label="z"];
12 -> 3  [label="x"];
12 -> 10  [label="y"];
12 -> 2  [label="z"];
13 -> 7  [label="z"];
13 -> 8  [label="x"];
13 -> 3  [label="y"];
__start0 [label="", shape=none];
__start0 -> 0  [label=""];
}
