digraph "benchmarks-true-state-lstar-songp/n_states=16-n_outputs=4-glitch_percent=0.05-pmstrat='fm'/fc4c28d19a98ec86cd146a1e5193cc5c/alergiaLearned" {
q0 [label="a"];
q1 [label="a"];
q2 [label="b"];
q3 [label="a"];
q4 [label="d"];
q5 [label="c"];
q6 [label="a"];
q7 [label="b"];
q8 [label="a"];
q0 -> q1  [label="z:0.9272727272727272"];
q0 -> q4  [label="z:0.05454545454545454"];
q0 -> q5  [label="z:0.0"];
q0 -> q2  [label="z:0.01818181818181818"];
q0 -> q2  [label="y:0.940677966101695"];
q0 -> q4  [label="y:0.0423728813559322"];
q0 -> q5  [label="y:0.0"];
q0 -> q1  [label="y:0.01694915254237288"];
q0 -> q3  [label="x:0.9054054054054054"];
q0 -> q5  [label="x:0.060810810810810814"];
q0 -> q4  [label="x:0.033783783783783786"];
q1 -> q4  [label="y:0.9428571428571428"];
q1 -> q5  [label="y:0.05714285714285714"];
q1 -> q4  [label="z:1.0"];
q1 -> q1  [label="x:0.11764705882352941"];
q1 -> q5  [label="x:0.8823529411764706"];
q2 -> q6  [label="x:0.9166666666666666"];
q2 -> q4  [label="x:0.08333333333333333"];
q2 -> q7  [label="y:0.9259259259259259"];
q2 -> q5  [label="y:0.07407407407407407"];
q2 -> q8  [label="z:0.8409090909090909"];
q2 -> q5  [label="z:0.045454545454545456"];
q2 -> q4  [label="z:0.09090909090909091"];
q2 -> q2  [label="z:0.022727272727272728"];
q3 -> q5  [label="x:0.9375"];
q3 -> q4  [label="x:0.0375"];
q3 -> q2  [label="x:0.025"];
q3 -> q4  [label="y:0.8928571428571429"];
q3 -> q1  [label="y:0.03571428571428571"];
q3 -> q5  [label="y:0.07142857142857142"];
q3 -> q4  [label="z:1.0"];
q4 -> q5  [label="y:0.6"];
q4 -> q4  [label="y:0.27692307692307694"];
q4 -> q6  [label="y:0.12307692307692308"];
q4 -> q0  [label="x:0.3829787234042553"];
q4 -> q7  [label="x:0.48936170212765956"];
q4 -> q5  [label="x:0.1276595744680851"];
q4 -> q5  [label="z:0.3783783783783784"];
q4 -> q8  [label="z:0.3783783783783784"];
q4 -> q4  [label="z:0.05405405405405406"];
q4 -> q2  [label="z:0.1891891891891892"];
q5 -> q4  [label="x:0.47540983606557374"];
q5 -> q0  [label="x:0.5081967213114754"];
q5 -> q5  [label="x:0.01639344262295082"];
q5 -> q8  [label="y:0.23728813559322035"];
q5 -> q5  [label="y:0.423728813559322"];
q5 -> q4  [label="y:0.3389830508474576"];
q5 -> q5  [label="z:0.21428571428571427"];
q5 -> q4  [label="z:0.5476190476190477"];
q5 -> q7  [label="z:0.23809523809523808"];
q6 -> q4  [label="x:0.896551724137931"];
q6 -> q1  [label="x:0.10344827586206896"];
q6 -> q1  [label="y:1.0"];
q6 -> q2  [label="z:1.0"];
q7 -> q5  [label="y:1.0"];
q7 -> q7  [label="y:0.0"];
q7 -> q4  [label="z:1.0"];
q7 -> q0  [label="z:0.0"];
q7 -> q4  [label="x:0.6153846153846154"];
q7 -> q0  [label="x:0.38461538461538464"];
q8 -> q1  [label="x:1.0"];
q8 -> q5  [label="y:1.0"];
q8 -> q5  [label="z:1.0"];
__start0 [label="", shape=none];
__start0 -> q0  [label=""];
}
