digraph "benchmarks-true-state-lstar-songp/n_states=9-n_outputs=3-glitch_percent=0.1-pmstrat='lsu'/50f346c024fb6b00409d03fd9c11ea25/alergiaLearned" {
q0 [label="a"];
q1 [label="b"];
q2 [label="b"];
q3 [label="a"];
q4 [label="c"];
q0 -> q1  [label="z:0.7272727272727273"];
q0 -> q4  [label="z:0.2727272727272727"];
q0 -> q2  [label="y:0.9767441860465116"];
q0 -> q4  [label="y:0.023255813953488372"];
q0 -> q3  [label="x:0.9423076923076923"];
q0 -> q4  [label="x:0.057692307692307696"];
q1 -> q4  [label="x:1.0"];
q1 -> q4  [label="y:1.0"];
q1 -> q4  [label="z:0.38461538461538464"];
q1 -> q1  [label="z:0.6153846153846154"];
q2 -> q3  [label="x:1.0"];
q2 -> q4  [label="y:1.0"];
q2 -> q0  [label="z:1.0"];
q3 -> q4  [label="x:1.0"];
q3 -> q4  [label="y:0.23809523809523808"];
q3 -> q1  [label="y:0.7619047619047619"];
q3 -> q4  [label="z:0.6875"];
q3 -> q1  [label="z:0.0625"];
q3 -> q0  [label="z:0.25"];
q4 -> q0  [label="y:0.3888888888888889"];
q4 -> q4  [label="y:0.3888888888888889"];
q4 -> q1  [label="y:0.2222222222222222"];
q4 -> q4  [label="z:0.7894736842105263"];
q4 -> q1  [label="z:0.21052631578947367"];
q4 -> q4  [label="x:0.29411764705882354"];
q4 -> q1  [label="x:0.47058823529411764"];
q4 -> q0  [label="x:0.23529411764705882"];
__start0 [label="", shape=none];
__start0 -> q0  [label=""];
}
