digraph "benchmarks-true-state-lstar-3seeds/n_states=6-n_outputs=2-glitch_percent=0.01/e7ac981b95f19d06b3035980b2f1c628/pmsatLearned-N6-STOC" {
0 [label="0|a", shape=record, style=rounded];
1 [label="1|b", shape=record, style=rounded];
2 [label="2|a", shape=record, style=rounded];
3 [label="3|b", shape=record, style=rounded];
4 [label="4|b", shape=record, style=rounded];
5 [label="5|a", shape=record, style=rounded];
0 -> 1  [label="z (26)"];
0 -> 4  [label="y (23)"];
0 -> 3  [label="x (54)"];
0 -> 4  [label="!x [1]"];
1 -> 4  [label="x (10)"];
1 -> 1  [label="y (8)"];
1 -> 4  [label="z (14)"];
2 -> 1  [label="x (11)"];
2 -> 5  [label="y (8)"];
2 -> 0  [label="z (11)"];
3 -> 2  [label="x (32)"];
3 -> 5  [label="y (23)"];
3 -> 2  [label="z (13)"];
4 -> 4  [label="x (16)"];
4 -> 4  [label="y (10)"];
4 -> 3  [label="z (17)"];
5 -> 3  [label="x (7)"];
5 -> 2  [label="y (7)"];
5 -> 3  [label="z (8)"];
__start0 [label="", shape=none];
__start0 -> 0  [label=""];
}
