digraph "benchmarks-true-state-lstar-3seeds/n_states=14-n_outputs=6-glitch_percent=0.02/a598f90428dc12fcf96bf43225464ffa/alergiaLearned" {
q0 [label="d"];
q1 [label="a"];
q2 [label="b"];
q3 [label="c"];
q4 [label="f"];
q5 [label="c"];
q6 [label="e"];
q7 [label="d"];
q8 [label="b"];
q0 -> q1  [label="z:0.9636363636363636"];
q0 -> q2  [label="z:0.03636363636363636"];
q0 -> q2  [label="y:0.9636363636363636"];
q0 -> q5  [label="y:0.01818181818181818"];
q0 -> q4  [label="y:0.01818181818181818"];
q0 -> q3  [label="x:0.9402985074626866"];
q0 -> q4  [label="x:0.05970149253731343"];
q1 -> q4  [label="x:1.0"];
q1 -> q6  [label="y:0.9473684210526315"];
q1 -> q4  [label="y:0.05263157894736842"];
q1 -> q6  [label="z:1.0"];
q2 -> q4  [label="x:1.0"];
q2 -> q7  [label="y:0.8695652173913043"];
q2 -> q2  [label="y:0.13043478260869565"];
q2 -> q5  [label="z:1.0"];
q3 -> q4  [label="x:0.9117647058823529"];
q3 -> q6  [label="x:0.08823529411764706"];
q3 -> q5  [label="y:0.8095238095238095"];
q3 -> q0  [label="y:0.09523809523809523"];
q3 -> q4  [label="y:0.09523809523809523"];
q3 -> q8  [label="z:0.8260869565217391"];
q3 -> q5  [label="z:0.043478260869565216"];
q3 -> q1  [label="z:0.08695652173913043"];
q3 -> q4  [label="z:0.043478260869565216"];
q4 -> q0  [label="z:0.25"];
q4 -> q2  [label="z:0.35"];
q4 -> q3  [label="z:0.35"];
q4 -> q1  [label="z:0.05"];
q4 -> q3  [label="x:0.7878787878787878"];
q4 -> q6  [label="x:0.21212121212121213"];
q4 -> q4  [label="y:0.2857142857142857"];
q4 -> q0  [label="y:0.3333333333333333"];
q4 -> q3  [label="y:0.38095238095238093"];
q5 -> q6  [label="x:0.4444444444444444"];
q5 -> q4  [label="x:0.5555555555555556"];
q5 -> q0  [label="y:0.4166666666666667"];
q5 -> q6  [label="y:0.5"];
q5 -> q3  [label="y:0.08333333333333333"];
q5 -> q2  [label="z:0.5"];
q5 -> q4  [label="z:0.5"];
q6 -> q2  [label="x:0.4666666666666667"];
q6 -> q3  [label="x:0.5333333333333333"];
q6 -> q2  [label="y:0.5"];
q6 -> q3  [label="y:0.5"];
q6 -> q6  [label="z:0.5"];
q6 -> q2  [label="z:0.5"];
q7 -> q4  [label="x:1.0"];
q7 -> q4  [label="y:1.0"];
q7 -> q2  [label="z:0.8333333333333334"];
q7 -> q0  [label="z:0.16666666666666666"];
q8 -> q4  [label="x:1.0"];
q8 -> q2  [label="y:1.0"];
q8 -> q3  [label="z:1.0"];
__start0 [label="", shape=none];
__start0 -> q0  [label=""];
}
