digraph "benchmarks-true-state-lstar-rc10seeds/n_states=7-n_outputs=5-glitch_percent=0.0/e0ebf87e01efc25acd8516bcb0626aa2/pmsatLearned_NOP-N7-STOC" {
0 [label="0|e", shape=record, style=rounded];
1 [label="1|c", shape=record, style=rounded];
2 [label="2|a", shape=record, style=rounded];
3 [label="3|d", shape=record, style=rounded];
4 [label="4|a", shape=record, style=rounded];
5 [label="5|c", shape=record, style=rounded];
6 [label="6|d", shape=record, style=rounded];
0 -> 2  [label="x (18)"];
0 -> 6  [label="y (18)"];
0 -> 5  [label="z (18)"];
1 -> 4  [label="z (21)"];
1 -> 3  [label="y (21)"];
1 -> 0  [label="x (57)"];
2 -> 1  [label="x (9)"];
2 -> 2  [label="y (9)"];
2 -> 1  [label="z (9)"];
3 -> 6  [label="x (8)"];
3 -> 1  [label="y (8)"];
3 -> 1  [label="z (8)"];
4 -> 5  [label="x (5)"];
4 -> 3  [label="y (5)"];
4 -> 3  [label="z (5)"];
5 -> 2  [label="x (6)"];
5 -> 6  [label="y (6)"];
5 -> 0  [label="z (6)"];
6 -> 2  [label="x (7)"];
6 -> 2  [label="y (7)"];
6 -> 3  [label="z (7)"];
__start0 [label="", shape=none];
__start0 -> 1  [label=""];
}
