digraph "benchmarks-true-state-lstar-3seeds/n_states=16-n_outputs=9-glitch_percent=0.02/32bda91b0d9c46ff7a5408782cdb1f84/rpniGroundTruth" {
s0 [label="s0|i", shape=record, style=rounded];
s1 [label="s1|i", shape=record, style=rounded];
s2 [label="s2|c", shape=record, style=rounded];
s3 [label="s3|c", shape=record, style=rounded];
s4 [label="s4|g", shape=record, style=rounded];
s5 [label="s5|f", shape=record, style=rounded];
s6 [label="s6|i", shape=record, style=rounded];
s7 [label="s7|d", shape=record, style=rounded];
s8 [label="s8|d", shape=record, style=rounded];
s9 [label="s9|c", shape=record, style=rounded];
s10 [label="s10|i", shape=record, style=rounded];
s11 [label="s11|e", shape=record, style=rounded];
s12 [label="s12|b", shape=record, style=rounded];
s13 [label="s13|i", shape=record, style=rounded];
s14 [label="s14|d", shape=record, style=rounded];
s15 [label="s15|h", shape=record, style=rounded];
s0 -> s1  [label="y"];
s0 -> s2  [label="z"];
s0 -> s3  [label="x"];
s1 -> s4  [label="z"];
s1 -> s5  [label="x"];
s1 -> s6  [label="y"];
s2 -> s7  [label="z"];
s2 -> s8  [label="y"];
s2 -> s9  [label="x"];
s3 -> s10  [label="x"];
s3 -> s11  [label="z"];
s3 -> s12  [label="y"];
s4 -> s11  [label="y"];
s4 -> s13  [label="z"];
s4 -> s14  [label="x"];
s5 -> s4  [label="y"];
s5 -> s4  [label="x"];
s5 -> s0  [label="z"];
s6 -> s6  [label="y"];
s6 -> s12  [label="z"];
s6 -> s3  [label="x"];
s7 -> s3  [label="x"];
s7 -> s10  [label="z"];
s7 -> s1  [label="y"];
s8 -> s10  [label="y"];
s8 -> s3  [label="z"];
s8 -> s12  [label="x"];
s9 -> s15  [label="x"];
s9 -> s0  [label="z"];
s9 -> s4  [label="y"];
s10 -> s15  [label="z"];
s10 -> s13  [label="y"];
s10 -> s14  [label="x"];
s11 -> s2  [label="x"];
s11 -> s8  [label="z"];
s11 -> s10  [label="y"];
s12 -> s2  [label="z"];
s12 -> s3  [label="y"];
s12 -> s5  [label="x"];
s13 -> s1  [label="y"];
s13 -> s2  [label="z"];
s13 -> s2  [label="x"];
s14 -> s6  [label="z"];
s14 -> s8  [label="y"];
s14 -> s10  [label="x"];
s15 -> s10  [label="y"];
s15 -> s14  [label="x"];
s15 -> s0  [label="z"];
__start0 [label="", shape=none];
__start0 -> s0  [label=""];
}
