{
    "glitch_percent": 0.01,
    "random_seed": 1,
    "num_states": 5,
    "input_alphabet": [
        "x",
        "y",
        "z"
    ],
    "output_alphabet": [
        "a",
        "b",
        "c",
        "d",
        "e"
    ],
    "original_traces": [
        [
            "b",
            [
                "z",
                "c"
            ]
        ],
        [
            "b",
            [
                "z",
                "c"
            ],
            [
                "x",
                "c"
            ]
        ],
        [
            "b",
            [
                "z",
                "c"
            ],
            [
                "y",
                "a"
            ]
        ],
        [
            "b",
            [
                "z",
                "c"
            ],
            [
                "z",
                "b"
            ]
        ],
        [
            "b",
            [
                "y",
                "a"
            ]
        ],
        [
            "b",
            [
                "y",
                "a"
            ],
            [
                "x",
                "c"
            ]
        ],
        [
            "b",
            [
                "y",
                "a"
            ],
            [
                "y",
                "b"
            ]
        ],
        [
            "b",
            [
                "y",
                "a"
            ],
            [
                "z",
                "c"
            ]
        ],
        [
            "b",
            [
                "x",
                "a"
            ]
        ],
        [
            "b",
            [
                "x",
                "a"
            ],
            [
                "x",
                "e"
            ]
        ],
        [
            "b",
            [
                "x",
                "a"
            ],
            [
                "y",
                "e"
            ]
        ],
        [
            "b",
            [
                "x",
                "a"
            ],
            [
                "z",
                "b"
            ]
        ],
        [
            "b",
            [
                "x",
                "a"
            ]
        ],
        [
            "b",
            [
                "y",
                "a"
            ]
        ],
        [
            "b",
            [
                "z",
                "c"
            ]
        ],
        [
            "b",
            [
                "z",
                "c"
            ],
            [
                "z",
                "b"
            ]
        ],
        [
            "b",
            [
                "z",
                "c"
            ],
            [
                "z",
                "b"
            ],
            [
                "x",
                "a"
            ]
        ],
        [
            "b",
            [
                "z",
                "c"
            ],
            [
                "z",
                "b"
            ],
            [
                "y",
                "a"
            ]
        ],
        [
            "b",
            [
                "z",
                "c"
            ],
            [
                "z",
                "b"
            ],
            [
                "z",
                "c"
            ]
        ],
        [
            "b",
            [
                "z",
                "c"
            ],
            [
                "y",
                "a"
            ]
        ],
        [
            "b",
            [
                "z",
                "c"
            ],
            [
                "y",
                "a"
            ],
            [
                "x",
                "e"
            ]
        ],
        [
            "b",
            [
                "z",
                "c"
            ],
            [
                "y",
                "a"
            ],
            [
                "y",
                "e"
            ]
        ],
        [
            "b",
            [
                "z",
                "c"
            ],
            [
                "y",
                "a"
            ],
            [
                "z",
                "b"
            ]
        ],
        [
            "b",
            [
                "z",
                "c"
            ],
            [
                "x",
                "c"
            ]
        ],
        [
            "b",
            [
                "z",
                "c"
            ],
            [
                "x",
                "c"
            ],
            [
                "x",
                "c"
            ]
        ],
        [
            "b",
            [
                "z",
                "c"
            ],
            [
                "x",
                "c"
            ],
            [
                "y",
                "a"
            ]
        ],
        [
            "b",
            [
                "z",
                "c"
            ],
            [
                "x",
                "c"
            ],
            [
                "z",
                "b"
            ]
        ],
        [
            "b",
            [
                "y",
                "a"
            ],
            [
                "z",
                "c"
            ]
        ],
        [
            "b",
            [
                "y",
                "a"
            ],
            [
                "z",
                "c"
            ],
            [
                "x",
                "c"
            ]
        ],
        [
            "b",
            [
                "y",
                "a"
            ],
            [
                "z",
                "c"
            ],
            [
                "y",
                "a"
            ]
        ],
        [
            "b",
            [
                "y",
                "a"
            ],
            [
                "z",
                "c"
            ],
            [
                "z",
                "b"
            ]
        ],
        [
            "b",
            [
                "y",
                "a"
            ],
            [
                "y",
                "b"
            ]
        ],
        [
            "b",
            [
                "y",
                "a"
            ],
            [
                "y",
                "b"
            ],
            [
                "x",
                "a"
            ]
        ],
        [
            "b",
            [
                "y",
                "a"
            ],
            [
                "y",
                "b"
            ],
            [
                "y",
                "a"
            ]
        ],
        [
            "b",
            [
                "y",
                "a"
            ],
            [
                "y",
                "b"
            ],
            [
                "z",
                "c"
            ]
        ],
        [
            "b",
            [
                "y",
                "a"
            ],
            [
                "x",
                "c"
            ]
        ],
        [
            "b",
            [
                "y",
                "a"
            ],
            [
                "x",
                "c"
            ],
            [
                "x",
                "c"
            ]
        ],
        [
            "b",
            [
                "y",
                "a"
            ],
            [
                "x",
                "c"
            ],
            [
                "y",
                "a"
            ]
        ],
        [
            "b",
            [
                "y",
                "a"
            ],
            [
                "x",
                "c"
            ],
            [
                "z",
                "b"
            ]
        ],
        [
            "b",
            [
                "x",
                "a"
            ],
            [
                "z",
                "b"
            ]
        ],
        [
            "b",
            [
                "x",
                "a"
            ],
            [
                "z",
                "b"
            ],
            [
                "x",
                "a"
            ]
        ],
        [
            "b",
            [
                "x",
                "a"
            ],
            [
                "z",
                "b"
            ],
            [
                "y",
                "a"
            ]
        ],
        [
            "b",
            [
                "x",
                "a"
            ],
            [
                "z",
                "b"
            ],
            [
                "z",
                "c"
            ]
        ],
        [
            "b",
            [
                "x",
                "a"
            ],
            [
                "y",
                "e"
            ]
        ],
        [
            "b",
            [
                "x",
                "a"
            ],
            [
                "y",
                "e"
            ],
            [
                "x",
                "c"
            ]
        ],
        [
            "b",
            [
                "x",
                "a"
            ],
            [
                "y",
                "e"
            ],
            [
                "y",
                "a"
            ]
        ],
        [
            "b",
            [
                "x",
                "a"
            ],
            [
                "y",
                "e"
            ],
            [
                "z",
                "e"
            ]
        ],
        [
            "b",
            [
                "x",
                "a"
            ],
            [
                "x",
                "e"
            ]
        ],
        [
            "b",
            [
                "x",
                "a"
            ],
            [
                "x",
                "e"
            ],
            [
                "x",
                "c"
            ]
        ],
        [
            "b",
            [
                "x",
                "a"
            ],
            [
                "x",
                "e"
            ],
            [
                "y",
                "a"
            ]
        ],
        [
            "b",
            [
                "x",
                "a"
            ],
            [
                "x",
                "e"
            ],
            [
                "z",
                "e"
            ]
        ],
        [
            "b",
            [
                "x",
                "a"
            ],
            [
                "x",
                "e"
            ],
            [
                "z",
                "e"
            ]
        ],
        [
            "b",
            [
                "x",
                "a"
            ],
            [
                "x",
                "e"
            ],
            [
                "z",
                "e"
            ],
            [
                "x",
                "c"
            ]
        ],
        [
            "b",
            [
                "x",
                "a"
            ],
            [
                "x",
                "e"
            ],
            [
                "z",
                "e"
            ],
            [
                "y",
                "a"
            ]
        ],
        [
            "b",
            [
                "x",
                "a"
            ],
            [
                "x",
                "e"
            ],
            [
                "z",
                "e"
            ],
            [
                "z",
                "e"
            ]
        ],
        [
            "b",
            [
                "x",
                "a"
            ],
            [
                "x",
                "e"
            ],
            [
                "y",
                "a"
            ]
        ],
        [
            "b",
            [
                "x",
                "a"
            ],
            [
                "x",
                "e"
            ],
            [
                "y",
                "a"
            ],
            [
                "x",
                "c"
            ]
        ],
        [
            "b",
            [
                "x",
                "a"
            ],
            [
                "x",
                "e"
            ],
            [
                "y",
                "a"
            ],
            [
                "y",
                "b"
            ]
        ],
        [
            "b",
            [
                "x",
                "a"
            ],
            [
                "x",
                "e"
            ],
            [
                "y",
                "a"
            ],
            [
                "z",
                "c"
            ]
        ],
        [
            "b",
            [
                "x",
                "a"
            ],
            [
                "x",
                "e"
            ],
            [
                "x",
                "c"
            ]
        ],
        [
            "b",
            [
                "x",
                "a"
            ],
            [
                "x",
                "e"
            ],
            [
                "x",
                "c"
            ],
            [
                "x",
                "c"
            ]
        ],
        [
            "b",
            [
                "x",
                "a"
            ],
            [
                "x",
                "e"
            ],
            [
                "x",
                "c"
            ],
            [
                "y",
                "a"
            ]
        ],
        [
            "b",
            [
                "x",
                "a"
            ],
            [
                "x",
                "e"
            ],
            [
                "x",
                "c"
            ],
            [
                "z",
                "b"
            ]
        ],
        [
            "b"
        ]
    ],
    "traces": [
        [
            "b",
            [
                "z",
                "c"
            ]
        ],
        [
            "b",
            [
                "z",
                "c"
            ],
            [
                "x",
                "c"
            ]
        ],
        [
            "b",
            [
                "z",
                "c"
            ],
            [
                "y",
                "a"
            ]
        ],
        [
            "b",
            [
                "z",
                "c"
            ],
            [
                "z",
                "b"
            ]
        ],
        [
            "b",
            [
                "y",
                "a"
            ]
        ],
        [
            "b",
            [
                "y",
                "a"
            ],
            [
                "x",
                "c"
            ]
        ],
        [
            "b",
            [
                "y",
                "a"
            ],
            [
                "y",
                "b"
            ]
        ],
        [
            "b",
            [
                "y",
                "a"
            ],
            [
                "z",
                "c"
            ]
        ],
        [
            "b",
            [
                "x",
                "a"
            ]
        ],
        [
            "b",
            [
                "x",
                "a"
            ],
            [
                "x",
                "e"
            ]
        ],
        [
            "b",
            [
                "x",
                "a"
            ],
            [
                "y",
                "e"
            ]
        ],
        [
            "b",
            [
                "x",
                "a"
            ],
            [
                "z",
                "b"
            ]
        ],
        [
            "b",
            [
                "x",
                "a"
            ]
        ],
        [
            "b",
            [
                "y",
                "a"
            ]
        ],
        [
            "b",
            [
                "z",
                "c"
            ]
        ],
        [
            "b",
            [
                "z",
                "c"
            ],
            [
                "z",
                "b"
            ]
        ],
        [
            "b",
            [
                "z",
                "c"
            ],
            [
                "z",
                "b"
            ],
            [
                "x",
                "a"
            ]
        ],
        [
            "b",
            [
                "z",
                "c"
            ],
            [
                "z",
                "b"
            ],
            [
                "y",
                "a"
            ]
        ],
        [
            "b",
            [
                "z",
                "c"
            ],
            [
                "z",
                "b"
            ],
            [
                "z",
                "c"
            ]
        ],
        [
            "b",
            [
                "z",
                "c"
            ],
            [
                "y",
                "a"
            ]
        ],
        [
            "b",
            [
                "z",
                "c"
            ],
            [
                "y",
                "a"
            ],
            [
                "x",
                "e"
            ]
        ],
        [
            "b",
            [
                "z",
                "c"
            ],
            [
                "y",
                "a"
            ],
            [
                "y",
                "e"
            ]
        ],
        [
            "b",
            [
                "z",
                "c"
            ],
            [
                "y",
                "a"
            ],
            [
                "z",
                "b"
            ]
        ],
        [
            "b",
            [
                "z",
                "c"
            ],
            [
                "x",
                "c"
            ]
        ],
        [
            "b",
            [
                "z",
                "c"
            ],
            [
                "x",
                "c"
            ],
            [
                "x",
                "c"
            ]
        ],
        [
            "b",
            [
                "z",
                "c"
            ],
            [
                "x",
                "c"
            ],
            [
                "y",
                "a"
            ]
        ],
        [
            "b",
            [
                "z",
                "c"
            ],
            [
                "x",
                "c"
            ],
            [
                "z",
                "b"
            ]
        ],
        [
            "b",
            [
                "y",
                "a"
            ],
            [
                "z",
                "c"
            ]
        ],
        [
            "b",
            [
                "y",
                "a"
            ],
            [
                "z",
                "c"
            ],
            [
                "x",
                "c"
            ]
        ],
        [
            "b",
            [
                "y",
                "a"
            ],
            [
                "z",
                "c"
            ],
            [
                "y",
                "a"
            ]
        ],
        [
            "b",
            [
                "y",
                "a"
            ],
            [
                "z",
                "c"
            ],
            [
                "z",
                "b"
            ]
        ],
        [
            "b",
            [
                "y",
                "a"
            ],
            [
                "y",
                "b"
            ]
        ],
        [
            "b",
            [
                "y",
                "a"
            ],
            [
                "y",
                "b"
            ],
            [
                "x",
                "a"
            ]
        ],
        [
            "b",
            [
                "y",
                "a"
            ],
            [
                "y",
                "b"
            ],
            [
                "y",
                "a"
            ]
        ],
        [
            "b",
            [
                "y",
                "a"
            ],
            [
                "y",
                "b"
            ],
            [
                "z",
                "c"
            ]
        ],
        [
            "b",
            [
                "y",
                "a"
            ],
            [
                "x",
                "c"
            ]
        ],
        [
            "b",
            [
                "y",
                "a"
            ],
            [
                "x",
                "c"
            ],
            [
                "x",
                "c"
            ]
        ],
        [
            "b",
            [
                "y",
                "a"
            ],
            [
                "x",
                "c"
            ],
            [
                "y",
                "a"
            ]
        ],
        [
            "b",
            [
                "y",
                "a"
            ],
            [
                "x",
                "c"
            ],
            [
                "z",
                "b"
            ]
        ],
        [
            "b",
            [
                "x",
                "a"
            ],
            [
                "z",
                "b"
            ]
        ],
        [
            "b",
            [
                "x",
                "a"
            ],
            [
                "z",
                "b"
            ],
            [
                "x",
                "a"
            ]
        ],
        [
            "b",
            [
                "z",
                "b"
            ],
            [
                "y",
                "a"
            ]
        ],
        [
            "b",
            [
                "x",
                "a"
            ],
            [
                "z",
                "b"
            ],
            [
                "z",
                "c"
            ]
        ],
        [
            "b",
            [
                "x",
                "a"
            ],
            [
                "y",
                "e"
            ]
        ],
        [
            "b",
            [
                "x",
                "a"
            ],
            [
                "y",
                "e"
            ],
            [
                "x",
                "c"
            ]
        ],
        [
            "b",
            [
                "x",
                "a"
            ],
            [
                "y",
                "e"
            ],
            [
                "y",
                "a"
            ]
        ],
        [
            "b",
            [
                "x",
                "a"
            ],
            [
                "y",
                "e"
            ],
            [
                "z",
                "e"
            ]
        ],
        [
            "b",
            [
                "x",
                "a"
            ],
            [
                "x",
                "e"
            ]
        ],
        [
            "b",
            [
                "x",
                "a"
            ],
            [
                "x",
                "e"
            ],
            [
                "x",
                "c"
            ]
        ],
        [
            "b",
            [
                "x",
                "a"
            ],
            [
                "x",
                "e"
            ],
            [
                "y",
                "a"
            ]
        ],
        [
            "b",
            [
                "x",
                "a"
            ],
            [
                "x",
                "e"
            ],
            [
                "z",
                "e"
            ]
        ],
        [
            "b",
            [
                "x",
                "a"
            ],
            [
                "x",
                "e"
            ],
            [
                "z",
                "e"
            ]
        ],
        [
            "b",
            [
                "x",
                "a"
            ],
            [
                "x",
                "e"
            ],
            [
                "z",
                "e"
            ],
            [
                "x",
                "c"
            ]
        ],
        [
            "b",
            [
                "x",
                "a"
            ],
            [
                "x",
                "e"
            ],
            [
                "z",
                "e"
            ],
            [
                "y",
                "a"
            ]
        ],
        [
            "b",
            [
                "x",
                "a"
            ],
            [
                "x",
                "e"
            ],
            [
                "z",
                "e"
            ],
            [
                "z",
                "e"
            ]
        ],
        [
            "b",
            [
                "x",
                "a"
            ],
            [
                "x",
                "e"
            ],
            [
                "y",
                "a"
            ]
        ],
        [
            "b",
            [
                "x",
                "a"
            ],
            [
                "x",
                "e"
            ],
            [
                "y",
                "a"
            ],
            [
                "x",
                "c"
            ]
        ],
        [
            "b",
            [
                "x",
                "a"
            ],
            [
                "x",
                "e"
            ],
            [
                "y",
                "a"
            ],
            [
                "y",
                "b"
            ]
        ],
        [
            "b",
            [
                "x",
                "a"
            ],
            [
                "x",
                "e"
            ],
            [
                "y",
                "a"
            ],
            [
                "z",
                "c"
            ]
        ],
        [
            "b",
            [
                "x",
                "a"
            ],
            [
                "x",
                "e"
            ],
            [
                "x",
                "c"
            ]
        ],
        [
            "b",
            [
                "x",
                "a"
            ],
            [
                "x",
                "e"
            ],
            [
                "x",
                "c"
            ],
            [
                "x",
                "c"
            ]
        ],
        [
            "b",
            [
                "x",
                "a"
            ],
            [
                "x",
                "e"
            ],
            [
                "x",
                "c"
            ],
            [
                "y",
                "a"
            ]
        ],
        [
            "b",
            [
                "x",
                "a"
            ],
            [
                "x",
                "e"
            ],
            [
                "x",
                "c"
            ],
            [
                "z",
                "b"
            ]
        ],
        [
            "b"
        ]
    ],
    "trace_steps": null,
    "actual_trace_steps": 167,
    "reset_prob": null,
    "pmstrat": "rc2",
    "fault_type": "discard"
}