digraph "benchmarks-true-state-lstar-3seeds/n_states=3-n_outputs=3-glitch_percent=0.05/b25aea867ab11043424349d982ca10bb/alergiaLearned" {
q0 [label="b"];
q1 [label="c"];
q0 -> q1  [label="z:1.0"];
q0 -> q1  [label="y:1.0"];
q0 -> q1  [label="x:1.0"];
q1 -> q0  [label="x:1.0"];
q1 -> q1  [label="y:0.5"];
q1 -> q0  [label="y:0.5"];
q1 -> q0  [label="z:0.5454545454545454"];
q1 -> q1  [label="z:0.45454545454545453"];
__start0 [label="", shape=none];
__start0 -> q0  [label=""];
}
