digraph "benchmarks-true-state-lstar-3seeds/n_states=17-n_outputs=9-glitch_percent=0.01/d5e3e7c2fa74c1923403c64d79dd5b58/pmsatLearned-N17-STOC" {
0 [label="0|a", shape=record, style=rounded];
1 [label="1|b", shape=record, style=rounded];
2 [label="2|c", shape=record, style=rounded];
3 [label="3|d", shape=record, style=rounded];
4 [label="4|e", shape=record, style=rounded];
5 [label="5|f", shape=record, style=rounded];
6 [label="6|g", shape=record, style=rounded];
7 [label="7|h", shape=record, style=rounded];
8 [label="8|i", shape=record, style=rounded];
9 [label="9|f", shape=record, style=rounded];
10 [label="10|e", shape=record, style=rounded];
11 [label="11|i", shape=record, style=rounded];
12 [label="12|a", shape=record, style=rounded];
13 [label="13|a", shape=record, style=rounded];
14 [label="14|b", shape=record, style=rounded];
15 [label="15|i", shape=record, style=rounded];
16 [label="16|i", shape=record, style=rounded];
0 -> 14  [label="x (18)"];
0 -> 8  [label="y (17)"];
0 -> 16  [label="z (17)"];
1 -> 9  [label="z (54)"];
1 -> 0  [label="y (53)"];
1 -> 13  [label="x (103)"];
1 -> 16  [label="!z [1]"];
1 -> 4  [label="!y [1]"];
2 -> 6  [label="x (8)"];
2 -> 9  [label="y (8)"];
2 -> 7  [label="z (7)"];
3 -> 9  [label="x (10)"];
3 -> 8  [label="y (10)"];
3 -> 2  [label="z (10)"];
4 -> 15  [label="x (17)"];
4 -> 15  [label="y (5)"];
4 -> 6  [label="z (5)"];
5 -> 12  [label="x (7)"];
5 -> 2  [label="y (7)"];
5 -> 5  [label="z (7)"];
6 -> 8  [label="x (9)"];
6 -> 10  [label="y (9)"];
6 -> 3  [label="z (9)"];
7 -> 6  [label="x (6)"];
7 -> 3  [label="y (6)"];
7 -> 15  [label="z (6)"];
8 -> 12  [label="x (8)"];
8 -> 8  [label="y (8)"];
8 -> 3  [label="z (7)"];
9 -> 12  [label="x (18)"];
9 -> 10  [label="y (19)"];
9 -> 2  [label="z (19)"];
10 -> 15  [label="x (7)"];
10 -> 6  [label="y (7)"];
10 -> 10  [label="z (7)"];
11 -> 3  [label="x (18)"];
11 -> 7  [label="y (17)"];
11 -> 6  [label="z (18)"];
12 -> 1  [label="x (8)"];
12 -> 5  [label="y (9)"];
12 -> 1  [label="z (9)"];
13 -> 11  [label="x (54)"];
13 -> 4  [label="y (29)"];
13 -> 5  [label="z (18)"];
13 -> 1  [label="!x [1]"];
14 -> 3  [label="x (5)"];
14 -> 0  [label="y (5)"];
14 -> 2  [label="z (4)"];
14 -> 7  [label="!z [1]"];
15 -> 11  [label="x (8)"];
15 -> 12  [label="y (8)"];
15 -> 16  [label="z (8)"];
16 -> 3  [label="x (6)"];
16 -> 13  [label="y (6)"];
16 -> 12  [label="z (6)"];
__start0 [label="", shape=none];
__start0 -> 1  [label=""];
}
