digraph "benchmarks-true-state-lstar-rc10seeds/n_states=14-n_outputs=5-glitch_percent=0.05/eb1c1ee23ab8c695e840dd7598ccc6fc/pmsatLearned_NOP-N14-STOC" {
0 [label="0|d", shape=record, style=rounded];
1 [label="1|a", shape=record, style=rounded];
2 [label="2|c", shape=record, style=rounded];
3 [label="3|b", shape=record, style=rounded];
4 [label="4|a", shape=record, style=rounded];
5 [label="5|e", shape=record, style=rounded];
6 [label="6|a", shape=record, style=rounded];
7 [label="7|c", shape=record, style=rounded];
8 [label="8|d", shape=record, style=rounded];
9 [label="9|d", shape=record, style=rounded];
10 [label="10|d", shape=record, style=rounded];
11 [label="11|b", shape=record, style=rounded];
12 [label="12|c", shape=record, style=rounded];
13 [label="13|b", shape=record, style=rounded];
0 -> 11  [label="x (7)"];
0 -> 0  [label="y (7)"];
0 -> 13  [label="z (5)"];
1 -> 2  [label="x (9)"];
1 -> 10  [label="y (10)"];
1 -> 1  [label="z (8)"];
2 -> 13  [label="z (55)"];
2 -> 11  [label="y (46)"];
2 -> 6  [label="x (61)"];
2 -> 9  [label="!z [1]"];
2 -> 12  [label="!x [1]"];
2 -> 0  [label="!y [1]"];
2 -> 5  [label="!y [2]"];
3 -> 5  [label="x (6)"];
3 -> 1  [label="z (4)"];
3 -> 5  [label="y (5)"];
4 -> 13  [label="x (6)"];
4 -> 11  [label="y (5)"];
4 -> 13  [label="z (7)"];
5 -> 6  [label="x (7)"];
5 -> 6  [label="y (9)"];
5 -> 4  [label="z (9)"];
6 -> 12  [label="x (30)"];
6 -> 5  [label="y (16)"];
6 -> 1  [label="z (19)"];
6 -> 10  [label="!x [1]"];
6 -> 3  [label="!z [1]"];
7 -> 12  [label="x (6)"];
7 -> 5  [label="y (6)"];
7 -> 7  [label="z (5)"];
8 -> 6  [label="x (4)"];
8 -> 10  [label="y (5)"];
8 -> 1  [label="z (5)"];
9 -> 6  [label="x (8)"];
9 -> 0  [label="y (7)"];
9 -> 5  [label="z (7)"];
10 -> 9  [label="x (7)"];
10 -> 12  [label="y (6)"];
10 -> 1  [label="z (7)"];
11 -> 8  [label="x (17)"];
11 -> 0  [label="y (16)"];
11 -> 3  [label="z (14)"];
11 -> 13  [label="!z [1]"];
12 -> 10  [label="x (17)"];
12 -> 9  [label="y (7)"];
12 -> 3  [label="z (6)"];
12 -> 12  [label="!y [1]"];
13 -> 7  [label="y (19)"];
13 -> 9  [label="z (18)"];
13 -> 4  [label="x (18)"];
13 -> 5  [label="!y [1]"];
13 -> 6  [label="!z [1]"];
__start0 [label="", shape=none];
__start0 -> 2  [label=""];
}
