digraph "benchmarks-true-state-lstar-rc10seeds/n_states=7-n_outputs=4-glitch_percent=0.05/6d361e722ebb41a179f2983b654d3390/pmsatLearned_NOP-N7-STOC" {
0 [label="0|b", shape=record, style=rounded];
1 [label="1|c", shape=record, style=rounded];
2 [label="2|b", shape=record, style=rounded];
3 [label="3|b", shape=record, style=rounded];
4 [label="4|d", shape=record, style=rounded];
5 [label="5|c", shape=record, style=rounded];
6 [label="6|b", shape=record, style=rounded];
0 -> 3  [label="x (7)"];
0 -> 0  [label="y (7)"];
0 -> 2  [label="z (8)"];
1 -> 2  [label="z (21)"];
1 -> 3  [label="y (17)"];
1 -> 6  [label="x (55)"];
1 -> 4  [label="!y [1]"];
1 -> 4  [label="!x [1]"];
2 -> 6  [label="x (7)"];
2 -> 4  [label="y (6)"];
2 -> 3  [label="z (5)"];
2 -> 2  [label="!x [1]"];
3 -> 6  [label="x (5)"];
3 -> 4  [label="y (6)"];
3 -> 4  [label="z (6)"];
3 -> 5  [label="!z [1]"];
3 -> 4  [label="!x [1]"];
4 -> 0  [label="x (8)"];
4 -> 3  [label="y (6)"];
4 -> 1  [label="z (7)"];
4 -> 4  [label="!z [1]"];
5 -> 1  [label="x (5)"];
5 -> 0  [label="y (6)"];
5 -> 1  [label="z (4)"];
6 -> 4  [label="x (17)"];
6 -> 5  [label="y (19)"];
6 -> 0  [label="z (18)"];
__start0 [label="", shape=none];
__start0 -> 1  [label=""];
}
