digraph "benchmarks-true-state-lstar-songp/n_states=8-n_outputs=4-glitch_percent=0.1-pmstrat='lsu'/8c610d8bbe187e6bd4fe0a8df9c0a5a8/pmsatLearned-N8-STOC" {
0 [label="0|a", shape=record, style=rounded];
1 [label="1|b", shape=record, style=rounded];
2 [label="2|c", shape=record, style=rounded];
3 [label="3|d", shape=record, style=rounded];
4 [label="4|d", shape=record, style=rounded];
5 [label="5|d", shape=record, style=rounded];
6 [label="6|c", shape=record, style=rounded];
7 [label="7|a", shape=record, style=rounded];
0 -> 4  [label="z (23)"];
0 -> 6  [label="y (40)"];
0 -> 7  [label="x (63)"];
0 -> 2  [label="!z [1]"];
0 -> 5  [label="!y [1]"];
0 -> 1  [label="!x [2]"];
0 -> 2  [label="!y [2]"];
1 -> 5  [label="x (16)"];
1 -> 0  [label="z (8)"];
1 -> 2  [label="y (10)"];
1 -> 3  [label="!y [1]"];
2 -> 1  [label="z (5)"];
2 -> 1  [label="x (10)"];
2 -> 4  [label="y (12)"];
3 -> 5  [label="x (6)"];
3 -> 2  [label="y (5)"];
3 -> 1  [label="z (5)"];
3 -> 0  [label="!z [1]"];
3 -> 1  [label="!x [1]"];
4 -> 0  [label="x (12)"];
4 -> 6  [label="y (9)"];
4 -> 6  [label="z (5)"];
4 -> 1  [label="!z [1]"];
5 -> 5  [label="x (13)"];
5 -> 1  [label="y (14)"];
5 -> 6  [label="z (10)"];
6 -> 1  [label="x (24)"];
6 -> 5  [label="y (13)"];
6 -> 1  [label="z (9)"];
6 -> 0  [label="!z [1]"];
6 -> 2  [label="!y [1]"];
7 -> 5  [label="x (18)"];
7 -> 2  [label="y (20)"];
7 -> 3  [label="z (20)"];
7 -> 1  [label="!y [1]"];
7 -> 1  [label="!z [1]"];
7 -> 1  [label="!x [1]"];
__start0 [label="", shape=none];
__start0 -> 0  [label=""];
}
