digraph "benchmarks-true-state-lstar-rc10seeds/n_states=9-n_outputs=7-glitch_percent=0.05/5e0252329c5cbedafe7ef8b751e5a53e/pmsatLearned_NOP-N9-STOC" {
0 [label="0|e", shape=record, style=rounded];
1 [label="1|c", shape=record, style=rounded];
2 [label="2|d", shape=record, style=rounded];
3 [label="3|e", shape=record, style=rounded];
4 [label="4|c", shape=record, style=rounded];
5 [label="5|a", shape=record, style=rounded];
6 [label="6|d", shape=record, style=rounded];
7 [label="7|c", shape=record, style=rounded];
8 [label="8|e", shape=record, style=rounded];
0 -> 3  [label="x (15)"];
0 -> 3  [label="y (8)"];
0 -> 3  [label="z (8)"];
1 -> 4  [label="z (26)"];
1 -> 2  [label="y (56)"];
1 -> 7  [label="x (67)"];
1 -> 3  [label="!y [2]"];
1 -> 5  [label="!x [1]"];
1 -> 1  [label="!x [3]"];
1 -> 0  [label="!y [1]"];
2 -> 6  [label="x (24)"];
2 -> 0  [label="y (24)"];
2 -> 1  [label="z (9)"];
3 -> 8  [label="x (17)"];
3 -> 7  [label="z (16)"];
3 -> 3  [label="y (10)"];
4 -> 2  [label="x (9)"];
4 -> 7  [label="y (7)"];
4 -> 8  [label="z (8)"];
5 -> 1  [label="x (4)"];
5 -> 3  [label="y (6)"];
5 -> 4  [label="z (8)"];
6 -> 0  [label="x (7)"];
6 -> 1  [label="y (5)"];
6 -> 8  [label="z (7)"];
6 -> 4  [label="!x [1]"];
7 -> 5  [label="x (20)"];
7 -> 8  [label="y (21)"];
7 -> 3  [label="z (25)"];
7 -> 1  [label="!x [1]"];
8 -> 8  [label="x (16)"];
8 -> 0  [label="y (10)"];
8 -> 8  [label="z (22)"];
__start0 [label="", shape=none];
__start0 -> 1  [label=""];
}
