{
  "is_sat": true,
  "num_states": 9,
  "automata_type": "moore",
  "solve_time": 0.07894396781921387,
  "solve_perf_counter": 0.07893682100257138,
  "input_alphabet": ["x", "y", "z"],
  "output_alphabet": ["b", "e", "f", "g", "h", "i"],
  "optimal_solution": true,
  "timed_out": false,
  "num_vars": 4747,
  "num_hard": 45070,
  "num_soft": 345,
  "cost": 3,
  "glitch_steps": [
    [33, 1],
    [95, 1],
    [102, 3]
  ],
  "dominant_reachable_states": 9,
  "glitched_delta_freq": [1, 2],
  "dominant_delta_freq": [
    5, 9, 5, 8, 22, 21, 10, 5, 42, 9, 5, 6, 6, 9, 54, 5, 5, 18, 10, 6, 19, 5,
    19, 5, 10, 5, 19
  ]
}
