digraph "benchmarks-true-state-lstar-rc10seeds/n_states=9-n_outputs=9-glitch_percent=0.01/75bbc69c156b017c241f703a7025048d/pmsatLearned_NOP-N9" {
0 [label="0|b", shape=record, style=rounded];
1 [label="1|g", shape=record, style=rounded];
2 [label="2|f", shape=record, style=rounded];
3 [label="3|i", shape=record, style=rounded];
4 [label="4|i", shape=record, style=rounded];
5 [label="5|g", shape=record, style=rounded];
6 [label="6|f", shape=record, style=rounded];
7 [label="7|h", shape=record, style=rounded];
8 [label="8|e", shape=record, style=rounded];
0 -> 5  [label="x"];
0 -> 2  [label="y"];
0 -> 6  [label="z"];
1 -> 5  [label="y"];
1 -> 5  [label="x"];
1 -> 6  [label="z"];
2 -> 0  [label="z"];
2 -> 6  [label="y"];
2 -> 4  [label="x"];
3 -> 4  [label="x"];
3 -> 3  [label="y"];
3 -> 2  [label="z"];
4 -> 8  [label="x"];
4 -> 1  [label="y"];
4 -> 3  [label="z"];
5 -> 6  [label="x"];
5 -> 5  [label="y"];
5 -> 3  [label="z"];
6 -> 7  [label="x"];
6 -> 5  [label="y"];
6 -> 4  [label="z"];
7 -> 5  [label="x"];
7 -> 6  [label="y"];
7 -> 6  [label="z"];
8 -> 8  [label="x"];
8 -> 3  [label="y"];
8 -> 3  [label="z"];
__start0 [label="", shape=none];
__start0 -> 2  [label=""];
}
