digraph "benchmarks-true-state-lstar-rc10seeds/n_states=10-n_outputs=7-glitch_percent=0.05/7f05a19ac2dcfecbed006744d56c8998/pmsatLearned_NOP-N10" {
0 [label="0|b", shape=record, style=rounded];
1 [label="1|b", shape=record, style=rounded];
2 [label="2|e", shape=record, style=rounded];
3 [label="3|g", shape=record, style=rounded];
4 [label="4|e", shape=record, style=rounded];
5 [label="5|g", shape=record, style=rounded];
6 [label="6|g", shape=record, style=rounded];
7 [label="7|e", shape=record, style=rounded];
8 [label="8|b", shape=record, style=rounded];
9 [label="9|b", shape=record, style=rounded];
0 -> 3  [label="z"];
0 -> 5  [label="y"];
0 -> 8  [label="x"];
1 -> 6  [label="x"];
1 -> 0  [label="y"];
1 -> 5  [label="z"];
2 -> 7  [label="x"];
2 -> 8  [label="y"];
2 -> 4  [label="z"];
3 -> 1  [label="x"];
3 -> 3  [label="y"];
3 -> 0  [label="z"];
4 -> 1  [label="x"];
4 -> 0  [label="y"];
4 -> 9  [label="z"];
5 -> 9  [label="x"];
5 -> 7  [label="y"];
5 -> 6  [label="z"];
6 -> 7  [label="x"];
6 -> 0  [label="z"];
6 -> 9  [label="y"];
7 -> 0  [label="y"];
7 -> 9  [label="z"];
7 -> 2  [label="x"];
8 -> 1  [label="x"];
8 -> 4  [label="y"];
8 -> 2  [label="z"];
9 -> 1  [label="x"];
9 -> 8  [label="y"];
9 -> 9  [label="z"];
__start0 [label="", shape=none];
__start0 -> 0  [label=""];
}
