digraph "benchmarks-true-state-lstar-rc10seeds/n_states=8-n_outputs=6-glitch_percent=0.01/0875195dfd78cfd34ecd004b56fdbfba/pmsatLearned_NOP-N8-STOC" {
0 [label="0|f", shape=record, style=rounded];
1 [label="1|d", shape=record, style=rounded];
2 [label="2|e", shape=record, style=rounded];
3 [label="3|e", shape=record, style=rounded];
4 [label="4|b", shape=record, style=rounded];
5 [label="5|e", shape=record, style=rounded];
6 [label="6|d", shape=record, style=rounded];
7 [label="7|f", shape=record, style=rounded];
0 -> 1  [label="x (5)"];
0 -> 6  [label="y (6)"];
0 -> 6  [label="z (6)"];
1 -> 3  [label="x (9)"];
1 -> 3  [label="y (9)"];
1 -> 1  [label="z (8)"];
2 -> 6  [label="z (20)"];
2 -> 5  [label="y (31)"];
2 -> 3  [label="x (56)"];
3 -> 4  [label="x (20)"];
3 -> 1  [label="y (20)"];
3 -> 0  [label="z (19)"];
3 -> 6  [label="!x [1]"];
4 -> 6  [label="x (5)"];
4 -> 3  [label="y (5)"];
4 -> 5  [label="z (5)"];
5 -> 7  [label="x (18)"];
5 -> 1  [label="y (5)"];
5 -> 0  [label="z (6)"];
5 -> 6  [label="!z [1]"];
6 -> 2  [label="x (9)"];
6 -> 1  [label="y (9)"];
6 -> 2  [label="z (9)"];
7 -> 7  [label="x (6)"];
7 -> 2  [label="y (6)"];
7 -> 6  [label="z (6)"];
__start0 [label="", shape=none];
__start0 -> 2  [label=""];
}
