digraph "benchmarks-true-state-lstar-3seeds/n_states=14-n_outputs=9-glitch_percent=0.02/d7b7641d5c3c6e20ca3ae9301ff83e76/RealModel" {
s1 [label="s1|d", shape=record, style=rounded];
s2 [label="s2|i", shape=record, style=rounded];
s3 [label="s3|i", shape=record, style=rounded];
s4 [label="s4|c", shape=record, style=rounded];
s5 [label="s5|d", shape=record, style=rounded];
s6 [label="s6|d", shape=record, style=rounded];
s7 [label="s7|i", shape=record, style=rounded];
s8 [label="s8|e", shape=record, style=rounded];
s9 [label="s9|g", shape=record, style=rounded];
s10 [label="s10|i", shape=record, style=rounded];
s11 [label="s11|h", shape=record, style=rounded];
s12 [label="s12|i", shape=record, style=rounded];
s13 [label="s13|i", shape=record, style=rounded];
s14 [label="s14|f", shape=record, style=rounded];
s1 -> s11  [label="x"];
s1 -> s13  [label="y"];
s1 -> s7  [label="z"];
s2 -> s14  [label="x"];
s2 -> s13  [label="y"];
s2 -> s11  [label="z"];
s3 -> s4  [label="x"];
s3 -> s13  [label="y"];
s3 -> s13  [label="z"];
s4 -> s1  [label="x"];
s4 -> s8  [label="y"];
s4 -> s14  [label="z"];
s5 -> s13  [label="x"];
s5 -> s14  [label="y"];
s5 -> s12  [label="z"];
s6 -> s14  [label="x"];
s6 -> s3  [label="y"];
s6 -> s6  [label="z"];
s7 -> s4  [label="x"];
s7 -> s14  [label="y"];
s7 -> s8  [label="z"];
s8 -> s1  [label="x"];
s8 -> s2  [label="y"];
s8 -> s14  [label="z"];
s9 -> s5  [label="x"];
s9 -> s8  [label="y"];
s9 -> s11  [label="z"];
s10 -> s8  [label="x"];
s10 -> s13  [label="y"];
s10 -> s13  [label="z"];
s11 -> s9  [label="x"];
s11 -> s6  [label="y"];
s11 -> s12  [label="z"];
s12 -> s10  [label="x"];
s12 -> s5  [label="y"];
s12 -> s6  [label="z"];
s13 -> s10  [label="x"];
s13 -> s2  [label="y"];
s13 -> s3  [label="z"];
s14 -> s3  [label="x"];
s14 -> s8  [label="y"];
s14 -> s1  [label="z"];
__start0 [label="", shape=none];
__start0 -> s1  [label=""];
}
