digraph "benchmarks-true-state-lstar-rc10seeds/n_states=7-n_outputs=3-glitch_percent=0.02/c2f07c449b9d63fac5e33956e65284de/pmsatLearned_NOP-N7-STOC" {
0 [label="0|a", shape=record, style=rounded];
1 [label="1|c", shape=record, style=rounded];
2 [label="2|c", shape=record, style=rounded];
3 [label="3|b", shape=record, style=rounded];
4 [label="4|c", shape=record, style=rounded];
5 [label="5|b", shape=record, style=rounded];
6 [label="6|c", shape=record, style=rounded];
0 -> 4  [label="z (22)"];
0 -> 5  [label="y (24)"];
0 -> 3  [label="x (70)"];
0 -> 6  [label="!x [1]"];
1 -> 5  [label="x (8)"];
1 -> 2  [label="y (7)"];
1 -> 0  [label="z (6)"];
2 -> 6  [label="x (16)"];
2 -> 4  [label="y (20)"];
2 -> 2  [label="z (10)"];
3 -> 6  [label="x (21)"];
3 -> 1  [label="y (24)"];
3 -> 2  [label="z (26)"];
4 -> 6  [label="x (21)"];
4 -> 6  [label="y (11)"];
4 -> 6  [label="z (8)"];
5 -> 2  [label="x (10)"];
5 -> 2  [label="y (11)"];
5 -> 3  [label="z (7)"];
6 -> 5  [label="x (14)"];
6 -> 4  [label="y (15)"];
6 -> 2  [label="z (10)"];
__start0 [label="", shape=none];
__start0 -> 0  [label=""];
}
