digraph "pmsatLearned-N8-STOC" {
0 [label="0|a", shape=record, style=rounded];
1 [label="1|b", shape=record, style=rounded];
2 [label="2|c", shape=record, style=rounded];
3 [label="3|d", shape=record, style=rounded];
4 [label="4|e", shape=record, style=rounded];
5 [label="5|b", shape=record, style=rounded];
6 [label="6|d", shape=record, style=rounded];
7 [label="7|e", shape=record, style=rounded];
0 -> 2  [label="x (29)"];
0 -> 5  [label="y (20)"];
0 -> 5  [label="z (30)"];
0 -> 4  [label="!z [1]"];
1 -> 6  [label="x (91)"];
1 -> 1  [label="y (86)"];
1 -> 7  [label="z (101)"];
1 -> 4  [label="!y [1]"];
1 -> 5  [label="!y [1] t1"];
2 -> 1  [label="x (9)"];
2 -> 3  [label="y (9)"];
2 -> 6  [label="z (9)"];
3 -> 7  [label="z (50)"];
3 -> 0  [label="y (91)"];
3 -> 4  [label="x (107)"];
3 -> 6  [label="!y [1]"];
3 -> 1  [label="!x [1]"];
4 -> 1  [label="x (156)"];
4 -> 6  [label="y (158)"];
4 -> 5  [label="z (170)"];
4 -> 1  [label="!y [1]"];
4 -> 5  [label="!x [1]"];
5 -> 1  [label="x (67)"];
5 -> 6  [label="y (59)"];
5 -> 4  [label="z (63)"];
5 -> 4  [label="!x [1]"];
6 -> 4  [label="x (124)"];
6 -> 4  [label="y (103)"];
6 -> 4  [label="z (110)"];
6 -> 5  [label="!z [1]"];
6 -> 7  [label="!y [1]"];
6 -> 1  [label="!x [1]"];
6 -> 6  [label="!y [1] t1"];
7 -> 6  [label="x (37)"];
7 -> 6  [label="y (45)"];
7 -> 4  [label="z (49)"];
__start0 [label="", shape=none];
__start0 -> 3  [label=""];
}
