digraph "benchmarks-true-state-lstar-rc10seeds/n_states=10-n_outputs=3-glitch_percent=0.01/107e9dbe8608d7600d95d2ffc4c5e1b3/pmsatLearned_NOP-N10-STOC" {
0 [label="0|b", shape=record, style=rounded];
1 [label="1|c", shape=record, style=rounded];
2 [label="2|c", shape=record, style=rounded];
3 [label="3|a", shape=record, style=rounded];
4 [label="4|c", shape=record, style=rounded];
5 [label="5|a", shape=record, style=rounded];
6 [label="6|c", shape=record, style=rounded];
7 [label="7|c", shape=record, style=rounded];
8 [label="8|b", shape=record, style=rounded];
9 [label="9|c", shape=record, style=rounded];
0 -> 2  [label="x (17)"];
0 -> 0  [label="y (9)"];
0 -> 8  [label="z (9)"];
1 -> 7  [label="x (30)"];
1 -> 0  [label="y (24)"];
1 -> 5  [label="z (23)"];
2 -> 3  [label="z (23)"];
2 -> 9  [label="y (71)"];
2 -> 1  [label="x (76)"];
2 -> 1  [label="!z [1]"];
3 -> 5  [label="x (19)"];
3 -> 5  [label="y (10)"];
3 -> 5  [label="z (10)"];
4 -> 4  [label="x (15)"];
4 -> 0  [label="y (6)"];
4 -> 9  [label="z (8)"];
5 -> 0  [label="x (25)"];
5 -> 3  [label="y (10)"];
5 -> 1  [label="z (10)"];
6 -> 5  [label="x (13)"];
6 -> 6  [label="y (6)"];
6 -> 4  [label="z (7)"];
7 -> 3  [label="x (11)"];
7 -> 1  [label="y (6)"];
7 -> 9  [label="z (5)"];
8 -> 3  [label="x (12)"];
8 -> 3  [label="y (7)"];
8 -> 2  [label="z (7)"];
9 -> 8  [label="x (26)"];
9 -> 6  [label="y (27)"];
9 -> 4  [label="z (22)"];
__start0 [label="", shape=none];
__start0 -> 2  [label=""];
}
