digraph "benchmarks-true-state-lstar-songp/n_states=10-n_outputs=2-glitch_percent=0.01-pmstrat='rc2'/24c810ee4b8520686e2f54cbe4200d69/pmsatLearned-N10-STOC" {
0 [label="0|a", shape=record, style=rounded];
1 [label="1|b", shape=record, style=rounded];
2 [label="2|a", shape=record, style=rounded];
3 [label="3|a", shape=record, style=rounded];
4 [label="4|b", shape=record, style=rounded];
5 [label="5|b", shape=record, style=rounded];
6 [label="6|b", shape=record, style=rounded];
7 [label="7|a", shape=record, style=rounded];
8 [label="8|b", shape=record, style=rounded];
9 [label="9|b", shape=record, style=rounded];
0 -> 6  [label="z (33)"];
0 -> 7  [label="y (112)"];
0 -> 5  [label="x (109)"];
0 -> 4  [label="!y [1]"];
1 -> 2  [label="x (18)"];
1 -> 6  [label="y (16)"];
1 -> 6  [label="z (9)"];
2 -> 1  [label="x (45)"];
2 -> 2  [label="y (29)"];
2 -> 5  [label="z (28)"];
3 -> 4  [label="x (15)"];
3 -> 0  [label="y (9)"];
3 -> 9  [label="z (8)"];
4 -> 9  [label="x (24)"];
4 -> 7  [label="y (15)"];
4 -> 6  [label="z (14)"];
5 -> 2  [label="x (44)"];
5 -> 4  [label="y (36)"];
5 -> 8  [label="z (31)"];
5 -> 5  [label="!y [1]"];
6 -> 4  [label="x (16)"];
6 -> 2  [label="y (19)"];
6 -> 7  [label="z (16)"];
7 -> 3  [label="x (45)"];
7 -> 9  [label="y (37)"];
7 -> 1  [label="z (41)"];
7 -> 0  [label="!z [1]"];
8 -> 9  [label="x (9)"];
8 -> 2  [label="y (10)"];
8 -> 5  [label="z (8)"];
9 -> 2  [label="y (19)"];
9 -> 0  [label="z (13)"];
9 -> 0  [label="x (21)"];
9 -> 1  [label="!x [1]"];
__start0 [label="", shape=none];
__start0 -> 0  [label=""];
}
