digraph "benchmarks-true-state-lstar-3seeds/n_states=15-n_outputs=9-glitch_percent=0.02/a51d81aab13c46246869f0191e83ada9/RealModel" {
s1 [label="s1|b", shape=record, style=rounded];
s2 [label="s2|f", shape=record, style=rounded];
s3 [label="s3|g", shape=record, style=rounded];
s4 [label="s4|b", shape=record, style=rounded];
s5 [label="s5|f", shape=record, style=rounded];
s6 [label="s6|i", shape=record, style=rounded];
s7 [label="s7|i", shape=record, style=rounded];
s8 [label="s8|a", shape=record, style=rounded];
s9 [label="s9|a", shape=record, style=rounded];
s10 [label="s10|e", shape=record, style=rounded];
s11 [label="s11|c", shape=record, style=rounded];
s12 [label="s12|h", shape=record, style=rounded];
s13 [label="s13|a", shape=record, style=rounded];
s14 [label="s14|i", shape=record, style=rounded];
s15 [label="s15|i", shape=record, style=rounded];
s1 -> s5  [label="x"];
s1 -> s12  [label="y"];
s1 -> s7  [label="z"];
s2 -> s1  [label="x"];
s2 -> s11  [label="y"];
s2 -> s7  [label="z"];
s3 -> s10  [label="x"];
s3 -> s5  [label="y"];
s3 -> s9  [label="z"];
s4 -> s12  [label="x"];
s4 -> s9  [label="y"];
s4 -> s15  [label="z"];
s5 -> s14  [label="x"];
s5 -> s9  [label="y"];
s5 -> s11  [label="z"];
s6 -> s13  [label="x"];
s6 -> s15  [label="y"];
s6 -> s2  [label="z"];
s7 -> s6  [label="x"];
s7 -> s3  [label="y"];
s7 -> s10  [label="z"];
s8 -> s6  [label="x"];
s8 -> s5  [label="y"];
s8 -> s10  [label="z"];
s9 -> s6  [label="x"];
s9 -> s5  [label="y"];
s9 -> s11  [label="z"];
s10 -> s10  [label="x"];
s10 -> s9  [label="y"];
s10 -> s6  [label="z"];
s11 -> s7  [label="x"];
s11 -> s10  [label="y"];
s11 -> s10  [label="z"];
s12 -> s2  [label="x"];
s12 -> s4  [label="y"];
s12 -> s15  [label="z"];
s13 -> s3  [label="x"];
s13 -> s8  [label="y"];
s13 -> s4  [label="z"];
s14 -> s13  [label="x"];
s14 -> s8  [label="y"];
s14 -> s13  [label="z"];
s15 -> s10  [label="x"];
s15 -> s4  [label="y"];
s15 -> s11  [label="z"];
__start0 [label="", shape=none];
__start0 -> s1  [label=""];
}
