digraph "benchmarks-true-state-lstar-3seeds/n_states=8-n_outputs=5-glitch_percent=0.02/78071f1b8c56eb983a25b9acf6ab60a3/pmsatLearned-N8" {
0 [label="0|a", shape=record, style=rounded];
1 [label="1|c", shape=record, style=rounded];
2 [label="2|d", shape=record, style=rounded];
3 [label="3|e", shape=record, style=rounded];
4 [label="4|a", shape=record, style=rounded];
5 [label="5|e", shape=record, style=rounded];
6 [label="6|c", shape=record, style=rounded];
7 [label="7|a", shape=record, style=rounded];
0 -> 6  [label="z"];
0 -> 1  [label="y"];
0 -> 3  [label="x"];
1 -> 7  [label="x"];
1 -> 6  [label="y"];
1 -> 5  [label="z"];
2 -> 6  [label="x"];
2 -> 3  [label="y"];
2 -> 0  [label="z"];
3 -> 4  [label="x"];
3 -> 5  [label="y"];
3 -> 2  [label="z"];
4 -> 2  [label="x"];
4 -> 1  [label="y"];
4 -> 3  [label="z"];
5 -> 3  [label="x"];
5 -> 5  [label="y"];
5 -> 5  [label="z"];
6 -> 3  [label="x"];
6 -> 0  [label="y"];
6 -> 4  [label="z"];
7 -> 3  [label="x"];
7 -> 4  [label="y"];
7 -> 1  [label="z"];
__start0 [label="", shape=none];
__start0 -> 0  [label=""];
}
