digraph "benchmarks-true-state-lstar-3seeds/n_states=11-n_outputs=3-glitch_percent=0.02/d085fc4d46935523665649f1fecf1d38/pmsatLearned-N11-STOC" {
0 [label="0|a", shape=record, style=rounded];
1 [label="1|b", shape=record, style=rounded];
2 [label="2|c", shape=record, style=rounded];
3 [label="3|a", shape=record, style=rounded];
4 [label="4|a", shape=record, style=rounded];
5 [label="5|c", shape=record, style=rounded];
6 [label="6|a", shape=record, style=rounded];
7 [label="7|b", shape=record, style=rounded];
8 [label="8|c", shape=record, style=rounded];
9 [label="9|c", shape=record, style=rounded];
10 [label="10|b", shape=record, style=rounded];
0 -> 9  [label="z (33)"];
0 -> 10  [label="y (56)"];
0 -> 5  [label="x (56)"];
0 -> 8  [label="!y [1]"];
0 -> 4  [label="!x [1]"];
1 -> 4  [label="x (9)"];
1 -> 1  [label="y (9)"];
1 -> 10  [label="z (9)"];
2 -> 0  [label="x (7)"];
2 -> 5  [label="z (7)"];
2 -> 2  [label="y (6)"];
3 -> 4  [label="x (6)"];
3 -> 5  [label="y (6)"];
3 -> 6  [label="z (6)"];
4 -> 7  [label="x (7)"];
4 -> 6  [label="y (5)"];
4 -> 6  [label="z (5)"];
4 -> 2  [label="!z [1]"];
5 -> 4  [label="x (16)"];
5 -> 7  [label="y (19)"];
5 -> 3  [label="z (19)"];
5 -> 0  [label="!y [1]"];
6 -> 8  [label="x (6)"];
6 -> 1  [label="y (8)"];
6 -> 0  [label="z (7)"];
7 -> 1  [label="x (6)"];
7 -> 10  [label="y (6)"];
7 -> 8  [label="z (6)"];
8 -> 3  [label="x (7)"];
8 -> 0  [label="y (7)"];
8 -> 1  [label="z (7)"];
9 -> 2  [label="x (17)"];
9 -> 2  [label="y (5)"];
9 -> 0  [label="z (6)"];
10 -> 1  [label="x (19)"];
10 -> 8  [label="y (18)"];
10 -> 6  [label="z (19)"];
__start0 [label="", shape=none];
__start0 -> 0  [label=""];
}
