digraph "benchmarks-true-state-lstar-3seeds/n_states=10-n_outputs=4-glitch_percent=0.1/d3e54ce2213bb87084b942ad884ef47c/pmsatLearned-N10-STOC" {
0 [label="0|b", shape=record, style=rounded];
1 [label="1|c", shape=record, style=rounded];
2 [label="2|d", shape=record, style=rounded];
3 [label="3|c", shape=record, style=rounded];
4 [label="4|b", shape=record, style=rounded];
5 [label="5|b", shape=record, style=rounded];
6 [label="6|b", shape=record, style=rounded];
7 [label="7|d", shape=record, style=rounded];
8 [label="8|d", shape=record, style=rounded];
9 [label="9|c", shape=record, style=rounded];
0 -> 9  [label="z (27)"];
0 -> 4  [label="!y [1]"];
0 -> 1  [label="y (69)"];
0 -> 8  [label="x (71)"];
0 -> 0  [label="!x [1]"];
0 -> 2  [label="!z [1]"];
0 -> 5  [label="!y [2]"];
1 -> 2  [label="x (24)"];
1 -> 7  [label="y (20)"];
1 -> 3  [label="z (21)"];
1 -> 1  [label="!z [1]"];
1 -> 0  [label="!x [1]"];
1 -> 4  [label="!y [1]"];
2 -> 0  [label="x (11)"];
2 -> 0  [label="y (8)"];
2 -> 4  [label="z (12)"];
2 -> 1  [label="!y [1]"];
2 -> 1  [label="!z [1]"];
3 -> 1  [label="x (9)"];
3 -> 9  [label="y (6)"];
3 -> 0  [label="z (6)"];
3 -> 8  [label="!z [1]"];
4 -> 2  [label="x (11)"];
4 -> 3  [label="y (8)"];
4 -> 8  [label="z (11)"];
4 -> 4  [label="!x [1]"];
5 -> 9  [label="x (9)"];
5 -> 6  [label="y (7)"];
5 -> 4  [label="z (7)"];
6 -> 9  [label="x (5)"];
6 -> 5  [label="y (4)"];
6 -> 9  [label="z (5)"];
6 -> 4  [label="!y [1]"];
7 -> 2  [label="x (7)"];
7 -> 4  [label="y (4)"];
7 -> 5  [label="z (5)"];
8 -> 4  [label="x (25)"];
8 -> 6  [label="z (23)"];
8 -> 5  [label="y (19)"];
8 -> 3  [label="!x [1]"];
8 -> 0  [label="!y [1]"];
8 -> 0  [label="!z [1]"];
9 -> 9  [label="x (12)"];
9 -> 8  [label="z (17)"];
9 -> 5  [label="y (8)"];
__start0 [label="", shape=none];
__start0 -> 0  [label=""];
}
