digraph "benchmarks-true-state-lstar-3seeds/n_states=12-n_outputs=3-glitch_percent=0.01/46b6e05555904d1d2eddfa171319da54/pmsatLearned-N12-STOC" {
0 [label="0|a", shape=record, style=rounded];
1 [label="1|b", shape=record, style=rounded];
2 [label="2|c", shape=record, style=rounded];
3 [label="3|b", shape=record, style=rounded];
4 [label="4|b", shape=record, style=rounded];
5 [label="5|b", shape=record, style=rounded];
6 [label="6|b", shape=record, style=rounded];
7 [label="7|b", shape=record, style=rounded];
8 [label="8|c", shape=record, style=rounded];
9 [label="9|c", shape=record, style=rounded];
10 [label="10|b", shape=record, style=rounded];
11 [label="11|c", shape=record, style=rounded];
0 -> 3  [label="x (34)"];
0 -> 2  [label="y (35)"];
0 -> 4  [label="z (40)"];
1 -> 6  [label="z (80)"];
1 -> 8  [label="y (102)"];
1 -> 0  [label="x (110)"];
1 -> 9  [label="!y [1]"];
2 -> 4  [label="x (33)"];
2 -> 2  [label="y (17)"];
2 -> 1  [label="z (20)"];
3 -> 8  [label="x (9)"];
3 -> 8  [label="y (10)"];
3 -> 9  [label="z (12)"];
4 -> 8  [label="x (15)"];
4 -> 9  [label="y (17)"];
4 -> 11  [label="z (22)"];
4 -> 1  [label="!x [1]"];
5 -> 2  [label="x (24)"];
5 -> 2  [label="y (13)"];
5 -> 11  [label="z (16)"];
5 -> 0  [label="!x [1]"];
6 -> 11  [label="x (39)"];
6 -> 10  [label="y (32)"];
6 -> 2  [label="z (12)"];
7 -> 11  [label="x (8)"];
7 -> 9  [label="y (9)"];
7 -> 4  [label="z (14)"];
7 -> 1  [label="!x [1]"];
8 -> 7  [label="x (50)"];
8 -> 9  [label="y (38)"];
8 -> 5  [label="z (45)"];
8 -> 6  [label="!z [1]"];
9 -> 9  [label="x (39)"];
9 -> 8  [label="y (21)"];
9 -> 5  [label="z (28)"];
10 -> 0  [label="x (11)"];
10 -> 9  [label="y (8)"];
10 -> 5  [label="z (9)"];
10 -> 2  [label="!x [1]"];
11 -> 1  [label="x (22)"];
11 -> 6  [label="y (15)"];
11 -> 9  [label="z (18)"];
__start0 [label="", shape=none];
__start0 -> 1  [label=""];
}
