digraph "pmsatLearned-N8-STOC" {
0 [label="0|b", shape=record, style=rounded];
1 [label="1|c", shape=record, style=rounded];
2 [label="2|d", shape=record, style=rounded];
3 [label="3|e", shape=record, style=rounded];
4 [label="4|d", shape=record, style=rounded];
5 [label="5|d", shape=record, style=rounded];
6 [label="6|d", shape=record, style=rounded];
7 [label="7|b", shape=record, style=rounded];
0 -> 2  [label="z (194)"];
0 -> 6  [label="y (191)"];
0 -> 3  [label="x (220)"];
0 -> 4  [label="!y [1]"];
0 -> 7  [label="!y [2]"];
0 -> 4  [label="!z [1]"];
0 -> 1  [label="!x [2]"];
0 -> 4  [label="!x [2] t1"];
0 -> 7  [label="!z [1] t1"];
1 -> 2  [label="x (372)"];
1 -> 7  [label="y (385)"];
1 -> 2  [label="z (363)"];
1 -> 1  [label="!y [1]"];
1 -> 1  [label="!z [1]"];
1 -> 5  [label="!z [1] t1"];
1 -> 1  [label="!x [1]"];
2 -> 1  [label="x (328)"];
2 -> 7  [label="y (308)"];
2 -> 4  [label="z (342)"];
2 -> 1  [label="!z [2]"];
2 -> 7  [label="!x [1]"];
2 -> 3  [label="!x [1] t1"];
2 -> 4  [label="!y [1]"];
3 -> 5  [label="x (118)"];
3 -> 7  [label="y (117)"];
3 -> 1  [label="z (116)"];
3 -> 1  [label="!y [1]"];
3 -> 0  [label="!x [1]"];
3 -> 2  [label="!z [1]"];
4 -> 3  [label="x (169)"];
4 -> 4  [label="y (165)"];
4 -> 2  [label="z (177)"];
4 -> 4  [label="!z [1]"];
5 -> 5  [label="y (94)"];
5 -> 5  [label="z (87)"];
5 -> 7  [label="x (75)"];
5 -> 1  [label="!z [2]"];
6 -> 4  [label="x (61)"];
6 -> 0  [label="y (53)"];
6 -> 7  [label="z (60)"];
7 -> 7  [label="x (420)"];
7 -> 1  [label="y (413)"];
7 -> 1  [label="z (391)"];
7 -> 7  [label="!y [2]"];
7 -> 0  [label="!y [1]"];
7 -> 2  [label="!z [2]"];
7 -> 6  [label="!z [1]"];
7 -> 2  [label="!x [1]"];
__start0 [label="", shape=none];
__start0 -> 0  [label=""];
}
