digraph "pmsatLearned-N8-STOC" {
0 [label="0|a", shape=record, style=rounded];
1 [label="1|b", shape=record, style=rounded];
2 [label="2|c", shape=record, style=rounded];
3 [label="3|d", shape=record, style=rounded];
4 [label="4|e", shape=record, style=rounded];
5 [label="5|b", shape=record, style=rounded];
6 [label="6|b", shape=record, style=rounded];
7 [label="7|a", shape=record, style=rounded];
0 -> 5  [label="x (196)"];
0 -> 3  [label="y (154)"];
0 -> 7  [label="z (146)"];
0 -> 0  [label="!x [2]"];
0 -> 7  [label="!x [1]"];
1 -> 4  [label="z (228)"];
1 -> 6  [label="y (285)"];
1 -> 2  [label="x (259)"];
1 -> 5  [label="!x [2]"];
1 -> 0  [label="!y [1]"];
1 -> 7  [label="!y [2]"];
1 -> 3  [label="!x [2] t1"];
1 -> 1  [label="!z [1]"];
1 -> 3  [label="!y [1] t1"];
2 -> 5  [label="x (64)"];
2 -> 7  [label="y (89)"];
2 -> 0  [label="z (86)"];
3 -> 0  [label="x (214)"];
3 -> 3  [label="y (222)"];
3 -> 7  [label="z (216)"];
3 -> 6  [label="!x [2]"];
3 -> 5  [label="!x [1]"];
4 -> 1  [label="x (96)"];
4 -> 3  [label="y (101)"];
4 -> 3  [label="z (116)"];
4 -> 7  [label="!z [1]"];
4 -> 0  [label="!x [1]"];
5 -> 0  [label="x (131)"];
5 -> 4  [label="y (121)"];
5 -> 7  [label="z (122)"];
5 -> 5  [label="!z [2]"];
5 -> 0  [label="!z [2] t1"];
6 -> 3  [label="x (140)"];
6 -> 0  [label="y (130)"];
6 -> 1  [label="z (132)"];
6 -> 0  [label="!x [1]"];
6 -> 3  [label="!y [1]"];
7 -> 6  [label="x (160)"];
7 -> 1  [label="y (172)"];
7 -> 5  [label="z (159)"];
7 -> 3  [label="!x [2]"];
7 -> 0  [label="!y [1]"];
__start0 [label="", shape=none];
__start0 -> 1  [label=""];
}
