digraph "benchmarks-true-state-lstar-3seeds/n_states=12-n_outputs=9-glitch_percent=0.1/d124568c1880caf93a0ddd2d1cecbd69/pmsatLearned-N12" {
0 [label="0|b", shape=record, style=rounded];
1 [label="1|c", shape=record, style=rounded];
2 [label="2|d", shape=record, style=rounded];
3 [label="3|e", shape=record, style=rounded];
4 [label="4|f", shape=record, style=rounded];
5 [label="5|g", shape=record, style=rounded];
6 [label="6|i", shape=record, style=rounded];
7 [label="7|c", shape=record, style=rounded];
8 [label="8|i", shape=record, style=rounded];
9 [label="9|c", shape=record, style=rounded];
10 [label="10|i", shape=record, style=rounded];
11 [label="11|i", shape=record, style=rounded];
0 -> 9  [label="x"];
0 -> 7  [label="z"];
0 -> 10  [label="y"];
1 -> 9  [label="x"];
1 -> 7  [label="y"];
1 -> 3  [label="z"];
2 -> 6  [label="x"];
2 -> 0  [label="y"];
2 -> 5  [label="z"];
3 -> 1  [label="x"];
3 -> 2  [label="z"];
3 -> 0  [label="y"];
4 -> 3  [label="x"];
4 -> 4  [label="y"];
4 -> 11  [label="z"];
5 -> 11  [label="x"];
5 -> 2  [label="y"];
5 -> 7  [label="z"];
6 -> 3  [label="z"];
6 -> 10  [label="y"];
6 -> 5  [label="x"];
7 -> 6  [label="x"];
7 -> 3  [label="y"];
7 -> 0  [label="z"];
8 -> 10  [label="x"];
8 -> 8  [label="y"];
8 -> 9  [label="z"];
9 -> 6  [label="x"];
9 -> 1  [label="y"];
9 -> 8  [label="z"];
10 -> 4  [label="x"];
10 -> 9  [label="z"];
10 -> 8  [label="y"];
11 -> 9  [label="x"];
11 -> 7  [label="y"];
11 -> 9  [label="z"];
__start0 [label="", shape=none];
__start0 -> 6  [label=""];
}
