digraph "benchmarks-true-state-lstar-3seeds/n_states=12-n_outputs=7-glitch_percent=0.05/1ea9b1708b5cfdcb6f89afd7a8588cf4/pmsatLearned-N12-STOC" {
0 [label="0|a", shape=record, style=rounded];
1 [label="1|b", shape=record, style=rounded];
2 [label="2|c", shape=record, style=rounded];
3 [label="3|d", shape=record, style=rounded];
4 [label="4|e", shape=record, style=rounded];
5 [label="5|f", shape=record, style=rounded];
6 [label="6|g", shape=record, style=rounded];
7 [label="7|b", shape=record, style=rounded];
8 [label="8|b", shape=record, style=rounded];
9 [label="9|a", shape=record, style=rounded];
10 [label="10|d", shape=record, style=rounded];
11 [label="11|e", shape=record, style=rounded];
0 -> 4  [label="y (10)"];
0 -> 11  [label="z (10)"];
0 -> 2  [label="x (13)"];
1 -> 3  [label="x (12)"];
1 -> 0  [label="y (10)"];
1 -> 7  [label="z (6)"];
1 -> 7  [label="!y [1]"];
2 -> 1  [label="x (11)"];
2 -> 11  [label="y (11)"];
2 -> 2  [label="z (8)"];
3 -> 11  [label="z (49)"];
3 -> 8  [label="y (71)"];
3 -> 4  [label="x (65)"];
3 -> 1  [label="!z [2]"];
3 -> 5  [label="!y [2]"];
3 -> 0  [label="!y [1]"];
3 -> 10  [label="!x [2]"];
3 -> 6  [label="!x [1]"];
4 -> 6  [label="x (23)"];
4 -> 0  [label="y (24)"];
4 -> 2  [label="z (21)"];
4 -> 6  [label="!z [1]"];
4 -> 11  [label="!x [1]"];
5 -> 5  [label="x (9)"];
5 -> 5  [label="y (11)"];
5 -> 4  [label="z (8)"];
6 -> 11  [label="x (11)"];
6 -> 0  [label="y (11)"];
6 -> 6  [label="z (6)"];
6 -> 2  [label="!x [1]"];
7 -> 11  [label="x (8)"];
7 -> 10  [label="y (12)"];
7 -> 10  [label="z (7)"];
8 -> 10  [label="x (21)"];
8 -> 9  [label="y (20)"];
8 -> 1  [label="z (23)"];
9 -> 11  [label="x (10)"];
9 -> 9  [label="y (7)"];
9 -> 6  [label="z (6)"];
10 -> 11  [label="x (9)"];
10 -> 6  [label="y (10)"];
10 -> 0  [label="z (8)"];
10 -> 7  [label="!x [1]"];
10 -> 5  [label="!y [1]"];
11 -> 7  [label="x (31)"];
11 -> 5  [label="y (33)"];
11 -> 0  [label="z (12)"];
11 -> 11  [label="!x [1]"];
__start0 [label="", shape=none];
__start0 -> 3  [label=""];
}
