digraph "benchmarks-true-state-lstar-rc10seeds/n_states=13-n_outputs=4-glitch_percent=0.01/716f662100da3994ab1170fb05c571d3/pmsatLearned_NOP-N13-STOC" {
0 [label="0|a", shape=record, style=rounded];
1 [label="1|a", shape=record, style=rounded];
2 [label="2|a", shape=record, style=rounded];
3 [label="3|d", shape=record, style=rounded];
4 [label="4|b", shape=record, style=rounded];
5 [label="5|a", shape=record, style=rounded];
6 [label="6|b", shape=record, style=rounded];
7 [label="7|a", shape=record, style=rounded];
8 [label="8|c", shape=record, style=rounded];
9 [label="9|d", shape=record, style=rounded];
10 [label="10|c", shape=record, style=rounded];
11 [label="11|c", shape=record, style=rounded];
12 [label="12|c", shape=record, style=rounded];
0 -> 4  [label="z (53)"];
0 -> 2  [label="y (53)"];
0 -> 7  [label="x (54)"];
0 -> 9  [label="!x [1]"];
0 -> 1  [label="!y [1]"];
1 -> 2  [label="x (7)"];
1 -> 6  [label="y (7)"];
1 -> 4  [label="z (7)"];
2 -> 1  [label="x (18)"];
2 -> 3  [label="y (19)"];
2 -> 10  [label="z (19)"];
3 -> 9  [label="x (6)"];
3 -> 1  [label="y (5)"];
3 -> 7  [label="z (6)"];
4 -> 9  [label="x (19)"];
4 -> 11  [label="y (20)"];
4 -> 12  [label="z (19)"];
4 -> 2  [label="!z [1]"];
5 -> 7  [label="x (8)"];
5 -> 2  [label="y (8)"];
5 -> 9  [label="z (8)"];
6 -> 9  [label="x (6)"];
6 -> 0  [label="y (6)"];
6 -> 7  [label="z (6)"];
7 -> 8  [label="x (20)"];
7 -> 5  [label="y (20)"];
7 -> 6  [label="z (20)"];
8 -> 10  [label="x (6)"];
8 -> 5  [label="y (6)"];
8 -> 12  [label="z (6)"];
9 -> 12  [label="x (10)"];
9 -> 4  [label="y (10)"];
9 -> 9  [label="z (9)"];
10 -> 10  [label="x (7)"];
10 -> 8  [label="y (7)"];
10 -> 9  [label="z (7)"];
11 -> 4  [label="x (6)"];
11 -> 5  [label="y (6)"];
11 -> 3  [label="z (6)"];
12 -> 11  [label="x (7)"];
12 -> 1  [label="y (7)"];
12 -> 5  [label="z (6)"];
__start0 [label="", shape=none];
__start0 -> 0  [label=""];
}
