digraph "benchmarks-true-state-lstar-3seeds/n_states=7-n_outputs=4-glitch_percent=0.1/915b9c63cf3302a80e11c5d6a17c460c/pmsatLearned-N7-STOC" {
0 [label="0|a", shape=record, style=rounded];
1 [label="1|b", shape=record, style=rounded];
2 [label="2|c", shape=record, style=rounded];
3 [label="3|d", shape=record, style=rounded];
4 [label="4|a", shape=record, style=rounded];
5 [label="5|b", shape=record, style=rounded];
6 [label="6|d", shape=record, style=rounded];
0 -> 0  [label="x (7)"];
0 -> 1  [label="y (6)"];
0 -> 5  [label="z (7)"];
1 -> 5  [label="x (17)"];
1 -> 2  [label="y (16)"];
1 -> 0  [label="z (17)"];
1 -> 3  [label="!y [1]"];
1 -> 1  [label="!z [1]"];
2 -> 1  [label="x (6)"];
2 -> 1  [label="z (7)"];
2 -> 3  [label="y (7)"];
2 -> 2  [label="!y [2]"];
2 -> 0  [label="!z [2]"];
3 -> 6  [label="z (17)"];
3 -> 4  [label="y (17)"];
3 -> 1  [label="x (46)"];
3 -> 0  [label="!z [2]"];
3 -> 5  [label="!x [2]"];
3 -> 2  [label="!y [2]"];
4 -> 2  [label="y (4)"];
4 -> 6  [label="z (5)"];
4 -> 2  [label="x (3)"];
5 -> 2  [label="x (6)"];
5 -> 2  [label="y (7)"];
5 -> 1  [label="z (6)"];
6 -> 5  [label="x (7)"];
6 -> 6  [label="y (4)"];
6 -> 0  [label="z (6)"];
__start0 [label="", shape=none];
__start0 -> 3  [label=""];
}
