digraph "benchmarks-true-state-lstar-3seeds/n_states=15-n_outputs=9-glitch_percent=0.02/582830248bcdc8eab930b05e254ef8e9/pmsatLearned-N15-STOC" {
0 [label="0|c", shape=record, style=rounded];
1 [label="1|d", shape=record, style=rounded];
2 [label="2|e", shape=record, style=rounded];
3 [label="3|f", shape=record, style=rounded];
4 [label="4|g", shape=record, style=rounded];
5 [label="5|h", shape=record, style=rounded];
6 [label="6|i", shape=record, style=rounded];
7 [label="7|i", shape=record, style=rounded];
8 [label="8|d", shape=record, style=rounded];
9 [label="9|f", shape=record, style=rounded];
10 [label="10|i", shape=record, style=rounded];
11 [label="11|i", shape=record, style=rounded];
12 [label="12|d", shape=record, style=rounded];
13 [label="13|i", shape=record, style=rounded];
14 [label="14|i", shape=record, style=rounded];
0 -> 13  [label="y (6)"];
0 -> 3  [label="z (6)"];
0 -> 13  [label="x (5)"];
1 -> 6  [label="z (56)"];
1 -> 12  [label="y (53)"];
1 -> 2  [label="x (79)"];
1 -> 14  [label="!x [1]"];
2 -> 14  [label="x (44)"];
2 -> 0  [label="y (20)"];
2 -> 11  [label="z (21)"];
3 -> 10  [label="x (8)"];
3 -> 9  [label="y (8)"];
3 -> 13  [label="z (7)"];
4 -> 3  [label="x (6)"];
4 -> 1  [label="y (6)"];
4 -> 14  [label="z (6)"];
5 -> 6  [label="x (6)"];
5 -> 14  [label="y (5)"];
5 -> 11  [label="z (6)"];
6 -> 4  [label="x (17)"];
6 -> 9  [label="y (18)"];
6 -> 3  [label="z (18)"];
6 -> 12  [label="!z [1]"];
7 -> 4  [label="x (5)"];
7 -> 2  [label="y (5)"];
7 -> 3  [label="z (5)"];
7 -> 14  [label="!y [1]"];
8 -> 1  [label="x (5)"];
8 -> 2  [label="y (5)"];
8 -> 9  [label="z (5)"];
9 -> 9  [label="x (10)"];
9 -> 13  [label="y (10)"];
9 -> 9  [label="z (10)"];
10 -> 0  [label="x (6)"];
10 -> 13  [label="y (6)"];
10 -> 13  [label="z (6)"];
11 -> 9  [label="x (7)"];
11 -> 13  [label="y (7)"];
11 -> 5  [label="z (7)"];
12 -> 8  [label="y (18)"];
12 -> 13  [label="z (15)"];
12 -> 10  [label="x (16)"];
13 -> 11  [label="x (13)"];
13 -> 2  [label="y (10)"];
13 -> 1  [label="z (10)"];
14 -> 7  [label="y (19)"];
14 -> 2  [label="z (7)"];
14 -> 5  [label="x (17)"];
__start0 [label="", shape=none];
__start0 -> 1  [label=""];
}
