digraph "benchmarks-true-state-lstar-3seeds/n_states=12-n_outputs=8-glitch_percent=0.05/8424dd457df11ee5328dd252520da04f/rpniGroundTruth" {
s0 [label="s0|d", shape=record, style=rounded];
s1 [label="s1|f", shape=record, style=rounded];
s2 [label="s2|f", shape=record, style=rounded];
s3 [label="s3|h", shape=record, style=rounded];
s4 [label="s4|h", shape=record, style=rounded];
s5 [label="s5|c", shape=record, style=rounded];
s6 [label="s6|a", shape=record, style=rounded];
s7 [label="s7|e", shape=record, style=rounded];
s8 [label="s8|a", shape=record, style=rounded];
s9 [label="s9|h", shape=record, style=rounded];
s10 [label="s10|c", shape=record, style=rounded];
s11 [label="s11|a", shape=record, style=rounded];
s0 -> s1  [label="x"];
s0 -> s2  [label="z"];
s0 -> s3  [label="y"];
s1 -> s4  [label="z"];
s1 -> s5  [label="y"];
s1 -> s6  [label="x"];
s2 -> s7  [label="y"];
s2 -> s2  [label="z"];
s2 -> s8  [label="x"];
s3 -> s9  [label="z"];
s3 -> s10  [label="y"];
s3 -> s11  [label="x"];
s4 -> s3  [label="x"];
s4 -> s7  [label="y"];
s4 -> s2  [label="z"];
s5 -> s11  [label="x"];
s5 -> s9  [label="z"];
s5 -> s4  [label="y"];
s6 -> s0  [label="z"];
s6 -> s7  [label="x"];
s6 -> s6  [label="y"];
s7 -> s10  [label="x"];
s7 -> s9  [label="z"];
s7 -> s1  [label="y"];
s8 -> s5  [label="x"];
s8 -> s1  [label="y"];
s8 -> s11  [label="z"];
s9 -> s7  [label="z"];
s9 -> s0  [label="x"];
s9 -> s5  [label="y"];
s10 -> s1  [label="x"];
s10 -> s9  [label="z"];
s10 -> s7  [label="y"];
s11 -> s6  [label="y"];
s11 -> s6  [label="x"];
s11 -> s5  [label="z"];
__start0 [label="", shape=none];
__start0 -> s0  [label=""];
}
