digraph "benchmarks-true-state-lstar-songp/n_states=12-n_outputs=5-glitch_percent=0.0-pmstrat='rc2'/22a636775595bd07c5d5b8a44e93ac31/pmsatLearned-N12" {
0 [label="0|a", shape=record, style=rounded];
1 [label="1|b", shape=record, style=rounded];
2 [label="2|c", shape=record, style=rounded];
3 [label="3|d", shape=record, style=rounded];
4 [label="4|e", shape=record, style=rounded];
5 [label="5|d", shape=record, style=rounded];
6 [label="6|e", shape=record, style=rounded];
7 [label="7|d", shape=record, style=rounded];
8 [label="8|c", shape=record, style=rounded];
9 [label="9|a", shape=record, style=rounded];
10 [label="10|a", shape=record, style=rounded];
11 [label="11|e", shape=record, style=rounded];
0 -> 7  [label="z"];
0 -> 4  [label="y"];
0 -> 11  [label="x"];
1 -> 3  [label="x"];
1 -> 8  [label="y"];
1 -> 6  [label="z"];
2 -> 1  [label="x"];
2 -> 7  [label="y"];
2 -> 2  [label="z"];
3 -> 3  [label="x"];
3 -> 6  [label="y"];
3 -> 2  [label="z"];
4 -> 2  [label="x"];
4 -> 5  [label="y"];
4 -> 9  [label="z"];
5 -> 0  [label="x"];
5 -> 6  [label="y"];
5 -> 0  [label="z"];
6 -> 1  [label="x"];
6 -> 3  [label="y"];
6 -> 11  [label="z"];
7 -> 10  [label="x"];
7 -> 3  [label="y"];
7 -> 2  [label="z"];
8 -> 1  [label="x"];
8 -> 7  [label="y"];
8 -> 6  [label="z"];
9 -> 1  [label="x"];
9 -> 0  [label="y"];
9 -> 1  [label="z"];
10 -> 8  [label="x"];
10 -> 8  [label="y"];
10 -> 2  [label="z"];
11 -> 6  [label="x"];
11 -> 8  [label="y"];
11 -> 1  [label="z"];
__start0 [label="", shape=none];
__start0 -> 0  [label=""];
}
