digraph "benchmarks-true-state-lstar-3seeds/n_states=14-n_outputs=2-glitch_percent=0.02/ebae519b43c7701f01c385b2fed0e57e/alergiaLearned" {
q0 [label="b"];
q1 [label="b"];
q2 [label="a"];
q3 [label="b"];
q4 [label="a"];
q5 [label="b"];
q0 -> q1  [label="z:0.9875"];
q0 -> q2  [label="z:0.0125"];
q0 -> q2  [label="y:0.963855421686747"];
q0 -> q5  [label="y:0.03614457831325301"];
q0 -> q3  [label="x:0.9743589743589743"];
q0 -> q4  [label="x:0.02564102564102564"];
q1 -> q4  [label="x:0.9375"];
q1 -> q1  [label="x:0.0625"];
q1 -> q4  [label="y:1.0"];
q1 -> q0  [label="y:0.0"];
q1 -> q5  [label="z:1.0"];
q2 -> q4  [label="x:0.918918918918919"];
q2 -> q0  [label="x:0.08108108108108109"];
q2 -> q4  [label="y:0.8620689655172413"];
q2 -> q0  [label="y:0.13793103448275862"];
q2 -> q4  [label="z:0.9259259259259259"];
q2 -> q0  [label="z:0.07407407407407407"];
q3 -> q5  [label="x:1.0"];
q3 -> q2  [label="x:0.0"];
q3 -> q5  [label="y:1.0"];
q3 -> q2  [label="y:0.0"];
q3 -> q5  [label="z:1.0"];
q4 -> q3  [label="y:1.0"];
q4 -> q1  [label="x:0.6212121212121212"];
q4 -> q4  [label="x:0.3787878787878788"];
q4 -> q0  [label="z:0.7894736842105263"];
q4 -> q2  [label="z:0.21052631578947367"];
q5 -> q0  [label="x:0.8307692307692308"];
q5 -> q2  [label="x:0.16923076923076924"];
q5 -> q4  [label="y:0.4666666666666667"];
q5 -> q0  [label="y:0.5333333333333333"];
q5 -> q4  [label="z:0.2222222222222222"];
q5 -> q0  [label="z:0.7777777777777778"];
__start0 [label="", shape=none];
__start0 -> q0  [label=""];
}
