digraph "benchmarks-true-state-lstar-rc10seeds/n_states=17-n_outputs=8-glitch_percent=0.01/3a6ad06f79c7c50f24ba7c8df5cc065c/pmsatLearned_NOP-N17" {
0 [label="0|b", shape=record, style=rounded];
1 [label="1|e", shape=record, style=rounded];
2 [label="2|e", shape=record, style=rounded];
3 [label="3|a", shape=record, style=rounded];
4 [label="4|b", shape=record, style=rounded];
5 [label="5|f", shape=record, style=rounded];
6 [label="6|h", shape=record, style=rounded];
7 [label="7|a", shape=record, style=rounded];
8 [label="8|b", shape=record, style=rounded];
9 [label="9|e", shape=record, style=rounded];
10 [label="10|g", shape=record, style=rounded];
11 [label="11|b", shape=record, style=rounded];
12 [label="12|a", shape=record, style=rounded];
13 [label="13|e", shape=record, style=rounded];
14 [label="14|h", shape=record, style=rounded];
15 [label="15|e", shape=record, style=rounded];
16 [label="16|b", shape=record, style=rounded];
0 -> 2  [label="x"];
0 -> 12  [label="y"];
0 -> 7  [label="z"];
1 -> 1  [label="x"];
1 -> 10  [label="y"];
1 -> 0  [label="z"];
2 -> 7  [label="z"];
2 -> 5  [label="y"];
2 -> 13  [label="x"];
3 -> 2  [label="x"];
3 -> 14  [label="z"];
3 -> 0  [label="y"];
4 -> 5  [label="x"];
4 -> 16  [label="y"];
4 -> 4  [label="z"];
5 -> 16  [label="x"];
5 -> 6  [label="y"];
5 -> 11  [label="z"];
6 -> 1  [label="x"];
6 -> 0  [label="y"];
6 -> 8  [label="z"];
7 -> 0  [label="y"];
7 -> 10  [label="z"];
7 -> 4  [label="x"];
8 -> 11  [label="x"];
8 -> 1  [label="y"];
8 -> 1  [label="z"];
9 -> 3  [label="x"];
9 -> 16  [label="y"];
9 -> 3  [label="z"];
10 -> 11  [label="x"];
10 -> 14  [label="y"];
10 -> 5  [label="z"];
11 -> 10  [label="x"];
11 -> 7  [label="y"];
11 -> 16  [label="z"];
12 -> 9  [label="x"];
12 -> 11  [label="y"];
12 -> 6  [label="z"];
13 -> 15  [label="x"];
13 -> 9  [label="y"];
13 -> 12  [label="z"];
14 -> 4  [label="x"];
14 -> 15  [label="y"];
14 -> 6  [label="z"];
15 -> 8  [label="x"];
15 -> 14  [label="y"];
15 -> 1  [label="z"];
16 -> 2  [label="x"];
16 -> 3  [label="y"];
16 -> 3  [label="z"];
__start0 [label="", shape=none];
__start0 -> 2  [label=""];
}
