digraph "benchmarks-true-state-lstar-3seeds/n_states=16-n_outputs=7-glitch_percent=0.0/553648968d020f59f95344709aa28cdf/alergiaLearned" {
q0 [label="d"];
q1 [label="g"];
q2 [label="f"];
q3 [label="c"];
q4 [label="c"];
q5 [label="e"];
q6 [label="f"];
q7 [label="d"];
q8 [label="g"];
q9 [label="c"];
q10 [label="a"];
q11 [label="b"];
q0 -> q1  [label="z:0.9649122807017544"];
q0 -> q2  [label="z:0.03508771929824561"];
q0 -> q2  [label="y:0.9649122807017544"];
q0 -> q3  [label="y:0.03508771929824561"];
q0 -> q3  [label="x:0.978494623655914"];
q0 -> q11  [label="x:0.021505376344086023"];
q1 -> q4  [label="x:1.0"];
q1 -> q5  [label="y:1.0"];
q1 -> q6  [label="z:1.0"];
q2 -> q7  [label="x:0.8260869565217391"];
q2 -> q5  [label="x:0.17391304347826086"];
q2 -> q4  [label="y:0.9130434782608695"];
q2 -> q0  [label="y:0.08695652173913043"];
q2 -> q8  [label="z:0.8260869565217391"];
q2 -> q3  [label="z:0.08695652173913043"];
q2 -> q11  [label="z:0.08695652173913043"];
q3 -> q9  [label="x:1.0"];
q3 -> q10  [label="y:1.0"];
q3 -> q5  [label="z:1.0"];
q4 -> q4  [label="x:0.35714285714285715"];
q4 -> q2  [label="x:0.42857142857142855"];
q4 -> q11  [label="x:0.21428571428571427"];
q4 -> q11  [label="y:0.5714285714285714"];
q4 -> q1  [label="y:0.42857142857142855"];
q4 -> q4  [label="z:0.35714285714285715"];
q4 -> q2  [label="z:0.6428571428571429"];
q5 -> q5  [label="x:0.6153846153846154"];
q5 -> q0  [label="x:0.38461538461538464"];
q5 -> q11  [label="y:0.6153846153846154"];
q5 -> q10  [label="y:0.38461538461538464"];
q5 -> q2  [label="z:0.6153846153846154"];
q5 -> q1  [label="z:0.38461538461538464"];
q6 -> q5  [label="x:1.0"];
q6 -> q4  [label="y:0.5"];
q6 -> q0  [label="y:0.5"];
q6 -> q3  [label="z:0.5"];
q6 -> q11  [label="z:0.5"];
q7 -> q11  [label="x:1.0"];
q7 -> q4  [label="y:1.0"];
q7 -> q2  [label="z:1.0"];
q8 -> q2  [label="x:1.0"];
q8 -> q1  [label="y:1.0"];
q8 -> q2  [label="z:1.0"];
q9 -> q11  [label="x:1.0"];
q9 -> q11  [label="y:1.0"];
q9 -> q6  [label="z:1.0"];
q10 -> q10  [label="x:1.0"];
q10 -> q11  [label="y:1.0"];
q10 -> q0  [label="z:1.0"];
q11 -> q5  [label="x:1.0"];
q11 -> q2  [label="y:0.625"];
q11 -> q0  [label="y:0.375"];
q11 -> q0  [label="z:0.625"];
q11 -> q11  [label="z:0.375"];
__start0 [label="", shape=none];
__start0 -> q0  [label=""];
}
