digraph "benchmarks-true-state-lstar-rc10seeds/n_states=16-n_outputs=7-glitch_percent=0.05/81b8e302226404c0d8f5d4295f796261/pmsatLearned_NOP-N16" {
0 [label="0|a", shape=record, style=rounded];
1 [label="1|d", shape=record, style=rounded];
2 [label="2|b", shape=record, style=rounded];
3 [label="3|a", shape=record, style=rounded];
4 [label="4|e", shape=record, style=rounded];
5 [label="5|a", shape=record, style=rounded];
6 [label="6|b", shape=record, style=rounded];
7 [label="7|e", shape=record, style=rounded];
8 [label="8|e", shape=record, style=rounded];
9 [label="9|g", shape=record, style=rounded];
10 [label="10|g", shape=record, style=rounded];
11 [label="11|e", shape=record, style=rounded];
12 [label="12|a", shape=record, style=rounded];
13 [label="13|a", shape=record, style=rounded];
14 [label="14|e", shape=record, style=rounded];
15 [label="15|f", shape=record, style=rounded];
0 -> 9  [label="z"];
0 -> 6  [label="y"];
0 -> 12  [label="x"];
1 -> 7  [label="x"];
1 -> 11  [label="y"];
1 -> 4  [label="z"];
2 -> 13  [label="x"];
2 -> 4  [label="z"];
2 -> 11  [label="y"];
3 -> 4  [label="x"];
3 -> 5  [label="y"];
3 -> 13  [label="z"];
4 -> 10  [label="x"];
4 -> 7  [label="y"];
4 -> 10  [label="z"];
5 -> 12  [label="x"];
5 -> 15  [label="y"];
5 -> 8  [label="z"];
6 -> 5  [label="x"];
6 -> 2  [label="y"];
6 -> 8  [label="z"];
7 -> 15  [label="x"];
7 -> 8  [label="y"];
7 -> 3  [label="z"];
8 -> 14  [label="x"];
8 -> 7  [label="y"];
8 -> 12  [label="z"];
9 -> 15  [label="x"];
9 -> 14  [label="y"];
9 -> 13  [label="z"];
10 -> 3  [label="x"];
10 -> 13  [label="y"];
10 -> 14  [label="z"];
11 -> 2  [label="x"];
11 -> 14  [label="y"];
11 -> 7  [label="z"];
12 -> 1  [label="x"];
12 -> 3  [label="y"];
12 -> 10  [label="z"];
13 -> 7  [label="x"];
13 -> 6  [label="y"];
13 -> 14  [label="z"];
14 -> 10  [label="x"];
14 -> 9  [label="y"];
14 -> 2  [label="z"];
15 -> 8  [label="x"];
15 -> 13  [label="y"];
15 -> 9  [label="z"];
__start0 [label="", shape=none];
__start0 -> 0  [label=""];
}
