digraph "benchmarks-true-state-lstar-3seeds/n_states=9-n_outputs=2-glitch_percent=0.05/5a506b6806ab207e7b201dd268e245a4/rpniGroundTruth" {
s0 [label="s0|b", shape=record, style=rounded];
s1 [label="s1|b", shape=record, style=rounded];
s2 [label="s2|b", shape=record, style=rounded];
s3 [label="s3|a", shape=record, style=rounded];
s4 [label="s4|a", shape=record, style=rounded];
s5 [label="s5|a", shape=record, style=rounded];
s6 [label="s6|a", shape=record, style=rounded];
s7 [label="s7|b", shape=record, style=rounded];
s8 [label="s8|b", shape=record, style=rounded];
s0 -> s1  [label="y"];
s0 -> s2  [label="x"];
s0 -> s3  [label="z"];
s1 -> s4  [label="y"];
s1 -> s5  [label="x"];
s1 -> s0  [label="z"];
s2 -> s6  [label="x"];
s2 -> s7  [label="z"];
s2 -> s8  [label="y"];
s3 -> s8  [label="z"];
s3 -> s2  [label="x"];
s3 -> s6  [label="y"];
s4 -> s4  [label="x"];
s4 -> s8  [label="z"];
s4 -> s7  [label="y"];
s5 -> s6  [label="y"];
s5 -> s3  [label="x"];
s5 -> s3  [label="z"];
s6 -> s2  [label="z"];
s6 -> s8  [label="x"];
s6 -> s5  [label="y"];
s7 -> s6  [label="y"];
s7 -> s3  [label="x"];
s7 -> s0  [label="z"];
s8 -> s5  [label="z"];
s8 -> s5  [label="y"];
s8 -> s1  [label="x"];
__start0 [label="", shape=none];
__start0 -> s0  [label=""];
}
