digraph "benchmarks-true-state-lstar-3seeds/n_states=3-n_outputs=2-glitch_percent=0.01/77fa5373ca6d8dcdd50771caa3eac87f/pmsatLearned-N3-STOC" {
0 [label="0|a", shape=record, style=rounded];
1 [label="1|b", shape=record, style=rounded];
2 [label="2|b", shape=record, style=rounded];
0 -> 1  [label="x (7)"];
0 -> 0  [label="y (8)"];
0 -> 0  [label="z (8)"];
1 -> 1  [label="z (9)"];
1 -> 2  [label="x (21)"];
1 -> 0  [label="y (20)"];
1 -> 1  [label="!x [1]"];
2 -> 1  [label="x (5)"];
2 -> 1  [label="y (5)"];
2 -> 0  [label="z (5)"];
__start0 [label="", shape=none];
__start0 -> 1  [label=""];
}
