digraph "benchmarks-true-state-lstar-3seeds/n_states=10-n_outputs=9-glitch_percent=0.0/4f7e484ef2a5b1d7b00bc291a0376ceb/pmsatLearned-N10-STOC" {
0 [label="0|b", shape=record, style=rounded];
1 [label="1|e", shape=record, style=rounded];
2 [label="2|f", shape=record, style=rounded];
3 [label="3|g", shape=record, style=rounded];
4 [label="4|h", shape=record, style=rounded];
5 [label="5|i", shape=record, style=rounded];
6 [label="6|f", shape=record, style=rounded];
7 [label="7|i", shape=record, style=rounded];
8 [label="8|g", shape=record, style=rounded];
9 [label="9|g", shape=record, style=rounded];
0 -> 8  [label="x (17)"];
0 -> 7  [label="y (17)"];
0 -> 4  [label="z (17)"];
1 -> 6  [label="x (6)"];
1 -> 6  [label="y (6)"];
1 -> 3  [label="z (6)"];
2 -> 5  [label="z (19)"];
2 -> 9  [label="y (55)"];
2 -> 0  [label="x (55)"];
3 -> 6  [label="x (8)"];
3 -> 9  [label="y (8)"];
3 -> 3  [label="z (8)"];
4 -> 7  [label="x (5)"];
4 -> 2  [label="y (5)"];
4 -> 9  [label="z (5)"];
5 -> 6  [label="x (6)"];
5 -> 3  [label="y (6)"];
5 -> 1  [label="z (6)"];
6 -> 7  [label="x (10)"];
6 -> 7  [label="y (10)"];
6 -> 2  [label="z (10)"];
7 -> 9  [label="x (10)"];
7 -> 6  [label="y (10)"];
7 -> 5  [label="z (10)"];
8 -> 7  [label="x (5)"];
8 -> 7  [label="y (5)"];
8 -> 9  [label="z (5)"];
9 -> 1  [label="x (21)"];
9 -> 3  [label="y (21)"];
9 -> 6  [label="z (21)"];
__start0 [label="", shape=none];
__start0 -> 2  [label=""];
}
