digraph "benchmarks-true-state-lstar-rc10seeds/n_states=17-n_outputs=3-glitch_percent=0.0/015d95b7f80bb8b727a4944e8fa84239/pmsatLearned_NOP-N17-STOC" {
0 [label="0|b", shape=record, style=rounded];
1 [label="1|c", shape=record, style=rounded];
2 [label="2|c", shape=record, style=rounded];
3 [label="3|a", shape=record, style=rounded];
4 [label="4|a", shape=record, style=rounded];
5 [label="5|c", shape=record, style=rounded];
6 [label="6|b", shape=record, style=rounded];
7 [label="7|c", shape=record, style=rounded];
8 [label="8|c", shape=record, style=rounded];
9 [label="9|b", shape=record, style=rounded];
10 [label="10|b", shape=record, style=rounded];
11 [label="11|c", shape=record, style=rounded];
12 [label="12|a", shape=record, style=rounded];
13 [label="13|a", shape=record, style=rounded];
14 [label="14|a", shape=record, style=rounded];
15 [label="15|c", shape=record, style=rounded];
16 [label="16|c", shape=record, style=rounded];
0 -> 7  [label="x (9)"];
0 -> 13  [label="y (9)"];
0 -> 16  [label="z (7)"];
1 -> 1  [label="x (13)"];
1 -> 5  [label="y (18)"];
1 -> 12  [label="z (11)"];
2 -> 9  [label="z (69)"];
2 -> 7  [label="y (74)"];
2 -> 12  [label="x (144)"];
3 -> 12  [label="x (10)"];
3 -> 2  [label="y (7)"];
3 -> 11  [label="z (6)"];
4 -> 12  [label="x (9)"];
4 -> 2  [label="y (7)"];
4 -> 13  [label="z (6)"];
5 -> 5  [label="x (19)"];
5 -> 7  [label="y (11)"];
5 -> 10  [label="z (8)"];
6 -> 15  [label="x (7)"];
6 -> 0  [label="y (9)"];
6 -> 14  [label="z (7)"];
7 -> 1  [label="x (34)"];
7 -> 3  [label="y (28)"];
7 -> 0  [label="z (24)"];
8 -> 9  [label="x (6)"];
8 -> 10  [label="y (7)"];
8 -> 16  [label="z (6)"];
9 -> 6  [label="x (23)"];
9 -> 4  [label="y (26)"];
9 -> 10  [label="z (23)"];
10 -> 1  [label="x (14)"];
10 -> 11  [label="y (15)"];
10 -> 11  [label="z (10)"];
11 -> 1  [label="x (15)"];
11 -> 2  [label="y (19)"];
11 -> 13  [label="z (10)"];
12 -> 13  [label="x (69)"];
12 -> 14  [label="y (47)"];
12 -> 16  [label="z (24)"];
13 -> 15  [label="x (26)"];
13 -> 5  [label="y (28)"];
13 -> 8  [label="z (24)"];
14 -> 11  [label="x (30)"];
14 -> 7  [label="y (9)"];
14 -> 6  [label="z (7)"];
15 -> 9  [label="x (7)"];
15 -> 1  [label="y (9)"];
15 -> 1  [label="z (7)"];
16 -> 11  [label="x (8)"];
16 -> 10  [label="y (11)"];
16 -> 10  [label="z (8)"];
__start0 [label="", shape=none];
__start0 -> 2  [label=""];
}
