digraph "benchmarks-true-state-lstar-rc10seeds/n_states=12-n_outputs=3-glitch_percent=0.01/46b6e05555904d1d2eddfa171319da54/pmsatLearned_NOP-N12-STOC" {
0 [label="0|c", shape=record, style=rounded];
1 [label="1|b", shape=record, style=rounded];
2 [label="2|b", shape=record, style=rounded];
3 [label="3|b", shape=record, style=rounded];
4 [label="4|a", shape=record, style=rounded];
5 [label="5|b", shape=record, style=rounded];
6 [label="6|c", shape=record, style=rounded];
7 [label="7|b", shape=record, style=rounded];
8 [label="8|c", shape=record, style=rounded];
9 [label="9|b", shape=record, style=rounded];
10 [label="10|c", shape=record, style=rounded];
11 [label="11|b", shape=record, style=rounded];
0 -> 1  [label="x (22)"];
0 -> 9  [label="y (15)"];
0 -> 10  [label="z (18)"];
0 -> 5  [label="!z [1]"];
1 -> 9  [label="z (79)"];
1 -> 6  [label="y (103)"];
1 -> 4  [label="x (110)"];
2 -> 0  [label="x (8)"];
2 -> 10  [label="y (9)"];
2 -> 5  [label="z (15)"];
2 -> 11  [label="!x [1]"];
3 -> 6  [label="x (12)"];
3 -> 6  [label="y (12)"];
3 -> 10  [label="z (14)"];
4 -> 3  [label="x (34)"];
4 -> 8  [label="y (35)"];
4 -> 5  [label="z (40)"];
5 -> 6  [label="x (16)"];
5 -> 10  [label="y (17)"];
5 -> 0  [label="z (22)"];
5 -> 2  [label="!x [1]"];
6 -> 2  [label="x (51)"];
6 -> 10  [label="y (38)"];
6 -> 7  [label="z (47)"];
6 -> 10  [label="!x [1]"];
6 -> 11  [label="!z [1]"];
7 -> 8  [label="x (21)"];
7 -> 8  [label="y (11)"];
7 -> 0  [label="z (15)"];
8 -> 5  [label="x (32)"];
8 -> 8  [label="y (17)"];
8 -> 1  [label="z (17)"];
9 -> 0  [label="x (39)"];
9 -> 11  [label="y (31)"];
9 -> 8  [label="z (11)"];
9 -> 5  [label="!y [1]"];
10 -> 10  [label="x (38)"];
10 -> 6  [label="y (21)"];
10 -> 7  [label="z (28)"];
11 -> 4  [label="x (12)"];
11 -> 10  [label="y (8)"];
11 -> 3  [label="z (9)"];
__start0 [label="", shape=none];
__start0 -> 1  [label=""];
}
