digraph "benchmarks-true-state-lstar-3seeds/n_states=9-n_outputs=9-glitch_percent=0.01/c5588e9959ffcc70102be4e224c435d9/alergiaLearned" {
q0 [label="e"];
q1 [label="i"];
q2 [label="c"];
q3 [label="c"];
q4 [label="a"];
q5 [label="h"];
q6 [label="f"];
q7 [label="g"];
q0 -> q1  [label="z:1.0"];
q0 -> q2  [label="y:1.0"];
q0 -> q3  [label="x:0.9821428571428571"];
q0 -> q4  [label="x:0.017857142857142856"];
q1 -> q4  [label="x:1.0"];
q1 -> q2  [label="y:1.0"];
q1 -> q0  [label="z:1.0"];
q2 -> q4  [label="x:0.85"];
q2 -> q6  [label="x:0.15"];
q2 -> q5  [label="y:0.8571428571428571"];
q2 -> q4  [label="y:0.14285714285714285"];
q2 -> q2  [label="z:0.6666666666666666"];
q2 -> q7  [label="z:0.3333333333333333"];
q3 -> q6  [label="x:1.0"];
q3 -> q4  [label="y:0.9444444444444444"];
q3 -> q2  [label="y:0.05555555555555555"];
q3 -> q7  [label="z:1.0"];
q4 -> q4  [label="y:0.4375"];
q4 -> q2  [label="y:0.5625"];
q4 -> q1  [label="x:0.5625"];
q4 -> q4  [label="x:0.4375"];
q4 -> q5  [label="z:0.5625"];
q4 -> q0  [label="z:0.4375"];
q5 -> q4  [label="x:1.0"];
q5 -> q4  [label="y:1.0"];
q5 -> q4  [label="z:1.0"];
q6 -> q5  [label="x:1.0"];
q6 -> q4  [label="y:1.0"];
q6 -> q1  [label="z:1.0"];
q7 -> q6  [label="x:1.0"];
q7 -> q2  [label="y:1.0"];
q7 -> q2  [label="z:1.0"];
__start0 [label="", shape=none];
__start0 -> q0  [label=""];
}
