digraph "benchmarks-true-state-lstar-3seeds/n_states=10-n_outputs=5-glitch_percent=0.0/1a3f396f26d597272f46be9dc2b4af99/alergiaLearned" {
q0 [label="e"];
q1 [label="a"];
q2 [label="d"];
q3 [label="e"];
q4 [label="d"];
q5 [label="c"];
q6 [label="d"];
q7 [label="e"];
q8 [label="b"];
q0 -> q1  [label="z:1.0"];
q0 -> q2  [label="y:1.0"];
q0 -> q3  [label="x:1.0"];
q0 -> q2  [label="x:0.0"];
q1 -> q3  [label="x:0.6666666666666666"];
q1 -> q5  [label="x:0.3333333333333333"];
q1 -> q2  [label="y:1.0"];
q1 -> q3  [label="z:1.0"];
q2 -> q4  [label="x:0.7894736842105263"];
q2 -> q0  [label="x:0.21052631578947367"];
q2 -> q5  [label="y:0.8518518518518519"];
q2 -> q2  [label="y:0.14814814814814814"];
q2 -> q1  [label="z:0.8518518518518519"];
q2 -> q2  [label="z:0.14814814814814814"];
q3 -> q6  [label="x:0.9512195121951219"];
q3 -> q0  [label="x:0.04878048780487805"];
q3 -> q7  [label="y:0.9615384615384616"];
q3 -> q1  [label="y:0.038461538461538464"];
q3 -> q8  [label="z:0.9615384615384616"];
q3 -> q0  [label="z:0.038461538461538464"];
q4 -> q7  [label="x:1.0"];
q4 -> q2  [label="y:1.0"];
q4 -> q2  [label="z:1.0"];
q5 -> q8  [label="x:1.0"];
q5 -> q1  [label="y:1.0"];
q5 -> q5  [label="z:1.0"];
q6 -> q3  [label="x:1.0"];
q6 -> q2  [label="y:1.0"];
q6 -> q2  [label="z:1.0"];
q7 -> q7  [label="x:1.0"];
q7 -> q1  [label="y:1.0"];
q7 -> q3  [label="z:1.0"];
q8 -> q1  [label="x:1.0"];
q8 -> q5  [label="y:1.0"];
q8 -> q0  [label="z:1.0"];
__start0 [label="", shape=none];
__start0 -> q0  [label=""];
}
