digraph "benchmarks-true-state-lstar-3seeds/n_states=13-n_outputs=3-glitch_percent=0.02/62b5d5e94232dc8cac766e04d3e45452/pmsatLearned-N13" {
0 [label="0|a", shape=record, style=rounded];
1 [label="1|b", shape=record, style=rounded];
2 [label="2|c", shape=record, style=rounded];
3 [label="3|c", shape=record, style=rounded];
4 [label="4|c", shape=record, style=rounded];
5 [label="5|a", shape=record, style=rounded];
6 [label="6|a", shape=record, style=rounded];
7 [label="7|c", shape=record, style=rounded];
8 [label="8|c", shape=record, style=rounded];
9 [label="9|a", shape=record, style=rounded];
10 [label="10|c", shape=record, style=rounded];
11 [label="11|a", shape=record, style=rounded];
12 [label="12|a", shape=record, style=rounded];
0 -> 1  [label="z"];
0 -> 4  [label="y"];
0 -> 12  [label="x"];
1 -> 5  [label="x"];
1 -> 8  [label="y"];
1 -> 11  [label="z"];
2 -> 11  [label="x"];
2 -> 6  [label="y"];
2 -> 4  [label="z"];
3 -> 1  [label="x"];
3 -> 4  [label="y"];
3 -> 5  [label="z"];
4 -> 6  [label="x"];
4 -> 9  [label="y"];
4 -> 2  [label="z"];
5 -> 9  [label="x"];
5 -> 5  [label="y"];
5 -> 8  [label="z"];
6 -> 5  [label="x"];
6 -> 6  [label="y"];
6 -> 2  [label="z"];
7 -> 5  [label="x"];
7 -> 4  [label="y"];
7 -> 11  [label="z"];
8 -> 1  [label="y"];
8 -> 2  [label="z"];
8 -> 12  [label="x"];
9 -> 1  [label="x"];
9 -> 7  [label="z"];
9 -> 10  [label="y"];
10 -> 12  [label="x"];
10 -> 4  [label="y"];
10 -> 4  [label="z"];
11 -> 11  [label="x"];
11 -> 1  [label="y"];
11 -> 2  [label="z"];
12 -> 7  [label="x"];
12 -> 10  [label="y"];
12 -> 3  [label="z"];
__start0 [label="", shape=none];
__start0 -> 0  [label=""];
}
