digraph "benchmarks-true-state-lstar-songp/n_states=10-n_outputs=5-glitch_percent=0.05-pmstrat='rc2'/b5ceff322f8d013828c37068316a8595/pmsatLearned-N10-STOC" {
0 [label="0|a", shape=record, style=rounded];
1 [label="1|b", shape=record, style=rounded];
2 [label="2|c", shape=record, style=rounded];
3 [label="3|d", shape=record, style=rounded];
4 [label="4|e", shape=record, style=rounded];
5 [label="5|c", shape=record, style=rounded];
6 [label="6|d", shape=record, style=rounded];
7 [label="7|a", shape=record, style=rounded];
8 [label="8|d", shape=record, style=rounded];
9 [label="9|e", shape=record, style=rounded];
0 -> 3  [label="z (19)"];
0 -> 8  [label="y (52)"];
0 -> 5  [label="x (54)"];
0 -> 1  [label="!y [2]"];
0 -> 6  [label="!x [1]"];
0 -> 4  [label="!y [1]"];
1 -> 3  [label="x (9)"];
1 -> 5  [label="y (10)"];
1 -> 0  [label="z (10)"];
2 -> 1  [label="x (6)"];
2 -> 5  [label="y (5)"];
2 -> 1  [label="z (3)"];
3 -> 5  [label="x (8)"];
3 -> 5  [label="y (8)"];
3 -> 3  [label="z (6)"];
4 -> 3  [label="x (6)"];
4 -> 9  [label="y (6)"];
4 -> 8  [label="z (4)"];
4 -> 0  [label="!z [1]"];
5 -> 2  [label="x (19)"];
5 -> 9  [label="y (19)"];
5 -> 4  [label="z (21)"];
5 -> 3  [label="!x [1]"];
5 -> 1  [label="!z [1]"];
6 -> 2  [label="x (5)"];
6 -> 9  [label="y (4)"];
6 -> 1  [label="z (6)"];
7 -> 9  [label="x (5)"];
7 -> 0  [label="y (5)"];
7 -> 1  [label="z (5)"];
8 -> 6  [label="x (17)"];
8 -> 1  [label="y (17)"];
8 -> 7  [label="z (17)"];
9 -> 8  [label="x (7)"];
9 -> 1  [label="z (7)"];
9 -> 4  [label="y (7)"];
__start0 [label="", shape=none];
__start0 -> 0  [label=""];
}
