digraph "benchmarks-true-state-lstar-3seeds/n_states=5-n_outputs=2-glitch_percent=0.0/e1d14cb19e70df633844ab638ed56a5b/alergiaLearned" {
q0 [label="b"];
q1 [label="a"];
q2 [label="a"];
q3 [label="b"];
q4 [label="b"];
q0 -> q1  [label="z:1.0"];
q0 -> q2  [label="y:0.95"];
q0 -> q0  [label="y:0.05"];
q0 -> q3  [label="x:1.0"];
q1 -> q1  [label="x:0.5294117647058824"];
q1 -> q3  [label="x:0.47058823529411764"];
q1 -> q1  [label="y:0.5"];
q1 -> q0  [label="y:0.5"];
q1 -> q1  [label="z:0.6363636363636364"];
q1 -> q0  [label="z:0.36363636363636365"];
q2 -> q3  [label="x:1.0"];
q2 -> q0  [label="y:1.0"];
q2 -> q0  [label="z:1.0"];
q3 -> q4  [label="x:1.0"];
q3 -> q1  [label="y:0.5789473684210527"];
q3 -> q0  [label="y:0.42105263157894735"];
q3 -> q1  [label="z:1.0"];
q4 -> q0  [label="y:0.7142857142857143"];
q4 -> q1  [label="y:0.2857142857142857"];
q4 -> q0  [label="x:1.0"];
q4 -> q1  [label="z:1.0"];
__start0 [label="", shape=none];
__start0 -> q0  [label=""];
}
