digraph "benchmarks-true-state-lstar-3seeds/n_states=5-n_outputs=2-glitch_percent=0.0/e1d14cb19e70df633844ab638ed56a5b/pmsatLearned-N5-STOC" {
0 [label="0|a", shape=record, style=rounded];
1 [label="1|b", shape=record, style=rounded];
2 [label="2|b", shape=record, style=rounded];
3 [label="3|a", shape=record, style=rounded];
4 [label="4|b", shape=record, style=rounded];
0 -> 3  [label="x (11)"];
0 -> 0  [label="y (8)"];
0 -> 3  [label="z (8)"];
1 -> 0  [label="z (23)"];
1 -> 3  [label="y (42)"];
1 -> 4  [label="x (30)"];
2 -> 1  [label="x (13)"];
2 -> 1  [label="y (18)"];
2 -> 0  [label="z (9)"];
3 -> 2  [label="x (30)"];
3 -> 2  [label="y (13)"];
3 -> 2  [label="z (10)"];
4 -> 2  [label="x (10)"];
4 -> 3  [label="y (10)"];
4 -> 3  [label="z (6)"];
__start0 [label="", shape=none];
__start0 -> 1  [label=""];
}
