digraph "benchmarks-true-state-lstar-3seeds/n_states=15-n_outputs=6-glitch_percent=0.05/3c519d848c9447a90d6ab9bdcfd04489/rpniGroundTruth" {
s0 [label="s0|c", shape=record, style=rounded];
s1 [label="s1|c", shape=record, style=rounded];
s2 [label="s2|a", shape=record, style=rounded];
s3 [label="s3|c", shape=record, style=rounded];
s4 [label="s4|d", shape=record, style=rounded];
s5 [label="s5|c", shape=record, style=rounded];
s6 [label="s6|a", shape=record, style=rounded];
s7 [label="s7|d", shape=record, style=rounded];
s8 [label="s8|a", shape=record, style=rounded];
s9 [label="s9|a", shape=record, style=rounded];
s10 [label="s10|a", shape=record, style=rounded];
s11 [label="s11|c", shape=record, style=rounded];
s12 [label="s12|c", shape=record, style=rounded];
s13 [label="s13|d", shape=record, style=rounded];
s14 [label="s14|a", shape=record, style=rounded];
s15 [label="s15|a", shape=record, style=rounded];
s0 -> s1  [label="x"];
s0 -> s2  [label="z"];
s0 -> s3  [label="y"];
s1 -> s4  [label="x"];
s1 -> s5  [label="z"];
s1 -> s6  [label="y"];
s2 -> s7  [label="z"];
s2 -> s8  [label="x"];
s2 -> s9  [label="y"];
s3 -> s10  [label="z"];
s3 -> s11  [label="x"];
s3 -> s12  [label="y"];
s4 -> s7  [label="z"];
s4 -> s13  [label="y"];
s4 -> s14  [label="x"];
s5 -> s0  [label="x"];
s5 -> s1  [label="y"];
s5 -> s0  [label="z"];
s6 -> s12  [label="x"];
s6 -> s2  [label="z"];
s6 -> s13  [label="y"];
s7 -> s2  [label="y"];
s7 -> s12  [label="x"];
s7 -> s1  [label="z"];
s8 -> s0  [label="y"];
s8 -> s4  [label="x"];
s8 -> s3  [label="z"];
s9 -> s11  [label="y"];
s9 -> s3  [label="z"];
s9 -> s11  [label="x"];
s10 -> s4  [label="y"];
s10 -> s0  [label="x"];
s10 -> s0  [label="z"];
s11 -> s11  [label="y"];
s11 -> s13  [label="x"];
s11 -> s8  [label="z"];
s12 -> s3  [label="y"];
s12 -> s11  [label="x"];
s12 -> s2  [label="z"];
s13 -> s6  [label="z"];
s13 -> s15  [label="x"];
s13 -> s14  [label="y"];
s14 -> s2  [label="y"];
s14 -> s1  [label="x"];
s14 -> s14  [label="z"];
s15 -> s4  [label="y"];
s15 -> s12  [label="z"];
s15 -> s11  [label="x"];
__start0 [label="", shape=none];
__start0 -> s0  [label=""];
}
