digraph "benchmarks-true-state-lstar-rc10seeds/n_states=10-n_outputs=4-glitch_percent=0.05/5a28c1a96313ce5e29ca953434790cc2/pmsatLearned_NOP-N10" {
0 [label="0|b", shape=record, style=rounded];
1 [label="1|b", shape=record, style=rounded];
2 [label="2|c", shape=record, style=rounded];
3 [label="3|d", shape=record, style=rounded];
4 [label="4|c", shape=record, style=rounded];
5 [label="5|b", shape=record, style=rounded];
6 [label="6|d", shape=record, style=rounded];
7 [label="7|c", shape=record, style=rounded];
8 [label="8|d", shape=record, style=rounded];
9 [label="9|b", shape=record, style=rounded];
0 -> 7  [label="z"];
0 -> 4  [label="y"];
0 -> 6  [label="x"];
1 -> 8  [label="x"];
1 -> 2  [label="y"];
1 -> 6  [label="z"];
2 -> 4  [label="x"];
2 -> 7  [label="y"];
2 -> 0  [label="z"];
3 -> 8  [label="x"];
3 -> 1  [label="y"];
3 -> 5  [label="z"];
4 -> 8  [label="x"];
4 -> 3  [label="y"];
4 -> 2  [label="z"];
5 -> 7  [label="x"];
5 -> 5  [label="y"];
5 -> 1  [label="z"];
6 -> 1  [label="x"];
6 -> 9  [label="z"];
6 -> 5  [label="y"];
7 -> 7  [label="x"];
7 -> 6  [label="z"];
7 -> 5  [label="y"];
8 -> 0  [label="x"];
8 -> 0  [label="y"];
8 -> 0  [label="z"];
9 -> 7  [label="x"];
9 -> 5  [label="y"];
9 -> 7  [label="z"];
__start0 [label="", shape=none];
__start0 -> 0  [label=""];
}
