digraph "benchmarks-true-state-lstar-songp/n_states=12-n_outputs=4-glitch_percent=0.1-pmstrat='lsu'/c4699cbb1b08f35129ff6b91ccf49985/RealModel" {
s1 [label="s1|a", shape=record, style=rounded];
s2 [label="s2|c", shape=record, style=rounded];
s3 [label="s3|b", shape=record, style=rounded];
s4 [label="s4|d", shape=record, style=rounded];
s5 [label="s5|c", shape=record, style=rounded];
s6 [label="s6|a", shape=record, style=rounded];
s7 [label="s7|d", shape=record, style=rounded];
s8 [label="s8|d", shape=record, style=rounded];
s9 [label="s9|a", shape=record, style=rounded];
s10 [label="s10|d", shape=record, style=rounded];
s11 [label="s11|c", shape=record, style=rounded];
s12 [label="s12|d", shape=record, style=rounded];
s1 -> s8  [label="x"];
s1 -> s4  [label="y"];
s1 -> s2  [label="z"];
s2 -> s9  [label="x"];
s2 -> s11  [label="y"];
s2 -> s3  [label="z"];
s3 -> s7  [label="x"];
s3 -> s2  [label="y"];
s3 -> s1  [label="z"];
s4 -> s10  [label="x"];
s4 -> s7  [label="y"];
s4 -> s6  [label="z"];
s5 -> s7  [label="x"];
s5 -> s10  [label="y"];
s5 -> s9  [label="z"];
s6 -> s5  [label="x"];
s6 -> s2  [label="y"];
s6 -> s9  [label="z"];
s7 -> s1  [label="x"];
s7 -> s3  [label="y"];
s7 -> s5  [label="z"];
s8 -> s5  [label="x"];
s8 -> s12  [label="y"];
s8 -> s3  [label="z"];
s9 -> s10  [label="x"];
s9 -> s2  [label="y"];
s9 -> s10  [label="z"];
s10 -> s10  [label="x"];
s10 -> s1  [label="y"];
s10 -> s3  [label="z"];
s11 -> s11  [label="x"];
s11 -> s11  [label="y"];
s11 -> s11  [label="z"];
s12 -> s5  [label="x"];
s12 -> s10  [label="y"];
s12 -> s3  [label="z"];
__start0 [label="", shape=none];
__start0 -> s1  [label=""];
}
