digraph "pmsatLearned-N6-STOC" {
0 [label="0|a", shape=record, style=rounded];
1 [label="1|b", shape=record, style=rounded];
2 [label="2|c", shape=record, style=rounded];
3 [label="3|a", shape=record, style=rounded];
4 [label="4|c", shape=record, style=rounded];
5 [label="5|a", shape=record, style=rounded];
0 -> 4  [label="z (19)"];
0 -> 5  [label="y (19)"];
0 -> 2  [label="x (43)"];
0 -> 0  [label="!y [1]"];
1 -> 0  [label="x (8)"];
1 -> 0  [label="y (8)"];
1 -> 5  [label="z (8)"];
2 -> 3  [label="x (20)"];
2 -> 1  [label="y (20)"];
2 -> 2  [label="z (7)"];
3 -> 2  [label="x (5)"];
3 -> 1  [label="y (5)"];
3 -> 5  [label="z (5)"];
4 -> 1  [label="x (7)"];
4 -> 5  [label="y (6)"];
4 -> 1  [label="z (7)"];
5 -> 4  [label="x (8)"];
5 -> 2  [label="y (8)"];
5 -> 4  [label="z (7)"];
__start0 [label="", shape=none];
__start0 -> 0  [label=""];
}
