digraph "pmsatLearned-N6" {
0 [label="0|a", shape=record, style=rounded];
1 [label="1|b", shape=record, style=rounded];
2 [label="2|c", shape=record, style=rounded];
3 [label="3|a", shape=record, style=rounded];
4 [label="4|c", shape=record, style=rounded];
5 [label="5|a", shape=record, style=rounded];
0 -> 4  [label="z"];
0 -> 5  [label="y"];
0 -> 2  [label="x"];
1 -> 0  [label="x"];
1 -> 0  [label="y"];
1 -> 5  [label="z"];
2 -> 3  [label="x"];
2 -> 1  [label="y"];
2 -> 2  [label="z"];
3 -> 2  [label="x"];
3 -> 1  [label="y"];
3 -> 5  [label="z"];
4 -> 1  [label="x"];
4 -> 5  [label="y"];
4 -> 1  [label="z"];
5 -> 4  [label="x"];
5 -> 2  [label="y"];
5 -> 4  [label="z"];
__start0 [label="", shape=none];
__start0 -> 0  [label=""];
}
