digraph "benchmarks-true-state-lstar-3seeds/n_states=4-n_outputs=4-glitch_percent=0.02/a187010e4f8d0229d7a3917ba6df673e/RealModel" {
s1 [label="s1|a", shape=record, style=rounded];
s2 [label="s2|c", shape=record, style=rounded];
s3 [label="s3|d", shape=record, style=rounded];
s4 [label="s4|a", shape=record, style=rounded];
s1 -> s3  [label="x"];
s1 -> s2  [label="y"];
s1 -> s4  [label="z"];
s2 -> s1  [label="x"];
s2 -> s2  [label="y"];
s2 -> s3  [label="z"];
s3 -> s3  [label="x"];
s3 -> s2  [label="y"];
s3 -> s4  [label="z"];
s4 -> s3  [label="x"];
s4 -> s4  [label="y"];
s4 -> s1  [label="z"];
__start0 [label="", shape=none];
__start0 -> s1  [label=""];
}
