digraph "benchmarks-true-state-lstar-3seeds/n_states=4-n_outputs=2-glitch_percent=0.1/9a727e9e2e019738260de45bd9e88952/pmsatLearned-N4" {
0 [label="0|a", shape=record, style=rounded];
1 [label="1|b", shape=record, style=rounded];
2 [label="2|b", shape=record, style=rounded];
3 [label="3|b", shape=record, style=rounded];
0 -> 3  [label="y"];
0 -> 3  [label="z"];
0 -> 1  [label="x"];
1 -> 0  [label="z"];
1 -> 3  [label="x"];
1 -> 3  [label="y"];
2 -> 2  [label="x"];
2 -> 3  [label="y"];
2 -> 1  [label="z"];
3 -> 2  [label="x"];
3 -> 1  [label="y"];
3 -> 1  [label="z"];
__start0 [label="", shape=none];
__start0 -> 1  [label=""];
}
