{
    "is_sat": true,
    "num_states": 5,
    "automata_type": "moore",
    "solve_time": 0.039106130599975586,
    "solve_perf_counter": 0.03910019800241571,
    "input_alphabet": [
        "x",
        "y",
        "z"
    ],
    "output_alphabet": [
        "b",
        "c",
        "d",
        "e"
    ],
    "optimal_solution": true,
    "timed_out": false,
    "num_vars": 1419,
    "num_hard": 7156,
    "num_soft": 168,
    "cost": 0,
    "glitch_steps": [],
    "dominant_reachable_states": 5,
    "glitched_delta_freq": [],
    "dominant_delta_freq": [
        19,
        8,
        18,
        9,
        9,
        6,
        6,
        31,
        6,
        8,
        9,
        6,
        8,
        19,
        6
    ],
    "bisimilar_base_cex": null
}