digraph RealModel {
s1 [label="s1|d", shape=record, style=rounded];
s2 [label="s2|e", shape=record, style=rounded];
s3 [label="s3|c", shape=record, style=rounded];
s4 [label="s4|c", shape=record, style=rounded];
s5 [label="s5|b", shape=record, style=rounded];
s1 -> s3  [label="x"];
s1 -> s5  [label="y"];
s1 -> s2  [label="z"];
s2 -> s5  [label="x"];
s2 -> s5  [label="y"];
s2 -> s1  [label="z"];
s3 -> s4  [label="x"];
s3 -> s5  [label="y"];
s3 -> s4  [label="z"];
s4 -> s4  [label="x"];
s4 -> s2  [label="y"];
s4 -> s4  [label="z"];
s5 -> s5  [label="x"];
s5 -> s1  [label="y"];
s5 -> s3  [label="z"];
__start0 [label="", shape=none];
__start0 -> s1  [label=""];
}
