digraph "benchmarks-true-state-lstar-3seeds/n_states=12-n_outputs=3-glitch_percent=0.0/7e3c1c1f526c9e43947f3912d221b859/pmsatLearned-N12" {
0 [label="0|a", shape=record, style=rounded];
1 [label="1|b", shape=record, style=rounded];
2 [label="2|c", shape=record, style=rounded];
3 [label="3|b", shape=record, style=rounded];
4 [label="4|a", shape=record, style=rounded];
5 [label="5|b", shape=record, style=rounded];
6 [label="6|a", shape=record, style=rounded];
7 [label="7|b", shape=record, style=rounded];
8 [label="8|a", shape=record, style=rounded];
9 [label="9|b", shape=record, style=rounded];
10 [label="10|c", shape=record, style=rounded];
11 [label="11|a", shape=record, style=rounded];
0 -> 5  [label="x"];
0 -> 8  [label="y"];
0 -> 1  [label="z"];
1 -> 8  [label="z"];
1 -> 4  [label="y"];
1 -> 5  [label="x"];
2 -> 0  [label="x"];
2 -> 10  [label="y"];
2 -> 9  [label="z"];
3 -> 7  [label="x"];
3 -> 11  [label="y"];
3 -> 2  [label="z"];
4 -> 9  [label="x"];
4 -> 10  [label="y"];
4 -> 3  [label="z"];
5 -> 2  [label="x"];
5 -> 11  [label="y"];
5 -> 0  [label="z"];
6 -> 9  [label="x"];
6 -> 11  [label="y"];
6 -> 6  [label="z"];
7 -> 2  [label="x"];
7 -> 5  [label="y"];
7 -> 11  [label="z"];
8 -> 7  [label="x"];
8 -> 6  [label="y"];
8 -> 2  [label="z"];
9 -> 4  [label="x"];
9 -> 5  [label="y"];
9 -> 8  [label="z"];
10 -> 4  [label="x"];
10 -> 5  [label="y"];
10 -> 9  [label="z"];
11 -> 3  [label="x"];
11 -> 0  [label="y"];
11 -> 0  [label="z"];
__start0 [label="", shape=none];
__start0 -> 1  [label=""];
}
