digraph "benchmarks-true-state-lstar-3seeds/n_states=15-n_outputs=6-glitch_percent=0.1/9a8026b427014d0383f3424278f15f47/alergiaLearned" {
q0 [label="c"];
q1 [label="d"];
q2 [label="e"];
q3 [label="a"];
q4 [label="f"];
q5 [label="e"];
q6 [label="d"];
q7 [label="d"];
q8 [label="c"];
q9 [label="a"];
q10 [label="e"];
q11 [label="e"];
q0 -> q1  [label="z:0.9130434782608695"];
q0 -> q2  [label="z:0.057971014492753624"];
q0 -> q0  [label="z:0.014492753623188406"];
q0 -> q4  [label="z:0.014492753623188406"];
q0 -> q2  [label="y:0.8961038961038961"];
q0 -> q1  [label="y:0.06493506493506493"];
q0 -> q3  [label="y:0.025974025974025976"];
q0 -> q0  [label="y:0.012987012987012988"];
q0 -> q3  [label="x:0.8640776699029126"];
q0 -> q2  [label="x:0.10679611650485436"];
q0 -> q1  [label="x:0.02912621359223301"];
q1 -> q5  [label="x:0.9047619047619048"];
q1 -> q1  [label="x:0.047619047619047616"];
q1 -> q4  [label="x:0.023809523809523808"];
q1 -> q0  [label="x:0.023809523809523808"];
q1 -> q6  [label="y:0.9259259259259259"];
q1 -> q3  [label="y:0.037037037037037035"];
q1 -> q0  [label="y:0.037037037037037035"];
q1 -> q5  [label="z:0.6538461538461539"];
q1 -> q4  [label="z:0.038461538461538464"];
q1 -> q3  [label="z:0.23076923076923078"];
q1 -> q1  [label="z:0.07692307692307693"];
q1 -> q0  [label="z:0.0"];
q2 -> q7  [label="x:0.7894736842105263"];
q2 -> q5  [label="x:0.13157894736842105"];
q2 -> q0  [label="x:0.07894736842105263"];
q2 -> q8  [label="z:0.8214285714285714"];
q2 -> q5  [label="z:0.10714285714285714"];
q2 -> q4  [label="z:0.07142857142857142"];
q2 -> q1  [label="y:0.8214285714285714"];
q2 -> q3  [label="y:0.10714285714285714"];
q2 -> q2  [label="y:0.07142857142857142"];
q3 -> q9  [label="y:0.9444444444444444"];
q3 -> q0  [label="y:0.05555555555555555"];
q3 -> q4  [label="z:0.8695652173913043"];
q3 -> q2  [label="z:0.08695652173913043"];
q3 -> q1  [label="z:0.043478260869565216"];
q3 -> q10  [label="x:0.9803921568627451"];
q3 -> q0  [label="x:0.0196078431372549"];
q4 -> q5  [label="y:1.0"];
q4 -> q2  [label="x:0.9166666666666666"];
q4 -> q1  [label="x:0.08333333333333333"];
q4 -> q2  [label="z:1.0"];
q5 -> q1  [label="x:0.3548387096774194"];
q5 -> q5  [label="x:0.3870967741935484"];
q5 -> q8  [label="x:0.25806451612903225"];
q5 -> q2  [label="y:0.46153846153846156"];
q5 -> q3  [label="y:0.46153846153846156"];
q5 -> q1  [label="y:0.07692307692307693"];
q5 -> q4  [label="z:0.45454545454545453"];
q5 -> q5  [label="z:0.45454545454545453"];
q5 -> q0  [label="z:0.09090909090909091"];
q6 -> q4  [label="x:0.5454545454545454"];
q6 -> q5  [label="x:0.45454545454545453"];
q6 -> q0  [label="y:0.45454545454545453"];
q6 -> q1  [label="y:0.5454545454545454"];
q6 -> q1  [label="z:0.9"];
q6 -> q2  [label="z:0.1"];
q6 -> q3  [label="z:0.0"];
q7 -> q11  [label="x:1.0"];
q7 -> q2  [label="z:1.0"];
q7 -> q1  [label="y:1.0"];
q8 -> q5  [label="x:0.5"];
q8 -> q1  [label="x:0.5"];
q8 -> q2  [label="y:0.45454545454545453"];
q8 -> q0  [label="y:0.5454545454545454"];
q8 -> q9  [label="z:0.6666666666666666"];
q8 -> q2  [label="z:0.3333333333333333"];
q9 -> q2  [label="x:0.8888888888888888"];
q9 -> q8  [label="x:0.1111111111111111"];
q9 -> q0  [label="y:1.0"];
q9 -> q2  [label="z:1.0"];
q10 -> q8  [label="x:0.95"];
q10 -> q2  [label="x:0.05"];
q10 -> q0  [label="z:0.7777777777777778"];
q10 -> q1  [label="z:0.1111111111111111"];
q10 -> q5  [label="z:0.1111111111111111"];
q10 -> q6  [label="y:1.0"];
q11 -> q5  [label="x:1.0"];
q11 -> q2  [label="z:1.0"];
__start0 [label="", shape=none];
__start0 -> q0  [label=""];
}
