digraph "benchmarks-true-state-lstar-rc10seeds/n_states=10-n_outputs=8-glitch_percent=0.05/698cc6354f90f0fc320025535c7f0d7f/pmsatLearned_NOP-N10-STOC" {
0 [label="0|c", shape=record, style=rounded];
1 [label="1|c", shape=record, style=rounded];
2 [label="2|d", shape=record, style=rounded];
3 [label="3|d", shape=record, style=rounded];
4 [label="4|f", shape=record, style=rounded];
5 [label="5|e", shape=record, style=rounded];
6 [label="6|c", shape=record, style=rounded];
7 [label="7|b", shape=record, style=rounded];
8 [label="8|h", shape=record, style=rounded];
9 [label="9|g", shape=record, style=rounded];
0 -> 6  [label="x (6)"];
0 -> 6  [label="y (5)"];
0 -> 0  [label="z (5)"];
1 -> 7  [label="x (7)"];
1 -> 5  [label="z (5)"];
1 -> 9  [label="!z [1]"];
1 -> 5  [label="y (5)"];
2 -> 7  [label="y (19)"];
2 -> 3  [label="z (18)"];
2 -> 8  [label="x (13)"];
2 -> 9  [label="!z [2]"];
2 -> 3  [label="!y [1]"];
2 -> 4  [label="!x [1]"];
3 -> 5  [label="x (6)"];
3 -> 2  [label="y (6)"];
3 -> 1  [label="z (5)"];
3 -> 5  [label="!z [1]"];
4 -> 1  [label="z (19)"];
4 -> 2  [label="y (54)"];
4 -> 9  [label="x (53)"];
4 -> 5  [label="!x [2]"];
4 -> 3  [label="!y [1]"];
5 -> 4  [label="x (8)"];
5 -> 8  [label="y (9)"];
5 -> 9  [label="z (8)"];
6 -> 2  [label="x (8)"];
6 -> 9  [label="y (8)"];
6 -> 9  [label="z (6)"];
7 -> 5  [label="x (6)"];
7 -> 6  [label="y (6)"];
7 -> 1  [label="z (6)"];
8 -> 4  [label="x (5)"];
8 -> 3  [label="y (5)"];
8 -> 9  [label="z (4)"];
9 -> 5  [label="x (19)"];
9 -> 0  [label="y (20)"];
9 -> 6  [label="z (20)"];
9 -> 9  [label="!z [1]"];
__start0 [label="", shape=none];
__start0 -> 4  [label=""];
}
