digraph "benchmarks-true-state-lstar-3seeds/n_states=13-n_outputs=6-glitch_percent=0.0/d55794e814316f0afc10a829d52ecdac/pmsatLearned-N13" {
0 [label="0|b", shape=record, style=rounded];
1 [label="1|c", shape=record, style=rounded];
2 [label="2|d", shape=record, style=rounded];
3 [label="3|e", shape=record, style=rounded];
4 [label="4|f", shape=record, style=rounded];
5 [label="5|e", shape=record, style=rounded];
6 [label="6|e", shape=record, style=rounded];
7 [label="7|b", shape=record, style=rounded];
8 [label="8|b", shape=record, style=rounded];
9 [label="9|d", shape=record, style=rounded];
10 [label="10|e", shape=record, style=rounded];
11 [label="11|b", shape=record, style=rounded];
12 [label="12|f", shape=record, style=rounded];
0 -> 10  [label="z"];
0 -> 2  [label="y"];
0 -> 3  [label="x"];
1 -> 1  [label="x"];
1 -> 2  [label="y"];
1 -> 6  [label="z"];
2 -> 7  [label="x"];
2 -> 5  [label="y"];
2 -> 6  [label="z"];
3 -> 1  [label="x"];
3 -> 12  [label="y"];
3 -> 11  [label="z"];
4 -> 5  [label="x"];
4 -> 4  [label="y"];
4 -> 12  [label="z"];
5 -> 11  [label="x"];
5 -> 4  [label="y"];
5 -> 4  [label="z"];
6 -> 0  [label="x"];
6 -> 1  [label="y"];
6 -> 6  [label="z"];
7 -> 4  [label="x"];
7 -> 4  [label="y"];
7 -> 2  [label="z"];
8 -> 1  [label="x"];
8 -> 0  [label="y"];
8 -> 0  [label="z"];
9 -> 4  [label="x"];
9 -> 3  [label="y"];
9 -> 5  [label="z"];
10 -> 8  [label="x"];
10 -> 4  [label="y"];
10 -> 9  [label="z"];
11 -> 7  [label="x"];
11 -> 1  [label="y"];
11 -> 4  [label="z"];
12 -> 7  [label="x"];
12 -> 3  [label="y"];
12 -> 8  [label="z"];
__start0 [label="", shape=none];
__start0 -> 0  [label=""];
}
