digraph "benchmarks-true-state-lstar-rc10seeds/n_states=2-n_outputs=2-glitch_percent=0.0/88853981f44364ea11a9ec35d41d18df/pmsatLearned_NOP-N2-STOC" {
0 [label="0|a", shape=record, style=rounded];
1 [label="1|b", shape=record, style=rounded];
0 -> 0  [label="z (10)"];
0 -> 1  [label="x (22)"];
0 -> 0  [label="y (10)"];
1 -> 0  [label="x (5)"];
1 -> 0  [label="y (5)"];
1 -> 0  [label="z (5)"];
__start0 [label="", shape=none];
__start0 -> 0  [label=""];
}
