digraph "benchmarks-true-state-lstar-rc10seeds/n_states=7-n_outputs=2-glitch_percent=0.0/0885224433578d8273f51167fa64900d/pmsatLearned_NOP-N7" {
0 [label="0|a", shape=record, style=rounded];
1 [label="1|a", shape=record, style=rounded];
2 [label="2|b", shape=record, style=rounded];
3 [label="3|b", shape=record, style=rounded];
4 [label="4|b", shape=record, style=rounded];
5 [label="5|b", shape=record, style=rounded];
6 [label="6|a", shape=record, style=rounded];
0 -> 3  [label="z"];
0 -> 4  [label="y"];
0 -> 5  [label="x"];
1 -> 2  [label="x"];
1 -> 2  [label="y"];
1 -> 5  [label="z"];
2 -> 4  [label="x"];
2 -> 6  [label="y"];
2 -> 1  [label="z"];
3 -> 3  [label="x"];
3 -> 2  [label="y"];
3 -> 2  [label="z"];
4 -> 0  [label="x"];
4 -> 5  [label="y"];
4 -> 2  [label="z"];
5 -> 1  [label="x"];
5 -> 2  [label="y"];
5 -> 6  [label="z"];
6 -> 6  [label="x"];
6 -> 5  [label="y"];
6 -> 4  [label="z"];
__start0 [label="", shape=none];
__start0 -> 0  [label=""];
}
