digraph "benchmarks-true-state-lstar-rc10seeds/n_states=14-n_outputs=5-glitch_percent=0.0/68bb0850e107371ae7b3ccddd8a2e27f/pmsatLearned_NOP-N14" {
0 [label="0|b", shape=record, style=rounded];
1 [label="1|e", shape=record, style=rounded];
2 [label="2|b", shape=record, style=rounded];
3 [label="3|d", shape=record, style=rounded];
4 [label="4|d", shape=record, style=rounded];
5 [label="5|c", shape=record, style=rounded];
6 [label="6|b", shape=record, style=rounded];
7 [label="7|b", shape=record, style=rounded];
8 [label="8|e", shape=record, style=rounded];
9 [label="9|e", shape=record, style=rounded];
10 [label="10|e", shape=record, style=rounded];
11 [label="11|e", shape=record, style=rounded];
12 [label="12|e", shape=record, style=rounded];
13 [label="13|c", shape=record, style=rounded];
0 -> 10  [label="z"];
0 -> 8  [label="y"];
0 -> 3  [label="x"];
1 -> 5  [label="x"];
1 -> 8  [label="y"];
1 -> 8  [label="z"];
2 -> 13  [label="x"];
2 -> 11  [label="y"];
2 -> 2  [label="z"];
3 -> 4  [label="x"];
3 -> 2  [label="y"];
3 -> 12  [label="z"];
4 -> 6  [label="x"];
4 -> 5  [label="y"];
4 -> 3  [label="z"];
5 -> 0  [label="x"];
5 -> 9  [label="y"];
5 -> 13  [label="z"];
6 -> 8  [label="x"];
6 -> 13  [label="y"];
6 -> 12  [label="z"];
7 -> 0  [label="x"];
7 -> 5  [label="y"];
7 -> 13  [label="z"];
8 -> 1  [label="x"];
8 -> 9  [label="y"];
8 -> 11  [label="z"];
9 -> 13  [label="x"];
9 -> 8  [label="y"];
9 -> 3  [label="z"];
10 -> 7  [label="x"];
10 -> 13  [label="y"];
10 -> 5  [label="z"];
11 -> 7  [label="x"];
11 -> 8  [label="y"];
11 -> 8  [label="z"];
12 -> 1  [label="x"];
12 -> 6  [label="y"];
12 -> 2  [label="z"];
13 -> 11  [label="x"];
13 -> 5  [label="y"];
13 -> 0  [label="z"];
__start0 [label="", shape=none];
__start0 -> 0  [label=""];
}
