digraph "benchmarks-true-state-lstar-3seeds/n_states=10-n_outputs=4-glitch_percent=0.0/b8f5bfdaedacdcb2736d88cb05a0d8f3/pmsatLearned-N10-STOC" {
0 [label="0|b", shape=record, style=rounded];
1 [label="1|c", shape=record, style=rounded];
2 [label="2|d", shape=record, style=rounded];
3 [label="3|c", shape=record, style=rounded];
4 [label="4|c", shape=record, style=rounded];
5 [label="5|b", shape=record, style=rounded];
6 [label="6|b", shape=record, style=rounded];
7 [label="7|d", shape=record, style=rounded];
8 [label="8|b", shape=record, style=rounded];
9 [label="9|d", shape=record, style=rounded];
0 -> 4  [label="z (32)"];
0 -> 3  [label="y (74)"];
0 -> 9  [label="x (76)"];
1 -> 3  [label="x (9)"];
1 -> 4  [label="y (7)"];
1 -> 0  [label="z (7)"];
2 -> 7  [label="x (7)"];
2 -> 8  [label="y (6)"];
2 -> 6  [label="z (6)"];
3 -> 7  [label="x (28)"];
3 -> 2  [label="y (22)"];
3 -> 1  [label="z (24)"];
4 -> 4  [label="x (17)"];
4 -> 6  [label="y (11)"];
4 -> 9  [label="z (23)"];
5 -> 4  [label="x (9)"];
5 -> 6  [label="y (7)"];
5 -> 4  [label="z (7)"];
6 -> 4  [label="x (13)"];
6 -> 5  [label="y (9)"];
6 -> 0  [label="z (9)"];
7 -> 0  [label="x (15)"];
7 -> 0  [label="y (8)"];
7 -> 8  [label="z (14)"];
8 -> 7  [label="x (11)"];
8 -> 1  [label="y (8)"];
8 -> 9  [label="z (12)"];
9 -> 8  [label="x (27)"];
9 -> 6  [label="y (23)"];
9 -> 5  [label="z (28)"];
__start0 [label="", shape=none];
__start0 -> 0  [label=""];
}
