digraph "benchmarks-true-state-lstar-3seeds/n_states=4-n_outputs=2-glitch_percent=0.0/84ec4390df799c1656c91b502b0dba93/alergiaLearned" {
q0 [label="b"];
q1 [label="a"];
q2 [label="b"];
q0 -> q1  [label="z:1.0"];
q0 -> q2  [label="y:0.9047619047619048"];
q0 -> q1  [label="y:0.09523809523809523"];
q0 -> q1  [label="x:0.9047619047619048"];
q0 -> q0  [label="x:0.09523809523809523"];
q1 -> q0  [label="x:0.5"];
q1 -> q1  [label="x:0.5"];
q1 -> q0  [label="y:1.0"];
q1 -> q1  [label="z:0.5"];
q1 -> q0  [label="z:0.5"];
q2 -> q0  [label="x:1.0"];
q2 -> q1  [label="y:1.0"];
q2 -> q1  [label="z:1.0"];
__start0 [label="", shape=none];
__start0 -> q0  [label=""];
}
