digraph "benchmarks-true-state-lstar-3seeds/n_states=9-n_outputs=2-glitch_percent=0.0/143bb4e07f4872e5cdf8ff54291a53d5/rpniGroundTruth" {
s0 [label="s0|b", shape=record, style=rounded];
s1 [label="s1|b", shape=record, style=rounded];
s2 [label="s2|b", shape=record, style=rounded];
s3 [label="s3|a", shape=record, style=rounded];
s4 [label="s4|b", shape=record, style=rounded];
s5 [label="s5|a", shape=record, style=rounded];
s6 [label="s6|b", shape=record, style=rounded];
s7 [label="s7|b", shape=record, style=rounded];
s8 [label="s8|a", shape=record, style=rounded];
s0 -> s1  [label="z"];
s0 -> s2  [label="x"];
s0 -> s3  [label="y"];
s1 -> s4  [label="z"];
s1 -> s1  [label="x"];
s1 -> s5  [label="y"];
s2 -> s4  [label="x"];
s2 -> s5  [label="z"];
s2 -> s6  [label="y"];
s3 -> s7  [label="x"];
s3 -> s8  [label="y"];
s3 -> s4  [label="z"];
s4 -> s5  [label="z"];
s4 -> s1  [label="y"];
s4 -> s4  [label="x"];
s5 -> s4  [label="z"];
s5 -> s5  [label="y"];
s5 -> s7  [label="x"];
s6 -> s3  [label="y"];
s6 -> s1  [label="z"];
s6 -> s0  [label="x"];
s7 -> s3  [label="x"];
s7 -> s7  [label="z"];
s7 -> s6  [label="y"];
s8 -> s6  [label="x"];
s8 -> s7  [label="z"];
s8 -> s2  [label="y"];
__start0 [label="", shape=none];
__start0 -> s0  [label=""];
}
