digraph "benchmarks-true-state-lstar-songp/n_states=7-n_outputs=2-glitch_percent=0.1-pmstrat='fm'/10bf96ddff1323d62e9dc73fc62982ac/alergiaLearned" {
q0 [label="a"];
q1 [label="b"];
q2 [label="a"];
q3 [label="b"];
q4 [label="a"];
q5 [label="b"];
q0 -> q1  [label="z:0.875"];
q0 -> q2  [label="z:0.125"];
q0 -> q1  [label="y:1.0"];
q0 -> q2  [label="x:0.9142857142857143"];
q0 -> q3  [label="x:0.08571428571428572"];
q1 -> q3  [label="x:0.7368421052631579"];
q1 -> q0  [label="x:0.2631578947368421"];
q1 -> q1  [label="y:0.72"];
q1 -> q0  [label="y:0.28"];
q1 -> q1  [label="z:0.72"];
q1 -> q0  [label="z:0.28"];
q2 -> q1  [label="x:1.0"];
q2 -> q4  [label="z:0.9411764705882353"];
q2 -> q1  [label="z:0.058823529411764705"];
q2 -> q1  [label="y:0.9583333333333334"];
q2 -> q0  [label="y:0.041666666666666664"];
q3 -> q0  [label="y:0.5833333333333334"];
q3 -> q1  [label="y:0.4166666666666667"];
q3 -> q1  [label="z:1.0"];
q3 -> q1  [label="x:1.0"];
q4 -> q1  [label="y:1.0"];
q4 -> q0  [label="z:1.0"];
q4 -> q5  [label="x:0.75"];
q4 -> q0  [label="x:0.25"];
q5 -> q0  [label="x:1.0"];
__start0 [label="", shape=none];
__start0 -> q0  [label=""];
}
