digraph "benchmarks-true-state-lstar-3seeds/n_states=12-n_outputs=9-glitch_percent=0.02/15f0bbe007aee1f9a2a6b58683d8d9cb/pmsatLearned-N12-STOC" {
0 [label="0|a", shape=record, style=rounded];
1 [label="1|c", shape=record, style=rounded];
2 [label="2|d", shape=record, style=rounded];
3 [label="3|f", shape=record, style=rounded];
4 [label="4|h", shape=record, style=rounded];
5 [label="5|i", shape=record, style=rounded];
6 [label="6|h", shape=record, style=rounded];
7 [label="7|f", shape=record, style=rounded];
8 [label="8|i", shape=record, style=rounded];
9 [label="9|a", shape=record, style=rounded];
10 [label="10|h", shape=record, style=rounded];
11 [label="11|c", shape=record, style=rounded];
0 -> 0  [label="x (9)"];
0 -> 7  [label="y (8)"];
0 -> 10  [label="z (9)"];
1 -> 0  [label="y (5)"];
1 -> 4  [label="z (5)"];
1 -> 7  [label="x (4)"];
2 -> 5  [label="z (43)"];
2 -> 6  [label="y (55)"];
2 -> 3  [label="x (54)"];
2 -> 0  [label="!y [1]"];
3 -> 8  [label="x (18)"];
3 -> 0  [label="y (19)"];
3 -> 10  [label="z (17)"];
3 -> 4  [label="!z [1]"];
3 -> 3  [label="!y [1]"];
3 -> 3  [label="!z [2]"];
4 -> 0  [label="x (7)"];
4 -> 4  [label="y (7)"];
4 -> 7  [label="z (8)"];
5 -> 11  [label="x (18)"];
5 -> 1  [label="y (18)"];
5 -> 3  [label="z (4)"];
5 -> 4  [label="!z [1]"];
6 -> 7  [label="x (18)"];
6 -> 9  [label="y (18)"];
6 -> 4  [label="z (18)"];
7 -> 8  [label="x (10)"];
7 -> 6  [label="y (10)"];
7 -> 7  [label="z (10)"];
8 -> 9  [label="x (7)"];
8 -> 7  [label="y (7)"];
8 -> 3  [label="z (5)"];
9 -> 9  [label="x (7)"];
9 -> 10  [label="y (6)"];
9 -> 10  [label="z (7)"];
9 -> 7  [label="!y [1]"];
10 -> 2  [label="x (8)"];
10 -> 3  [label="y (6)"];
10 -> 5  [label="z (7)"];
11 -> 8  [label="x (5)"];
11 -> 2  [label="y (5)"];
11 -> 0  [label="z (5)"];
__start0 [label="", shape=none];
__start0 -> 2  [label=""];
}
