digraph "benchmarks-true-state-lstar-3seeds/n_states=5-n_outputs=4-glitch_percent=0.05/e8d7ce967e9989c668f065559fb687be/pmsatLearned-N5" {
0 [label="0|b", shape=record, style=rounded];
1 [label="1|c", shape=record, style=rounded];
2 [label="2|b", shape=record, style=rounded];
3 [label="3|b", shape=record, style=rounded];
4 [label="4|b", shape=record, style=rounded];
0 -> 4  [label="z"];
0 -> 2  [label="y"];
0 -> 1  [label="x"];
1 -> 3  [label="x"];
1 -> 1  [label="y"];
1 -> 4  [label="z"];
2 -> 2  [label="x"];
2 -> 4  [label="y"];
2 -> 2  [label="z"];
3 -> 1  [label="x"];
3 -> 4  [label="y"];
3 -> 0  [label="z"];
4 -> 0  [label="x"];
4 -> 0  [label="y"];
4 -> 0  [label="z"];
__start0 [label="", shape=none];
__start0 -> 0  [label=""];
}
