digraph "pmsatLearned-N8-STOC" {
0 [label="0|a", shape=record, style=rounded];
1 [label="1|b", shape=record, style=rounded];
2 [label="2|c", shape=record, style=rounded];
3 [label="3|e", shape=record, style=rounded];
4 [label="4|e", shape=record, style=rounded];
5 [label="5|b", shape=record, style=rounded];
6 [label="6|c", shape=record, style=rounded];
7 [label="7|a", shape=record, style=rounded];
0 -> 3  [label="x (169)"];
0 -> 6  [label="y (159)"];
0 -> 0  [label="z (167)"];
0 -> 1  [label="!z [2]"];
0 -> 4  [label="!y [2]"];
1 -> 7  [label="x (246)"];
1 -> 3  [label="y (210)"];
1 -> 3  [label="z (227)"];
1 -> 1  [label="!z [1]"];
2 -> 0  [label="x (96)"];
2 -> 1  [label="y (89)"];
2 -> 6  [label="z (87)"];
2 -> 3  [label="!x [1]"];
2 -> 3  [label="!y [1]"];
2 -> 3  [label="!z [1]"];
3 -> 1  [label="z (329)"];
3 -> 4  [label="y (334)"];
3 -> 6  [label="x (353)"];
3 -> 3  [label="!z [3]"];
3 -> 0  [label="!y [3]"];
3 -> 7  [label="!x [1]"];
3 -> 0  [label="!x [2]"];
3 -> 2  [label="!z [2]"];
4 -> 0  [label="x (99)"];
4 -> 0  [label="y (100)"];
4 -> 2  [label="z (102)"];
4 -> 6  [label="!y [2]"];
5 -> 0  [label="x (84)"];
5 -> 6  [label="y (93)"];
5 -> 5  [label="z (103)"];
5 -> 0  [label="!z [1]"];
6 -> 5  [label="x (220)"];
6 -> 2  [label="y (205)"];
6 -> 7  [label="z (206)"];
6 -> 1  [label="!y [1]"];
6 -> 7  [label="!x [1]"];
6 -> 1  [label="!z [2]"];
6 -> 5  [label="!z [1]"];
7 -> 7  [label="x (358)"];
7 -> 7  [label="y (352)"];
7 -> 1  [label="z (337)"];
7 -> 3  [label="!y [2]"];
7 -> 3  [label="!z [1]"];
__start0 [label="", shape=none];
__start0 -> 3  [label=""];
}
