digraph "benchmarks-true-state-lstar-rc10seeds/n_states=15-n_outputs=4-glitch_percent=0.05/e6e06d736e74d789b84c7de33c58b82d/pmsatLearned_NOP-N15-STOC" {
0 [label="0|b", shape=record, style=rounded];
1 [label="1|b", shape=record, style=rounded];
2 [label="2|c", shape=record, style=rounded];
3 [label="3|b", shape=record, style=rounded];
4 [label="4|b", shape=record, style=rounded];
5 [label="5|b", shape=record, style=rounded];
6 [label="6|b", shape=record, style=rounded];
7 [label="7|d", shape=record, style=rounded];
8 [label="8|a", shape=record, style=rounded];
9 [label="9|d", shape=record, style=rounded];
10 [label="10|b", shape=record, style=rounded];
11 [label="11|a", shape=record, style=rounded];
12 [label="12|d", shape=record, style=rounded];
13 [label="13|c", shape=record, style=rounded];
14 [label="14|b", shape=record, style=rounded];
0 -> 13  [label="x (16)"];
0 -> 10  [label="y (8)"];
0 -> 6  [label="z (8)"];
1 -> 9  [label="x (9)"];
1 -> 3  [label="y (7)"];
1 -> 13  [label="z (6)"];
2 -> 10  [label="z (67)"];
2 -> 12  [label="y (62)"];
2 -> 13  [label="x (102)"];
2 -> 3  [label="!y [1]"];
2 -> 11  [label="!z [1]"];
2 -> 5  [label="!x [2]"];
2 -> 7  [label="!y [2]"];
2 -> 3  [label="!x [1]"];
3 -> 7  [label="x (16)"];
3 -> 0  [label="y (8)"];
3 -> 0  [label="z (9)"];
4 -> 7  [label="x (12)"];
4 -> 4  [label="y (9)"];
4 -> 9  [label="z (8)"];
5 -> 14  [label="x (31)"];
5 -> 9  [label="y (20)"];
5 -> 1  [label="z (7)"];
5 -> 3  [label="!y [1]"];
5 -> 0  [label="!z [1]"];
5 -> 13  [label="!x [1]"];
6 -> 3  [label="x (11)"];
6 -> 2  [label="y (8)"];
6 -> 11  [label="z (6)"];
7 -> 10  [label="x (20)"];
7 -> 9  [label="y (8)"];
7 -> 9  [label="z (8)"];
8 -> 11  [label="x (8)"];
8 -> 11  [label="z (5)"];
8 -> 4  [label="y (5)"];
9 -> 9  [label="x (29)"];
9 -> 4  [label="y (9)"];
9 -> 9  [label="z (11)"];
10 -> 0  [label="x (31)"];
10 -> 3  [label="y (21)"];
10 -> 4  [label="z (22)"];
10 -> 9  [label="!z [1]"];
10 -> 5  [label="!x [1]"];
11 -> 5  [label="x (13)"];
11 -> 3  [label="y (8)"];
11 -> 6  [label="z (8)"];
12 -> 1  [label="y (19)"];
12 -> 11  [label="z (19)"];
12 -> 8  [label="x (18)"];
12 -> 13  [label="!z [1]"];
13 -> 5  [label="x (60)"];
13 -> 7  [label="y (21)"];
13 -> 6  [label="z (21)"];
13 -> 8  [label="!z [1]"];
13 -> 4  [label="!x [1]"];
13 -> 9  [label="!y [1]"];
14 -> 1  [label="z (4)"];
14 -> 5  [label="y (6)"];
14 -> 2  [label="x (11)"];
__start0 [label="", shape=none];
__start0 -> 2  [label=""];
}
