digraph "benchmarks-true-state-lstar-3seeds/n_states=9-n_outputs=4-glitch_percent=0.05/84c95edd7111240d7805e64c1ac60032/pmsatLearned-N9" {
0 [label="0|a", shape=record, style=rounded];
1 [label="1|b", shape=record, style=rounded];
2 [label="2|c", shape=record, style=rounded];
3 [label="3|d", shape=record, style=rounded];
4 [label="4|b", shape=record, style=rounded];
5 [label="5|d", shape=record, style=rounded];
6 [label="6|b", shape=record, style=rounded];
7 [label="7|a", shape=record, style=rounded];
8 [label="8|a", shape=record, style=rounded];
0 -> 1  [label="x"];
0 -> 7  [label="z"];
0 -> 4  [label="y"];
1 -> 2  [label="x"];
1 -> 7  [label="y"];
1 -> 2  [label="z"];
2 -> 1  [label="x"];
2 -> 3  [label="y"];
2 -> 2  [label="z"];
3 -> 1  [label="z"];
3 -> 4  [label="y"];
3 -> 7  [label="x"];
4 -> 2  [label="x"];
4 -> 5  [label="y"];
4 -> 2  [label="z"];
5 -> 8  [label="x"];
5 -> 8  [label="y"];
5 -> 6  [label="z"];
6 -> 1  [label="x"];
6 -> 2  [label="y"];
6 -> 7  [label="z"];
7 -> 0  [label="x"];
7 -> 8  [label="y"];
7 -> 6  [label="z"];
8 -> 0  [label="x"];
8 -> 7  [label="y"];
8 -> 7  [label="z"];
__start0 [label="", shape=none];
__start0 -> 3  [label=""];
}
