digraph "benchmarks-true-state-lstar-rc10seeds/n_states=7-n_outputs=5-glitch_percent=0.05/d29ba18cf8e7f38abd2518ea628d662d/pmsatLearned_NOP-N7-STOC" {
0 [label="0|a", shape=record, style=rounded];
1 [label="1|e", shape=record, style=rounded];
2 [label="2|e", shape=record, style=rounded];
3 [label="3|a", shape=record, style=rounded];
4 [label="4|d", shape=record, style=rounded];
5 [label="5|b", shape=record, style=rounded];
6 [label="6|e", shape=record, style=rounded];
0 -> 4  [label="z (19)"];
0 -> 6  [label="y (19)"];
0 -> 3  [label="x (55)"];
0 -> 0  [label="!z [1]"];
1 -> 3  [label="y (6)"];
1 -> 2  [label="z (6)"];
1 -> 2  [label="x (5)"];
2 -> 3  [label="x (6)"];
2 -> 5  [label="y (6)"];
2 -> 6  [label="z (7)"];
3 -> 2  [label="y (18)"];
3 -> 5  [label="z (19)"];
3 -> 1  [label="x (17)"];
4 -> 6  [label="x (5)"];
4 -> 0  [label="y (5)"];
4 -> 4  [label="z (6)"];
4 -> 6  [label="!y [1]"];
5 -> 0  [label="x (8)"];
5 -> 1  [label="y (8)"];
5 -> 5  [label="z (6)"];
6 -> 5  [label="x (8)"];
6 -> 6  [label="y (7)"];
6 -> 0  [label="z (7)"];
6 -> 5  [label="!y [1]"];
__start0 [label="", shape=none];
__start0 -> 0  [label=""];
}
