digraph "benchmarks-true-state-lstar-3seeds/n_states=7-n_outputs=3-glitch_percent=0.0/49780537f43db17eebf1ee98d5e9a6d5/alergiaLearned" {
q0 [label="b"];
q1 [label="c"];
q2 [label="a"];
q3 [label="c"];
q4 [label="b"];
q5 [label="c"];
q6 [label="a"];
q0 -> q1  [label="z:1.0"];
q0 -> q2  [label="y:1.0"];
q0 -> q3  [label="x:1.0"];
q1 -> q2  [label="x:0.8888888888888888"];
q1 -> q1  [label="x:0.1111111111111111"];
q1 -> q2  [label="y:1.0"];
q1 -> q1  [label="z:0.9"];
q1 -> q0  [label="z:0.1"];
q2 -> q0  [label="x:0.5333333333333333"];
q2 -> q2  [label="x:0.4666666666666667"];
q2 -> q1  [label="y:1.0"];
q2 -> q4  [label="z:1.0"];
q3 -> q5  [label="x:1.0"];
q3 -> q2  [label="y:1.0"];
q3 -> q4  [label="z:1.0"];
q4 -> q2  [label="x:1.0"];
q4 -> q2  [label="y:1.0"];
q4 -> q1  [label="z:1.0"];
q5 -> q6  [label="x:1.0"];
q5 -> q2  [label="y:1.0"];
q5 -> q1  [label="z:1.0"];
q6 -> q2  [label="x:1.0"];
q6 -> q1  [label="y:1.0"];
q6 -> q0  [label="z:1.0"];
__start0 [label="", shape=none];
__start0 -> q0  [label=""];
}
