digraph "benchmarks-true-state-lstar-3seeds/n_states=8-n_outputs=5-glitch_percent=0.02/6b36ced4dead810626ab10cd47583bdf/pmsatLearned-N8-STOC" {
0 [label="0|a", shape=record, style=rounded];
1 [label="1|b", shape=record, style=rounded];
2 [label="2|c", shape=record, style=rounded];
3 [label="3|d", shape=record, style=rounded];
4 [label="4|e", shape=record, style=rounded];
5 [label="5|c", shape=record, style=rounded];
6 [label="6|d", shape=record, style=rounded];
7 [label="7|c", shape=record, style=rounded];
0 -> 3  [label="x (8)"];
0 -> 1  [label="y (7)"];
0 -> 7  [label="z (7)"];
1 -> 2  [label="x (20)"];
1 -> 6  [label="y (20)"];
1 -> 0  [label="z (18)"];
1 -> 7  [label="!z [1]"];
2 -> 7  [label="x (9)"];
2 -> 0  [label="y (7)"];
2 -> 2  [label="z (8)"];
3 -> 4  [label="z (18)"];
3 -> 5  [label="y (29)"];
3 -> 1  [label="x (54)"];
3 -> 2  [label="!x [1]"];
4 -> 1  [label="x (5)"];
4 -> 1  [label="y (5)"];
4 -> 2  [label="z (5)"];
5 -> 7  [label="x (16)"];
5 -> 7  [label="y (5)"];
5 -> 7  [label="z (5)"];
6 -> 2  [label="x (6)"];
6 -> 7  [label="y (6)"];
6 -> 0  [label="z (6)"];
7 -> 6  [label="x (10)"];
7 -> 0  [label="y (11)"];
7 -> 7  [label="z (10)"];
__start0 [label="", shape=none];
__start0 -> 3  [label=""];
}
