digraph "benchmarks-true-state-lstar-3seeds/n_states=16-n_outputs=8-glitch_percent=0.01/99f527a62c0e1b718115111680e8fd89/rpniGroundTruth" {
s0 [label="s0|f", shape=record, style=rounded];
s1 [label="s1|a", shape=record, style=rounded];
s2 [label="s2|g", shape=record, style=rounded];
s3 [label="s3|h", shape=record, style=rounded];
s4 [label="s4|f", shape=record, style=rounded];
s5 [label="s5|b", shape=record, style=rounded];
s6 [label="s6|a", shape=record, style=rounded];
s7 [label="s7|b", shape=record, style=rounded];
s8 [label="s8|a", shape=record, style=rounded];
s9 [label="s9|g", shape=record, style=rounded];
s10 [label="s10|e", shape=record, style=rounded];
s11 [label="s11|a", shape=record, style=rounded];
s12 [label="s12|g", shape=record, style=rounded];
s13 [label="s13|h", shape=record, style=rounded];
s14 [label="s14|g", shape=record, style=rounded];
s15 [label="s15|e", shape=record, style=rounded];
s0 -> s1  [label="x"];
s0 -> s2  [label="z"];
s0 -> s3  [label="y"];
s1 -> s4  [label="z"];
s1 -> s5  [label="x"];
s1 -> s6  [label="y"];
s2 -> s7  [label="y"];
s2 -> s8  [label="z"];
s2 -> s9  [label="x"];
s3 -> s10  [label="x"];
s3 -> s11  [label="y"];
s3 -> s12  [label="z"];
s4 -> s11  [label="y"];
s4 -> s13  [label="z"];
s4 -> s4  [label="x"];
s5 -> s14  [label="y"];
s5 -> s13  [label="z"];
s5 -> s15  [label="x"];
s6 -> s7  [label="z"];
s6 -> s2  [label="x"];
s6 -> s12  [label="y"];
s7 -> s12  [label="x"];
s7 -> s5  [label="z"];
s7 -> s6  [label="y"];
s8 -> s7  [label="x"];
s8 -> s1  [label="y"];
s8 -> s14  [label="z"];
s9 -> s5  [label="y"];
s9 -> s14  [label="z"];
s9 -> s15  [label="x"];
s10 -> s5  [label="x"];
s10 -> s8  [label="y"];
s10 -> s6  [label="z"];
s11 -> s12  [label="y"];
s11 -> s11  [label="z"];
s11 -> s13  [label="x"];
s12 -> s13  [label="z"];
s12 -> s2  [label="x"];
s12 -> s1  [label="y"];
s13 -> s1  [label="x"];
s13 -> s6  [label="y"];
s13 -> s4  [label="z"];
s14 -> s8  [label="z"];
s14 -> s13  [label="x"];
s14 -> s2  [label="y"];
s15 -> s8  [label="x"];
s15 -> s6  [label="y"];
s15 -> s12  [label="z"];
__start0 [label="", shape=none];
__start0 -> s0  [label=""];
}
