digraph "benchmarks-true-state-lstar-3seeds/n_states=9-n_outputs=5-glitch_percent=0.0/2ead35f5f40f331d62d47fc52cbeb8a3/RealModel" {
s1 [label="s1|c", shape=record, style=rounded];
s2 [label="s2|a", shape=record, style=rounded];
s3 [label="s3|d", shape=record, style=rounded];
s4 [label="s4|e", shape=record, style=rounded];
s5 [label="s5|d", shape=record, style=rounded];
s6 [label="s6|e", shape=record, style=rounded];
s7 [label="s7|c", shape=record, style=rounded];
s8 [label="s8|c", shape=record, style=rounded];
s9 [label="s9|e", shape=record, style=rounded];
s1 -> s8  [label="x"];
s1 -> s5  [label="y"];
s1 -> s7  [label="z"];
s2 -> s1  [label="x"];
s2 -> s6  [label="y"];
s2 -> s7  [label="z"];
s3 -> s4  [label="x"];
s3 -> s1  [label="y"];
s3 -> s9  [label="z"];
s4 -> s6  [label="x"];
s4 -> s6  [label="y"];
s4 -> s6  [label="z"];
s5 -> s3  [label="x"];
s5 -> s4  [label="y"];
s5 -> s1  [label="z"];
s6 -> s9  [label="x"];
s6 -> s6  [label="y"];
s6 -> s8  [label="z"];
s7 -> s5  [label="x"];
s7 -> s8  [label="y"];
s7 -> s9  [label="z"];
s8 -> s2  [label="x"];
s8 -> s9  [label="y"];
s8 -> s6  [label="z"];
s9 -> s4  [label="x"];
s9 -> s4  [label="y"];
s9 -> s9  [label="z"];
__start0 [label="", shape=none];
__start0 -> s1  [label=""];
}
