digraph "benchmarks-true-state-lstar-3seeds/n_states=12-n_outputs=6-glitch_percent=0.01/a9ec3ab3db6ee585d6b4afc4c92a9e93/rpniGroundTruth" {
s0 [label="s0|c", shape=record, style=rounded];
s1 [label="s1|b", shape=record, style=rounded];
s2 [label="s2|d", shape=record, style=rounded];
s3 [label="s3|a", shape=record, style=rounded];
s4 [label="s4|e", shape=record, style=rounded];
s5 [label="s5|d", shape=record, style=rounded];
s6 [label="s6|d", shape=record, style=rounded];
s7 [label="s7|f", shape=record, style=rounded];
s8 [label="s8|a", shape=record, style=rounded];
s9 [label="s9|b", shape=record, style=rounded];
s10 [label="s10|b", shape=record, style=rounded];
s11 [label="s11|c", shape=record, style=rounded];
s0 -> s1  [label="y"];
s0 -> s2  [label="x"];
s0 -> s3  [label="z"];
s1 -> s4  [label="y"];
s1 -> s5  [label="z"];
s1 -> s6  [label="x"];
s2 -> s7  [label="x"];
s2 -> s8  [label="z"];
s2 -> s9  [label="y"];
s3 -> s10  [label="y"];
s3 -> s7  [label="z"];
s3 -> s11  [label="x"];
s4 -> s6  [label="z"];
s4 -> s1  [label="x"];
s4 -> s2  [label="y"];
s5 -> s7  [label="z"];
s5 -> s9  [label="y"];
s5 -> s11  [label="x"];
s6 -> s2  [label="y"];
s6 -> s3  [label="z"];
s6 -> s1  [label="x"];
s7 -> s4  [label="y"];
s7 -> s6  [label="z"];
s7 -> s8  [label="x"];
s8 -> s2  [label="x"];
s8 -> s0  [label="z"];
s8 -> s3  [label="y"];
s9 -> s8  [label="z"];
s9 -> s5  [label="x"];
s9 -> s8  [label="y"];
s10 -> s10  [label="z"];
s10 -> s6  [label="x"];
s10 -> s9  [label="y"];
s11 -> s2  [label="y"];
s11 -> s9  [label="z"];
s11 -> s7  [label="x"];
__start0 [label="", shape=none];
__start0 -> s0  [label=""];
}
