digraph "benchmarks-true-state-lstar-3seeds/n_states=16-n_outputs=8-glitch_percent=0.0/6e21550739a8ea378f830b2e7c835e3b/pmsatLearned-N16" {
0 [label="0|b", shape=record, style=rounded];
1 [label="1|c", shape=record, style=rounded];
2 [label="2|d", shape=record, style=rounded];
3 [label="3|e", shape=record, style=rounded];
4 [label="4|f", shape=record, style=rounded];
5 [label="5|h", shape=record, style=rounded];
6 [label="6|b", shape=record, style=rounded];
7 [label="7|d", shape=record, style=rounded];
8 [label="8|f", shape=record, style=rounded];
9 [label="9|f", shape=record, style=rounded];
10 [label="10|f", shape=record, style=rounded];
11 [label="11|f", shape=record, style=rounded];
12 [label="12|d", shape=record, style=rounded];
13 [label="13|f", shape=record, style=rounded];
14 [label="14|h", shape=record, style=rounded];
15 [label="15|b", shape=record, style=rounded];
0 -> 12  [label="x"];
0 -> 15  [label="y"];
0 -> 4  [label="z"];
1 -> 6  [label="x"];
1 -> 13  [label="y"];
1 -> 12  [label="z"];
2 -> 5  [label="x"];
2 -> 11  [label="y"];
2 -> 5  [label="z"];
3 -> 10  [label="x"];
3 -> 2  [label="y"];
3 -> 4  [label="z"];
4 -> 9  [label="x"];
4 -> 11  [label="y"];
4 -> 14  [label="z"];
5 -> 12  [label="z"];
5 -> 9  [label="y"];
5 -> 14  [label="x"];
6 -> 8  [label="x"];
6 -> 7  [label="y"];
6 -> 14  [label="z"];
7 -> 13  [label="x"];
7 -> 14  [label="y"];
7 -> 12  [label="z"];
8 -> 6  [label="x"];
8 -> 7  [label="y"];
8 -> 10  [label="z"];
9 -> 7  [label="x"];
9 -> 8  [label="y"];
9 -> 15  [label="z"];
10 -> 3  [label="x"];
10 -> 6  [label="y"];
10 -> 0  [label="z"];
11 -> 14  [label="x"];
11 -> 2  [label="y"];
11 -> 0  [label="z"];
12 -> 11  [label="x"];
12 -> 4  [label="y"];
12 -> 2  [label="z"];
13 -> 12  [label="x"];
13 -> 10  [label="y"];
13 -> 7  [label="z"];
14 -> 10  [label="x"];
14 -> 13  [label="y"];
14 -> 1  [label="z"];
15 -> 7  [label="x"];
15 -> 2  [label="y"];
15 -> 10  [label="z"];
__start0 [label="", shape=none];
__start0 -> 5  [label=""];
}
