digraph "benchmarks-true-state-lstar-3seeds/n_states=12-n_outputs=9-glitch_percent=0.01/f6570f6e4648db4f238d7d01a882755a/pmsatLearned-N12" {
0 [label="0|a", shape=record, style=rounded];
1 [label="1|b", shape=record, style=rounded];
2 [label="2|c", shape=record, style=rounded];
3 [label="3|e", shape=record, style=rounded];
4 [label="4|f", shape=record, style=rounded];
5 [label="5|g", shape=record, style=rounded];
6 [label="6|h", shape=record, style=rounded];
7 [label="7|i", shape=record, style=rounded];
8 [label="8|b", shape=record, style=rounded];
9 [label="9|a", shape=record, style=rounded];
10 [label="10|f", shape=record, style=rounded];
11 [label="11|i", shape=record, style=rounded];
0 -> 3  [label="x"];
0 -> 4  [label="y"];
0 -> 0  [label="z"];
1 -> 6  [label="z"];
1 -> 2  [label="y"];
1 -> 10  [label="x"];
2 -> 4  [label="x"];
2 -> 11  [label="y"];
2 -> 8  [label="z"];
3 -> 6  [label="x"];
3 -> 11  [label="y"];
3 -> 7  [label="z"];
4 -> 11  [label="x"];
4 -> 3  [label="y"];
4 -> 3  [label="z"];
5 -> 8  [label="x"];
5 -> 2  [label="y"];
5 -> 10  [label="z"];
6 -> 5  [label="x"];
6 -> 0  [label="y"];
6 -> 6  [label="z"];
7 -> 5  [label="x"];
7 -> 10  [label="y"];
7 -> 11  [label="z"];
8 -> 6  [label="x"];
8 -> 0  [label="y"];
8 -> 3  [label="z"];
9 -> 7  [label="x"];
9 -> 4  [label="y"];
9 -> 2  [label="z"];
10 -> 7  [label="x"];
10 -> 3  [label="y"];
10 -> 9  [label="z"];
11 -> 1  [label="x"];
11 -> 2  [label="y"];
11 -> 11  [label="z"];
__start0 [label="", shape=none];
__start0 -> 1  [label=""];
}
