digraph "benchmarks-true-state-lstar-3seeds/n_states=16-n_outputs=9-glitch_percent=0.05/8da71a9cbc934ea672943b58e42ab82a/alergiaLearned" {
q0 [label="e"];
q1 [label="h"];
q2 [label="a"];
q3 [label="a"];
q4 [label="b"];
q5 [label="f"];
q6 [label="e"];
q7 [label="g"];
q8 [label="a"];
q9 [label="h"];
q0 -> q1  [label="z:0.8909090909090909"];
q0 -> q5  [label="z:0.01818181818181818"];
q0 -> q4  [label="z:0.05454545454545454"];
q0 -> q0  [label="z:0.03636363636363636"];
q0 -> q2  [label="y:0.9152542372881356"];
q0 -> q4  [label="y:0.03389830508474576"];
q0 -> q5  [label="y:0.05084745762711865"];
q0 -> q3  [label="x:0.8947368421052632"];
q0 -> q4  [label="x:0.07368421052631578"];
q0 -> q0  [label="x:0.031578947368421054"];
q0 -> q5  [label="x:0.0"];
q1 -> q6  [label="x:1.0"];
q1 -> q1  [label="x:0.0"];
q1 -> q4  [label="y:1.0"];
q1 -> q0  [label="y:0.0"];
q1 -> q5  [label="z:1.0"];
q1 -> q7  [label="z:0.0"];
q2 -> q4  [label="x:0.9545454545454546"];
q2 -> q0  [label="x:0.045454545454545456"];
q2 -> q4  [label="y:0.8695652173913043"];
q2 -> q7  [label="y:0.043478260869565216"];
q2 -> q2  [label="y:0.08695652173913043"];
q2 -> q7  [label="z:0.9"];
q2 -> q4  [label="z:0.05"];
q2 -> q0  [label="z:0.05"];
q3 -> q8  [label="y:0.9411764705882353"];
q3 -> q4  [label="y:0.058823529411764705"];
q3 -> q6  [label="z:1.0"];
q3 -> q4  [label="x:0.9615384615384616"];
q3 -> q6  [label="x:0.038461538461538464"];
q4 -> q0  [label="z:0.3684210526315789"];
q4 -> q2  [label="z:0.18421052631578946"];
q4 -> q9  [label="z:0.4473684210526316"];
q4 -> q6  [label="y:0.6666666666666666"];
q4 -> q1  [label="y:0.16666666666666666"];
q4 -> q2  [label="y:0.16666666666666666"];
q4 -> q6  [label="x:0.4838709677419355"];
q4 -> q4  [label="x:0.3548387096774194"];
q4 -> q2  [label="x:0.16129032258064516"];
q5 -> q2  [label="x:1.0"];
q5 -> q1  [label="z:1.0"];
q5 -> q4  [label="y:1.0"];
q6 -> q4  [label="x:1.0"];
q6 -> q0  [label="x:0.0"];
q6 -> q5  [label="x:0.0"];
q6 -> q5  [label="y:0.4444444444444444"];
q6 -> q2  [label="y:0.4444444444444444"];
q6 -> q4  [label="y:0.1111111111111111"];
q6 -> q4  [label="z:0.36363636363636365"];
q6 -> q0  [label="z:0.6363636363636364"];
q6 -> q1  [label="z:0.0"];
q7 -> q4  [label="x:1.0"];
q7 -> q2  [label="z:1.0"];
q7 -> q7  [label="y:0.8333333333333334"];
q7 -> q1  [label="y:0.16666666666666666"];
q8 -> q0  [label="x:1.0"];
q8 -> q2  [label="y:1.0"];
q8 -> q4  [label="z:1.0"];
q9 -> q1  [label="x:1.0"];
q9 -> q0  [label="y:0.8333333333333334"];
q9 -> q7  [label="y:0.16666666666666666"];
q9 -> q7  [label="z:1.0"];
__start0 [label="", shape=none];
__start0 -> q0  [label=""];
}
