digraph "benchmarks-true-state-lstar-3seeds/n_states=8-n_outputs=8-glitch_percent=0.0/bfab566841d80ed767c25d3d11194b9f/pmsatLearned-N8" {
0 [label="0|a", shape=record, style=rounded];
1 [label="1|b", shape=record, style=rounded];
2 [label="2|e", shape=record, style=rounded];
3 [label="3|f", shape=record, style=rounded];
4 [label="4|g", shape=record, style=rounded];
5 [label="5|a", shape=record, style=rounded];
6 [label="6|b", shape=record, style=rounded];
7 [label="7|f", shape=record, style=rounded];
0 -> 1  [label="x"];
0 -> 0  [label="y"];
0 -> 6  [label="z"];
1 -> 7  [label="z"];
1 -> 5  [label="y"];
1 -> 4  [label="x"];
2 -> 5  [label="x"];
2 -> 3  [label="y"];
2 -> 0  [label="z"];
3 -> 0  [label="x"];
3 -> 0  [label="y"];
3 -> 5  [label="z"];
4 -> 3  [label="x"];
4 -> 2  [label="y"];
4 -> 0  [label="z"];
5 -> 6  [label="x"];
5 -> 0  [label="y"];
5 -> 1  [label="z"];
6 -> 7  [label="x"];
6 -> 3  [label="y"];
6 -> 5  [label="z"];
7 -> 6  [label="x"];
7 -> 4  [label="y"];
7 -> 7  [label="z"];
__start0 [label="", shape=none];
__start0 -> 1  [label=""];
}
