digraph "benchmarks-true-state-lstar-3seeds/n_states=13-n_outputs=5-glitch_percent=0.01/21ba33a170c84e46872ee5c22717ec91/pmsatLearned-N13" {
0 [label="0|a", shape=record, style=rounded];
1 [label="1|b", shape=record, style=rounded];
2 [label="2|c", shape=record, style=rounded];
3 [label="3|d", shape=record, style=rounded];
4 [label="4|e", shape=record, style=rounded];
5 [label="5|d", shape=record, style=rounded];
6 [label="6|c", shape=record, style=rounded];
7 [label="7|e", shape=record, style=rounded];
8 [label="8|e", shape=record, style=rounded];
9 [label="9|b", shape=record, style=rounded];
10 [label="10|a", shape=record, style=rounded];
11 [label="11|b", shape=record, style=rounded];
12 [label="12|d", shape=record, style=rounded];
0 -> 2  [label="x"];
0 -> 2  [label="y"];
0 -> 3  [label="z"];
1 -> 3  [label="x"];
1 -> 11  [label="y"];
1 -> 3  [label="z"];
2 -> 2  [label="x"];
2 -> 4  [label="y"];
2 -> 8  [label="z"];
3 -> 1  [label="x"];
3 -> 11  [label="y"];
3 -> 0  [label="z"];
4 -> 5  [label="z"];
4 -> 9  [label="y"];
4 -> 8  [label="x"];
5 -> 7  [label="x"];
5 -> 6  [label="y"];
5 -> 1  [label="z"];
6 -> 12  [label="x"];
6 -> 1  [label="y"];
6 -> 4  [label="z"];
7 -> 7  [label="x"];
7 -> 11  [label="y"];
7 -> 1  [label="z"];
8 -> 12  [label="x"];
8 -> 11  [label="y"];
8 -> 2  [label="z"];
9 -> 10  [label="x"];
9 -> 3  [label="y"];
9 -> 0  [label="z"];
10 -> 5  [label="x"];
10 -> 12  [label="y"];
10 -> 9  [label="z"];
11 -> 8  [label="x"];
11 -> 0  [label="y"];
11 -> 11  [label="z"];
12 -> 0  [label="x"];
12 -> 1  [label="y"];
12 -> 11  [label="z"];
__start0 [label="", shape=none];
__start0 -> 4  [label=""];
}
