digraph "pmsatLearned-N8-STOC" {
0 [label="0|a", shape=record, style=rounded];
1 [label="1|b", shape=record, style=rounded];
2 [label="2|c", shape=record, style=rounded];
3 [label="3|d", shape=record, style=rounded];
4 [label="4|e", shape=record, style=rounded];
5 [label="5|b", shape=record, style=rounded];
6 [label="6|b", shape=record, style=rounded];
7 [label="7|e", shape=record, style=rounded];
0 -> 2  [label="x (188)"];
0 -> 0  [label="y (154)"];
0 -> 6  [label="z (189)"];
0 -> 1  [label="!x [1]"];
1 -> 3  [label="x (145)"];
1 -> 4  [label="y (148)"];
1 -> 2  [label="z (164)"];
2 -> 0  [label="x (230)"];
2 -> 4  [label="y (227)"];
2 -> 1  [label="z (238)"];
2 -> 0  [label="!y [1]"];
2 -> 2  [label="!z [2]"];
2 -> 2  [label="!y [2]"];
3 -> 1  [label="z (202)"];
3 -> 0  [label="y (210)"];
3 -> 6  [label="x (254)"];
3 -> 4  [label="!y [1]"];
3 -> 2  [label="!x [1]"];
3 -> 3  [label="!x [1] t1"];
3 -> 5  [label="!x [1] t2"];
3 -> 1  [label="!x [2]"];
4 -> 3  [label="x (173)"];
4 -> 2  [label="y (183)"];
4 -> 2  [label="z (174)"];
4 -> 4  [label="!y [2]"];
4 -> 6  [label="!x [1]"];
4 -> 0  [label="!x [1] t1"];
5 -> 7  [label="x (63)"];
5 -> 1  [label="y (73)"];
5 -> 2  [label="z (69)"];
5 -> 5  [label="!z [1]"];
5 -> 0  [label="!x [1]"];
6 -> 5  [label="x (133)"];
6 -> 7  [label="y (133)"];
6 -> 4  [label="z (139)"];
6 -> 4  [label="!x [1]"];
6 -> 2  [label="!z [1]"];
6 -> 6  [label="!x [1] t1"];
7 -> 4  [label="x (78)"];
7 -> 7  [label="y (88)"];
7 -> 5  [label="z (89)"];
__start0 [label="", shape=none];
__start0 -> 3  [label=""];
}
