digraph "benchmarks-true-state-lstar-3seeds/n_states=16-n_outputs=3-glitch_percent=0.02/dabc807d0d6259055ce2bd54a13f913b/alergiaLearned" {
q0 [label="a"];
q1 [label="a"];
q2 [label="b"];
q3 [label="b"];
q4 [label="c"];
q5 [label="a"];
q6 [label="a"];
q7 [label="a"];
q0 -> q1  [label="z:0.9240506329113924"];
q0 -> q4  [label="z:0.02531645569620253"];
q0 -> q2  [label="z:0.05063291139240506"];
q0 -> q2  [label="y:0.8205128205128205"];
q0 -> q0  [label="y:0.038461538461538464"];
q0 -> q4  [label="y:0.14102564102564102"];
q0 -> q3  [label="x:0.890625"];
q0 -> q0  [label="x:0.046875"];
q0 -> q4  [label="x:0.0625"];
q1 -> q4  [label="x:0.9705882352941176"];
q1 -> q1  [label="x:0.029411764705882353"];
q1 -> q4  [label="y:1.0"];
q1 -> q5  [label="z:0.9"];
q1 -> q4  [label="z:0.1"];
q1 -> q2  [label="z:0.0"];
q2 -> q4  [label="x:0.7692307692307693"];
q2 -> q1  [label="x:0.23076923076923078"];
q2 -> q4  [label="y:0.84"];
q2 -> q0  [label="y:0.16"];
q2 -> q6  [label="z:1.0"];
q3 -> q7  [label="x:0.9848484848484849"];
q3 -> q4  [label="x:0.015151515151515152"];
q3 -> q6  [label="y:1.0"];
q3 -> q5  [label="z:1.0"];
q4 -> q4  [label="x:0.4262295081967213"];
q4 -> q0  [label="x:0.5737704918032787"];
q4 -> q4  [label="z:0.2978723404255319"];
q4 -> q0  [label="z:0.7021276595744681"];
q4 -> q4  [label="y:0.39436619718309857"];
q4 -> q1  [label="y:0.5070422535211268"];
q4 -> q2  [label="y:0.09859154929577464"];
q5 -> q4  [label="x:0.95"];
q5 -> q0  [label="x:0.05"];
q5 -> q4  [label="y:0.5454545454545454"];
q5 -> q1  [label="y:0.45454545454545453"];
q5 -> q4  [label="z:1.0"];
q6 -> q1  [label="x:0.42857142857142855"];
q6 -> q4  [label="x:0.07142857142857142"];
q6 -> q2  [label="x:0.5"];
q6 -> q2  [label="z:1.0"];
q6 -> q4  [label="y:0.45454545454545453"];
q6 -> q1  [label="y:0.5454545454545454"];
q7 -> q4  [label="x:1.0"];
q7 -> q4  [label="y:0.9545454545454546"];
q7 -> q1  [label="y:0.045454545454545456"];
q7 -> q4  [label="z:1.0"];
__start0 [label="", shape=none];
__start0 -> q0  [label=""];
}
