digraph "benchmarks-true-state-lstar-songp/n_states=9-n_outputs=2-glitch_percent=0.0-pmstrat='lsu'/294d148aea4f859ab6c4682593f1047b/pmsatLearned-N9-STOC" {
0 [label="0|a", shape=record, style=rounded];
1 [label="1|b", shape=record, style=rounded];
2 [label="2|b", shape=record, style=rounded];
3 [label="3|a", shape=record, style=rounded];
4 [label="4|b", shape=record, style=rounded];
5 [label="5|b", shape=record, style=rounded];
6 [label="6|b", shape=record, style=rounded];
7 [label="7|b", shape=record, style=rounded];
8 [label="8|a", shape=record, style=rounded];
0 -> 1  [label="z (17)"];
0 -> 6  [label="!z [1]"];
0 -> 8  [label="y (67)"];
0 -> 7  [label="x (67)"];
0 -> 7  [label="!z [2]"];
0 -> 0  [label="!y [2]"];
0 -> 1  [label="!y [1]"];
0 -> 3  [label="!y [4]"];
0 -> 6  [label="!x [2]"];
0 -> 1  [label="!x [1]"];
0 -> 5  [label="!x [4]"];
1 -> 5  [label="x (12)"];
1 -> 8  [label="z (8)"];
1 -> 1  [label="!x [1]"];
1 -> 0  [label="y (9)"];
1 -> 3  [label="!z [2]"];
2 -> 3  [label="y (10)"];
2 -> 4  [label="x (7)"];
2 -> 1  [label="z (5)"];
2 -> 5  [label="!z [1]"];
3 -> 1  [label="y (6)"];
3 -> 0  [label="x (10)"];
3 -> 3  [label="z (14)"];
3 -> 7  [label="!x [1]"];
3 -> 8  [label="!y [1]"];
4 -> 6  [label="y (14)"];
4 -> 1  [label="x (12)"];
4 -> 0  [label="z (10)"];
4 -> 5  [label="!x [1]"];
4 -> 8  [label="!y [1]"];
5 -> 6  [label="y (8)"];
5 -> 0  [label="x (12)"];
5 -> 8  [label="!z [2]"];
5 -> 0  [label="!y [1]"];
5 -> 1  [label="z (2)"];
6 -> 5  [label="y (3)"];
6 -> 6  [label="x (5)"];
6 -> 3  [label="!z [1]"];
6 -> 0  [label="z (4)"];
6 -> 0  [label="!y [1]"];
7 -> 8  [label="x (12)"];
7 -> 2  [label="y (26)"];
7 -> 8  [label="z (14)"];
7 -> 3  [label="!z [4]"];
7 -> 3  [label="!x [5]"];
7 -> 1  [label="!y [1]"];
7 -> 0  [label="!x [3]"];
7 -> 4  [label="!x [1]"];
8 -> 4  [label="x (35)"];
8 -> 5  [label="y (17)"];
8 -> 6  [label="z (7)"];
8 -> 0  [label="!x [5]"];
8 -> 8  [label="!z [3]"];
8 -> 7  [label="!y [1]"];
8 -> 2  [label="!y [3]"];
8 -> 3  [label="!z [2]"];
8 -> 3  [label="!x [1]"];
__start0 [label="", shape=none];
__start0 -> 0  [label=""];
}
