digraph "benchmarks-true-state-lstar-3seeds/n_states=4-n_outputs=4-glitch_percent=0.0/cac6f69cd85fb53d1667eb469838c956/alergiaLearned" {
q0 [label="c"];
q1 [label="a"];
q2 [label="d"];
q0 -> q1  [label="z:1.0"];
q0 -> q2  [label="y:1.0"];
q0 -> q2  [label="x:1.0"];
q1 -> q0  [label="x:1.0"];
q1 -> q2  [label="y:1.0"];
q1 -> q2  [label="z:1.0"];
q2 -> q2  [label="x:1.0"];
q2 -> q0  [label="y:0.42857142857142855"];
q2 -> q2  [label="y:0.5714285714285714"];
q2 -> q0  [label="z:1.0"];
__start0 [label="", shape=none];
__start0 -> q0  [label=""];
}
