digraph "benchmarks-true-state-lstar-3seeds/n_states=16-n_outputs=5-glitch_percent=0.0/ccef14297594973abb5b6d53af2c9c2c/pmsatLearned-N16" {
0 [label="0|a", shape=record, style=rounded];
1 [label="1|b", shape=record, style=rounded];
2 [label="2|c", shape=record, style=rounded];
3 [label="3|d", shape=record, style=rounded];
4 [label="4|e", shape=record, style=rounded];
5 [label="5|e", shape=record, style=rounded];
6 [label="6|b", shape=record, style=rounded];
7 [label="7|e", shape=record, style=rounded];
8 [label="8|a", shape=record, style=rounded];
9 [label="9|a", shape=record, style=rounded];
10 [label="10|b", shape=record, style=rounded];
11 [label="11|a", shape=record, style=rounded];
12 [label="12|d", shape=record, style=rounded];
13 [label="13|a", shape=record, style=rounded];
14 [label="14|b", shape=record, style=rounded];
15 [label="15|e", shape=record, style=rounded];
0 -> 11  [label="x"];
0 -> 8  [label="y"];
0 -> 7  [label="z"];
1 -> 5  [label="x"];
1 -> 14  [label="y"];
1 -> 13  [label="z"];
2 -> 9  [label="x"];
2 -> 7  [label="y"];
2 -> 7  [label="z"];
3 -> 1  [label="z"];
3 -> 12  [label="y"];
3 -> 0  [label="x"];
4 -> 1  [label="x"];
4 -> 6  [label="y"];
4 -> 2  [label="z"];
5 -> 8  [label="x"];
5 -> 2  [label="y"];
5 -> 5  [label="z"];
6 -> 5  [label="x"];
6 -> 8  [label="y"];
6 -> 12  [label="z"];
7 -> 13  [label="x"];
7 -> 9  [label="y"];
7 -> 10  [label="z"];
8 -> 15  [label="x"];
8 -> 9  [label="y"];
8 -> 8  [label="z"];
9 -> 14  [label="x"];
9 -> 14  [label="y"];
9 -> 6  [label="z"];
10 -> 5  [label="x"];
10 -> 4  [label="y"];
10 -> 0  [label="z"];
11 -> 4  [label="x"];
11 -> 15  [label="y"];
11 -> 6  [label="z"];
12 -> 10  [label="x"];
12 -> 2  [label="y"];
12 -> 9  [label="z"];
13 -> 13  [label="x"];
13 -> 4  [label="y"];
13 -> 7  [label="z"];
14 -> 5  [label="x"];
14 -> 11  [label="y"];
14 -> 5  [label="z"];
15 -> 7  [label="x"];
15 -> 1  [label="y"];
15 -> 4  [label="z"];
__start0 [label="", shape=none];
__start0 -> 3  [label=""];
}
