digraph "benchmarks-true-state-lstar-3seeds/n_states=7-n_outputs=2-glitch_percent=0.0/8d5c5b1714b3cdf346afe24b05deb88e/pmsatLearned-N7-STOC" {
0 [label="0|a", shape=record, style=rounded];
1 [label="1|b", shape=record, style=rounded];
2 [label="2|b", shape=record, style=rounded];
3 [label="3|b", shape=record, style=rounded];
4 [label="4|a", shape=record, style=rounded];
5 [label="5|a", shape=record, style=rounded];
6 [label="6|b", shape=record, style=rounded];
0 -> 2  [label="z (18)"];
0 -> 5  [label="y (18)"];
0 -> 1  [label="x (54)"];
1 -> 4  [label="x (20)"];
1 -> 3  [label="y (20)"];
1 -> 6  [label="z (20)"];
2 -> 6  [label="x (7)"];
2 -> 4  [label="y (7)"];
2 -> 4  [label="z (7)"];
3 -> 5  [label="x (6)"];
3 -> 0  [label="y (6)"];
3 -> 2  [label="z (6)"];
4 -> 5  [label="x (7)"];
4 -> 5  [label="y (7)"];
4 -> 1  [label="z (7)"];
5 -> 5  [label="x (9)"];
5 -> 6  [label="y (9)"];
5 -> 1  [label="z (9)"];
6 -> 1  [label="x (7)"];
6 -> 2  [label="y (7)"];
6 -> 3  [label="z (7)"];
__start0 [label="", shape=none];
__start0 -> 0  [label=""];
}
