digraph "benchmarks-true-state-lstar-3seeds/n_states=11-n_outputs=4-glitch_percent=0.0/254a5fbc8bda80421dc623fdb43b68ce/rpniGroundTruth" {
s0 [label="s0|c", shape=record, style=rounded];
s1 [label="s1|d", shape=record, style=rounded];
s2 [label="s2|a", shape=record, style=rounded];
s3 [label="s3|d", shape=record, style=rounded];
s4 [label="s4|a", shape=record, style=rounded];
s5 [label="s5|d", shape=record, style=rounded];
s6 [label="s6|d", shape=record, style=rounded];
s7 [label="s7|d", shape=record, style=rounded];
s8 [label="s8|a", shape=record, style=rounded];
s9 [label="s9|c", shape=record, style=rounded];
s10 [label="s10|c", shape=record, style=rounded];
s0 -> s1  [label="x"];
s0 -> s2  [label="y"];
s0 -> s3  [label="z"];
s1 -> s4  [label="x"];
s1 -> s5  [label="z"];
s1 -> s6  [label="y"];
s2 -> s7  [label="x"];
s2 -> s8  [label="z"];
s2 -> s9  [label="y"];
s3 -> s7  [label="y"];
s3 -> s8  [label="z"];
s3 -> s10  [label="x"];
s4 -> s3  [label="z"];
s4 -> s9  [label="y"];
s4 -> s8  [label="x"];
s5 -> s9  [label="x"];
s5 -> s9  [label="y"];
s5 -> s5  [label="z"];
s6 -> s0  [label="y"];
s6 -> s7  [label="x"];
s6 -> s8  [label="z"];
s7 -> s9  [label="x"];
s7 -> s8  [label="y"];
s7 -> s5  [label="z"];
s8 -> s1  [label="x"];
s8 -> s2  [label="z"];
s8 -> s9  [label="y"];
s9 -> s0  [label="z"];
s9 -> s7  [label="x"];
s9 -> s7  [label="y"];
s10 -> s6  [label="z"];
s10 -> s9  [label="x"];
s10 -> s5  [label="y"];
__start0 [label="", shape=none];
__start0 -> s0  [label=""];
}
