digraph alergiaLearned {
q0 [label="b"];
q1 [label="e"];
q2 [label="d"];
q3 [label="a"];
q4 [label="a"];
q5 [label="d"];
q6 [label="c"];
q7 [label="b"];
q0 -> q1  [label="z:1.0"];
q0 -> q2  [label="y:1.0"];
q0 -> q3  [label="x:1.0"];
q1 -> q4  [label="x:0.9473684210526315"];
q1 -> q2  [label="x:0.05263157894736842"];
q1 -> q5  [label="y:1.0"];
q1 -> q5  [label="z:1.0"];
q2 -> q6  [label="x:0.8387096774193549"];
q2 -> q2  [label="x:0.16129032258064516"];
q2 -> q0  [label="x:0.0"];
q2 -> q5  [label="y:0.8275862068965517"];
q2 -> q3  [label="y:0.06896551724137931"];
q2 -> q6  [label="y:0.10344827586206896"];
q2 -> q0  [label="y:0.0"];
q2 -> q4  [label="z:0.6666666666666666"];
q2 -> q2  [label="z:0.26666666666666666"];
q2 -> q1  [label="z:0.06666666666666667"];
q2 -> q6  [label="z:0.0"];
q3 -> q7  [label="x:0.9183673469387755"];
q3 -> q3  [label="x:0.061224489795918366"];
q3 -> q6  [label="x:0.02040816326530612"];
q3 -> q2  [label="y:0.88"];
q3 -> q3  [label="y:0.12"];
q3 -> q5  [label="z:0.92"];
q3 -> q3  [label="z:0.04"];
q3 -> q6  [label="z:0.04"];
q4 -> q3  [label="x:0.6666666666666666"];
q4 -> q6  [label="x:0.3333333333333333"];
q4 -> q2  [label="y:0.35714285714285715"];
q4 -> q3  [label="y:0.6428571428571429"];
q4 -> q3  [label="z:0.3333333333333333"];
q4 -> q6  [label="z:0.3333333333333333"];
q4 -> q2  [label="z:0.3333333333333333"];
q5 -> q2  [label="x:0.76"];
q5 -> q6  [label="x:0.04"];
q5 -> q0  [label="x:0.2"];
q5 -> q0  [label="y:0.19230769230769232"];
q5 -> q2  [label="y:0.4230769230769231"];
q5 -> q6  [label="y:0.19230769230769232"];
q5 -> q3  [label="y:0.19230769230769232"];
q5 -> q2  [label="z:0.6153846153846154"];
q5 -> q6  [label="z:0.19230769230769232"];
q5 -> q1  [label="z:0.19230769230769232"];
q6 -> q3  [label="x:1.0"];
q6 -> q2  [label="y:1.0"];
q6 -> q2  [label="z:1.0"];
q7 -> q5  [label="x:1.0"];
q7 -> q4  [label="y:1.0"];
q7 -> q3  [label="z:1.0"];
__start0 [label="", shape=none];
__start0 -> q0  [label=""];
}
