digraph "benchmarks-true-state-lstar-3seeds/n_states=12-n_outputs=6-glitch_percent=0.05/5d6aaa3e7d24b9495ce4e7ffebb0e71d/alergiaLearned" {
q0 [label="e"];
q1 [label="d"];
q2 [label="b"];
q3 [label="e"];
q4 [label="f"];
q5 [label="c"];
q6 [label="b"];
q7 [label="e"];
q0 -> q1  [label="z:0.9148936170212766"];
q0 -> q4  [label="z:0.06382978723404255"];
q0 -> q5  [label="z:0.02127659574468085"];
q0 -> q2  [label="y:0.9298245614035088"];
q0 -> q4  [label="y:0.03508771929824561"];
q0 -> q0  [label="y:0.03508771929824561"];
q0 -> q3  [label="x:0.9122807017543859"];
q0 -> q2  [label="x:0.03508771929824561"];
q0 -> q5  [label="x:0.05263157894736842"];
q1 -> q5  [label="x:0.9411764705882353"];
q1 -> q1  [label="x:0.058823529411764705"];
q1 -> q5  [label="z:1.0"];
q1 -> q6  [label="y:0.8421052631578947"];
q1 -> q1  [label="y:0.10526315789473684"];
q1 -> q0  [label="y:0.05263157894736842"];
q2 -> q6  [label="x:0.9523809523809523"];
q2 -> q4  [label="x:0.047619047619047616"];
q2 -> q7  [label="z:0.8695652173913043"];
q2 -> q4  [label="z:0.043478260869565216"];
q2 -> q5  [label="z:0.043478260869565216"];
q2 -> q2  [label="z:0.043478260869565216"];
q2 -> q7  [label="y:0.8947368421052632"];
q2 -> q4  [label="y:0.05263157894736842"];
q2 -> q1  [label="y:0.05263157894736842"];
q3 -> q5  [label="x:1.0"];
q3 -> q4  [label="y:1.0"];
q3 -> q4  [label="z:0.9375"];
q3 -> q2  [label="z:0.0625"];
q4 -> q0  [label="y:0.42857142857142855"];
q4 -> q1  [label="y:0.5714285714285714"];
q4 -> q0  [label="x:0.6428571428571429"];
q4 -> q2  [label="x:0.35714285714285715"];
q4 -> q2  [label="z:0.9230769230769231"];
q4 -> q0  [label="z:0.07692307692307693"];
q5 -> q2  [label="z:0.4166666666666667"];
q5 -> q4  [label="z:0.5833333333333334"];
q5 -> q5  [label="x:0.4166666666666667"];
q5 -> q1  [label="x:0.5833333333333334"];
q5 -> q0  [label="y:0.5384615384615384"];
q5 -> q5  [label="y:0.46153846153846156"];
q6 -> q4  [label="x:0.5"];
q6 -> q2  [label="x:0.5"];
q6 -> q2  [label="z:0.5555555555555556"];
q6 -> q0  [label="z:0.4444444444444444"];
q6 -> q1  [label="y:0.375"];
q6 -> q4  [label="y:0.625"];
q7 -> q0  [label="x:0.5"];
q7 -> q2  [label="x:0.5"];
q7 -> q4  [label="y:0.5555555555555556"];
q7 -> q0  [label="y:0.4444444444444444"];
q7 -> q4  [label="z:0.5"];
q7 -> q5  [label="z:0.5"];
__start0 [label="", shape=none];
__start0 -> q0  [label=""];
}
