digraph "benchmarks-true-state-lstar-rc10seeds/n_states=10-n_outputs=3-glitch_percent=0.02/233dd916ebf6de0637b918ab5b374843/pmsatLearned_NOP-N10-STOC" {
0 [label="0|a", shape=record, style=rounded];
1 [label="1|c", shape=record, style=rounded];
2 [label="2|a", shape=record, style=rounded];
3 [label="3|b", shape=record, style=rounded];
4 [label="4|b", shape=record, style=rounded];
5 [label="5|a", shape=record, style=rounded];
6 [label="6|b", shape=record, style=rounded];
7 [label="7|a", shape=record, style=rounded];
8 [label="8|c", shape=record, style=rounded];
9 [label="9|c", shape=record, style=rounded];
0 -> 8  [label="z (19)"];
0 -> 5  [label="y (55)"];
0 -> 1  [label="x (54)"];
0 -> 7  [label="!x [1]"];
1 -> 7  [label="x (17)"];
1 -> 4  [label="y (20)"];
1 -> 6  [label="z (19)"];
2 -> 9  [label="x (5)"];
2 -> 7  [label="y (5)"];
2 -> 5  [label="z (5)"];
3 -> 4  [label="x (6)"];
3 -> 7  [label="y (6)"];
3 -> 6  [label="z (6)"];
4 -> 8  [label="x (7)"];
4 -> 1  [label="y (7)"];
4 -> 1  [label="z (7)"];
5 -> 9  [label="x (19)"];
5 -> 2  [label="y (19)"];
5 -> 3  [label="z (19)"];
6 -> 6  [label="x (7)"];
6 -> 8  [label="y (7)"];
6 -> 7  [label="z (7)"];
7 -> 3  [label="x (9)"];
7 -> 8  [label="z (9)"];
7 -> 4  [label="y (7)"];
8 -> 8  [label="x (9)"];
8 -> 0  [label="y (9)"];
8 -> 5  [label="z (10)"];
9 -> 7  [label="x (5)"];
9 -> 0  [label="y (6)"];
9 -> 8  [label="z (5)"];
__start0 [label="", shape=none];
__start0 -> 0  [label=""];
}
