digraph "benchmarks-true-state-lstar-3seeds/n_states=14-n_outputs=7-glitch_percent=0.05/404e3584e90e25ac25684d7a0d7ef08e/pmsatLearned-N14" {
0 [label="0|a", shape=record, style=rounded];
1 [label="1|c", shape=record, style=rounded];
2 [label="2|d", shape=record, style=rounded];
3 [label="3|e", shape=record, style=rounded];
4 [label="4|g", shape=record, style=rounded];
5 [label="5|c", shape=record, style=rounded];
6 [label="6|e", shape=record, style=rounded];
7 [label="7|e", shape=record, style=rounded];
8 [label="8|d", shape=record, style=rounded];
9 [label="9|e", shape=record, style=rounded];
10 [label="10|d", shape=record, style=rounded];
11 [label="11|c", shape=record, style=rounded];
12 [label="12|a", shape=record, style=rounded];
13 [label="13|d", shape=record, style=rounded];
0 -> 4  [label="x"];
0 -> 9  [label="y"];
0 -> 7  [label="z"];
1 -> 12  [label="z"];
1 -> 0  [label="y"];
1 -> 11  [label="x"];
2 -> 6  [label="y"];
2 -> 0  [label="z"];
2 -> 6  [label="x"];
3 -> 3  [label="x"];
3 -> 8  [label="y"];
3 -> 5  [label="z"];
4 -> 3  [label="x"];
4 -> 7  [label="y"];
4 -> 7  [label="z"];
5 -> 4  [label="x"];
5 -> 9  [label="y"];
5 -> 1  [label="z"];
6 -> 3  [label="x"];
6 -> 9  [label="y"];
6 -> 9  [label="z"];
7 -> 9  [label="x"];
7 -> 8  [label="y"];
7 -> 0  [label="z"];
8 -> 6  [label="x"];
8 -> 1  [label="y"];
8 -> 6  [label="z"];
9 -> 7  [label="x"];
9 -> 8  [label="y"];
9 -> 3  [label="z"];
10 -> 9  [label="x"];
10 -> 3  [label="y"];
10 -> 11  [label="z"];
11 -> 6  [label="x"];
11 -> 10  [label="y"];
11 -> 8  [label="z"];
12 -> 2  [label="x"];
12 -> 5  [label="y"];
12 -> 13  [label="z"];
13 -> 10  [label="x"];
13 -> 3  [label="y"];
13 -> 12  [label="z"];
__start0 [label="", shape=none];
__start0 -> 1  [label=""];
}
