digraph "benchmarks-true-state-lstar-songp/n_states=12-n_outputs=3-glitch_percent=0.02-pmstrat='fm'/1a2003ece1c10035f714d443b2c330cc/alergiaLearned" {
q0 [label="a"];
q1 [label="b"];
q2 [label="b"];
q3 [label="c"];
q4 [label="a"];
q5 [label="c"];
q6 [label="b"];
q7 [label="b"];
q8 [label="b"];
q0 -> q1  [label="z:1.0"];
q0 -> q3  [label="z:0.0"];
q0 -> q2  [label="y:1.0"];
q0 -> q3  [label="y:0.0"];
q0 -> q3  [label="x:0.9852941176470589"];
q0 -> q4  [label="x:0.014705882352941176"];
q0 -> q1  [label="x:0.0"];
q1 -> q5  [label="x:0.8571428571428571"];
q1 -> q1  [label="x:0.14285714285714285"];
q1 -> q6  [label="y:0.7027027027027027"];
q1 -> q3  [label="y:0.13513513513513514"];
q1 -> q4  [label="y:0.16216216216216217"];
q1 -> q1  [label="z:0.75"];
q1 -> q0  [label="z:0.08333333333333333"];
q1 -> q3  [label="z:0.16666666666666666"];
q2 -> q7  [label="x:1.0"];
q2 -> q5  [label="y:0.9666666666666667"];
q2 -> q0  [label="y:0.03333333333333333"];
q2 -> q4  [label="z:0.9473684210526315"];
q2 -> q2  [label="z:0.05263157894736842"];
q3 -> q4  [label="x:0.8846153846153846"];
q3 -> q5  [label="x:0.038461538461538464"];
q3 -> q1  [label="x:0.07692307692307693"];
q3 -> q5  [label="y:1.0"];
q3 -> q8  [label="z:0.7916666666666666"];
q3 -> q0  [label="z:0.20833333333333334"];
q4 -> q5  [label="z:0.5384615384615384"];
q4 -> q1  [label="z:0.46153846153846156"];
q4 -> q0  [label="y:0.35294117647058826"];
q4 -> q3  [label="y:0.6470588235294118"];
q4 -> q2  [label="x:1.0"];
q5 -> q0  [label="x:0.3157894736842105"];
q5 -> q1  [label="x:0.6842105263157895"];
q5 -> q3  [label="y:1.0"];
q5 -> q0  [label="z:0.631578947368421"];
q5 -> q3  [label="z:0.3684210526315789"];
q6 -> q3  [label="x:1.0"];
q6 -> q8  [label="y:0.9166666666666666"];
q6 -> q3  [label="y:0.08333333333333333"];
q6 -> q1  [label="z:1.0"];
q7 -> q1  [label="x:1.0"];
q7 -> q4  [label="y:1.0"];
q7 -> q1  [label="z:0.8571428571428571"];
q7 -> q0  [label="z:0.14285714285714285"];
q8 -> q3  [label="x:1.0"];
q8 -> q3  [label="y:1.0"];
q8 -> q3  [label="z:1.0"];
__start0 [label="", shape=none];
__start0 -> q0  [label=""];
}
