digraph "benchmarks-true-state-lstar-3seeds/n_states=13-n_outputs=9-glitch_percent=0.01/39f41a3d97391ecea6e4f4c0b0a92014/pmsatLearned-N13-STOC" {
0 [label="0|b", shape=record, style=rounded];
1 [label="1|c", shape=record, style=rounded];
2 [label="2|d", shape=record, style=rounded];
3 [label="3|e", shape=record, style=rounded];
4 [label="4|f", shape=record, style=rounded];
5 [label="5|h", shape=record, style=rounded];
6 [label="6|i", shape=record, style=rounded];
7 [label="7|d", shape=record, style=rounded];
8 [label="8|i", shape=record, style=rounded];
9 [label="9|f", shape=record, style=rounded];
10 [label="10|f", shape=record, style=rounded];
11 [label="11|b", shape=record, style=rounded];
12 [label="12|h", shape=record, style=rounded];
0 -> 7  [label="x (18)"];
0 -> 9  [label="y (19)"];
0 -> 2  [label="z (19)"];
1 -> 2  [label="x (7)"];
1 -> 6  [label="y (6)"];
1 -> 12  [label="z (7)"];
2 -> 0  [label="x (8)"];
2 -> 5  [label="y (8)"];
2 -> 2  [label="z (8)"];
3 -> 9  [label="x (6)"];
3 -> 12  [label="y (6)"];
3 -> 1  [label="z (6)"];
4 -> 11  [label="x (18)"];
4 -> 12  [label="y (18)"];
4 -> 6  [label="z (18)"];
5 -> 4  [label="z (54)"];
5 -> 10  [label="y (54)"];
5 -> 0  [label="x (53)"];
5 -> 11  [label="!x [1]"];
6 -> 2  [label="x (7)"];
6 -> 4  [label="y (7)"];
6 -> 7  [label="z (7)"];
7 -> 11  [label="x (9)"];
7 -> 7  [label="y (8)"];
7 -> 9  [label="z (9)"];
8 -> 0  [label="x (6)"];
8 -> 11  [label="y (6)"];
8 -> 3  [label="z (6)"];
9 -> 1  [label="x (6)"];
9 -> 11  [label="y (7)"];
9 -> 8  [label="z (7)"];
10 -> 3  [label="x (18)"];
10 -> 8  [label="y (18)"];
10 -> 1  [label="z (17)"];
11 -> 11  [label="x (9)"];
11 -> 7  [label="y (10)"];
11 -> 6  [label="z (8)"];
12 -> 10  [label="x (8)"];
12 -> 12  [label="y (8)"];
12 -> 7  [label="z (8)"];
__start0 [label="", shape=none];
__start0 -> 5  [label=""];
}
