digraph "benchmarks-true-state-lstar-3seeds/n_states=8-n_outputs=6-glitch_percent=0.05/5bc6041216b4e1d99151a1e5fa738843/rpniGroundTruth" {
s0 [label="s0|a", shape=record, style=rounded];
s1 [label="s1|f", shape=record, style=rounded];
s2 [label="s2|e", shape=record, style=rounded];
s3 [label="s3|a", shape=record, style=rounded];
s4 [label="s4|b", shape=record, style=rounded];
s5 [label="s5|e", shape=record, style=rounded];
s6 [label="s6|d", shape=record, style=rounded];
s7 [label="s7|e", shape=record, style=rounded];
s0 -> s1  [label="y"];
s0 -> s2  [label="z"];
s0 -> s3  [label="x"];
s1 -> s4  [label="x"];
s1 -> s0  [label="z"];
s1 -> s0  [label="y"];
s2 -> s4  [label="z"];
s2 -> s5  [label="y"];
s2 -> s3  [label="x"];
s3 -> s6  [label="x"];
s3 -> s5  [label="z"];
s3 -> s7  [label="y"];
s4 -> s6  [label="x"];
s4 -> s7  [label="z"];
s4 -> s1  [label="y"];
s5 -> s2  [label="x"];
s5 -> s2  [label="z"];
s5 -> s6  [label="y"];
s6 -> s6  [label="x"];
s6 -> s2  [label="z"];
s6 -> s1  [label="y"];
s7 -> s3  [label="y"];
s7 -> s2  [label="z"];
s7 -> s4  [label="x"];
__start0 [label="", shape=none];
__start0 -> s0  [label=""];
}
