digraph "benchmarks-true-state-lstar-3seeds/n_states=8-n_outputs=5-glitch_percent=0.02/1e8b29f480fee6fe8036952e03d633be/rpniGroundTruth" {
s0 [label="s0|c", shape=record, style=rounded];
s1 [label="s1|d", shape=record, style=rounded];
s2 [label="s2|d", shape=record, style=rounded];
s3 [label="s3|c", shape=record, style=rounded];
s4 [label="s4|a", shape=record, style=rounded];
s5 [label="s5|c", shape=record, style=rounded];
s6 [label="s6|c", shape=record, style=rounded];
s7 [label="s7|a", shape=record, style=rounded];
s0 -> s1  [label="z"];
s0 -> s2  [label="x"];
s0 -> s3  [label="y"];
s1 -> s1  [label="x"];
s1 -> s4  [label="y"];
s1 -> s1  [label="z"];
s2 -> s5  [label="x"];
s2 -> s4  [label="z"];
s2 -> s6  [label="y"];
s3 -> s7  [label="x"];
s3 -> s2  [label="z"];
s3 -> s0  [label="y"];
s4 -> s0  [label="x"];
s4 -> s1  [label="y"];
s4 -> s3  [label="z"];
s5 -> s2  [label="z"];
s5 -> s5  [label="x"];
s5 -> s6  [label="y"];
s6 -> s0  [label="z"];
s6 -> s6  [label="x"];
s6 -> s1  [label="y"];
s7 -> s3  [label="z"];
s7 -> s4  [label="x"];
s7 -> s3  [label="y"];
__start0 [label="", shape=none];
__start0 -> s0  [label=""];
}
