digraph "benchmarks-true-state-lstar-3seeds/n_states=14-n_outputs=6-glitch_percent=0.01/348b943532e14f51e55617b28db84549/alergiaLearned" {
q0 [label="c"];
q1 [label="e"];
q2 [label="a"];
q3 [label="e"];
q4 [label="d"];
q5 [label="c"];
q6 [label="a"];
q7 [label="e"];
q0 -> q1  [label="z:0.9852941176470589"];
q0 -> q5  [label="z:0.014705882352941176"];
q0 -> q2  [label="y:0.9866666666666667"];
q0 -> q4  [label="y:0.013333333333333334"];
q0 -> q3  [label="x:1.0"];
q1 -> q5  [label="x:0.7586206896551724"];
q1 -> q1  [label="x:0.13793103448275862"];
q1 -> q4  [label="x:0.10344827586206896"];
q1 -> q6  [label="y:0.696969696969697"];
q1 -> q4  [label="y:0.12121212121212122"];
q1 -> q7  [label="y:0.18181818181818182"];
q1 -> q5  [label="z:0.9230769230769231"];
q1 -> q4  [label="z:0.07692307692307693"];
q2 -> q4  [label="x:1.0"];
q2 -> q4  [label="y:0.84"];
q2 -> q3  [label="y:0.16"];
q2 -> q4  [label="z:0.9130434782608695"];
q2 -> q0  [label="z:0.08695652173913043"];
q3 -> q4  [label="x:0.9777777777777777"];
q3 -> q0  [label="x:0.022222222222222223"];
q3 -> q1  [label="x:0.0"];
q3 -> q7  [label="y:1.0"];
q3 -> q2  [label="y:0.0"];
q3 -> q4  [label="z:0.9565217391304348"];
q3 -> q0  [label="z:0.043478260869565216"];
q4 -> q1  [label="x:0.9824561403508771"];
q4 -> q0  [label="x:0.017543859649122806"];
q4 -> q3  [label="y:0.4666666666666667"];
q4 -> q4  [label="y:0.35555555555555557"];
q4 -> q0  [label="y:0.17777777777777778"];
q4 -> q1  [label="z:0.8125"];
q4 -> q2  [label="z:0.1875"];
q5 -> q7  [label="y:1.0"];
q5 -> q1  [label="x:0.45454545454545453"];
q5 -> q4  [label="x:0.5454545454545454"];
q5 -> q2  [label="z:0.9285714285714286"];
q5 -> q0  [label="z:0.07142857142857142"];
q6 -> q4  [label="x:1.0"];
q6 -> q1  [label="y:1.0"];
q6 -> q0  [label="z:1.0"];
q7 -> q1  [label="x:0.9166666666666666"];
q7 -> q0  [label="x:0.08333333333333333"];
q7 -> q1  [label="y:1.0"];
q7 -> q2  [label="y:0.0"];
q7 -> q4  [label="y:0.0"];
q7 -> q5  [label="z:1.0"];
__start0 [label="", shape=none];
__start0 -> q0  [label=""];
}
