digraph "benchmarks-true-state-lstar-3seeds/n_states=10-n_outputs=4-glitch_percent=0.01/4072240452552451ab325d877f833c73/pmsatLearned-N10" {
0 [label="0|a", shape=record, style=rounded];
1 [label="1|b", shape=record, style=rounded];
2 [label="2|c", shape=record, style=rounded];
3 [label="3|d", shape=record, style=rounded];
4 [label="4|a", shape=record, style=rounded];
5 [label="5|b", shape=record, style=rounded];
6 [label="6|a", shape=record, style=rounded];
7 [label="7|b", shape=record, style=rounded];
8 [label="8|a", shape=record, style=rounded];
9 [label="9|d", shape=record, style=rounded];
0 -> 5  [label="z"];
0 -> 2  [label="x"];
0 -> 8  [label="y"];
1 -> 7  [label="x"];
1 -> 2  [label="y"];
1 -> 6  [label="z"];
2 -> 8  [label="x"];
2 -> 6  [label="y"];
2 -> 8  [label="z"];
3 -> 4  [label="z"];
3 -> 5  [label="y"];
3 -> 1  [label="x"];
4 -> 2  [label="x"];
4 -> 8  [label="y"];
4 -> 2  [label="z"];
5 -> 0  [label="x"];
5 -> 9  [label="y"];
5 -> 8  [label="z"];
6 -> 8  [label="y"];
6 -> 5  [label="z"];
6 -> 4  [label="x"];
7 -> 5  [label="x"];
7 -> 4  [label="y"];
7 -> 1  [label="z"];
8 -> 8  [label="x"];
8 -> 7  [label="y"];
8 -> 7  [label="z"];
9 -> 3  [label="x"];
9 -> 2  [label="y"];
9 -> 0  [label="z"];
__start0 [label="", shape=none];
__start0 -> 3  [label=""];
}
