digraph "benchmarks-true-state-lstar-rc10seeds/n_states=12-n_outputs=9-glitch_percent=0.05/1e3bf7ca2ccb8244529e13dc5f491fef/pmsatLearned_NOP-N12-STOC" {
0 [label="0|g", shape=record, style=rounded];
1 [label="1|d", shape=record, style=rounded];
2 [label="2|i", shape=record, style=rounded];
3 [label="3|e", shape=record, style=rounded];
4 [label="4|i", shape=record, style=rounded];
5 [label="5|h", shape=record, style=rounded];
6 [label="6|d", shape=record, style=rounded];
7 [label="7|i", shape=record, style=rounded];
8 [label="8|c", shape=record, style=rounded];
9 [label="9|i", shape=record, style=rounded];
10 [label="10|d", shape=record, style=rounded];
11 [label="11|i", shape=record, style=rounded];
0 -> 3  [label="x (6)"];
0 -> 1  [label="y (6)"];
0 -> 5  [label="z (6)"];
1 -> 3  [label="z (43)"];
1 -> 7  [label="y (56)"];
1 -> 9  [label="x (58)"];
1 -> 0  [label="!y [1]"];
1 -> 4  [label="!x [1]"];
2 -> 4  [label="y (6)"];
2 -> 0  [label="z (6)"];
2 -> 11  [label="x (3)"];
2 -> 6  [label="!x [1]"];
2 -> 4  [label="!z [1]"];
3 -> 2  [label="x (21)"];
3 -> 0  [label="y (21)"];
3 -> 3  [label="z (9)"];
4 -> 3  [label="x (9)"];
4 -> 1  [label="y (5)"];
4 -> 1  [label="z (6)"];
5 -> 5  [label="x (7)"];
5 -> 4  [label="y (8)"];
5 -> 10  [label="z (4)"];
5 -> 5  [label="!y [1]"];
5 -> 8  [label="!z [1]"];
6 -> 11  [label="x (6)"];
6 -> 2  [label="y (6)"];
6 -> 9  [label="z (6)"];
7 -> 11  [label="x (16)"];
7 -> 4  [label="y (15)"];
7 -> 6  [label="z (19)"];
8 -> 9  [label="x (5)"];
8 -> 6  [label="y (6)"];
8 -> 10  [label="z (6)"];
9 -> 5  [label="x (19)"];
9 -> 8  [label="y (18)"];
9 -> 10  [label="z (17)"];
9 -> 4  [label="!z [1]"];
9 -> 5  [label="!y [1]"];
10 -> 3  [label="x (6)"];
10 -> 5  [label="y (4)"];
10 -> 8  [label="z (6)"];
10 -> 6  [label="!z [1]"];
11 -> 1  [label="x (5)"];
11 -> 3  [label="y (7)"];
11 -> 4  [label="z (2)"];
11 -> 1  [label="!y [1]"];
__start0 [label="", shape=none];
__start0 -> 1  [label=""];
}
