digraph "benchmarks-true-state-lstar-3seeds/n_states=17-n_outputs=9-glitch_percent=0.0/47406eb1fc0eed24718404dc84b589e5/alergiaLearned" {
q0 [label="b"];
q1 [label="f"];
q2 [label="a"];
q3 [label="a"];
q4 [label="a"];
q5 [label="e"];
q6 [label="c"];
q7 [label="b"];
q8 [label="i"];
q9 [label="i"];
q10 [label="f"];
q11 [label="g"];
q12 [label="h"];
q13 [label="d"];
q0 -> q1  [label="z:1.0"];
q0 -> q2  [label="y:1.0"];
q0 -> q3  [label="x:1.0"];
q1 -> q4  [label="x:1.0"];
q1 -> q5  [label="y:0.9"];
q1 -> q6  [label="y:0.1"];
q1 -> q6  [label="z:0.9"];
q1 -> q1  [label="z:0.1"];
q2 -> q7  [label="x:0.9545454545454546"];
q2 -> q8  [label="x:0.045454545454545456"];
q2 -> q8  [label="y:0.8181818181818182"];
q2 -> q1  [label="y:0.13636363636363635"];
q2 -> q5  [label="y:0.045454545454545456"];
q2 -> q8  [label="z:0.8181818181818182"];
q2 -> q0  [label="z:0.13636363636363635"];
q2 -> q1  [label="z:0.045454545454545456"];
q3 -> q9  [label="x:1.0"];
q3 -> q5  [label="y:1.0"];
q3 -> q10  [label="z:1.0"];
q4 -> q0  [label="x:1.0"];
q4 -> q1  [label="y:1.0"];
q4 -> q0  [label="z:1.0"];
q5 -> q8  [label="x:1.0"];
q5 -> q11  [label="y:0.5454545454545454"];
q5 -> q8  [label="y:0.45454545454545453"];
q5 -> q5  [label="z:0.5454545454545454"];
q5 -> q11  [label="z:0.45454545454545453"];
q6 -> q11  [label="x:1.0"];
q6 -> q1  [label="y:1.0"];
q6 -> q12  [label="z:1.0"];
q7 -> q13  [label="x:1.0"];
q7 -> q2  [label="y:1.0"];
q7 -> q6  [label="z:1.0"];
q8 -> q2  [label="x:0.46153846153846156"];
q8 -> q13  [label="x:0.38461538461538464"];
q8 -> q8  [label="x:0.15384615384615385"];
q8 -> q8  [label="y:0.46153846153846156"];
q8 -> q2  [label="y:0.5384615384615384"];
q8 -> q12  [label="y:0.0"];
q8 -> q13  [label="z:0.46153846153846156"];
q8 -> q2  [label="z:0.38461538461538464"];
q8 -> q8  [label="z:0.15384615384615385"];
q8 -> q11  [label="z:0.0"];
q9 -> q13  [label="x:1.0"];
q9 -> q12  [label="y:1.0"];
q9 -> q11  [label="z:1.0"];
q10 -> q2  [label="x:1.0"];
q10 -> q6  [label="y:1.0"];
q10 -> q1  [label="z:1.0"];
q11 -> q8  [label="x:1.0"];
q11 -> q5  [label="y:1.0"];
q11 -> q13  [label="z:1.0"];
q12 -> q11  [label="x:1.0"];
q12 -> q13  [label="y:1.0"];
q12 -> q8  [label="z:1.0"];
q13 -> q1  [label="x:1.0"];
q13 -> q8  [label="y:1.0"];
q13 -> q6  [label="z:1.0"];
__start0 [label="", shape=none];
__start0 -> q0  [label=""];
}
