digraph "benchmarks-true-state-lstar-3seeds/n_states=11-n_outputs=4-glitch_percent=0.01/e4b9f9653a941b4f58d8b739d996e746/rpniGroundTruth" {
s0 [label="s0|b", shape=record, style=rounded];
s1 [label="s1|b", shape=record, style=rounded];
s2 [label="s2|b", shape=record, style=rounded];
s3 [label="s3|c", shape=record, style=rounded];
s4 [label="s4|d", shape=record, style=rounded];
s5 [label="s5|c", shape=record, style=rounded];
s6 [label="s6|c", shape=record, style=rounded];
s7 [label="s7|d", shape=record, style=rounded];
s8 [label="s8|c", shape=record, style=rounded];
s9 [label="s9|b", shape=record, style=rounded];
s10 [label="s10|d", shape=record, style=rounded];
s0 -> s1  [label="y"];
s0 -> s2  [label="z"];
s0 -> s3  [label="x"];
s1 -> s4  [label="z"];
s1 -> s5  [label="y"];
s1 -> s6  [label="x"];
s2 -> s7  [label="y"];
s2 -> s6  [label="z"];
s2 -> s8  [label="x"];
s3 -> s9  [label="x"];
s3 -> s10  [label="z"];
s3 -> s7  [label="y"];
s4 -> s0  [label="y"];
s4 -> s8  [label="z"];
s4 -> s3  [label="x"];
s5 -> s5  [label="z"];
s5 -> s1  [label="x"];
s5 -> s9  [label="y"];
s6 -> s7  [label="z"];
s6 -> s1  [label="y"];
s6 -> s0  [label="x"];
s7 -> s3  [label="z"];
s7 -> s0  [label="y"];
s7 -> s2  [label="x"];
s8 -> s10  [label="y"];
s8 -> s2  [label="z"];
s8 -> s10  [label="x"];
s9 -> s8  [label="z"];
s9 -> s3  [label="y"];
s9 -> s4  [label="x"];
s10 -> s9  [label="x"];
s10 -> s3  [label="y"];
s10 -> s0  [label="z"];
__start0 [label="", shape=none];
__start0 -> s0  [label=""];
}
