digraph "benchmarks-true-state-lstar-songp/n_states=15-n_outputs=3-glitch_percent=0.02-pmstrat='lsu'/4422bd6e6a11852875e5ece635d5edfe/pmsatLearned-N15-STOC" {
0 [label="0|a", shape=record, style=rounded];
1 [label="1|b", shape=record, style=rounded];
2 [label="2|c", shape=record, style=rounded];
3 [label="3|b", shape=record, style=rounded];
4 [label="4|a", shape=record, style=rounded];
5 [label="5|b", shape=record, style=rounded];
6 [label="6|c", shape=record, style=rounded];
7 [label="7|a", shape=record, style=rounded];
8 [label="8|a", shape=record, style=rounded];
9 [label="9|b", shape=record, style=rounded];
10 [label="10|b", shape=record, style=rounded];
11 [label="11|c", shape=record, style=rounded];
12 [label="12|c", shape=record, style=rounded];
13 [label="13|c", shape=record, style=rounded];
14 [label="14|c", shape=record, style=rounded];
0 -> 14  [label="z (50)"];
0 -> 12  [label="!z [3]"];
0 -> 3  [label="y (46)"];
0 -> 5  [label="!y [4]"];
0 -> 6  [label="x (66)"];
0 -> 1  [label="!x [2]"];
0 -> 13  [label="!z [6]"];
0 -> 5  [label="!z [2]"];
0 -> 10  [label="!y [6]"];
0 -> 11  [label="!x [6]"];
0 -> 6  [label="!y [1]"];
0 -> 13  [label="!x [1]"];
0 -> 2  [label="!y [2]"];
1 -> 1  [label="x (2)"];
1 -> 2  [label="!x [2]"];
1 -> 14  [label="z (4)"];
1 -> 6  [label="!x [1]"];
1 -> 1  [label="y (5)"];
1 -> 2  [label="!y [1]"];
2 -> 0  [label="z (4)"];
2 -> 2  [label="y (12)"];
2 -> 2  [label="!z [2]"];
2 -> 0  [label="!y [1]"];
2 -> 1  [label="x (5)"];
2 -> 14  [label="!z [1]"];
3 -> 2  [label="y (24)"];
3 -> 9  [label="z (25)"];
3 -> 0  [label="x (9)"];
3 -> 4  [label="!x [2]"];
3 -> 11  [label="!z [1]"];
3 -> 11  [label="!x [1]"];
3 -> 14  [label="!y [1]"];
3 -> 11  [label="!y [2]"];
3 -> 6  [label="!x [4]"];
4 -> 11  [label="y (7)"];
4 -> 10  [label="z (5)"];
4 -> 3  [label="x (15)"];
4 -> 0  [label="!z [1]"];
4 -> 2  [label="!y [1]"];
5 -> 6  [label="x (7)"];
5 -> 6  [label="y (4)"];
5 -> 2  [label="z (3)"];
5 -> 12  [label="!y [1]"];
6 -> 0  [label="!x [4]"];
6 -> 3  [label="z (15)"];
6 -> 1  [label="x (6)"];
6 -> 0  [label="y (8)"];
6 -> 11  [label="!y [6]"];
6 -> 4  [label="!x [14]"];
6 -> 10  [label="!z [2]"];
6 -> 6  [label="!y [4]"];
6 -> 12  [label="!y [3]"];
6 -> 7  [label="!x [18]"];
7 -> 1  [label="x (8)"];
7 -> 12  [label="y (18)"];
7 -> 9  [label="z (3)"];
8 -> 0  [label="x (5)"];
8 -> 0  [label="z (4)"];
8 -> 1  [label="!x [2]"];
8 -> 2  [label="!y [1]"];
9 -> 3  [label="x (5)"];
9 -> 0  [label="y (6)"];
9 -> 5  [label="z (8)"];
9 -> 9  [label="!x [1]"];
10 -> 6  [label="x (8)"];
10 -> 7  [label="y (2)"];
10 -> 3  [label="z (1)"];
11 -> 0  [label="x (10)"];
11 -> 11  [label="y (3)"];
11 -> 12  [label="z (8)"];
11 -> 2  [label="!z [1]"];
11 -> 4  [label="!x [1]"];
12 -> 5  [label="z (8)"];
12 -> 8  [label="x (13)"];
12 -> 4  [label="y (6)"];
12 -> 0  [label="!y [1]"];
13 -> 7  [label="z (5)"];
13 -> 3  [label="y (1)"];
13 -> 7  [label="!x [1]"];
14 -> 0  [label="!x [2]"];
14 -> 3  [label="y (14)"];
14 -> 7  [label="!z [4]"];
14 -> 1  [label="z (2)"];
14 -> 8  [label="!x [6]"];
14 -> 4  [label="!x [4]"];
14 -> 4  [label="!z [5]"];
14 -> 5  [label="!y [1]"];
14 -> 7  [label="!x [1]"];
14 -> 3  [label="x (3)"];
14 -> 6  [label="!z [1]"];
__start0 [label="", shape=none];
__start0 -> 0  [label=""];
}
