digraph "benchmarks-true-state-lstar-rc10seeds/n_states=10-n_outputs=4-glitch_percent=0.05/444f584c02daca469017dd494017c82f/pmsatLearned_NOP-N10-STOC" {
0 [label="0|d", shape=record, style=rounded];
1 [label="1|a", shape=record, style=rounded];
2 [label="2|a", shape=record, style=rounded];
3 [label="3|a", shape=record, style=rounded];
4 [label="4|b", shape=record, style=rounded];
5 [label="5|c", shape=record, style=rounded];
6 [label="6|a", shape=record, style=rounded];
7 [label="7|d", shape=record, style=rounded];
8 [label="8|b", shape=record, style=rounded];
9 [label="9|a", shape=record, style=rounded];
0 -> 3  [label="z (18)"];
0 -> 8  [label="y (49)"];
0 -> 7  [label="x (50)"];
0 -> 8  [label="!z [2]"];
0 -> 6  [label="!z [1]"];
0 -> 3  [label="!x [1]"];
1 -> 3  [label="x (9)"];
1 -> 5  [label="y (6)"];
1 -> 1  [label="z (5)"];
2 -> 3  [label="x (5)"];
2 -> 3  [label="y (7)"];
2 -> 7  [label="z (6)"];
2 -> 7  [label="!x [1]"];
3 -> 3  [label="x (11)"];
3 -> 2  [label="y (11)"];
3 -> 9  [label="z (10)"];
4 -> 1  [label="x (6)"];
4 -> 7  [label="z (5)"];
4 -> 6  [label="y (4)"];
5 -> 2  [label="x (5)"];
5 -> 5  [label="y (6)"];
5 -> 3  [label="z (7)"];
6 -> 7  [label="x (4)"];
6 -> 6  [label="y (5)"];
6 -> 4  [label="z (6)"];
6 -> 2  [label="!z [1]"];
7 -> 2  [label="x (19)"];
7 -> 1  [label="y (20)"];
7 -> 6  [label="z (19)"];
7 -> 7  [label="!x [1]"];
8 -> 5  [label="x (15)"];
8 -> 9  [label="y (18)"];
8 -> 4  [label="z (14)"];
8 -> 7  [label="!z [1]"];
8 -> 5  [label="!y [1]"];
8 -> 2  [label="!x [1]"];
9 -> 8  [label="x (6)"];
9 -> 9  [label="y (7)"];
9 -> 7  [label="z (7)"];
__start0 [label="", shape=none];
__start0 -> 0  [label=""];
}
