digraph "benchmarks-true-state-lstar-3seeds/n_states=13-n_outputs=2-glitch_percent=0.02/3d8f4b69ae0b5a4fac8331c9099bc04c/pmsatLearned-N13" {
0 [label="0|a", shape=record, style=rounded];
1 [label="1|b", shape=record, style=rounded];
2 [label="2|a", shape=record, style=rounded];
3 [label="3|b", shape=record, style=rounded];
4 [label="4|b", shape=record, style=rounded];
5 [label="5|b", shape=record, style=rounded];
6 [label="6|b", shape=record, style=rounded];
7 [label="7|b", shape=record, style=rounded];
8 [label="8|a", shape=record, style=rounded];
9 [label="9|a", shape=record, style=rounded];
10 [label="10|a", shape=record, style=rounded];
11 [label="11|a", shape=record, style=rounded];
12 [label="12|b", shape=record, style=rounded];
0 -> 3  [label="x"];
0 -> 7  [label="y"];
0 -> 9  [label="z"];
1 -> 7  [label="z"];
1 -> 12  [label="y"];
1 -> 2  [label="x"];
2 -> 3  [label="x"];
2 -> 6  [label="y"];
2 -> 9  [label="z"];
3 -> 4  [label="x"];
3 -> 11  [label="y"];
3 -> 3  [label="z"];
4 -> 2  [label="x"];
4 -> 4  [label="y"];
4 -> 5  [label="z"];
5 -> 6  [label="x"];
5 -> 7  [label="y"];
5 -> 11  [label="z"];
6 -> 9  [label="x"];
6 -> 4  [label="y"];
6 -> 8  [label="z"];
7 -> 11  [label="x"];
7 -> 5  [label="y"];
7 -> 10  [label="z"];
8 -> 10  [label="x"];
8 -> 12  [label="y"];
8 -> 7  [label="z"];
9 -> 2  [label="x"];
9 -> 4  [label="y"];
9 -> 10  [label="z"];
10 -> 10  [label="x"];
10 -> 0  [label="y"];
10 -> 11  [label="z"];
11 -> 4  [label="x"];
11 -> 11  [label="y"];
11 -> 12  [label="z"];
12 -> 0  [label="x"];
12 -> 4  [label="y"];
12 -> 8  [label="z"];
__start0 [label="", shape=none];
__start0 -> 1  [label=""];
}
