digraph "benchmarks-true-state-lstar-3seeds/n_states=8-n_outputs=3-glitch_percent=0.1/ca16ac239030f50e2c66128e7d47c6ac/alergiaLearned" {
q0 [label="b"];
q1 [label="b"];
q2 [label="c"];
q3 [label="a"];
q4 [label="c"];
q0 -> q1  [label="z:0.7916666666666666"];
q0 -> q2  [label="z:0.20833333333333334"];
q0 -> q1  [label="y:0.9354838709677419"];
q0 -> q2  [label="y:0.06451612903225806"];
q0 -> q2  [label="x:0.9122807017543859"];
q0 -> q3  [label="x:0.03508771929824561"];
q0 -> q0  [label="x:0.05263157894736842"];
q1 -> q0  [label="x:0.92"];
q1 -> q3  [label="x:0.04"];
q1 -> q2  [label="x:0.04"];
q1 -> q0  [label="y:0.6875"];
q1 -> q2  [label="y:0.3125"];
q1 -> q2  [label="z:0.5454545454545454"];
q1 -> q0  [label="z:0.45454545454545453"];
q2 -> q3  [label="x:0.9333333333333333"];
q2 -> q2  [label="x:0.06666666666666667"];
q2 -> q4  [label="y:0.9565217391304348"];
q2 -> q0  [label="y:0.043478260869565216"];
q2 -> q1  [label="z:0.8571428571428571"];
q2 -> q4  [label="z:0.14285714285714285"];
q3 -> q2  [label="y:1.0"];
q3 -> q0  [label="x:1.0"];
q3 -> q4  [label="z:1.0"];
q4 -> q2  [label="x:1.0"];
q4 -> q0  [label="y:0.8333333333333334"];
q4 -> q2  [label="y:0.16666666666666666"];
q4 -> q2  [label="z:1.0"];
__start0 [label="", shape=none];
__start0 -> q0  [label=""];
}
