digraph "benchmarks-true-state-lstar-3seeds/n_states=14-n_outputs=9-glitch_percent=0.02/e68458770871f83329131532fbcd8b0e/pmsatLearned-N14" {
0 [label="0|a", shape=record, style=rounded];
1 [label="1|b", shape=record, style=rounded];
2 [label="2|e", shape=record, style=rounded];
3 [label="3|f", shape=record, style=rounded];
4 [label="4|g", shape=record, style=rounded];
5 [label="5|h", shape=record, style=rounded];
6 [label="6|e", shape=record, style=rounded];
7 [label="7|h", shape=record, style=rounded];
8 [label="8|a", shape=record, style=rounded];
9 [label="9|b", shape=record, style=rounded];
10 [label="10|e", shape=record, style=rounded];
11 [label="11|b", shape=record, style=rounded];
12 [label="12|e", shape=record, style=rounded];
13 [label="13|b", shape=record, style=rounded];
0 -> 10  [label="x"];
0 -> 11  [label="z"];
0 -> 3  [label="y"];
1 -> 10  [label="x"];
1 -> 12  [label="y"];
1 -> 12  [label="z"];
2 -> 10  [label="z"];
2 -> 9  [label="y"];
2 -> 12  [label="x"];
3 -> 2  [label="x"];
3 -> 5  [label="y"];
3 -> 12  [label="z"];
4 -> 5  [label="x"];
4 -> 7  [label="y"];
4 -> 3  [label="z"];
5 -> 1  [label="x"];
5 -> 9  [label="y"];
5 -> 0  [label="z"];
6 -> 5  [label="x"];
6 -> 11  [label="y"];
6 -> 2  [label="z"];
7 -> 11  [label="x"];
7 -> 1  [label="y"];
7 -> 0  [label="z"];
8 -> 13  [label="x"];
8 -> 12  [label="y"];
8 -> 10  [label="z"];
9 -> 8  [label="x"];
9 -> 13  [label="z"];
9 -> 11  [label="y"];
10 -> 1  [label="x"];
10 -> 0  [label="y"];
10 -> 7  [label="z"];
11 -> 11  [label="x"];
11 -> 12  [label="y"];
11 -> 4  [label="z"];
12 -> 4  [label="x"];
12 -> 6  [label="y"];
12 -> 3  [label="z"];
13 -> 3  [label="x"];
13 -> 4  [label="y"];
13 -> 2  [label="z"];
__start0 [label="", shape=none];
__start0 -> 2  [label=""];
}
