digraph "benchmarks-true-state-lstar-3seeds/n_states=12-n_outputs=5-glitch_percent=0.01/d9358ed4ab0833a7df770b1744eb7060/rpniGroundTruth" {
s0 [label="s0|e", shape=record, style=rounded];
s1 [label="s1|d", shape=record, style=rounded];
s2 [label="s2|e", shape=record, style=rounded];
s3 [label="s3|c", shape=record, style=rounded];
s4 [label="s4|e", shape=record, style=rounded];
s5 [label="s5|b", shape=record, style=rounded];
s6 [label="s6|b", shape=record, style=rounded];
s7 [label="s7|e", shape=record, style=rounded];
s8 [label="s8|b", shape=record, style=rounded];
s9 [label="s9|c", shape=record, style=rounded];
s10 [label="s10|b", shape=record, style=rounded];
s11 [label="s11|a", shape=record, style=rounded];
s0 -> s1  [label="x"];
s0 -> s2  [label="y"];
s0 -> s3  [label="z"];
s1 -> s4  [label="x"];
s1 -> s5  [label="z"];
s1 -> s6  [label="y"];
s2 -> s7  [label="y"];
s2 -> s8  [label="z"];
s2 -> s9  [label="x"];
s3 -> s6  [label="z"];
s3 -> s10  [label="x"];
s3 -> s11  [label="y"];
s4 -> s5  [label="y"];
s4 -> s5  [label="z"];
s4 -> s8  [label="x"];
s5 -> s11  [label="z"];
s5 -> s2  [label="x"];
s5 -> s3  [label="y"];
s6 -> s1  [label="z"];
s6 -> s11  [label="y"];
s6 -> s0  [label="x"];
s7 -> s2  [label="x"];
s7 -> s8  [label="z"];
s7 -> s2  [label="y"];
s8 -> s2  [label="z"];
s8 -> s0  [label="x"];
s8 -> s10  [label="y"];
s9 -> s9  [label="y"];
s9 -> s3  [label="x"];
s9 -> s4  [label="z"];
s10 -> s5  [label="y"];
s10 -> s8  [label="x"];
s10 -> s3  [label="z"];
s11 -> s5  [label="z"];
s11 -> s7  [label="y"];
s11 -> s8  [label="x"];
__start0 [label="", shape=none];
__start0 -> s0  [label=""];
}
