digraph "pmsatLearned-N8-STOC" {
0 [label="0|a", shape=record, style=rounded];
1 [label="1|b", shape=record, style=rounded];
2 [label="2|d", shape=record, style=rounded];
3 [label="3|e", shape=record, style=rounded];
4 [label="4|e", shape=record, style=rounded];
5 [label="5|b", shape=record, style=rounded];
6 [label="6|a", shape=record, style=rounded];
7 [label="7|e", shape=record, style=rounded];
0 -> 2  [label="z (91)"];
0 -> 7  [label="y (121)"];
0 -> 1  [label="x (141)"];
0 -> 6  [label="!x [1]"];
0 -> 4  [label="!x [3]"];
0 -> 1  [label="!y [1]"];
1 -> 3  [label="y (134)"];
1 -> 5  [label="z (144)"];
1 -> 6  [label="x (176)"];
1 -> 3  [label="!x [1]"];
1 -> 5  [label="!y [3]"];
1 -> 0  [label="!x [1] t1"];
2 -> 4  [label="x (163)"];
2 -> 1  [label="y (179)"];
2 -> 2  [label="z (162)"];
2 -> 5  [label="!z [1]"];
2 -> 3  [label="!x [1]"];
3 -> 6  [label="x (65)"];
3 -> 5  [label="y (62)"];
3 -> 5  [label="z (62)"];
4 -> 7  [label="x (65)"];
4 -> 3  [label="y (78)"];
4 -> 1  [label="z (94)"];
4 -> 0  [label="!y [1]"];
4 -> 6  [label="!x [1]"];
5 -> 2  [label="x (157)"];
5 -> 5  [label="y (139)"];
5 -> 2  [label="z (155)"];
5 -> 1  [label="!y [2]"];
6 -> 7  [label="x (115)"];
6 -> 5  [label="y (98)"];
6 -> 1  [label="z (85)"];
6 -> 2  [label="!x [1]"];
6 -> 0  [label="!y [1]"];
7 -> 4  [label="x (101)"];
7 -> 0  [label="y (80)"];
7 -> 6  [label="z (87)"];
7 -> 0  [label="!z [1]"];
7 -> 3  [label="!x [1]"];
7 -> 1  [label="!z [1] t1"];
__start0 [label="", shape=none];
__start0 -> 0  [label=""];
}
