digraph "benchmarks-true-state-lstar-3seeds/n_states=8-n_outputs=3-glitch_percent=0.05/da53c7755a6cf845244165d45c3519e2/RealModel" {
s1 [label="s1|a", shape=record, style=rounded];
s2 [label="s2|b", shape=record, style=rounded];
s3 [label="s3|b", shape=record, style=rounded];
s4 [label="s4|a", shape=record, style=rounded];
s5 [label="s5|b", shape=record, style=rounded];
s6 [label="s6|c", shape=record, style=rounded];
s7 [label="s7|c", shape=record, style=rounded];
s8 [label="s8|a", shape=record, style=rounded];
s1 -> s7  [label="x"];
s1 -> s2  [label="y"];
s1 -> s5  [label="z"];
s2 -> s8  [label="x"];
s2 -> s5  [label="y"];
s2 -> s6  [label="z"];
s3 -> s5  [label="x"];
s3 -> s7  [label="y"];
s3 -> s1  [label="z"];
s4 -> s3  [label="x"];
s4 -> s2  [label="y"];
s4 -> s7  [label="z"];
s5 -> s7  [label="x"];
s5 -> s1  [label="y"];
s5 -> s4  [label="z"];
s6 -> s7  [label="x"];
s6 -> s6  [label="y"];
s6 -> s6  [label="z"];
s7 -> s4  [label="x"];
s7 -> s6  [label="y"];
s7 -> s3  [label="z"];
s8 -> s7  [label="x"];
s8 -> s4  [label="y"];
s8 -> s2  [label="z"];
__start0 [label="", shape=none];
__start0 -> s1  [label=""];
}
