digraph "benchmarks-true-state-lstar-3seeds/n_states=8-n_outputs=8-glitch_percent=0.01/2c354b4dfd311bb55beb6335de86c9ec/RealModel" {
s1 [label="s1|d", shape=record, style=rounded];
s2 [label="s2|h", shape=record, style=rounded];
s3 [label="s3|h", shape=record, style=rounded];
s4 [label="s4|f", shape=record, style=rounded];
s5 [label="s5|h", shape=record, style=rounded];
s6 [label="s6|a", shape=record, style=rounded];
s7 [label="s7|a", shape=record, style=rounded];
s8 [label="s8|c", shape=record, style=rounded];
s1 -> s4  [label="x"];
s1 -> s8  [label="y"];
s1 -> s3  [label="z"];
s2 -> s1  [label="x"];
s2 -> s6  [label="y"];
s2 -> s5  [label="z"];
s3 -> s4  [label="x"];
s3 -> s8  [label="y"];
s3 -> s4  [label="z"];
s4 -> s6  [label="x"];
s4 -> s7  [label="y"];
s4 -> s2  [label="z"];
s5 -> s3  [label="x"];
s5 -> s2  [label="y"];
s5 -> s7  [label="z"];
s6 -> s4  [label="x"];
s6 -> s3  [label="y"];
s6 -> s3  [label="z"];
s7 -> s6  [label="x"];
s7 -> s6  [label="y"];
s7 -> s7  [label="z"];
s8 -> s5  [label="x"];
s8 -> s1  [label="y"];
s8 -> s6  [label="z"];
__start0 [label="", shape=none];
__start0 -> s1  [label=""];
}
