digraph "benchmarks-true-state-lstar-songp/n_states=17-n_outputs=9-glitch_percent=0.0-pmstrat='lsu'/4aca965158e6b3ff526cf0f9c6b2c555/RealModel" {
s1 [label="s1|a", shape=record, style=rounded];
s2 [label="s2|e", shape=record, style=rounded];
s3 [label="s3|c", shape=record, style=rounded];
s4 [label="s4|h", shape=record, style=rounded];
s5 [label="s5|f", shape=record, style=rounded];
s6 [label="s6|b", shape=record, style=rounded];
s7 [label="s7|h", shape=record, style=rounded];
s8 [label="s8|h", shape=record, style=rounded];
s9 [label="s9|a", shape=record, style=rounded];
s10 [label="s10|i", shape=record, style=rounded];
s11 [label="s11|g", shape=record, style=rounded];
s12 [label="s12|f", shape=record, style=rounded];
s13 [label="s13|i", shape=record, style=rounded];
s14 [label="s14|g", shape=record, style=rounded];
s15 [label="s15|g", shape=record, style=rounded];
s16 [label="s16|c", shape=record, style=rounded];
s17 [label="s17|a", shape=record, style=rounded];
s1 -> s5  [label="x"];
s1 -> s16  [label="y"];
s1 -> s3  [label="z"];
s2 -> s16  [label="x"];
s2 -> s12  [label="y"];
s2 -> s14  [label="z"];
s3 -> s7  [label="x"];
s3 -> s12  [label="y"];
s3 -> s14  [label="z"];
s4 -> s2  [label="x"];
s4 -> s6  [label="y"];
s4 -> s2  [label="z"];
s5 -> s10  [label="x"];
s5 -> s6  [label="y"];
s5 -> s4  [label="z"];
s6 -> s9  [label="x"];
s6 -> s3  [label="y"];
s6 -> s2  [label="z"];
s7 -> s11  [label="x"];
s7 -> s11  [label="y"];
s7 -> s17  [label="z"];
s8 -> s6  [label="x"];
s8 -> s10  [label="y"];
s8 -> s9  [label="z"];
s9 -> s2  [label="x"];
s9 -> s16  [label="y"];
s9 -> s14  [label="z"];
s10 -> s11  [label="x"];
s10 -> s13  [label="y"];
s10 -> s2  [label="z"];
s11 -> s9  [label="x"];
s11 -> s12  [label="y"];
s11 -> s6  [label="z"];
s12 -> s15  [label="x"];
s12 -> s6  [label="y"];
s12 -> s5  [label="z"];
s13 -> s3  [label="x"];
s13 -> s4  [label="y"];
s13 -> s10  [label="z"];
s14 -> s3  [label="x"];
s14 -> s11  [label="y"];
s14 -> s2  [label="z"];
s15 -> s2  [label="x"];
s15 -> s4  [label="y"];
s15 -> s15  [label="z"];
s16 -> s8  [label="x"];
s16 -> s17  [label="y"];
s16 -> s15  [label="z"];
s17 -> s3  [label="x"];
s17 -> s17  [label="y"];
s17 -> s4  [label="z"];
__start0 [label="", shape=none];
__start0 -> s1  [label=""];
}
