digraph "benchmarks-true-state-lstar-rc10seeds/n_states=11-n_outputs=8-glitch_percent=0.0/6ec0f8b6d98aae6000bb501d744bca28/pmsatLearned_NOP-N11-STOC" {
0 [label="0|c", shape=record, style=rounded];
1 [label="1|h", shape=record, style=rounded];
2 [label="2|d", shape=record, style=rounded];
3 [label="3|f", shape=record, style=rounded];
4 [label="4|c", shape=record, style=rounded];
5 [label="5|h", shape=record, style=rounded];
6 [label="6|a", shape=record, style=rounded];
7 [label="7|a", shape=record, style=rounded];
8 [label="8|e", shape=record, style=rounded];
9 [label="9|h", shape=record, style=rounded];
10 [label="10|f", shape=record, style=rounded];
0 -> 5  [label="x (7)"];
0 -> 8  [label="y (7)"];
0 -> 3  [label="z (7)"];
1 -> 0  [label="x (18)"];
1 -> 10  [label="y (18)"];
1 -> 3  [label="z (18)"];
2 -> 9  [label="z (31)"];
2 -> 1  [label="y (55)"];
2 -> 5  [label="x (55)"];
3 -> 10  [label="x (8)"];
3 -> 8  [label="y (8)"];
3 -> 9  [label="z (8)"];
4 -> 7  [label="x (5)"];
4 -> 1  [label="y (5)"];
4 -> 9  [label="z (5)"];
5 -> 6  [label="x (18)"];
5 -> 7  [label="y (18)"];
5 -> 4  [label="z (18)"];
6 -> 8  [label="x (8)"];
6 -> 7  [label="y (8)"];
6 -> 3  [label="z (8)"];
7 -> 8  [label="x (8)"];
7 -> 6  [label="y (8)"];
7 -> 2  [label="z (8)"];
8 -> 2  [label="x (10)"];
8 -> 0  [label="y (10)"];
8 -> 8  [label="z (10)"];
9 -> 8  [label="x (19)"];
9 -> 7  [label="y (7)"];
9 -> 3  [label="z (7)"];
10 -> 6  [label="x (6)"];
10 -> 6  [label="y (6)"];
10 -> 0  [label="z (6)"];
__start0 [label="", shape=none];
__start0 -> 2  [label=""];
}
