digraph "benchmarks-true-state-lstar-3seeds/n_states=6-n_outputs=6-glitch_percent=0.0/23a522d58ca851898f2f8891d5fe7646/RealModel" {
s1 [label="s1|b", shape=record, style=rounded];
s2 [label="s2|e", shape=record, style=rounded];
s3 [label="s3|e", shape=record, style=rounded];
s4 [label="s4|b", shape=record, style=rounded];
s5 [label="s5|b", shape=record, style=rounded];
s6 [label="s6|b", shape=record, style=rounded];
s1 -> s6  [label="x"];
s1 -> s4  [label="y"];
s1 -> s3  [label="z"];
s2 -> s5  [label="x"];
s2 -> s3  [label="y"];
s2 -> s1  [label="z"];
s3 -> s3  [label="x"];
s3 -> s4  [label="y"];
s3 -> s6  [label="z"];
s4 -> s6  [label="x"];
s4 -> s3  [label="y"];
s4 -> s4  [label="z"];
s5 -> s1  [label="x"];
s5 -> s1  [label="y"];
s5 -> s1  [label="z"];
s6 -> s5  [label="x"];
s6 -> s2  [label="y"];
s6 -> s5  [label="z"];
__start0 [label="", shape=none];
__start0 -> s1  [label=""];
}
