digraph "benchmarks-true-state-lstar-rc10seeds/n_states=14-n_outputs=5-glitch_percent=0.02/dab12dc1ce7a48e98e8559141e87dd4c/pmsatLearned_NOP-N14" {
0 [label="0|d", shape=record, style=rounded];
1 [label="1|c", shape=record, style=rounded];
2 [label="2|c", shape=record, style=rounded];
3 [label="3|d", shape=record, style=rounded];
4 [label="4|a", shape=record, style=rounded];
5 [label="5|b", shape=record, style=rounded];
6 [label="6|d", shape=record, style=rounded];
7 [label="7|d", shape=record, style=rounded];
8 [label="8|a", shape=record, style=rounded];
9 [label="9|c", shape=record, style=rounded];
10 [label="10|b", shape=record, style=rounded];
11 [label="11|b", shape=record, style=rounded];
12 [label="12|e", shape=record, style=rounded];
13 [label="13|a", shape=record, style=rounded];
0 -> 13  [label="x"];
0 -> 3  [label="y"];
0 -> 4  [label="z"];
1 -> 3  [label="x"];
1 -> 7  [label="y"];
1 -> 10  [label="z"];
2 -> 11  [label="z"];
2 -> 13  [label="x"];
2 -> 5  [label="y"];
3 -> 7  [label="x"];
3 -> 1  [label="y"];
3 -> 4  [label="z"];
4 -> 2  [label="x"];
4 -> 4  [label="z"];
4 -> 3  [label="y"];
5 -> 0  [label="x"];
5 -> 6  [label="y"];
5 -> 10  [label="z"];
6 -> 5  [label="x"];
6 -> 6  [label="y"];
6 -> 11  [label="z"];
7 -> 13  [label="x"];
7 -> 6  [label="y"];
7 -> 12  [label="z"];
8 -> 11  [label="x"];
8 -> 5  [label="y"];
8 -> 11  [label="z"];
9 -> 1  [label="x"];
9 -> 12  [label="y"];
9 -> 9  [label="z"];
10 -> 12  [label="x"];
10 -> 4  [label="z"];
10 -> 12  [label="y"];
11 -> 9  [label="y"];
11 -> 7  [label="z"];
11 -> 8  [label="x"];
12 -> 4  [label="x"];
12 -> 13  [label="y"];
12 -> 8  [label="z"];
13 -> 1  [label="x"];
13 -> 12  [label="y"];
13 -> 4  [label="z"];
__start0 [label="", shape=none];
__start0 -> 2  [label=""];
}
