digraph "benchmarks-true-state-lstar-rc10seeds/n_states=12-n_outputs=2-glitch_percent=0.02/99a8241dbab6b50c6e4ba2aca82c5b81/pmsatLearned_NOP-N12-STOC" {
0 [label="0|a", shape=record, style=rounded];
1 [label="1|b", shape=record, style=rounded];
2 [label="2|a", shape=record, style=rounded];
3 [label="3|b", shape=record, style=rounded];
4 [label="4|a", shape=record, style=rounded];
5 [label="5|b", shape=record, style=rounded];
6 [label="6|b", shape=record, style=rounded];
7 [label="7|b", shape=record, style=rounded];
8 [label="8|b", shape=record, style=rounded];
9 [label="9|a", shape=record, style=rounded];
10 [label="10|b", shape=record, style=rounded];
11 [label="11|b", shape=record, style=rounded];
0 -> 9  [label="z (45)"];
0 -> 2  [label="y (85)"];
0 -> 4  [label="x (172)"];
0 -> 7  [label="!y [1]"];
0 -> 8  [label="!z [1]"];
1 -> 4  [label="x (13)"];
1 -> 6  [label="z (11)"];
1 -> 5  [label="y (14)"];
2 -> 10  [label="y (15)"];
2 -> 8  [label="z (42)"];
2 -> 11  [label="x (41)"];
3 -> 0  [label="x (12)"];
3 -> 0  [label="y (10)"];
3 -> 4  [label="z (12)"];
4 -> 6  [label="x (61)"];
4 -> 7  [label="y (82)"];
4 -> 3  [label="z (38)"];
4 -> 0  [label="!x [1]"];
5 -> 11  [label="x (24)"];
5 -> 2  [label="y (22)"];
5 -> 1  [label="z (46)"];
6 -> 10  [label="x (37)"];
6 -> 2  [label="y (16)"];
6 -> 0  [label="z (17)"];
6 -> 7  [label="!x [1]"];
7 -> 5  [label="x (52)"];
7 -> 9  [label="y (10)"];
7 -> 5  [label="z (12)"];
8 -> 10  [label="y (14)"];
8 -> 0  [label="x (12)"];
8 -> 11  [label="z (10)"];
8 -> 4  [label="!y [1]"];
9 -> 5  [label="x (19)"];
9 -> 1  [label="y (18)"];
9 -> 5  [label="z (13)"];
9 -> 11  [label="!z [1]"];
10 -> 9  [label="x (15)"];
10 -> 6  [label="y (16)"];
10 -> 5  [label="z (20)"];
11 -> 3  [label="y (23)"];
11 -> 8  [label="x (15)"];
11 -> 2  [label="z (18)"];
11 -> 0  [label="!x [1]"];
11 -> 0  [label="!y [1]"];
__start0 [label="", shape=none];
__start0 -> 0  [label=""];
}
