digraph "benchmarks-true-state-lstar-rc10seeds/n_states=6-n_outputs=5-glitch_percent=0.01/4808deaf064a896ce989e06389ba3551/pmsatLearned_NOP-N6-STOC" {
0 [label="0|a", shape=record, style=rounded];
1 [label="1|c", shape=record, style=rounded];
2 [label="2|d", shape=record, style=rounded];
3 [label="3|c", shape=record, style=rounded];
4 [label="4|d", shape=record, style=rounded];
5 [label="5|e", shape=record, style=rounded];
0 -> 4  [label="x (19)"];
0 -> 3  [label="y (21)"];
0 -> 5  [label="z (7)"];
1 -> 5  [label="z (21)"];
1 -> 2  [label="y (21)"];
1 -> 0  [label="x (45)"];
2 -> 2  [label="x (8)"];
2 -> 4  [label="y (8)"];
2 -> 1  [label="z (8)"];
3 -> 1  [label="x (6)"];
3 -> 0  [label="y (6)"];
3 -> 0  [label="z (6)"];
4 -> 2  [label="x (6)"];
4 -> 1  [label="y (6)"];
4 -> 0  [label="z (6)"];
5 -> 1  [label="x (6)"];
5 -> 3  [label="y (5)"];
5 -> 2  [label="z (6)"];
__start0 [label="", shape=none];
__start0 -> 1  [label=""];
}
