digraph "benchmarks-true-state-lstar-3seeds/n_states=11-n_outputs=7-glitch_percent=0.05/b4b3c40dd1337bfe12150f0ae52b106f/pmsatLearned-N11-STOC" {
0 [label="0|a", shape=record, style=rounded];
1 [label="1|c", shape=record, style=rounded];
2 [label="2|d", shape=record, style=rounded];
3 [label="3|e", shape=record, style=rounded];
4 [label="4|e", shape=record, style=rounded];
5 [label="5|c", shape=record, style=rounded];
6 [label="6|d", shape=record, style=rounded];
7 [label="7|d", shape=record, style=rounded];
8 [label="8|c", shape=record, style=rounded];
9 [label="9|d", shape=record, style=rounded];
10 [label="10|e", shape=record, style=rounded];
0 -> 9  [label="x (27)"];
0 -> 8  [label="y (21)"];
0 -> 6  [label="z (19)"];
0 -> 10  [label="!z [1]"];
1 -> 4  [label="z (35)"];
1 -> 0  [label="y (72)"];
1 -> 7  [label="x (63)"];
1 -> 9  [label="!x [1]"];
1 -> 6  [label="!z [1]"];
1 -> 10  [label="!x [2]"];
1 -> 10  [label="!y [1]"];
1 -> 2  [label="!y [2]"];
2 -> 4  [label="x (13)"];
2 -> 4  [label="y (10)"];
2 -> 10  [label="z (7)"];
3 -> 5  [label="x (22)"];
3 -> 3  [label="y (14)"];
3 -> 1  [label="z (10)"];
3 -> 3  [label="!z [1]"];
4 -> 10  [label="x (25)"];
4 -> 10  [label="y (13)"];
4 -> 6  [label="z (10)"];
5 -> 8  [label="x (6)"];
5 -> 3  [label="y (8)"];
5 -> 3  [label="z (5)"];
6 -> 6  [label="x (8)"];
6 -> 3  [label="y (12)"];
6 -> 3  [label="z (9)"];
7 -> 5  [label="x (18)"];
7 -> 2  [label="y (20)"];
7 -> 3  [label="z (21)"];
8 -> 6  [label="x (7)"];
8 -> 10  [label="y (9)"];
8 -> 4  [label="z (6)"];
9 -> 4  [label="x (6)"];
9 -> 10  [label="y (11)"];
9 -> 10  [label="z (5)"];
9 -> 2  [label="!y [1]"];
10 -> 1  [label="x (23)"];
10 -> 2  [label="y (17)"];
10 -> 10  [label="z (12)"];
10 -> 0  [label="!y [1]"];
__start0 [label="", shape=none];
__start0 -> 1  [label=""];
}
