digraph "benchmarks-true-state-lstar-rc10seeds/n_states=16-n_outputs=5-glitch_percent=0.05/e1e355b6912cb6a4c0b10a78cfa14dba/pmsatLearned_NOP-N16" {
0 [label="0|b", shape=record, style=rounded];
1 [label="1|a", shape=record, style=rounded];
2 [label="2|b", shape=record, style=rounded];
3 [label="3|a", shape=record, style=rounded];
4 [label="4|c", shape=record, style=rounded];
5 [label="5|e", shape=record, style=rounded];
6 [label="6|a", shape=record, style=rounded];
7 [label="7|e", shape=record, style=rounded];
8 [label="8|e", shape=record, style=rounded];
9 [label="9|b", shape=record, style=rounded];
10 [label="10|a", shape=record, style=rounded];
11 [label="11|e", shape=record, style=rounded];
12 [label="12|a", shape=record, style=rounded];
13 [label="13|a", shape=record, style=rounded];
14 [label="14|d", shape=record, style=rounded];
15 [label="15|e", shape=record, style=rounded];
0 -> 8  [label="z"];
0 -> 3  [label="y"];
0 -> 11  [label="x"];
1 -> 14  [label="x"];
1 -> 7  [label="y"];
1 -> 2  [label="z"];
2 -> 9  [label="z"];
2 -> 11  [label="x"];
2 -> 3  [label="y"];
3 -> 4  [label="x"];
3 -> 10  [label="y"];
3 -> 9  [label="z"];
4 -> 11  [label="x"];
4 -> 6  [label="y"];
4 -> 13  [label="z"];
5 -> 6  [label="x"];
5 -> 8  [label="y"];
5 -> 11  [label="z"];
6 -> 0  [label="x"];
6 -> 3  [label="y"];
6 -> 13  [label="z"];
7 -> 7  [label="x"];
7 -> 1  [label="z"];
7 -> 13  [label="y"];
8 -> 6  [label="y"];
8 -> 12  [label="z"];
8 -> 5  [label="x"];
9 -> 9  [label="x"];
9 -> 7  [label="z"];
9 -> 1  [label="y"];
10 -> 3  [label="x"];
10 -> 12  [label="y"];
10 -> 1  [label="z"];
11 -> 1  [label="x"];
11 -> 15  [label="y"];
11 -> 13  [label="z"];
12 -> 8  [label="x"];
12 -> 11  [label="y"];
12 -> 6  [label="z"];
13 -> 12  [label="x"];
13 -> 15  [label="y"];
13 -> 5  [label="z"];
14 -> 9  [label="x"];
14 -> 6  [label="y"];
14 -> 9  [label="z"];
15 -> 4  [label="x"];
15 -> 2  [label="y"];
15 -> 3  [label="z"];
__start0 [label="", shape=none];
__start0 -> 0  [label=""];
}
