digraph "benchmarks-true-state-lstar-3seeds/n_states=8-n_outputs=6-glitch_percent=0.02/96258d2eaed9905309a233af74a8e3ea/pmsatLearned-N8" {
0 [label="0|b", shape=record, style=rounded];
1 [label="1|d", shape=record, style=rounded];
2 [label="2|e", shape=record, style=rounded];
3 [label="3|f", shape=record, style=rounded];
4 [label="4|e", shape=record, style=rounded];
5 [label="5|e", shape=record, style=rounded];
6 [label="6|d", shape=record, style=rounded];
7 [label="7|f", shape=record, style=rounded];
0 -> 1  [label="x"];
0 -> 4  [label="z"];
0 -> 5  [label="y"];
1 -> 2  [label="x"];
1 -> 6  [label="y"];
1 -> 2  [label="z"];
2 -> 1  [label="z"];
2 -> 4  [label="y"];
2 -> 5  [label="x"];
3 -> 3  [label="x"];
3 -> 2  [label="y"];
3 -> 1  [label="z"];
4 -> 3  [label="x"];
4 -> 6  [label="y"];
4 -> 7  [label="z"];
5 -> 0  [label="x"];
5 -> 6  [label="y"];
5 -> 7  [label="z"];
6 -> 5  [label="x"];
6 -> 5  [label="y"];
6 -> 6  [label="z"];
7 -> 6  [label="x"];
7 -> 1  [label="y"];
7 -> 1  [label="z"];
__start0 [label="", shape=none];
__start0 -> 2  [label=""];
}
