digraph "benchmarks-true-state-lstar-3seeds/n_states=12-n_outputs=9-glitch_percent=0.01/5b322e5f4b43d6d1a6cf2de39d4791c7/pmsatLearned-N12" {
0 [label="0|a", shape=record, style=rounded];
1 [label="1|c", shape=record, style=rounded];
2 [label="2|e", shape=record, style=rounded];
3 [label="3|f", shape=record, style=rounded];
4 [label="4|g", shape=record, style=rounded];
5 [label="5|h", shape=record, style=rounded];
6 [label="6|i", shape=record, style=rounded];
7 [label="7|a", shape=record, style=rounded];
8 [label="8|g", shape=record, style=rounded];
9 [label="9|f", shape=record, style=rounded];
10 [label="10|c", shape=record, style=rounded];
11 [label="11|c", shape=record, style=rounded];
0 -> 11  [label="x"];
0 -> 0  [label="y"];
0 -> 7  [label="z"];
1 -> 10  [label="x"];
1 -> 0  [label="y"];
1 -> 5  [label="z"];
2 -> 6  [label="z"];
2 -> 7  [label="y"];
2 -> 1  [label="x"];
3 -> 6  [label="y"];
3 -> 9  [label="z"];
3 -> 3  [label="x"];
4 -> 7  [label="x"];
4 -> 8  [label="y"];
4 -> 0  [label="z"];
5 -> 2  [label="x"];
5 -> 8  [label="y"];
5 -> 0  [label="z"];
6 -> 8  [label="x"];
6 -> 3  [label="y"];
6 -> 5  [label="z"];
7 -> 4  [label="x"];
7 -> 9  [label="y"];
7 -> 11  [label="z"];
8 -> 1  [label="x"];
8 -> 10  [label="y"];
8 -> 1  [label="z"];
9 -> 10  [label="x"];
9 -> 4  [label="y"];
9 -> 1  [label="z"];
10 -> 10  [label="x"];
10 -> 9  [label="y"];
10 -> 11  [label="z"];
11 -> 6  [label="x"];
11 -> 6  [label="y"];
11 -> 0  [label="z"];
__start0 [label="", shape=none];
__start0 -> 2  [label=""];
}
