digraph "benchmarks-true-state-lstar-songp/n_states=11-n_outputs=5-glitch_percent=0.01-pmstrat='rc2'/7b00b449098c1ca21c2110b04100a61a/alergiaLearned" {
q0 [label="a"];
q1 [label="d"];
q2 [label="e"];
q3 [label="e"];
q4 [label="b"];
q5 [label="d"];
q6 [label="c"];
q7 [label="a"];
q0 -> q1  [label="z:0.967741935483871"];
q0 -> q4  [label="z:0.03225806451612903"];
q0 -> q2  [label="y:1.0"];
q0 -> q3  [label="x:0.9464285714285714"];
q0 -> q0  [label="x:0.03571428571428571"];
q0 -> q4  [label="x:0.017857142857142856"];
q1 -> q5  [label="x:1.0"];
q1 -> q6  [label="y:0.5"];
q1 -> q2  [label="y:0.5"];
q1 -> q1  [label="z:0.5454545454545454"];
q1 -> q4  [label="z:0.45454545454545453"];
q2 -> q7  [label="x:1.0"];
q2 -> q6  [label="y:0.8571428571428571"];
q2 -> q1  [label="y:0.14285714285714285"];
q2 -> q4  [label="z:0.8571428571428571"];
q2 -> q6  [label="z:0.14285714285714285"];
q3 -> q7  [label="x:1.0"];
q3 -> q1  [label="y:1.0"];
q3 -> q6  [label="z:1.0"];
q4 -> q0  [label="y:1.0"];
q4 -> q2  [label="x:1.0"];
q4 -> q4  [label="z:1.0"];
q5 -> q0  [label="x:0.8333333333333334"];
q5 -> q1  [label="x:0.16666666666666666"];
q5 -> q4  [label="y:0.8333333333333334"];
q5 -> q2  [label="y:0.16666666666666666"];
q5 -> q6  [label="z:0.8333333333333334"];
q5 -> q4  [label="z:0.16666666666666666"];
q6 -> q1  [label="x:1.0"];
q6 -> q6  [label="y:0.5"];
q6 -> q2  [label="y:0.5"];
q6 -> q0  [label="z:0.5"];
q6 -> q1  [label="z:0.5"];
q7 -> q6  [label="x:0.5555555555555556"];
q7 -> q4  [label="x:0.4444444444444444"];
q7 -> q2  [label="y:0.5"];
q7 -> q6  [label="y:0.5"];
q7 -> q4  [label="z:1.0"];
__start0 [label="", shape=none];
__start0 -> q0  [label=""];
}
