digraph "benchmarks-true-state-lstar-songp/n_states=9-n_outputs=2-glitch_percent=0.01-pmstrat='lsu'/51abf95a7e8e00fbf08e95dc8d27ec7d/pmsatLearned-N9-STOC" {
0 [label="0|a", shape=record, style=rounded];
1 [label="1|b", shape=record, style=rounded];
2 [label="2|b", shape=record, style=rounded];
3 [label="3|a", shape=record, style=rounded];
4 [label="4|b", shape=record, style=rounded];
5 [label="5|b", shape=record, style=rounded];
6 [label="6|b", shape=record, style=rounded];
7 [label="7|a", shape=record, style=rounded];
8 [label="8|a", shape=record, style=rounded];
0 -> 1  [label="z (20)"];
0 -> 2  [label="!z [1]"];
0 -> 7  [label="y (54)"];
0 -> 1  [label="x (66)"];
0 -> 4  [label="!x [9]"];
0 -> 6  [label="!z [2]"];
0 -> 0  [label="!y [7]"];
0 -> 5  [label="!y [1]"];
0 -> 2  [label="!x [7]"];
0 -> 6  [label="!x [2]"];
0 -> 8  [label="!y [8]"];
1 -> 1  [label="x (18)"];
1 -> 5  [label="y (40)"];
1 -> 0  [label="!x [4]"];
1 -> 8  [label="!z [3]"];
1 -> 0  [label="!z [2]"];
1 -> 7  [label="!z [10]"];
1 -> 8  [label="!x [6]"];
1 -> 0  [label="!y [1]"];
1 -> 1  [label="z (1)"];
2 -> 3  [label="z (5)"];
2 -> 4  [label="y (4)"];
2 -> 8  [label="x (5)"];
3 -> 1  [label="y (4)"];
3 -> 7  [label="z (6)"];
3 -> 8  [label="x (5)"];
4 -> 0  [label="z (12)"];
4 -> 0  [label="x (18)"];
4 -> 3  [label="y (16)"];
5 -> 2  [label="x (11)"];
5 -> 3  [label="y (8)"];
5 -> 5  [label="z (8)"];
6 -> 7  [label="z (10)"];
6 -> 4  [label="x (11)"];
6 -> 6  [label="y (6)"];
7 -> 6  [label="!x [4]"];
7 -> 4  [label="y (27)"];
7 -> 6  [label="z (7)"];
7 -> 0  [label="x (12)"];
7 -> 4  [label="!x [3]"];
8 -> 8  [label="z (13)"];
8 -> 6  [label="x (13)"];
8 -> 8  [label="y (5)"];
__start0 [label="", shape=none];
__start0 -> 0  [label=""];
}
