digraph "benchmarks-true-state-lstar-rc10seeds/n_states=12-n_outputs=7-glitch_percent=0.0/4f0f4468a5c575eb07aaa3c2bb1573a8/pmsatLearned_NOP-N12-STOC" {
0 [label="0|a", shape=record, style=rounded];
1 [label="1|a", shape=record, style=rounded];
2 [label="2|c", shape=record, style=rounded];
3 [label="3|g", shape=record, style=rounded];
4 [label="4|f", shape=record, style=rounded];
5 [label="5|g", shape=record, style=rounded];
6 [label="6|a", shape=record, style=rounded];
7 [label="7|d", shape=record, style=rounded];
8 [label="8|c", shape=record, style=rounded];
9 [label="9|e", shape=record, style=rounded];
10 [label="10|e", shape=record, style=rounded];
11 [label="11|a", shape=record, style=rounded];
0 -> 4  [label="z (43)"];
0 -> 6  [label="y (55)"];
0 -> 5  [label="x (55)"];
1 -> 5  [label="x (8)"];
1 -> 2  [label="y (8)"];
1 -> 4  [label="z (8)"];
2 -> 9  [label="x (6)"];
2 -> 11  [label="y (6)"];
2 -> 11  [label="z (6)"];
3 -> 1  [label="x (6)"];
3 -> 9  [label="y (6)"];
3 -> 5  [label="z (6)"];
4 -> 9  [label="x (20)"];
4 -> 7  [label="y (20)"];
4 -> 9  [label="z (8)"];
5 -> 8  [label="x (19)"];
5 -> 11  [label="y (19)"];
5 -> 3  [label="z (19)"];
6 -> 1  [label="x (19)"];
6 -> 2  [label="y (19)"];
6 -> 10  [label="z (19)"];
7 -> 6  [label="x (6)"];
7 -> 4  [label="y (6)"];
7 -> 8  [label="z (6)"];
8 -> 0  [label="x (7)"];
8 -> 6  [label="y (7)"];
8 -> 1  [label="z (7)"];
9 -> 1  [label="x (10)"];
9 -> 3  [label="y (10)"];
9 -> 11  [label="z (10)"];
10 -> 0  [label="x (5)"];
10 -> 4  [label="y (5)"];
10 -> 9  [label="z (5)"];
11 -> 7  [label="x (8)"];
11 -> 8  [label="y (8)"];
11 -> 9  [label="z (8)"];
__start0 [label="", shape=none];
__start0 -> 0  [label=""];
}
