digraph "benchmarks-true-state-lstar-3seeds/n_states=17-n_outputs=5-glitch_percent=0.1/92c4e8ff78b6d736b65e88ff49256f44/alergiaLearned" {
q0 [label="b"];
q1 [label="e"];
q2 [label="e"];
q3 [label="c"];
q4 [label="d"];
q5 [label="b"];
q6 [label="c"];
q7 [label="e"];
q8 [label="e"];
q0 -> q1  [label="z:0.9821428571428571"];
q0 -> q0  [label="z:0.017857142857142856"];
q0 -> q2  [label="x:0.9603960396039604"];
q0 -> q5  [label="x:0.019801980198019802"];
q0 -> q6  [label="x:0.009900990099009901"];
q0 -> q4  [label="x:0.009900990099009901"];
q0 -> q3  [label="y:0.8"];
q0 -> q4  [label="y:0.06666666666666667"];
q0 -> q5  [label="y:0.1"];
q0 -> q1  [label="y:0.03333333333333333"];
q1 -> q1  [label="z:0.71875"];
q1 -> q0  [label="z:0.125"];
q1 -> q3  [label="z:0.125"];
q1 -> q4  [label="z:0.03125"];
q1 -> q4  [label="y:0.6774193548387096"];
q1 -> q1  [label="y:0.2903225806451613"];
q1 -> q6  [label="y:0.03225806451612903"];
q1 -> q0  [label="y:0.0"];
q1 -> q7  [label="x:0.8"];
q1 -> q0  [label="x:0.16666666666666666"];
q1 -> q3  [label="x:0.03333333333333333"];
q2 -> q5  [label="y:0.7857142857142857"];
q2 -> q1  [label="y:0.10714285714285714"];
q2 -> q6  [label="y:0.07142857142857142"];
q2 -> q4  [label="y:0.03571428571428571"];
q2 -> q1  [label="z:0.7777777777777778"];
q2 -> q4  [label="z:0.2222222222222222"];
q2 -> q8  [label="x:0.9777777777777777"];
q2 -> q0  [label="x:0.022222222222222223"];
q3 -> q3  [label="x:0.9230769230769231"];
q3 -> q0  [label="x:0.07692307692307693"];
q3 -> q5  [label="z:0.6818181818181818"];
q3 -> q1  [label="z:0.3181818181818182"];
q3 -> q4  [label="y:0.5416666666666666"];
q3 -> q0  [label="y:0.375"];
q3 -> q3  [label="y:0.08333333333333333"];
q4 -> q0  [label="y:0.3125"];
q4 -> q3  [label="y:0.375"];
q4 -> q4  [label="y:0.3125"];
q4 -> q0  [label="x:0.6875"];
q4 -> q3  [label="x:0.3125"];
q4 -> q5  [label="z:1.0"];
q5 -> q0  [label="x:0.782608695652174"];
q5 -> q1  [label="x:0.17391304347826086"];
q5 -> q4  [label="x:0.043478260869565216"];
q5 -> q7  [label="z:0.5454545454545454"];
q5 -> q3  [label="z:0.45454545454545453"];
q5 -> q1  [label="y:0.5454545454545454"];
q5 -> q0  [label="y:0.45454545454545453"];
q6 -> q1  [label="x:0.16666666666666666"];
q6 -> q0  [label="x:0.8333333333333334"];
q6 -> q1  [label="z:1.0"];
q6 -> q6  [label="y:1.0"];
q7 -> q3  [label="x:1.0"];
q7 -> q1  [label="x:0.0"];
q7 -> q7  [label="y:0.8333333333333334"];
q7 -> q3  [label="y:0.16666666666666666"];
q7 -> q1  [label="z:0.8571428571428571"];
q7 -> q3  [label="z:0.14285714285714285"];
q8 -> q1  [label="x:0.7692307692307693"];
q8 -> q0  [label="x:0.23076923076923078"];
q8 -> q6  [label="y:0.8666666666666667"];
q8 -> q4  [label="y:0.13333333333333333"];
q8 -> q4  [label="z:0.8666666666666667"];
q8 -> q7  [label="z:0.13333333333333333"];
__start0 [label="", shape=none];
__start0 -> q0  [label=""];
}
