digraph "benchmarks-true-state-lstar-rc10seeds/n_states=7-n_outputs=7-glitch_percent=0.02/93e1605b26b2fa1d7fc777547e80c637/pmsatLearned_NOP-N7" {
0 [label="0|b", shape=record, style=rounded];
1 [label="1|d", shape=record, style=rounded];
2 [label="2|e", shape=record, style=rounded];
3 [label="3|g", shape=record, style=rounded];
4 [label="4|f", shape=record, style=rounded];
5 [label="5|e", shape=record, style=rounded];
6 [label="6|d", shape=record, style=rounded];
0 -> 3  [label="x"];
0 -> 0  [label="z"];
0 -> 2  [label="y"];
1 -> 5  [label="x"];
1 -> 0  [label="y"];
1 -> 3  [label="z"];
2 -> 6  [label="z"];
2 -> 4  [label="y"];
2 -> 1  [label="x"];
3 -> 3  [label="x"];
3 -> 3  [label="z"];
3 -> 6  [label="y"];
4 -> 1  [label="x"];
4 -> 2  [label="y"];
4 -> 3  [label="z"];
5 -> 0  [label="x"];
5 -> 4  [label="y"];
5 -> 2  [label="z"];
6 -> 0  [label="x"];
6 -> 4  [label="y"];
6 -> 3  [label="z"];
__start0 [label="", shape=none];
__start0 -> 2  [label=""];
}
