digraph "benchmarks-true-state-lstar-rc10seeds/n_states=6-n_outputs=3-glitch_percent=0.05/f490c4b6ae25464dba7f858779c066e3/pmsatLearned_NOP-N6" {
0 [label="0|b", shape=record, style=rounded];
1 [label="1|b", shape=record, style=rounded];
2 [label="2|c", shape=record, style=rounded];
3 [label="3|c", shape=record, style=rounded];
4 [label="4|a", shape=record, style=rounded];
5 [label="5|b", shape=record, style=rounded];
0 -> 5  [label="x"];
0 -> 1  [label="y"];
0 -> 5  [label="z"];
1 -> 0  [label="z"];
1 -> 3  [label="y"];
1 -> 4  [label="x"];
2 -> 5  [label="x"];
2 -> 5  [label="y"];
2 -> 0  [label="z"];
3 -> 4  [label="x"];
3 -> 0  [label="z"];
3 -> 1  [label="y"];
4 -> 5  [label="y"];
4 -> 2  [label="z"];
4 -> 2  [label="x"];
5 -> 1  [label="x"];
5 -> 5  [label="y"];
5 -> 4  [label="z"];
__start0 [label="", shape=none];
__start0 -> 1  [label=""];
}
