digraph "benchmarks-true-state-lstar-3seeds/n_states=7-n_outputs=7-glitch_percent=0.05/d27e2b06a52e23212e52c94a2605c7ab/pmsatLearned-N7-STOC" {
0 [label="0|b", shape=record, style=rounded];
1 [label="1|c", shape=record, style=rounded];
2 [label="2|e", shape=record, style=rounded];
3 [label="3|f", shape=record, style=rounded];
4 [label="4|c", shape=record, style=rounded];
5 [label="5|e", shape=record, style=rounded];
6 [label="6|e", shape=record, style=rounded];
0 -> 5  [label="x (3)"];
0 -> 6  [label="y (4)"];
0 -> 1  [label="z (3)"];
0 -> 1  [label="!y [1]"];
1 -> 3  [label="x (9)"];
1 -> 4  [label="y (7)"];
1 -> 3  [label="z (7)"];
2 -> 4  [label="z (19)"];
2 -> 0  [label="y (16)"];
2 -> 6  [label="x (55)"];
2 -> 2  [label="!y [1]"];
2 -> 1  [label="!x [1]"];
3 -> 2  [label="y (8)"];
3 -> 5  [label="z (8)"];
3 -> 2  [label="x (6)"];
3 -> 0  [label="!y [1]"];
4 -> 1  [label="x (7)"];
4 -> 4  [label="y (7)"];
4 -> 3  [label="z (7)"];
5 -> 5  [label="y (8)"];
5 -> 1  [label="z (7)"];
5 -> 1  [label="x (7)"];
6 -> 1  [label="x (16)"];
6 -> 5  [label="y (17)"];
6 -> 3  [label="z (20)"];
__start0 [label="", shape=none];
__start0 -> 2  [label=""];
}
