digraph "benchmarks-true-state-lstar-3seeds/n_states=16-n_outputs=5-glitch_percent=0.02/9b3c6fda9bf557f10b491ad9cdd9eed8/pmsatLearned-N16-STOC" {
0 [label="0|b", shape=record, style=rounded];
1 [label="1|c", shape=record, style=rounded];
2 [label="2|d", shape=record, style=rounded];
3 [label="3|e", shape=record, style=rounded];
4 [label="4|e", shape=record, style=rounded];
5 [label="5|e", shape=record, style=rounded];
6 [label="6|e", shape=record, style=rounded];
7 [label="7|c", shape=record, style=rounded];
8 [label="8|e", shape=record, style=rounded];
9 [label="9|d", shape=record, style=rounded];
10 [label="10|e", shape=record, style=rounded];
11 [label="11|c", shape=record, style=rounded];
12 [label="12|b", shape=record, style=rounded];
13 [label="13|b", shape=record, style=rounded];
14 [label="14|e", shape=record, style=rounded];
15 [label="15|b", shape=record, style=rounded];
0 -> 4  [label="z (74)"];
0 -> 15  [label="y (72)"];
0 -> 7  [label="x (120)"];
0 -> 1  [label="!x [1]"];
0 -> 8  [label="!y [1]"];
1 -> 3  [label="x (30)"];
1 -> 9  [label="y (27)"];
1 -> 5  [label="z (23)"];
1 -> 0  [label="!z [1]"];
2 -> 1  [label="x (7)"];
2 -> 15  [label="y (7)"];
2 -> 8  [label="z (5)"];
3 -> 3  [label="x (20)"];
3 -> 0  [label="y (33)"];
3 -> 11  [label="z (12)"];
4 -> 6  [label="x (28)"];
4 -> 2  [label="y (25)"];
4 -> 11  [label="z (22)"];
5 -> 4  [label="x (11)"];
5 -> 3  [label="y (12)"];
5 -> 0  [label="z (7)"];
6 -> 5  [label="x (12)"];
6 -> 8  [label="y (10)"];
6 -> 12  [label="z (7)"];
7 -> 1  [label="x (65)"];
7 -> 10  [label="y (26)"];
7 -> 12  [label="z (21)"];
7 -> 14  [label="!z [1]"];
8 -> 12  [label="x (10)"];
8 -> 15  [label="y (7)"];
8 -> 3  [label="z (8)"];
9 -> 6  [label="x (7)"];
9 -> 1  [label="y (6)"];
9 -> 12  [label="z (5)"];
9 -> 8  [label="!x [1]"];
10 -> 3  [label="x (9)"];
10 -> 5  [label="y (7)"];
10 -> 0  [label="z (7)"];
11 -> 3  [label="x (13)"];
11 -> 1  [label="y (9)"];
11 -> 12  [label="z (9)"];
12 -> 3  [label="x (15)"];
12 -> 15  [label="y (12)"];
12 -> 1  [label="z (11)"];
12 -> 0  [label="!z [1]"];
13 -> 0  [label="x (7)"];
13 -> 11  [label="y (6)"];
13 -> 11  [label="z (6)"];
14 -> 0  [label="x (7)"];
14 -> 10  [label="y (11)"];
14 -> 12  [label="z (6)"];
15 -> 14  [label="x (27)"];
15 -> 8  [label="y (22)"];
15 -> 13  [label="z (23)"];
15 -> 15  [label="!y [1]"];
15 -> 0  [label="!x [1]"];
__start0 [label="", shape=none];
__start0 -> 0  [label=""];
}
