digraph "benchmarks-true-state-lstar-3seeds/n_states=14-n_outputs=2-glitch_percent=0.02/41032a39fc0e72671acf3fad40931068/alergiaLearned" {
q0 [label="b"];
q1 [label="b"];
q2 [label="a"];
q3 [label="a"];
q4 [label="b"];
q5 [label="a"];
q6 [label="a"];
q7 [label="b"];
q8 [label="b"];
q9 [label="a"];
q10 [label="a"];
q0 -> q1  [label="z:0.9696969696969697"];
q0 -> q2  [label="z:0.030303030303030304"];
q0 -> q2  [label="y:0.990990990990991"];
q0 -> q0  [label="y:0.009009009009009009"];
q0 -> q3  [label="x:0.9776119402985075"];
q0 -> q0  [label="x:0.022388059701492536"];
q1 -> q4  [label="x:0.9117647058823529"];
q1 -> q3  [label="x:0.08823529411764706"];
q1 -> q5  [label="y:1.0"];
q1 -> q6  [label="z:1.0"];
q2 -> q7  [label="y:0.8936170212765957"];
q2 -> q3  [label="y:0.10638297872340426"];
q2 -> q8  [label="z:0.9722222222222222"];
q2 -> q3  [label="z:0.027777777777777776"];
q2 -> q6  [label="x:0.9787234042553191"];
q2 -> q0  [label="x:0.02127659574468085"];
q3 -> q6  [label="x:0.9565217391304348"];
q3 -> q0  [label="x:0.043478260869565216"];
q3 -> q9  [label="y:1.0"];
q3 -> q0  [label="y:0.0"];
q3 -> q10  [label="z:1.0"];
q3 -> q0  [label="z:0.0"];
q4 -> q4  [label="x:0.6666666666666666"];
q4 -> q2  [label="x:0.3333333333333333"];
q4 -> q4  [label="y:0.84375"];
q4 -> q3  [label="y:0.15625"];
q4 -> q0  [label="z:0.9473684210526315"];
q4 -> q2  [label="z:0.05263157894736842"];
q5 -> q0  [label="x:0.9375"];
q5 -> q2  [label="x:0.0625"];
q5 -> q3  [label="y:0.9444444444444444"];
q5 -> q0  [label="y:0.05555555555555555"];
q5 -> q1  [label="z:0.9333333333333333"];
q5 -> q2  [label="z:0.06666666666666667"];
q6 -> q3  [label="x:0.9782608695652174"];
q6 -> q0  [label="x:0.021739130434782608"];
q6 -> q2  [label="y:1.0"];
q6 -> q3  [label="z:0.6176470588235294"];
q6 -> q4  [label="z:0.38235294117647056"];
q7 -> q2  [label="x:1.0"];
q7 -> q4  [label="y:0.9285714285714286"];
q7 -> q2  [label="y:0.07142857142857142"];
q7 -> q4  [label="z:1.0"];
q8 -> q2  [label="x:1.0"];
q8 -> q3  [label="y:1.0"];
q8 -> q5  [label="z:1.0"];
q9 -> q5  [label="x:0.7894736842105263"];
q9 -> q0  [label="x:0.21052631578947367"];
q9 -> q3  [label="y:1.0"];
q9 -> q1  [label="z:1.0"];
q9 -> q2  [label="z:0.0"];
q10 -> q3  [label="x:1.0"];
q10 -> q0  [label="x:0.0"];
q10 -> q1  [label="y:1.0"];
q10 -> q2  [label="y:0.0"];
q10 -> q4  [label="z:1.0"];
q10 -> q2  [label="z:0.0"];
__start0 [label="", shape=none];
__start0 -> q0  [label=""];
}
