digraph "pmsatLearned-N8-STOC" {
0 [label="0|a", shape=record, style=rounded];
1 [label="1|b", shape=record, style=rounded];
2 [label="2|d", shape=record, style=rounded];
3 [label="3|e", shape=record, style=rounded];
4 [label="4|e", shape=record, style=rounded];
5 [label="5|b", shape=record, style=rounded];
6 [label="6|b", shape=record, style=rounded];
7 [label="7|b", shape=record, style=rounded];
0 -> 4  [label="z (134)"];
0 -> 6  [label="y (157)"];
0 -> 2  [label="x (168)"];
0 -> 1  [label="!y [1]"];
0 -> 7  [label="!z [2]"];
0 -> 3  [label="!x [3]"];
0 -> 0  [label="!y [2]"];
0 -> 3  [label="!z [1]"];
1 -> 2  [label="x (72)"];
1 -> 4  [label="y (56)"];
1 -> 3  [label="z (61)"];
1 -> 0  [label="!y [1]"];
1 -> 1  [label="!z [1]"];
2 -> 5  [label="y (73)"];
2 -> 7  [label="z (70)"];
2 -> 3  [label="x (77)"];
2 -> 3  [label="!z [1]"];
3 -> 3  [label="x (186)"];
3 -> 5  [label="y (182)"];
3 -> 5  [label="z (184)"];
3 -> 7  [label="!y [1]"];
3 -> 7  [label="!x [1]"];
4 -> 3  [label="x (137)"];
4 -> 0  [label="y (154)"];
4 -> 7  [label="z (126)"];
4 -> 3  [label="!z [3]"];
4 -> 4  [label="!z [1]"];
5 -> 7  [label="x (143)"];
5 -> 1  [label="y (132)"];
5 -> 4  [label="z (113)"];
5 -> 0  [label="!y [1]"];
5 -> 2  [label="!x [1]"];
6 -> 4  [label="y (71)"];
6 -> 3  [label="z (70)"];
6 -> 1  [label="x (82)"];
6 -> 1  [label="!y [1]"];
6 -> 5  [label="!y [1] t1"];
6 -> 5  [label="!x [1]"];
7 -> 4  [label="x (112)"];
7 -> 6  [label="y (96)"];
7 -> 3  [label="z (96)"];
__start0 [label="", shape=none];
__start0 -> 0  [label=""];
}
