digraph "benchmarks-true-state-lstar-rc10seeds/n_states=9-n_outputs=6-glitch_percent=0.01/f1f616c40c7b7fe9ce5f50675450c3a5/pmsatLearned_NOP-N9" {
0 [label="0|b", shape=record, style=rounded];
1 [label="1|b", shape=record, style=rounded];
2 [label="2|e", shape=record, style=rounded];
3 [label="3|b", shape=record, style=rounded];
4 [label="4|f", shape=record, style=rounded];
5 [label="5|e", shape=record, style=rounded];
6 [label="6|a", shape=record, style=rounded];
7 [label="7|e", shape=record, style=rounded];
8 [label="8|d", shape=record, style=rounded];
0 -> 5  [label="z"];
0 -> 6  [label="y"];
0 -> 8  [label="x"];
1 -> 2  [label="x"];
1 -> 3  [label="y"];
1 -> 8  [label="z"];
2 -> 4  [label="x"];
2 -> 5  [label="y"];
2 -> 1  [label="z"];
3 -> 3  [label="x"];
3 -> 2  [label="y"];
3 -> 7  [label="z"];
4 -> 2  [label="x"];
4 -> 1  [label="y"];
4 -> 6  [label="z"];
5 -> 1  [label="x"];
5 -> 8  [label="y"];
5 -> 4  [label="z"];
6 -> 2  [label="x"];
6 -> 3  [label="y"];
6 -> 3  [label="z"];
7 -> 2  [label="x"];
7 -> 2  [label="y"];
7 -> 8  [label="z"];
8 -> 4  [label="x"];
8 -> 7  [label="y"];
8 -> 1  [label="z"];
__start0 [label="", shape=none];
__start0 -> 0  [label=""];
}
