digraph "benchmarks-true-state-lstar-3seeds/n_states=9-n_outputs=6-glitch_percent=0.01/f1f616c40c7b7fe9ce5f50675450c3a5/rpniGroundTruth" {
s0 [label="s0|a", shape=record, style=rounded];
s1 [label="s1|d", shape=record, style=rounded];
s2 [label="s2|e", shape=record, style=rounded];
s3 [label="s3|a", shape=record, style=rounded];
s4 [label="s4|e", shape=record, style=rounded];
s5 [label="s5|f", shape=record, style=rounded];
s6 [label="s6|b", shape=record, style=rounded];
s7 [label="s7|e", shape=record, style=rounded];
s8 [label="s8|b", shape=record, style=rounded];
s0 -> s1  [label="x"];
s0 -> s2  [label="z"];
s0 -> s3  [label="y"];
s1 -> s4  [label="y"];
s1 -> s5  [label="x"];
s1 -> s6  [label="z"];
s2 -> s1  [label="y"];
s2 -> s5  [label="z"];
s2 -> s6  [label="x"];
s3 -> s7  [label="x"];
s3 -> s8  [label="y"];
s3 -> s8  [label="z"];
s4 -> s1  [label="z"];
s4 -> s7  [label="y"];
s4 -> s7  [label="x"];
s5 -> s6  [label="y"];
s5 -> s7  [label="x"];
s5 -> s3  [label="z"];
s6 -> s8  [label="y"];
s6 -> s1  [label="z"];
s6 -> s7  [label="x"];
s7 -> s6  [label="z"];
s7 -> s5  [label="x"];
s7 -> s2  [label="y"];
s8 -> s7  [label="y"];
s8 -> s4  [label="z"];
s8 -> s8  [label="x"];
__start0 [label="", shape=none];
__start0 -> s0  [label=""];
}
