digraph "benchmarks-true-state-lstar-3seeds/n_states=3-n_outputs=2-glitch_percent=0.0/46210a44910ea0ef5b836e767c195390/rpniGroundTruth" {
s0 [label="s0|a", shape=record, style=rounded];
s1 [label="s1|b", shape=record, style=rounded];
s2 [label="s2|b", shape=record, style=rounded];
s0 -> s1  [label="z"];
s0 -> s1  [label="x"];
s0 -> s2  [label="y"];
s1 -> s0  [label="z"];
s1 -> s0  [label="x"];
s1 -> s0  [label="y"];
s2 -> s1  [label="y"];
s2 -> s0  [label="z"];
s2 -> s2  [label="x"];
__start0 [label="", shape=none];
__start0 -> s0  [label=""];
}
