digraph "benchmarks-true-state-lstar-rc10seeds/n_states=6-n_outputs=6-glitch_percent=0.0/372aa35b2b44ad4d5b0277b03a3624ff/pmsatLearned_NOP-N6" {
0 [label="0|c", shape=record, style=rounded];
1 [label="1|c", shape=record, style=rounded];
2 [label="2|c", shape=record, style=rounded];
3 [label="3|d", shape=record, style=rounded];
4 [label="4|d", shape=record, style=rounded];
5 [label="5|a", shape=record, style=rounded];
0 -> 2  [label="x"];
0 -> 5  [label="y"];
0 -> 1  [label="z"];
1 -> 3  [label="z"];
1 -> 4  [label="y"];
1 -> 0  [label="x"];
2 -> 5  [label="x"];
2 -> 1  [label="y"];
2 -> 4  [label="z"];
3 -> 2  [label="x"];
3 -> 2  [label="y"];
3 -> 1  [label="z"];
4 -> 3  [label="x"];
4 -> 1  [label="y"];
4 -> 3  [label="z"];
5 -> 3  [label="x"];
5 -> 2  [label="y"];
5 -> 4  [label="z"];
__start0 [label="", shape=none];
__start0 -> 1  [label=""];
}
