digraph "benchmarks-true-state-lstar-3seeds/n_states=8-n_outputs=7-glitch_percent=0.02/7ca633b0835e68c53b223e0c4d4396e3/pmsatLearned-N8-STOC" {
0 [label="0|a", shape=record, style=rounded];
1 [label="1|b", shape=record, style=rounded];
2 [label="2|d", shape=record, style=rounded];
3 [label="3|e", shape=record, style=rounded];
4 [label="4|f", shape=record, style=rounded];
5 [label="5|g", shape=record, style=rounded];
6 [label="6|a", shape=record, style=rounded];
7 [label="7|e", shape=record, style=rounded];
0 -> 4  [label="z (19)"];
0 -> 6  [label="y (31)"];
0 -> 5  [label="x (54)"];
0 -> 3  [label="!y [1]"];
1 -> 2  [label="x (7)"];
1 -> 1  [label="y (7)"];
1 -> 7  [label="z (7)"];
2 -> 2  [label="x (8)"];
2 -> 1  [label="y (8)"];
2 -> 4  [label="z (8)"];
3 -> 4  [label="x (5)"];
3 -> 4  [label="z (7)"];
3 -> 2  [label="y (5)"];
4 -> 6  [label="x (7)"];
4 -> 3  [label="y (9)"];
4 -> 5  [label="z (9)"];
5 -> 2  [label="x (19)"];
5 -> 7  [label="y (18)"];
5 -> 3  [label="z (18)"];
5 -> 4  [label="!x [1]"];
6 -> 1  [label="x (19)"];
6 -> 0  [label="y (7)"];
6 -> 0  [label="z (7)"];
7 -> 5  [label="x (5)"];
7 -> 6  [label="y (6)"];
7 -> 4  [label="z (5)"];
__start0 [label="", shape=none];
__start0 -> 0  [label=""];
}
