digraph "benchmarks-true-state-lstar-3seeds/n_states=11-n_outputs=5-glitch_percent=0.02/b163770ec5187eb18dae55da13b2091f/pmsatLearned-N11" {
0 [label="0|a", shape=record, style=rounded];
1 [label="1|b", shape=record, style=rounded];
2 [label="2|c", shape=record, style=rounded];
3 [label="3|d", shape=record, style=rounded];
4 [label="4|e", shape=record, style=rounded];
5 [label="5|b", shape=record, style=rounded];
6 [label="6|a", shape=record, style=rounded];
7 [label="7|e", shape=record, style=rounded];
8 [label="8|e", shape=record, style=rounded];
9 [label="9|d", shape=record, style=rounded];
10 [label="10|d", shape=record, style=rounded];
0 -> 3  [label="x"];
0 -> 3  [label="y"];
0 -> 7  [label="z"];
1 -> 6  [label="x"];
1 -> 5  [label="y"];
1 -> 7  [label="z"];
2 -> 0  [label="x"];
2 -> 1  [label="y"];
2 -> 10  [label="z"];
3 -> 4  [label="x"];
3 -> 7  [label="y"];
3 -> 10  [label="z"];
4 -> 9  [label="z"];
4 -> 8  [label="y"];
4 -> 2  [label="x"];
5 -> 9  [label="x"];
5 -> 8  [label="y"];
5 -> 5  [label="z"];
6 -> 3  [label="x"];
6 -> 1  [label="y"];
6 -> 5  [label="z"];
7 -> 6  [label="x"];
7 -> 2  [label="y"];
7 -> 2  [label="z"];
8 -> 3  [label="x"];
8 -> 6  [label="y"];
8 -> 7  [label="z"];
9 -> 5  [label="x"];
9 -> 8  [label="y"];
9 -> 8  [label="z"];
10 -> 6  [label="x"];
10 -> 5  [label="y"];
10 -> 2  [label="z"];
__start0 [label="", shape=none];
__start0 -> 4  [label=""];
}
