digraph "benchmarks-true-state-lstar-3seeds/n_states=5-n_outputs=3-glitch_percent=0.1/739028c6876e6486d7a2be0b590d7bde/pmsatLearned-N5-STOC" {
0 [label="0|b", shape=record, style=rounded];
1 [label="1|c", shape=record, style=rounded];
2 [label="2|c", shape=record, style=rounded];
3 [label="3|c", shape=record, style=rounded];
4 [label="4|b", shape=record, style=rounded];
0 -> 1  [label="z (19)"];
0 -> 2  [label="y (17)"];
0 -> 3  [label="x (28)"];
0 -> 0  [label="!x [1]"];
1 -> 0  [label="x (6)"];
1 -> 3  [label="y (6)"];
1 -> 4  [label="z (6)"];
2 -> 2  [label="x (4)"];
2 -> 2  [label="y (6)"];
2 -> 4  [label="z (7)"];
3 -> 4  [label="x (16)"];
3 -> 3  [label="z (7)"];
3 -> 4  [label="y (4)"];
3 -> 1  [label="!x [1]"];
4 -> 2  [label="x (7)"];
4 -> 1  [label="y (8)"];
4 -> 4  [label="z (8)"];
__start0 [label="", shape=none];
__start0 -> 0  [label=""];
}
