digraph "pmsatLearned-N8-STOC" {
0 [label="0|a", shape=record, style=rounded];
1 [label="1|b", shape=record, style=rounded];
2 [label="2|c", shape=record, style=rounded];
3 [label="3|e", shape=record, style=rounded];
4 [label="4|a", shape=record, style=rounded];
5 [label="5|c", shape=record, style=rounded];
6 [label="6|e", shape=record, style=rounded];
7 [label="7|c", shape=record, style=rounded];
0 -> 1  [label="z (158)"];
0 -> 5  [label="y (160)"];
0 -> 7  [label="x (180)"];
0 -> 6  [label="!x [2]"];
0 -> 1  [label="!x [1]"];
0 -> 5  [label="!z [1]"];
1 -> 1  [label="x (65)"];
1 -> 2  [label="y (71)"];
1 -> 2  [label="z (67)"];
1 -> 5  [label="!y [1]"];
2 -> 3  [label="x (90)"];
2 -> 5  [label="y (121)"];
2 -> 3  [label="z (92)"];
2 -> 0  [label="!x [3]"];
2 -> 7  [label="!z [1]"];
3 -> 0  [label="x (75)"];
3 -> 6  [label="y (71)"];
3 -> 6  [label="z (65)"];
3 -> 1  [label="!z [2]"];
3 -> 0  [label="!y [1]"];
4 -> 5  [label="x (23)"];
4 -> 2  [label="y (19)"];
4 -> 3  [label="z (14)"];
5 -> 6  [label="x (132)"];
5 -> 6  [label="y (118)"];
5 -> 5  [label="z (113)"];
6 -> 2  [label="x (139)"];
6 -> 0  [label="y (180)"];
6 -> 6  [label="z (148)"];
6 -> 5  [label="!y [2]"];
7 -> 4  [label="x (63)"];
7 -> 2  [label="y (51)"];
7 -> 3  [label="z (49)"];
7 -> 5  [label="!x [1]"];
7 -> 0  [label="!x [1] t1"];
__start0 [label="", shape=none];
__start0 -> 0  [label=""];
}
