digraph "benchmarks-true-state-lstar-3seeds/n_states=13-n_outputs=9-glitch_percent=0.01/655935421e290f311d0ae0f3392cd910/rpniGroundTruth" {
s0 [label="s0|d", shape=record, style=rounded];
s1 [label="s1|e", shape=record, style=rounded];
s2 [label="s2|i", shape=record, style=rounded];
s3 [label="s3|h", shape=record, style=rounded];
s4 [label="s4|f", shape=record, style=rounded];
s5 [label="s5|c", shape=record, style=rounded];
s6 [label="s6|i", shape=record, style=rounded];
s7 [label="s7|f", shape=record, style=rounded];
s8 [label="s8|c", shape=record, style=rounded];
s9 [label="s9|h", shape=record, style=rounded];
s10 [label="s10|a", shape=record, style=rounded];
s11 [label="s11|h", shape=record, style=rounded];
s12 [label="s12|a", shape=record, style=rounded];
s0 -> s1  [label="x"];
s0 -> s2  [label="z"];
s0 -> s3  [label="y"];
s1 -> s4  [label="z"];
s1 -> s5  [label="y"];
s1 -> s6  [label="x"];
s2 -> s7  [label="y"];
s2 -> s8  [label="z"];
s2 -> s9  [label="x"];
s3 -> s10  [label="z"];
s3 -> s11  [label="y"];
s3 -> s12  [label="x"];
s4 -> s0  [label="y"];
s4 -> s11  [label="x"];
s4 -> s4  [label="z"];
s5 -> s12  [label="y"];
s5 -> s7  [label="z"];
s5 -> s4  [label="x"];
s6 -> s1  [label="y"];
s6 -> s7  [label="z"];
s6 -> s12  [label="x"];
s7 -> s6  [label="x"];
s7 -> s1  [label="y"];
s7 -> s0  [label="z"];
s8 -> s10  [label="z"];
s8 -> s7  [label="y"];
s8 -> s10  [label="x"];
s9 -> s1  [label="z"];
s9 -> s7  [label="y"];
s9 -> s9  [label="x"];
s10 -> s11  [label="y"];
s10 -> s10  [label="z"];
s10 -> s11  [label="x"];
s11 -> s1  [label="x"];
s11 -> s7  [label="y"];
s11 -> s12  [label="z"];
s12 -> s2  [label="x"];
s12 -> s3  [label="z"];
s12 -> s6  [label="y"];
__start0 [label="", shape=none];
__start0 -> s0  [label=""];
}
