digraph "pmsatLearned-N8-STOC" {
0 [label="0|a", shape=record, style=rounded];
1 [label="1|b", shape=record, style=rounded];
2 [label="2|c", shape=record, style=rounded];
3 [label="3|e", shape=record, style=rounded];
4 [label="4|c", shape=record, style=rounded];
5 [label="5|a", shape=record, style=rounded];
6 [label="6|e", shape=record, style=rounded];
7 [label="7|a", shape=record, style=rounded];
0 -> 4  [label="z (129)"];
0 -> 2  [label="y (158)"];
0 -> 6  [label="x (169)"];
0 -> 4  [label="!y [1]"];
0 -> 1  [label="!z [1]"];
0 -> 4  [label="!x [1]"];
1 -> 5  [label="x (141)"];
1 -> 7  [label="y (139)"];
1 -> 7  [label="z (156)"];
1 -> 1  [label="!x [1]"];
1 -> 4  [label="!x [2]"];
1 -> 5  [label="!z [1]"];
1 -> 6  [label="!y [1]"];
2 -> 7  [label="x (55)"];
2 -> 1  [label="y (48)"];
2 -> 4  [label="z (48)"];
3 -> 6  [label="x (54)"];
3 -> 1  [label="y (56)"];
3 -> 5  [label="z (57)"];
3 -> 5  [label="!y [1]"];
3 -> 3  [label="!x [1]"];
4 -> 4  [label="x (329)"];
4 -> 7  [label="y (345)"];
4 -> 4  [label="z (369)"];
5 -> 1  [label="x (169)"];
5 -> 6  [label="y (171)"];
5 -> 5  [label="z (166)"];
5 -> 7  [label="!y [1]"];
5 -> 3  [label="!y [2]"];
5 -> 7  [label="!z [1]"];
5 -> 1  [label="!z [1] t1"];
6 -> 3  [label="x (182)"];
6 -> 5  [label="y (209)"];
6 -> 1  [label="z (213)"];
6 -> 5  [label="!z [1]"];
6 -> 0  [label="!z [1] t1"];
6 -> 6  [label="!y [1]"];
6 -> 6  [label="!x [1]"];
7 -> 4  [label="x (297)"];
7 -> 7  [label="y (289)"];
7 -> 6  [label="z (288)"];
7 -> 4  [label="!z [1]"];
7 -> 2  [label="!z [1] t1"];
7 -> 0  [label="!y [1]"];
7 -> 1  [label="!x [1]"];
__start0 [label="", shape=none];
__start0 -> 0  [label=""];
}
