digraph "benchmarks-true-state-lstar-3seeds/n_states=6-n_outputs=4-glitch_percent=0.02/e297711b26ad5da2587c678be57d9676/alergiaLearned" {
q0 [label="a"];
q1 [label="d"];
q2 [label="c"];
q3 [label="c"];
q4 [label="a"];
q0 -> q1  [label="z:0.9473684210526315"];
q0 -> q0  [label="z:0.05263157894736842"];
q0 -> q2  [label="y:0.9"];
q0 -> q4  [label="y:0.1"];
q0 -> q3  [label="x:0.9761904761904762"];
q0 -> q1  [label="x:0.023809523809523808"];
q1 -> q2  [label="x:1.0"];
q1 -> q1  [label="y:1.0"];
q1 -> q2  [label="z:1.0"];
q2 -> q2  [label="x:0.7272727272727273"];
q2 -> q0  [label="x:0.2727272727272727"];
q2 -> q2  [label="y:0.8181818181818182"];
q2 -> q0  [label="y:0.18181818181818182"];
q2 -> q2  [label="z:0.75"];
q2 -> q0  [label="z:0.25"];
q3 -> q4  [label="x:1.0"];
q3 -> q0  [label="z:1.0"];
q3 -> q4  [label="y:1.0"];
q4 -> q4  [label="y:1.0"];
q4 -> q1  [label="x:0.5"];
q4 -> q2  [label="x:0.5"];
q4 -> q0  [label="z:0.5454545454545454"];
q4 -> q2  [label="z:0.45454545454545453"];
__start0 [label="", shape=none];
__start0 -> q0  [label=""];
}
