digraph "benchmarks-true-state-lstar-3seeds/n_states=7-n_outputs=7-glitch_percent=0.01/a67370bc3c79cf25a939590a4da86b40/pmsatLearned-N7" {
0 [label="0|b", shape=record, style=rounded];
1 [label="1|e", shape=record, style=rounded];
2 [label="2|g", shape=record, style=rounded];
3 [label="3|b", shape=record, style=rounded];
4 [label="4|e", shape=record, style=rounded];
5 [label="5|g", shape=record, style=rounded];
6 [label="6|b", shape=record, style=rounded];
0 -> 3  [label="z"];
0 -> 5  [label="y"];
0 -> 1  [label="x"];
1 -> 4  [label="x"];
1 -> 6  [label="y"];
1 -> 2  [label="z"];
2 -> 1  [label="x"];
2 -> 0  [label="y"];
2 -> 4  [label="z"];
3 -> 4  [label="x"];
3 -> 1  [label="y"];
3 -> 4  [label="z"];
4 -> 6  [label="x"];
4 -> 0  [label="y"];
4 -> 5  [label="z"];
5 -> 3  [label="x"];
5 -> 6  [label="y"];
5 -> 1  [label="z"];
6 -> 0  [label="x"];
6 -> 0  [label="y"];
6 -> 3  [label="z"];
__start0 [label="", shape=none];
__start0 -> 0  [label=""];
}
