digraph "benchmarks-true-state-lstar-3seeds/n_states=2-n_outputs=2-glitch_percent=0.02/e89ee0c12d48ccd4d4f90c2acf072fe9/pmsatLearned-N2-STOC" {
0 [label="0|a", shape=record, style=rounded];
1 [label="1|b", shape=record, style=rounded];
0 -> 0  [label="x (10)"];
0 -> 0  [label="y (10)"];
0 -> 0  [label="z (9)"];
1 -> 0  [label="z (5)"];
1 -> 0  [label="y (5)"];
1 -> 0  [label="x (17)"];
__start0 [label="", shape=none];
__start0 -> 1  [label=""];
}
