digraph "benchmarks-true-state-lstar-3seeds/n_states=17-n_outputs=4-glitch_percent=0.05/50ab13726d76a3d749d4bcf121614f86/alergiaLearned" {
q0 [label="c"];
q1 [label="b"];
q2 [label="d"];
q3 [label="d"];
q4 [label="b"];
q5 [label="a"];
q6 [label="b"];
q7 [label="b"];
q8 [label="b"];
q9 [label="c"];
q10 [label="a"];
q11 [label="b"];
q0 -> q1  [label="z:1.0"];
q0 -> q2  [label="x:0.014598540145985401"];
q0 -> q4  [label="x:0.948905109489051"];
q0 -> q5  [label="x:0.0364963503649635"];
q0 -> q3  [label="y:0.9428571428571428"];
q0 -> q5  [label="y:0.014285714285714285"];
q0 -> q1  [label="y:0.04285714285714286"];
q1 -> q5  [label="y:0.625"];
q1 -> q2  [label="y:0.15625"];
q1 -> q0  [label="y:0.0625"];
q1 -> q1  [label="y:0.15625"];
q1 -> q6  [label="z:0.9142857142857143"];
q1 -> q5  [label="z:0.08571428571428572"];
q1 -> q2  [label="x:0.5531914893617021"];
q1 -> q5  [label="x:0.1702127659574468"];
q1 -> q4  [label="x:0.10638297872340426"];
q1 -> q0  [label="x:0.1702127659574468"];
q2 -> q4  [label="y:0.4"];
q2 -> q0  [label="y:0.25"];
q2 -> q2  [label="y:0.35"];
q2 -> q5  [label="x:0.3333333333333333"];
q2 -> q1  [label="x:0.45454545454545453"];
q2 -> q2  [label="x:0.21212121212121213"];
q2 -> q4  [label="z:0.6111111111111112"];
q2 -> q2  [label="z:0.3888888888888889"];
q3 -> q7  [label="x:1.0"];
q3 -> q2  [label="y:0.9545454545454546"];
q3 -> q4  [label="y:0.045454545454545456"];
q3 -> q7  [label="z:0.95"];
q3 -> q2  [label="z:0.05"];
q4 -> q8  [label="y:1.0"];
q4 -> q8  [label="z:1.0"];
q4 -> q5  [label="x:0.9866666666666667"];
q4 -> q2  [label="x:0.013333333333333334"];
q4 -> q4  [label="x:0.0"];
q5 -> q9  [label="x:0.6046511627906976"];
q5 -> q5  [label="x:0.37209302325581395"];
q5 -> q11  [label="x:0.023255813953488372"];
q5 -> q1  [label="z:1.0"];
q5 -> q5  [label="y:0.7241379310344828"];
q5 -> q2  [label="y:0.27586206896551724"];
q5 -> q1  [label="y:0.0"];
q6 -> q10  [label="x:1.0"];
q6 -> q1  [label="y:1.0"];
q6 -> q1  [label="z:1.0"];
q7 -> q2  [label="z:0.45454545454545453"];
q7 -> q1  [label="z:0.5454545454545454"];
q7 -> q1  [label="y:1.0"];
q7 -> q1  [label="x:1.0"];
q8 -> q2  [label="x:0.8928571428571429"];
q8 -> q4  [label="x:0.03571428571428571"];
q8 -> q0  [label="x:0.03571428571428571"];
q8 -> q5  [label="x:0.03571428571428571"];
q8 -> q0  [label="y:0.45454545454545453"];
q8 -> q2  [label="y:0.09090909090909091"];
q8 -> q1  [label="y:0.45454545454545453"];
q8 -> q1  [label="z:0.9090909090909091"];
q8 -> q5  [label="z:0.09090909090909091"];
q9 -> q0  [label="y:1.0"];
q9 -> q1  [label="x:0.875"];
q9 -> q5  [label="x:0.125"];
q9 -> q1  [label="z:1.0"];
q10 -> q5  [label="x:1.0"];
q10 -> q1  [label="z:1.0"];
q11 -> q0  [label="x:1.0"];
q11 -> q2  [label="y:1.0"];
__start0 [label="", shape=none];
__start0 -> q0  [label=""];
}
