digraph "benchmarks-true-state-lstar-3seeds/n_states=17-n_outputs=4-glitch_percent=0.05/50ab13726d76a3d749d4bcf121614f86/pmsatLearned-N17" {
0 [label="0|a", shape=record, style=rounded];
1 [label="1|b", shape=record, style=rounded];
2 [label="2|c", shape=record, style=rounded];
3 [label="3|d", shape=record, style=rounded];
4 [label="4|d", shape=record, style=rounded];
5 [label="5|b", shape=record, style=rounded];
6 [label="6|c", shape=record, style=rounded];
7 [label="7|b", shape=record, style=rounded];
8 [label="8|a", shape=record, style=rounded];
9 [label="9|b", shape=record, style=rounded];
10 [label="10|b", shape=record, style=rounded];
11 [label="11|b", shape=record, style=rounded];
12 [label="12|a", shape=record, style=rounded];
13 [label="13|b", shape=record, style=rounded];
14 [label="14|d", shape=record, style=rounded];
15 [label="15|d", shape=record, style=rounded];
16 [label="16|b", shape=record, style=rounded];
0 -> 10  [label="x"];
0 -> 10  [label="y"];
0 -> 11  [label="z"];
1 -> 12  [label="x"];
1 -> 11  [label="y"];
1 -> 10  [label="z"];
2 -> 11  [label="z"];
2 -> 3  [label="y"];
2 -> 16  [label="x"];
3 -> 7  [label="x"];
3 -> 15  [label="y"];
3 -> 9  [label="z"];
4 -> 3  [label="z"];
4 -> 14  [label="y"];
4 -> 10  [label="x"];
5 -> 3  [label="x"];
5 -> 9  [label="y"];
5 -> 10  [label="z"];
6 -> 16  [label="x"];
6 -> 2  [label="y"];
6 -> 9  [label="z"];
7 -> 4  [label="z"];
7 -> 5  [label="y"];
7 -> 13  [label="x"];
8 -> 6  [label="x"];
8 -> 0  [label="y"];
8 -> 10  [label="z"];
9 -> 16  [label="x"];
9 -> 1  [label="y"];
9 -> 1  [label="z"];
10 -> 2  [label="x"];
10 -> 4  [label="y"];
10 -> 12  [label="z"];
11 -> 12  [label="y"];
11 -> 1  [label="z"];
11 -> 14  [label="x"];
12 -> 0  [label="x"];
12 -> 3  [label="y"];
12 -> 11  [label="z"];
13 -> 4  [label="x"];
13 -> 2  [label="y"];
13 -> 1  [label="z"];
14 -> 12  [label="x"];
14 -> 16  [label="y"];
14 -> 16  [label="z"];
15 -> 14  [label="x"];
15 -> 2  [label="y"];
15 -> 9  [label="z"];
16 -> 13  [label="y"];
16 -> 5  [label="z"];
16 -> 8  [label="x"];
__start0 [label="", shape=none];
__start0 -> 2  [label=""];
}
