digraph "benchmarks-true-state-lstar-3seeds/n_states=13-n_outputs=7-glitch_percent=0.05/06a31100695d62d04e65568568d1df88/alergiaLearned" {
q0 [label="a"];
q1 [label="e"];
q2 [label="a"];
q3 [label="d"];
q4 [label="g"];
q5 [label="e"];
q6 [label="b"];
q7 [label="f"];
q0 -> q1  [label="z:0.9814814814814815"];
q0 -> q4  [label="z:0.018518518518518517"];
q0 -> q2  [label="y:0.9444444444444444"];
q0 -> q1  [label="y:0.05555555555555555"];
q0 -> q7  [label="y:0.0"];
q0 -> q3  [label="x:1.0"];
q0 -> q4  [label="x:0.0"];
q1 -> q5  [label="x:0.8888888888888888"];
q1 -> q7  [label="x:0.1111111111111111"];
q1 -> q4  [label="x:0.0"];
q1 -> q1  [label="y:0.6"];
q1 -> q4  [label="y:0.15"];
q1 -> q0  [label="y:0.25"];
q1 -> q6  [label="z:0.6538461538461539"];
q1 -> q3  [label="z:0.23076923076923078"];
q1 -> q1  [label="z:0.11538461538461539"];
q2 -> q4  [label="x:0.9444444444444444"];
q2 -> q6  [label="x:0.05555555555555555"];
q2 -> q7  [label="y:0.9375"];
q2 -> q3  [label="y:0.0625"];
q2 -> q5  [label="z:1.0"];
q3 -> q6  [label="x:1.0"];
q3 -> q5  [label="y:1.0"];
q3 -> q4  [label="z:0.8947368421052632"];
q3 -> q7  [label="z:0.05263157894736842"];
q3 -> q6  [label="z:0.05263157894736842"];
q4 -> q1  [label="x:0.5833333333333334"];
q4 -> q7  [label="x:0.4166666666666667"];
q4 -> q5  [label="y:0.5454545454545454"];
q4 -> q3  [label="y:0.45454545454545453"];
q4 -> q1  [label="z:0.5454545454545454"];
q4 -> q7  [label="z:0.45454545454545453"];
q5 -> q7  [label="x:0.3333333333333333"];
q5 -> q1  [label="x:0.3333333333333333"];
q5 -> q4  [label="x:0.3333333333333333"];
q5 -> q4  [label="y:0.5294117647058824"];
q5 -> q1  [label="y:0.058823529411764705"];
q5 -> q3  [label="y:0.058823529411764705"];
q5 -> q0  [label="y:0.35294117647058826"];
q5 -> q1  [label="z:0.625"];
q5 -> q6  [label="z:0.0625"];
q5 -> q7  [label="z:0.3125"];
q6 -> q6  [label="x:1.0"];
q6 -> q4  [label="y:0.46153846153846156"];
q6 -> q1  [label="y:0.5384615384615384"];
q6 -> q3  [label="z:0.46153846153846156"];
q6 -> q7  [label="z:0.5384615384615384"];
q7 -> q6  [label="x:1.0"];
q7 -> q3  [label="y:1.0"];
q7 -> q6  [label="z:1.0"];
__start0 [label="", shape=none];
__start0 -> q0  [label=""];
}
