digraph "benchmarks-true-state-lstar-3seeds/n_states=8-n_outputs=6-glitch_percent=0.02/a565369d34fce5580e44c9efef595b2a/pmsatLearned-N8-STOC" {
0 [label="0|b", shape=record, style=rounded];
1 [label="1|c", shape=record, style=rounded];
2 [label="2|d", shape=record, style=rounded];
3 [label="3|f", shape=record, style=rounded];
4 [label="4|f", shape=record, style=rounded];
5 [label="5|c", shape=record, style=rounded];
6 [label="6|c", shape=record, style=rounded];
7 [label="7|d", shape=record, style=rounded];
0 -> 3  [label="x (6)"];
0 -> 3  [label="y (6)"];
0 -> 4  [label="z (6)"];
1 -> 3  [label="x (5)"];
1 -> 7  [label="y (5)"];
1 -> 2  [label="z (5)"];
2 -> 0  [label="z (18)"];
2 -> 7  [label="y (30)"];
2 -> 6  [label="x (54)"];
3 -> 4  [label="x (11)"];
3 -> 3  [label="y (11)"];
3 -> 0  [label="z (8)"];
4 -> 4  [label="x (7)"];
4 -> 6  [label="y (7)"];
4 -> 3  [label="z (8)"];
5 -> 7  [label="x (5)"];
5 -> 6  [label="y (4)"];
5 -> 6  [label="z (6)"];
6 -> 4  [label="x (21)"];
6 -> 5  [label="y (21)"];
6 -> 1  [label="z (20)"];
7 -> 3  [label="x (17)"];
7 -> 3  [label="y (7)"];
7 -> 6  [label="z (7)"];
7 -> 0  [label="!z [2]"];
__start0 [label="", shape=none];
__start0 -> 2  [label=""];
}
