digraph "benchmarks-true-state-lstar-songp/n_states=8-n_outputs=3-glitch_percent=0.05-pmstrat='rc2'/25d3b9c1c5b77ba05479fc665d5a4739/pmsatLearned-N8" {
0 [label="0|a", shape=record, style=rounded];
1 [label="1|b", shape=record, style=rounded];
2 [label="2|c", shape=record, style=rounded];
3 [label="3|b", shape=record, style=rounded];
4 [label="4|c", shape=record, style=rounded];
5 [label="5|a", shape=record, style=rounded];
6 [label="6|c", shape=record, style=rounded];
7 [label="7|b", shape=record, style=rounded];
0 -> 7  [label="z"];
0 -> 1  [label="y"];
0 -> 4  [label="x"];
1 -> 5  [label="x"];
1 -> 7  [label="y"];
1 -> 2  [label="z"];
2 -> 2  [label="z"];
2 -> 1  [label="x"];
2 -> 1  [label="y"];
3 -> 6  [label="x"];
3 -> 1  [label="y"];
3 -> 6  [label="z"];
4 -> 3  [label="y"];
4 -> 6  [label="z"];
4 -> 2  [label="x"];
5 -> 3  [label="x"];
5 -> 6  [label="y"];
5 -> 2  [label="z"];
6 -> 4  [label="x"];
6 -> 4  [label="y"];
6 -> 2  [label="z"];
7 -> 2  [label="x"];
7 -> 6  [label="y"];
7 -> 0  [label="z"];
__start0 [label="", shape=none];
__start0 -> 0  [label=""];
}
