digraph "benchmarks-true-state-lstar-rc10seeds/n_states=5-n_outputs=4-glitch_percent=0.02/4cdecc752b18c23ab3461ba307f061c2/pmsatLearned_NOP-N5-STOC" {
0 [label="0|d", shape=record, style=rounded];
1 [label="1|c", shape=record, style=rounded];
2 [label="2|c", shape=record, style=rounded];
3 [label="3|a", shape=record, style=rounded];
4 [label="4|d", shape=record, style=rounded];
0 -> 2  [label="x (6)"];
0 -> 1  [label="y (5)"];
0 -> 1  [label="z (7)"];
1 -> 2  [label="z (20)"];
1 -> 0  [label="y (20)"];
1 -> 3  [label="x (33)"];
2 -> 4  [label="x (8)"];
2 -> 2  [label="y (8)"];
2 -> 2  [label="z (8)"];
3 -> 4  [label="x (19)"];
3 -> 3  [label="y (6)"];
3 -> 0  [label="z (7)"];
4 -> 1  [label="x (6)"];
4 -> 3  [label="y (6)"];
4 -> 1  [label="z (6)"];
__start0 [label="", shape=none];
__start0 -> 1  [label=""];
}
