digraph "pmsatLearned-rc2-N8-RN2-STOC" {
0 [label="0|offline", shape=record, style=rounded];
1 [label="1|online", shape=record, style=rounded];
2 [label="2|offline", shape=record, style=rounded];
3 [label="3|online", shape=record, style=rounded];
4 [label="4|offline", shape=record, style=rounded];
5 [label="5|offline", shape=record, style=rounded];
6 [label="6|online", shape=record, style=rounded];
7 [label="7|online", shape=record, style=rounded];
0 -> 0  [color=red, label="disconnect [1]"];
0 -> 3  [label="connect (2)"];
0 -> 5  [label="disconnect (1)"];
3 -> 7  [label="connect (1)"];
5 -> 5  [label="connect (1)"];
7 -> 4  [label="disconnect (1)"];
__start0 [label="", shape=none];
__start0 -> 0  [label=""];
}
