digraph "benchmarks-true-state-lstar-3seeds/n_states=17-n_outputs=4-glitch_percent=0.01/33424a2ce177c139f2793e7c6212bf5e/pmsatLearned-N17-STOC" {
0 [label="0|a", shape=record, style=rounded];
1 [label="1|b", shape=record, style=rounded];
2 [label="2|c", shape=record, style=rounded];
3 [label="3|d", shape=record, style=rounded];
4 [label="4|a", shape=record, style=rounded];
5 [label="5|b", shape=record, style=rounded];
6 [label="6|c", shape=record, style=rounded];
7 [label="7|c", shape=record, style=rounded];
8 [label="8|c", shape=record, style=rounded];
9 [label="9|c", shape=record, style=rounded];
10 [label="10|c", shape=record, style=rounded];
11 [label="11|d", shape=record, style=rounded];
12 [label="12|c", shape=record, style=rounded];
13 [label="13|b", shape=record, style=rounded];
14 [label="14|b", shape=record, style=rounded];
15 [label="15|a", shape=record, style=rounded];
16 [label="16|b", shape=record, style=rounded];
0 -> 4  [label="x (9)"];
0 -> 6  [label="y (7)"];
0 -> 14  [label="z (7)"];
1 -> 7  [label="x (11)"];
1 -> 5  [label="y (6)"];
1 -> 11  [label="z (6)"];
2 -> 3  [label="x (9)"];
2 -> 9  [label="y (6)"];
2 -> 3  [label="z (6)"];
3 -> 8  [label="z (68)"];
3 -> 16  [label="y (67)"];
3 -> 5  [label="x (133)"];
3 -> 10  [label="!y [1]"];
3 -> 15  [label="!x [2]"];
3 -> 14  [label="!z [1]"];
4 -> 14  [label="x (23)"];
4 -> 15  [label="y (8)"];
4 -> 8  [label="z (8)"];
5 -> 15  [label="x (82)"];
5 -> 10  [label="y (39)"];
5 -> 0  [label="z (25)"];
5 -> 6  [label="!x [1]"];
6 -> 13  [label="x (13)"];
6 -> 12  [label="z (8)"];
6 -> 0  [label="y (6)"];
7 -> 10  [label="x (13)"];
7 -> 16  [label="y (7)"];
7 -> 8  [label="z (7)"];
8 -> 13  [label="x (26)"];
8 -> 6  [label="y (22)"];
8 -> 14  [label="z (23)"];
8 -> 4  [label="!y [1]"];
9 -> 5  [label="x (16)"];
9 -> 16  [label="y (8)"];
9 -> 10  [label="z (8)"];
10 -> 4  [label="x (32)"];
10 -> 10  [label="y (10)"];
10 -> 5  [label="z (9)"];
11 -> 4  [label="x (15)"];
11 -> 5  [label="y (10)"];
11 -> 10  [label="z (10)"];
12 -> 6  [label="x (13)"];
12 -> 11  [label="y (7)"];
12 -> 14  [label="z (8)"];
13 -> 13  [label="x (23)"];
13 -> 11  [label="y (9)"];
13 -> 16  [label="z (8)"];
14 -> 9  [label="x (17)"];
14 -> 13  [label="y (9)"];
14 -> 11  [label="z (9)"];
15 -> 2  [label="x (28)"];
15 -> 7  [label="y (21)"];
15 -> 1  [label="z (26)"];
15 -> 12  [label="!x [1]"];
16 -> 12  [label="x (28)"];
16 -> 11  [label="y (23)"];
16 -> 9  [label="z (24)"];
__start0 [label="", shape=none];
__start0 -> 3  [label=""];
}
