digraph "benchmarks-true-state-lstar-rc10seeds/n_states=5-n_outputs=4-glitch_percent=0.02/77dff557b9fab05305bfbaaa9cb53351/pmsatLearned_NOP-N5-STOC" {
0 [label="0|d", shape=record, style=rounded];
1 [label="1|c", shape=record, style=rounded];
2 [label="2|d", shape=record, style=rounded];
3 [label="3|a", shape=record, style=rounded];
4 [label="4|c", shape=record, style=rounded];
0 -> 1  [label="x (7)"];
0 -> 0  [label="y (7)"];
0 -> 2  [label="z (6)"];
0 -> 4  [label="!z [1]"];
1 -> 0  [label="z (22)"];
1 -> 4  [label="y (22)"];
1 -> 2  [label="x (33)"];
1 -> 4  [label="!z [1]"];
2 -> 3  [label="x (19)"];
2 -> 4  [label="y (6)"];
2 -> 1  [label="z (5)"];
3 -> 4  [label="x (5)"];
3 -> 1  [label="y (5)"];
3 -> 0  [label="z (5)"];
4 -> 2  [label="x (6)"];
4 -> 1  [label="y (8)"];
4 -> 1  [label="z (7)"];
__start0 [label="", shape=none];
__start0 -> 1  [label=""];
}
