digraph "benchmarks-true-state-lstar-3seeds/n_states=12-n_outputs=6-glitch_percent=0.0/29d54253a292f2d00800750ea8e7b3cf/alergiaLearned" {
q0 [label="a"];
q1 [label="b"];
q2 [label="e"];
q3 [label="d"];
q4 [label="e"];
q5 [label="b"];
q6 [label="f"];
q7 [label="a"];
q0 -> q1  [label="z:0.9545454545454546"];
q0 -> q2  [label="z:0.045454545454545456"];
q0 -> q2  [label="y:1.0"];
q0 -> q3  [label="x:0.9464285714285714"];
q0 -> q0  [label="x:0.05357142857142857"];
q1 -> q4  [label="x:0.8571428571428571"];
q1 -> q3  [label="x:0.14285714285714285"];
q1 -> q5  [label="y:0.8571428571428571"];
q1 -> q2  [label="y:0.14285714285714285"];
q1 -> q6  [label="z:0.6666666666666666"];
q1 -> q1  [label="z:0.3333333333333333"];
q2 -> q6  [label="x:0.8181818181818182"];
q2 -> q3  [label="x:0.09090909090909091"];
q2 -> q0  [label="x:0.09090909090909091"];
q2 -> q4  [label="y:0.9545454545454546"];
q2 -> q6  [label="y:0.045454545454545456"];
q2 -> q4  [label="z:0.8636363636363636"];
q2 -> q0  [label="z:0.13636363636363635"];
q3 -> q7  [label="x:1.0"];
q3 -> q7  [label="y:1.0"];
q3 -> q4  [label="z:1.0"];
q4 -> q0  [label="x:0.25"];
q4 -> q3  [label="x:0.5"];
q4 -> q1  [label="x:0.25"];
q4 -> q2  [label="y:0.5"];
q4 -> q6  [label="y:0.25"];
q4 -> q1  [label="y:0.25"];
q4 -> q0  [label="z:0.5"];
q4 -> q2  [label="z:0.5"];
q5 -> q3  [label="x:1.0"];
q5 -> q2  [label="y:1.0"];
q5 -> q1  [label="z:1.0"];
q6 -> q0  [label="x:1.0"];
q6 -> q1  [label="y:1.0"];
q6 -> q2  [label="z:1.0"];
q7 -> q0  [label="x:1.0"];
q7 -> q2  [label="y:1.0"];
q7 -> q1  [label="z:0.5"];
q7 -> q2  [label="z:0.5"];
__start0 [label="", shape=none];
__start0 -> q0  [label=""];
}
