digraph "benchmarks-true-state-lstar-3seeds/n_states=12-n_outputs=7-glitch_percent=0.01/b33ed1674f420ae6f13be935797ab3f8/pmsatLearned-N12-STOC" {
0 [label="0|b", shape=record, style=rounded];
1 [label="1|c", shape=record, style=rounded];
2 [label="2|e", shape=record, style=rounded];
3 [label="3|f", shape=record, style=rounded];
4 [label="4|g", shape=record, style=rounded];
5 [label="5|f", shape=record, style=rounded];
6 [label="6|e", shape=record, style=rounded];
7 [label="7|b", shape=record, style=rounded];
8 [label="8|e", shape=record, style=rounded];
9 [label="9|e", shape=record, style=rounded];
10 [label="10|g", shape=record, style=rounded];
11 [label="11|c", shape=record, style=rounded];
0 -> 2  [label="x (5)"];
0 -> 0  [label="y (6)"];
0 -> 3  [label="z (6)"];
0 -> 2  [label="!y [1]"];
1 -> 3  [label="x (8)"];
1 -> 3  [label="y (8)"];
1 -> 5  [label="z (8)"];
2 -> 3  [label="z (43)"];
2 -> 6  [label="y (55)"];
2 -> 10  [label="x (56)"];
2 -> 1  [label="!x [1]"];
3 -> 1  [label="x (20)"];
3 -> 0  [label="y (21)"];
3 -> 6  [label="z (8)"];
4 -> 5  [label="x (7)"];
4 -> 7  [label="y (7)"];
4 -> 7  [label="z (7)"];
5 -> 8  [label="x (7)"];
5 -> 1  [label="y (7)"];
5 -> 6  [label="z (7)"];
6 -> 8  [label="x (19)"];
6 -> 11  [label="y (19)"];
6 -> 5  [label="z (19)"];
7 -> 2  [label="x (8)"];
7 -> 1  [label="y (8)"];
7 -> 11  [label="z (8)"];
8 -> 2  [label="x (7)"];
8 -> 4  [label="y (7)"];
8 -> 9  [label="z (6)"];
9 -> 1  [label="x (6)"];
9 -> 7  [label="y (6)"];
9 -> 10  [label="z (6)"];
10 -> 7  [label="x (18)"];
10 -> 9  [label="y (18)"];
10 -> 4  [label="z (18)"];
11 -> 3  [label="x (5)"];
11 -> 8  [label="y (6)"];
11 -> 4  [label="z (6)"];
11 -> 2  [label="!z [1]"];
__start0 [label="", shape=none];
__start0 -> 2  [label=""];
}
