digraph "benchmarks-true-state-lstar-3seeds/n_states=16-n_outputs=9-glitch_percent=0.05/99c5ea4002514e02ce1d11205c8cde4b/pmsatLearned-N16" {
0 [label="0|a", shape=record, style=rounded];
1 [label="1|b", shape=record, style=rounded];
2 [label="2|c", shape=record, style=rounded];
3 [label="3|d", shape=record, style=rounded];
4 [label="4|e", shape=record, style=rounded];
5 [label="5|g", shape=record, style=rounded];
6 [label="6|i", shape=record, style=rounded];
7 [label="7|d", shape=record, style=rounded];
8 [label="8|b", shape=record, style=rounded];
9 [label="9|i", shape=record, style=rounded];
10 [label="10|a", shape=record, style=rounded];
11 [label="11|c", shape=record, style=rounded];
12 [label="12|g", shape=record, style=rounded];
13 [label="13|b", shape=record, style=rounded];
14 [label="14|i", shape=record, style=rounded];
15 [label="15|e", shape=record, style=rounded];
0 -> 7  [label="x"];
0 -> 14  [label="y"];
0 -> 2  [label="z"];
1 -> 15  [label="x"];
1 -> 6  [label="y"];
1 -> 2  [label="z"];
2 -> 2  [label="x"];
2 -> 10  [label="y"];
2 -> 4  [label="z"];
3 -> 7  [label="x"];
3 -> 9  [label="y"];
3 -> 0  [label="z"];
4 -> 15  [label="y"];
4 -> 1  [label="z"];
4 -> 12  [label="x"];
5 -> 4  [label="z"];
5 -> 0  [label="y"];
5 -> 13  [label="x"];
6 -> 5  [label="y"];
6 -> 4  [label="z"];
6 -> 12  [label="x"];
7 -> 13  [label="x"];
7 -> 1  [label="y"];
7 -> 15  [label="z"];
8 -> 0  [label="x"];
8 -> 9  [label="y"];
8 -> 10  [label="z"];
9 -> 4  [label="x"];
9 -> 15  [label="y"];
9 -> 6  [label="z"];
10 -> 10  [label="x"];
10 -> 8  [label="y"];
10 -> 1  [label="z"];
11 -> 9  [label="x"];
11 -> 8  [label="y"];
11 -> 6  [label="z"];
12 -> 9  [label="x"];
12 -> 9  [label="y"];
12 -> 11  [label="z"];
13 -> 11  [label="x"];
13 -> 10  [label="y"];
13 -> 3  [label="z"];
14 -> 15  [label="x"];
14 -> 3  [label="y"];
14 -> 3  [label="z"];
15 -> 9  [label="x"];
15 -> 8  [label="y"];
15 -> 0  [label="z"];
__start0 [label="", shape=none];
__start0 -> 5  [label=""];
}
