digraph "benchmarks-true-state-lstar-3seeds/n_states=7-n_outputs=7-glitch_percent=0.02/24c60774d97ef5a4f37bcda2f367494c/pmsatLearned-N7" {
0 [label="0|a", shape=record, style=rounded];
1 [label="1|c", shape=record, style=rounded];
2 [label="2|d", shape=record, style=rounded];
3 [label="3|e", shape=record, style=rounded];
4 [label="4|e", shape=record, style=rounded];
5 [label="5|d", shape=record, style=rounded];
6 [label="6|c", shape=record, style=rounded];
0 -> 1  [label="x"];
0 -> 5  [label="z"];
0 -> 6  [label="y"];
1 -> 3  [label="z"];
1 -> 6  [label="y"];
1 -> 4  [label="x"];
2 -> 2  [label="x"];
2 -> 4  [label="y"];
2 -> 0  [label="z"];
3 -> 1  [label="x"];
3 -> 5  [label="y"];
3 -> 6  [label="z"];
4 -> 5  [label="x"];
4 -> 0  [label="y"];
4 -> 2  [label="z"];
5 -> 4  [label="x"];
5 -> 3  [label="y"];
5 -> 2  [label="z"];
6 -> 3  [label="x"];
6 -> 1  [label="y"];
6 -> 1  [label="z"];
__start0 [label="", shape=none];
__start0 -> 1  [label=""];
}
