digraph "benchmarks-true-state-lstar-3seeds/n_states=17-n_outputs=3-glitch_percent=0.05/eaafad18f242add98a338275f4208956/pmsatLearned-N17" {
0 [label="0|a", shape=record, style=rounded];
1 [label="1|b", shape=record, style=rounded];
2 [label="2|c", shape=record, style=rounded];
3 [label="3|b", shape=record, style=rounded];
4 [label="4|a", shape=record, style=rounded];
5 [label="5|c", shape=record, style=rounded];
6 [label="6|c", shape=record, style=rounded];
7 [label="7|c", shape=record, style=rounded];
8 [label="8|a", shape=record, style=rounded];
9 [label="9|a", shape=record, style=rounded];
10 [label="10|c", shape=record, style=rounded];
11 [label="11|c", shape=record, style=rounded];
12 [label="12|c", shape=record, style=rounded];
13 [label="13|b", shape=record, style=rounded];
14 [label="14|b", shape=record, style=rounded];
15 [label="15|a", shape=record, style=rounded];
16 [label="16|c", shape=record, style=rounded];
0 -> 8  [label="x"];
0 -> 15  [label="y"];
0 -> 12  [label="z"];
1 -> 12  [label="z"];
1 -> 7  [label="x"];
1 -> 8  [label="y"];
2 -> 3  [label="z"];
2 -> 7  [label="y"];
2 -> 0  [label="x"];
3 -> 9  [label="y"];
3 -> 14  [label="z"];
3 -> 13  [label="x"];
4 -> 0  [label="x"];
4 -> 2  [label="y"];
4 -> 11  [label="z"];
5 -> 3  [label="x"];
5 -> 6  [label="z"];
5 -> 6  [label="y"];
6 -> 0  [label="z"];
6 -> 6  [label="x"];
6 -> 10  [label="y"];
7 -> 6  [label="x"];
7 -> 4  [label="y"];
7 -> 1  [label="z"];
8 -> 5  [label="x"];
8 -> 10  [label="y"];
8 -> 16  [label="z"];
9 -> 0  [label="x"];
9 -> 10  [label="y"];
9 -> 8  [label="z"];
10 -> 7  [label="y"];
10 -> 14  [label="z"];
10 -> 10  [label="x"];
11 -> 6  [label="x"];
11 -> 2  [label="y"];
11 -> 8  [label="z"];
12 -> 11  [label="x"];
12 -> 14  [label="y"];
12 -> 1  [label="z"];
13 -> 5  [label="x"];
13 -> 1  [label="y"];
13 -> 15  [label="z"];
14 -> 6  [label="x"];
14 -> 11  [label="y"];
14 -> 11  [label="z"];
15 -> 11  [label="x"];
15 -> 7  [label="y"];
15 -> 13  [label="z"];
16 -> 3  [label="x"];
16 -> 14  [label="y"];
16 -> 12  [label="z"];
__start0 [label="", shape=none];
__start0 -> 2  [label=""];
}
