digraph "benchmarks-true-state-lstar-3seeds/n_states=15-n_outputs=6-glitch_percent=0.05/686557e40bb3cf91c06bd45f8486ad05/pmsatLearned-N15-STOC" {
0 [label="0|a", shape=record, style=rounded];
1 [label="1|b", shape=record, style=rounded];
2 [label="2|c", shape=record, style=rounded];
3 [label="3|d", shape=record, style=rounded];
4 [label="4|e", shape=record, style=rounded];
5 [label="5|f", shape=record, style=rounded];
6 [label="6|b", shape=record, style=rounded];
7 [label="7|e", shape=record, style=rounded];
8 [label="8|f", shape=record, style=rounded];
9 [label="9|f", shape=record, style=rounded];
10 [label="10|b", shape=record, style=rounded];
11 [label="11|c", shape=record, style=rounded];
12 [label="12|e", shape=record, style=rounded];
13 [label="13|e", shape=record, style=rounded];
14 [label="14|b", shape=record, style=rounded];
0 -> 1  [label="y (8)"];
0 -> 6  [label="z (8)"];
0 -> 4  [label="x (8)"];
1 -> 2  [label="x (7)"];
1 -> 10  [label="y (7)"];
1 -> 7  [label="z (7)"];
2 -> 0  [label="x (5)"];
2 -> 0  [label="y (6)"];
2 -> 5  [label="z (7)"];
2 -> 11  [label="!x [1]"];
3 -> 0  [label="x (8)"];
3 -> 9  [label="y (9)"];
3 -> 3  [label="z (9)"];
4 -> 9  [label="z (52)"];
4 -> 14  [label="y (50)"];
4 -> 6  [label="x (77)"];
4 -> 13  [label="!y [1]"];
4 -> 12  [label="!x [1]"];
4 -> 10  [label="!z [3]"];
4 -> 13  [label="!z [1]"];
5 -> 12  [label="y (6)"];
5 -> 3  [label="z (4)"];
5 -> 10  [label="x (5)"];
6 -> 12  [label="x (37)"];
6 -> 8  [label="y (18)"];
6 -> 0  [label="z (17)"];
6 -> 1  [label="!y [1]"];
6 -> 9  [label="!x [1]"];
7 -> 9  [label="x (8)"];
7 -> 12  [label="z (6)"];
7 -> 0  [label="y (5)"];
8 -> 3  [label="x (6)"];
8 -> 10  [label="y (6)"];
8 -> 10  [label="z (6)"];
9 -> 11  [label="x (18)"];
9 -> 2  [label="y (20)"];
9 -> 3  [label="z (22)"];
9 -> 2  [label="!x [1]"];
10 -> 8  [label="x (9)"];
10 -> 7  [label="y (9)"];
10 -> 9  [label="z (7)"];
11 -> 9  [label="x (5)"];
11 -> 3  [label="y (6)"];
11 -> 4  [label="z (5)"];
12 -> 5  [label="x (18)"];
12 -> 1  [label="y (19)"];
12 -> 4  [label="z (6)"];
13 -> 1  [label="x (4)"];
13 -> 12  [label="y (5)"];
13 -> 11  [label="z (6)"];
14 -> 7  [label="x (16)"];
14 -> 13  [label="y (16)"];
14 -> 10  [label="z (13)"];
14 -> 0  [label="!y [1]"];
__start0 [label="", shape=none];
__start0 -> 4  [label=""];
}
