digraph "benchmarks-true-state-lstar-songp/n_states=12-n_outputs=4-glitch_percent=0.0-pmstrat='lsu'/8848c504ddb8d80fe52d64f9504de489/alergiaLearned" {
q0 [label="a"];
q1 [label="c"];
q2 [label="d"];
q3 [label="d"];
q4 [label="a"];
q5 [label="c"];
q6 [label="b"];
q7 [label="d"];
q8 [label="d"];
q0 -> q1  [label="z:1.0"];
q0 -> q2  [label="y:1.0"];
q0 -> q3  [label="x:1.0"];
q1 -> q4  [label="x:0.8055555555555556"];
q1 -> q2  [label="x:0.08333333333333333"];
q1 -> q1  [label="x:0.1111111111111111"];
q1 -> q5  [label="y:0.8333333333333334"];
q1 -> q2  [label="y:0.16666666666666666"];
q1 -> q6  [label="z:0.5384615384615384"];
q1 -> q0  [label="z:0.23076923076923078"];
q1 -> q1  [label="z:0.23076923076923078"];
q2 -> q7  [label="x:0.9736842105263158"];
q2 -> q0  [label="x:0.02631578947368421"];
q2 -> q7  [label="y:0.6470588235294118"];
q2 -> q0  [label="y:0.29411764705882354"];
q2 -> q6  [label="y:0.058823529411764705"];
q2 -> q4  [label="z:0.7777777777777778"];
q2 -> q6  [label="z:0.18518518518518517"];
q2 -> q1  [label="z:0.037037037037037035"];
q3 -> q5  [label="x:1.0"];
q3 -> q8  [label="y:1.0"];
q3 -> q6  [label="z:1.0"];
q4 -> q2  [label="x:0.5714285714285714"];
q4 -> q1  [label="x:0.42857142857142855"];
q4 -> q1  [label="y:1.0"];
q4 -> q2  [label="z:0.5714285714285714"];
q4 -> q4  [label="z:0.42857142857142855"];
q5 -> q1  [label="x:0.6666666666666666"];
q5 -> q2  [label="x:0.3333333333333333"];
q5 -> q1  [label="y:0.5"];
q5 -> q2  [label="y:0.5"];
q5 -> q1  [label="z:0.5"];
q5 -> q4  [label="z:0.5"];
q6 -> q2  [label="x:1.0"];
q6 -> q1  [label="y:1.0"];
q6 -> q0  [label="z:1.0"];
q7 -> q2  [label="x:0.46153846153846156"];
q7 -> q0  [label="x:0.5384615384615384"];
q7 -> q0  [label="y:0.5"];
q7 -> q6  [label="y:0.5"];
q7 -> q6  [label="z:0.5"];
q7 -> q1  [label="z:0.5"];
q8 -> q1  [label="x:1.0"];
q8 -> q2  [label="y:1.0"];
q8 -> q6  [label="z:1.0"];
__start0 [label="", shape=none];
__start0 -> q0  [label=""];
}
