digraph alergiaLearned {
q0 [label="d"];
q1 [label="c"];
q2 [label="c"];
q3 [label="c"];
q4 [label="a"];
q5 [label="b"];
q6 [label="e"];
q7 [label="c"];
q8 [label="a"];
q9 [label="d"];
q0 -> q1  [label="z:0.9827586206896551"];
q0 -> q4  [label="z:0.017241379310344827"];
q0 -> q2  [label="y:0.9821428571428571"];
q0 -> q6  [label="y:0.017857142857142856"];
q0 -> q3  [label="x:0.96875"];
q0 -> q5  [label="x:0.020833333333333332"];
q0 -> q4  [label="x:0.010416666666666666"];
q1 -> q6  [label="x:0.8"];
q1 -> q5  [label="x:0.08"];
q1 -> q4  [label="x:0.12"];
q1 -> q4  [label="y:0.8"];
q1 -> q5  [label="y:0.08"];
q1 -> q6  [label="y:0.08"];
q1 -> q0  [label="y:0.04"];
q1 -> q4  [label="z:0.7916666666666666"];
q1 -> q1  [label="z:0.08333333333333333"];
q1 -> q0  [label="z:0.08333333333333333"];
q1 -> q6  [label="z:0.041666666666666664"];
q2 -> q5  [label="x:1.0"];
q2 -> q5  [label="y:1.0"];
q2 -> q7  [label="z:1.0"];
q3 -> q8  [label="x:1.0"];
q3 -> q6  [label="y:1.0"];
q3 -> q9  [label="z:1.0"];
q4 -> q0  [label="z:0.35714285714285715"];
q4 -> q1  [label="z:0.5714285714285714"];
q4 -> q6  [label="z:0.07142857142857142"];
q4 -> q6  [label="x:0.4666666666666667"];
q4 -> q5  [label="x:0.5333333333333333"];
q4 -> q0  [label="y:0.5384615384615384"];
q4 -> q1  [label="y:0.38461538461538464"];
q4 -> q6  [label="y:0.07692307692307693"];
q5 -> q4  [label="y:0.5454545454545454"];
q5 -> q6  [label="y:0.45454545454545453"];
q5 -> q6  [label="x:1.0"];
q5 -> q1  [label="z:0.5454545454545454"];
q5 -> q6  [label="z:0.45454545454545453"];
q6 -> q6  [label="x:0.3870967741935484"];
q6 -> q1  [label="x:0.3870967741935484"];
q6 -> q5  [label="x:0.22580645161290322"];
q6 -> q1  [label="y:0.22580645161290322"];
q6 -> q0  [label="y:0.6129032258064516"];
q6 -> q4  [label="y:0.16129032258064516"];
q6 -> q4  [label="z:0.59375"];
q6 -> q1  [label="z:0.40625"];
q7 -> q4  [label="x:1.0"];
q7 -> q0  [label="y:1.0"];
q7 -> q6  [label="z:1.0"];
q8 -> q6  [label="x:1.0"];
q8 -> q6  [label="y:1.0"];
q8 -> q6  [label="z:1.0"];
q9 -> q1  [label="x:1.0"];
q9 -> q6  [label="y:1.0"];
q9 -> q1  [label="z:1.0"];
__start0 [label="", shape=none];
__start0 -> q0  [label=""];
}
