digraph "benchmarks-true-state-lstar-3seeds/n_states=11-n_outputs=7-glitch_percent=0.0/3e782f8216619d1e618b6af2de158a14/alergiaLearned" {
q0 [label="a"];
q1 [label="a"];
q2 [label="d"];
q3 [label="b"];
q4 [label="e"];
q5 [label="g"];
q6 [label="f"];
q7 [label="b"];
q0 -> q1  [label="z:0.9354838709677419"];
q0 -> q3  [label="z:0.06451612903225806"];
q0 -> q2  [label="y:1.0"];
q0 -> q3  [label="x:0.9636363636363636"];
q0 -> q4  [label="x:0.03636363636363636"];
q1 -> q4  [label="x:1.0"];
q1 -> q2  [label="y:1.0"];
q1 -> q3  [label="z:1.0"];
q2 -> q5  [label="x:1.0"];
q2 -> q6  [label="y:1.0"];
q2 -> q4  [label="z:1.0"];
q3 -> q4  [label="x:0.9047619047619048"];
q3 -> q6  [label="x:0.09523809523809523"];
q3 -> q7  [label="y:0.9047619047619048"];
q3 -> q6  [label="y:0.09523809523809523"];
q3 -> q4  [label="z:0.9047619047619048"];
q3 -> q2  [label="z:0.09523809523809523"];
q4 -> q3  [label="x:0.2916666666666667"];
q4 -> q4  [label="x:0.20833333333333334"];
q4 -> q6  [label="x:0.5"];
q4 -> q5  [label="y:0.5416666666666666"];
q4 -> q0  [label="y:0.20833333333333334"];
q4 -> q4  [label="y:0.25"];
q4 -> q2  [label="z:0.5"];
q4 -> q0  [label="z:0.25"];
q4 -> q3  [label="z:0.25"];
q5 -> q2  [label="x:1.0"];
q5 -> q3  [label="y:1.0"];
q5 -> q4  [label="z:1.0"];
q6 -> q5  [label="x:1.0"];
q6 -> q4  [label="y:1.0"];
q6 -> q6  [label="z:1.0"];
q7 -> q6  [label="x:1.0"];
q7 -> q6  [label="y:1.0"];
q7 -> q2  [label="z:1.0"];
__start0 [label="", shape=none];
__start0 -> q0  [label=""];
}
