digraph "benchmarks-true-state-lstar-3seeds/n_states=10-n_outputs=6-glitch_percent=0.01/ac6b101c6b1deadcd412921d6f9a7eae/rpniGroundTruth" {
s0 [label="s0|b", shape=record, style=rounded];
s1 [label="s1|d", shape=record, style=rounded];
s2 [label="s2|e", shape=record, style=rounded];
s3 [label="s3|b", shape=record, style=rounded];
s4 [label="s4|c", shape=record, style=rounded];
s5 [label="s5|e", shape=record, style=rounded];
s6 [label="s6|b", shape=record, style=rounded];
s7 [label="s7|b", shape=record, style=rounded];
s8 [label="s8|e", shape=record, style=rounded];
s9 [label="s9|e", shape=record, style=rounded];
s0 -> s1  [label="x"];
s0 -> s2  [label="y"];
s0 -> s3  [label="z"];
s1 -> s4  [label="z"];
s1 -> s5  [label="x"];
s1 -> s6  [label="y"];
s2 -> s7  [label="y"];
s2 -> s8  [label="x"];
s2 -> s9  [label="z"];
s3 -> s0  [label="y"];
s3 -> s1  [label="z"];
s3 -> s9  [label="x"];
s4 -> s7  [label="x"];
s4 -> s4  [label="z"];
s4 -> s3  [label="y"];
s5 -> s4  [label="z"];
s5 -> s0  [label="y"];
s5 -> s7  [label="x"];
s6 -> s5  [label="z"];
s6 -> s3  [label="y"];
s6 -> s8  [label="x"];
s7 -> s8  [label="x"];
s7 -> s4  [label="y"];
s7 -> s0  [label="z"];
s8 -> s0  [label="y"];
s8 -> s6  [label="x"];
s8 -> s4  [label="z"];
s9 -> s0  [label="x"];
s9 -> s5  [label="z"];
s9 -> s9  [label="y"];
__start0 [label="", shape=none];
__start0 -> s0  [label=""];
}
