digraph "benchmarks-true-state-lstar-rc10seeds/n_states=13-n_outputs=3-glitch_percent=0.0/91e5b8ef7bfd55862b12f2422f95f8bb/pmsatLearned_NOP-N13-STOC" {
0 [label="0|a", shape=record, style=rounded];
1 [label="1|b", shape=record, style=rounded];
2 [label="2|c", shape=record, style=rounded];
3 [label="3|c", shape=record, style=rounded];
4 [label="4|c", shape=record, style=rounded];
5 [label="5|c", shape=record, style=rounded];
6 [label="6|a", shape=record, style=rounded];
7 [label="7|c", shape=record, style=rounded];
8 [label="8|b", shape=record, style=rounded];
9 [label="9|a", shape=record, style=rounded];
10 [label="10|a", shape=record, style=rounded];
11 [label="11|b", shape=record, style=rounded];
12 [label="12|c", shape=record, style=rounded];
0 -> 2  [label="z (56)"];
0 -> 8  [label="y (56)"];
0 -> 3  [label="x (56)"];
1 -> 12  [label="x (5)"];
1 -> 3  [label="y (5)"];
1 -> 7  [label="z (5)"];
2 -> 10  [label="x (17)"];
2 -> 12  [label="y (17)"];
2 -> 1  [label="z (17)"];
3 -> 11  [label="x (19)"];
3 -> 5  [label="y (19)"];
3 -> 9  [label="z (19)"];
4 -> 0  [label="x (7)"];
4 -> 11  [label="y (7)"];
4 -> 4  [label="z (7)"];
5 -> 6  [label="x (6)"];
5 -> 3  [label="y (6)"];
5 -> 10  [label="z (6)"];
6 -> 12  [label="x (7)"];
6 -> 12  [label="y (7)"];
6 -> 8  [label="z (7)"];
7 -> 9  [label="x (7)"];
7 -> 12  [label="y (7)"];
7 -> 12  [label="z (7)"];
8 -> 6  [label="x (19)"];
8 -> 7  [label="y (19)"];
8 -> 4  [label="z (19)"];
9 -> 6  [label="x (6)"];
9 -> 11  [label="y (6)"];
9 -> 12  [label="z (6)"];
10 -> 11  [label="x (6)"];
10 -> 0  [label="y (6)"];
10 -> 0  [label="z (6)"];
11 -> 11  [label="x (9)"];
11 -> 8  [label="y (9)"];
11 -> 4  [label="z (9)"];
12 -> 7  [label="x (12)"];
12 -> 12  [label="y (12)"];
12 -> 5  [label="z (12)"];
__start0 [label="", shape=none];
__start0 -> 0  [label=""];
}
