digraph "benchmarks-true-state-lstar-songp/n_states=16-n_outputs=2-glitch_percent=0.01-pmstrat='lsu'/c0a7bd2cca962b0a5ab3c6d4912e5207/pmsatLearned-N16-STOC" {
0 [label="0|a", shape=record, style=rounded];
1 [label="1|b", shape=record, style=rounded];
2 [label="2|b", shape=record, style=rounded];
3 [label="3|b", shape=record, style=rounded];
4 [label="4|a", shape=record, style=rounded];
5 [label="5|b", shape=record, style=rounded];
6 [label="6|a", shape=record, style=rounded];
7 [label="7|a", shape=record, style=rounded];
8 [label="8|b", shape=record, style=rounded];
9 [label="9|a", shape=record, style=rounded];
10 [label="10|b", shape=record, style=rounded];
11 [label="11|a", shape=record, style=rounded];
12 [label="12|a", shape=record, style=rounded];
13 [label="13|b", shape=record, style=rounded];
14 [label="14|a", shape=record, style=rounded];
15 [label="15|b", shape=record, style=rounded];
0 -> 0  [label="z (56)"];
0 -> 0  [label="!x [3]"];
0 -> 9  [label="!z [8]"];
0 -> 0  [label="!y [15]"];
0 -> 11  [label="x (189)"];
0 -> 6  [label="!y [9]"];
0 -> 8  [label="!y [1]"];
0 -> 4  [label="!x [50]"];
0 -> 9  [label="!x [32]"];
0 -> 2  [label="y (63)"];
0 -> 7  [label="!x [47]"];
0 -> 8  [label="!z [3]"];
0 -> 15  [label="!z [5]"];
0 -> 7  [label="!y [10]"];
0 -> 9  [label="!y [7]"];
0 -> 3  [label="!x [5]"];
0 -> 15  [label="!x [9]"];
0 -> 15  [label="!y [5]"];
0 -> 11  [label="!z [4]"];
0 -> 12  [label="!y [2]"];
0 -> 7  [label="!z [2]"];
0 -> 12  [label="!z [1]"];
0 -> 1  [label="!x [1]"];
0 -> 5  [label="!y [3]"];
1 -> 0  [label="z (11)"];
1 -> 15  [label="y (20)"];
1 -> 1  [label="x (4)"];
1 -> 11  [label="!x [2]"];
1 -> 7  [label="!y [1]"];
1 -> 15  [label="!x [1]"];
2 -> 11  [label="!x [11]"];
2 -> 5  [label="y (32)"];
2 -> 0  [label="z (13)"];
2 -> 7  [label="!x [4]"];
2 -> 8  [label="!z [1]"];
2 -> 3  [label="!y [3]"];
2 -> 14  [label="!x [3]"];
2 -> 14  [label="!y [2]"];
2 -> 12  [label="!x [1]"];
2 -> 6  [label="!x [2]"];
2 -> 8  [label="!y [1]"];
2 -> 1  [label="!z [3]"];
2 -> 2  [label="x (1)"];
3 -> 3  [label="z (39)"];
3 -> 6  [label="y (53)"];
3 -> 3  [label="x (3)"];
3 -> 11  [label="!x [1]"];
3 -> 7  [label="!y [4]"];
3 -> 4  [label="!y [2]"];
3 -> 0  [label="!y [1]"];
4 -> 13  [label="x (56)"];
5 -> 5  [label="y (38)"];
5 -> 8  [label="z (56)"];
5 -> 0  [label="!x [2]"];
5 -> 15  [label="!z [3]"];
5 -> 14  [label="!y [1]"];
5 -> 9  [label="!x [3]"];
5 -> 7  [label="!x [8]"];
5 -> 5  [label="x (4)"];
5 -> 6  [label="!y [3]"];
5 -> 6  [label="!x [1]"];
5 -> 9  [label="!y [2]"];
5 -> 0  [label="!z [1]"];
6 -> 6  [label="y (16)"];
6 -> 6  [label="x (9)"];
6 -> 2  [label="!z [2]"];
6 -> 0  [label="z (6)"];
6 -> 5  [label="!y [2]"];
6 -> 1  [label="!z [3]"];
6 -> 1  [label="!x [6]"];
6 -> 15  [label="!x [8]"];
6 -> 8  [label="!x [7]"];
6 -> 1  [label="!y [3]"];
6 -> 9  [label="!z [1]"];
6 -> 10  [label="!x [1]"];
6 -> 9  [label="!y [1]"];
7 -> 8  [label="x (86)"];
7 -> 7  [label="y (25)"];
7 -> 0  [label="z (1)"];
7 -> 3  [label="!x [3]"];
7 -> 2  [label="!z [3]"];
7 -> 15  [label="!x [2]"];
7 -> 1  [label="!x [1]"];
7 -> 15  [label="!y [1]"];
8 -> 8  [label="y (63)"];
8 -> 0  [label="z (35)"];
8 -> 8  [label="x (22)"];
8 -> 7  [label="!y [4]"];
8 -> 3  [label="!z [9]"];
8 -> 1  [label="!z [4]"];
8 -> 7  [label="!x [11]"];
8 -> 9  [label="!z [1]"];
8 -> 15  [label="!z [3]"];
8 -> 11  [label="!x [9]"];
8 -> 12  [label="!x [3]"];
8 -> 3  [label="!y [1]"];
8 -> 6  [label="!x [1]"];
8 -> 9  [label="!x [2]"];
8 -> 10  [label="!z [2]"];
9 -> 2  [label="z (55)"];
9 -> 6  [label="y (11)"];
9 -> 9  [label="x (8)"];
9 -> 3  [label="!x [1]"];
9 -> 15  [label="!z [1]"];
10 -> 0  [label="z (4)"];
10 -> 0  [label="!x [1]"];
11 -> 5  [label="y (71)"];
11 -> 8  [label="!z [3]"];
11 -> 1  [label="!z [6]"];
11 -> 15  [label="!z [34]"];
11 -> 11  [label="x (16)"];
11 -> 9  [label="!y [1]"];
11 -> 15  [label="!y [6]"];
11 -> 0  [label="z (4)"];
11 -> 13  [label="!x [5]"];
11 -> 3  [label="!x [32]"];
11 -> 5  [label="!x [24]"];
11 -> 1  [label="!x [16]"];
11 -> 8  [label="!x [15]"];
11 -> 3  [label="!y [5]"];
11 -> 7  [label="!y [2]"];
11 -> 2  [label="!x [4]"];
11 -> 0  [label="!y [7]"];
11 -> 15  [label="!x [2]"];
11 -> 10  [label="!x [1]"];
11 -> 2  [label="!z [2]"];
12 -> 0  [label="z (1)"];
12 -> 9  [label="!y [1]"];
12 -> 5  [label="y (2)"];
13 -> 13  [label="x (19)"];
13 -> 13  [label="z (42)"];
13 -> 13  [label="y (25)"];
13 -> 11  [label="!x [3]"];
13 -> 0  [label="!z [3]"];
13 -> 8  [label="!z [2]"];
13 -> 6  [label="!y [2]"];
13 -> 7  [label="!y [6]"];
13 -> 3  [label="!z [4]"];
13 -> 4  [label="!y [1]"];
13 -> 0  [label="!x [1]"];
13 -> 2  [label="!z [1]"];
14 -> 0  [label="z (1)"];
14 -> 2  [label="y (3)"];
14 -> 11  [label="x (1)"];
14 -> 10  [label="!y [1]"];
14 -> 1  [label="!x [1]"];
15 -> 5  [label="y (5)"];
15 -> 11  [label="x (85)"];
15 -> 0  [label="z (4)"];
15 -> 7  [label="!x [2]"];
15 -> 12  [label="!x [1]"];
__start0 [label="", shape=none];
__start0 -> 0  [label=""];
}
