digraph "benchmarks-true-state-lstar-3seeds/n_states=16-n_outputs=4-glitch_percent=0.1/268a80405ebac9d01435683c31dae6cb/alergiaLearned" {
q0 [label="c"];
q1 [label="c"];
q2 [label="a"];
q3 [label="a"];
q4 [label="d"];
q5 [label="b"];
q6 [label="a"];
q0 -> q1  [label="z:0.9230769230769231"];
q0 -> q4  [label="z:0.057692307692307696"];
q0 -> q2  [label="z:0.019230769230769232"];
q0 -> q2  [label="y:0.9"];
q0 -> q4  [label="y:0.05"];
q0 -> q5  [label="y:0.05"];
q0 -> q3  [label="x:0.9222222222222223"];
q0 -> q5  [label="x:0.07777777777777778"];
q0 -> q0  [label="x:0.0"];
q1 -> q2  [label="x:0.65"];
q1 -> q4  [label="x:0.05"];
q1 -> q5  [label="x:0.05"];
q1 -> q0  [label="x:0.25"];
q1 -> q4  [label="y:0.75"];
q1 -> q5  [label="y:0.25"];
q1 -> q4  [label="z:0.7"];
q1 -> q0  [label="z:0.3"];
q2 -> q5  [label="x:0.7916666666666666"];
q2 -> q4  [label="x:0.20833333333333334"];
q2 -> q4  [label="y:0.8518518518518519"];
q2 -> q2  [label="y:0.14814814814814814"];
q2 -> q1  [label="z:0.6428571428571429"];
q2 -> q2  [label="z:0.21428571428571427"];
q2 -> q4  [label="z:0.14285714285714285"];
q3 -> q5  [label="x:0.9361702127659575"];
q3 -> q4  [label="x:0.0425531914893617"];
q3 -> q6  [label="x:0.02127659574468085"];
q3 -> q5  [label="y:0.8"];
q3 -> q2  [label="y:0.06666666666666667"];
q3 -> q4  [label="y:0.13333333333333333"];
q3 -> q2  [label="z:0.8125"];
q3 -> q4  [label="z:0.1875"];
q4 -> q2  [label="x:0.45"];
q4 -> q4  [label="x:0.3"];
q4 -> q5  [label="x:0.25"];
q4 -> q2  [label="y:0.5"];
q4 -> q4  [label="y:0.35"];
q4 -> q5  [label="y:0.15"];
q4 -> q0  [label="z:0.2222222222222222"];
q4 -> q4  [label="z:0.2777777777777778"];
q4 -> q5  [label="z:0.3333333333333333"];
q4 -> q2  [label="z:0.16666666666666666"];
q5 -> q4  [label="y:0.9230769230769231"];
q5 -> q5  [label="y:0.07692307692307693"];
q5 -> q0  [label="z:0.21739130434782608"];
q5 -> q4  [label="z:0.782608695652174"];
q5 -> q4  [label="x:0.8076923076923077"];
q5 -> q5  [label="x:0.07692307692307693"];
q5 -> q2  [label="x:0.11538461538461539"];
q6 -> q4  [label="z:1.0"];
__start0 [label="", shape=none];
__start0 -> q0  [label=""];
}
