digraph "benchmarks-true-state-lstar-3seeds/n_states=7-n_outputs=5-glitch_percent=0.0/b099d7c65d70f324056c43cb7d8f7e57/RealModel" {
s1 [label="s1|d", shape=record, style=rounded];
s2 [label="s2|e", shape=record, style=rounded];
s3 [label="s3|e", shape=record, style=rounded];
s4 [label="s4|a", shape=record, style=rounded];
s5 [label="s5|b", shape=record, style=rounded];
s6 [label="s6|d", shape=record, style=rounded];
s7 [label="s7|b", shape=record, style=rounded];
s1 -> s4  [label="x"];
s1 -> s2  [label="y"];
s1 -> s5  [label="z"];
s2 -> s2  [label="x"];
s2 -> s7  [label="y"];
s2 -> s5  [label="z"];
s3 -> s6  [label="x"];
s3 -> s4  [label="y"];
s3 -> s5  [label="z"];
s4 -> s3  [label="x"];
s4 -> s6  [label="y"];
s4 -> s7  [label="z"];
s5 -> s6  [label="x"];
s5 -> s3  [label="y"];
s5 -> s6  [label="z"];
s6 -> s4  [label="x"];
s6 -> s7  [label="y"];
s6 -> s6  [label="z"];
s7 -> s6  [label="x"];
s7 -> s3  [label="y"];
s7 -> s3  [label="z"];
__start0 [label="", shape=none];
__start0 -> s1  [label=""];
}
