digraph "benchmarks-true-state-lstar-3seeds/n_states=5-n_outputs=2-glitch_percent=0.1/b64dfe18adf9140d2003e4280a4ad151/alergiaLearned" {
q0 [label="a"];
q1 [label="a"];
q2 [label="b"];
q0 -> q1  [label="z:1.0"];
q0 -> q1  [label="y:1.0"];
q0 -> q2  [label="x:0.8333333333333334"];
q0 -> q0  [label="x:0.16666666666666666"];
q1 -> q0  [label="x:0.52"];
q1 -> q2  [label="x:0.48"];
q1 -> q0  [label="y:1.0"];
q1 -> q0  [label="z:1.0"];
q2 -> q0  [label="y:1.0"];
q2 -> q0  [label="z:1.0"];
q2 -> q1  [label="x:1.0"];
__start0 [label="", shape=none];
__start0 -> q0  [label=""];
}
