digraph "benchmarks-true-state-lstar-3seeds/n_states=14-n_outputs=6-glitch_percent=0.0/c81f9c00b90d1918b22f3df49e02db1c/pmsatLearned-N14" {
0 [label="0|a", shape=record, style=rounded];
1 [label="1|b", shape=record, style=rounded];
2 [label="2|c", shape=record, style=rounded];
3 [label="3|d", shape=record, style=rounded];
4 [label="4|e", shape=record, style=rounded];
5 [label="5|f", shape=record, style=rounded];
6 [label="6|d", shape=record, style=rounded];
7 [label="7|f", shape=record, style=rounded];
8 [label="8|f", shape=record, style=rounded];
9 [label="9|e", shape=record, style=rounded];
10 [label="10|e", shape=record, style=rounded];
11 [label="11|f", shape=record, style=rounded];
12 [label="12|a", shape=record, style=rounded];
13 [label="13|d", shape=record, style=rounded];
0 -> 2  [label="x"];
0 -> 7  [label="y"];
0 -> 7  [label="z"];
1 -> 2  [label="x"];
1 -> 12  [label="y"];
1 -> 13  [label="z"];
2 -> 12  [label="x"];
2 -> 3  [label="y"];
2 -> 6  [label="z"];
3 -> 13  [label="x"];
3 -> 7  [label="y"];
3 -> 4  [label="z"];
4 -> 5  [label="z"];
4 -> 9  [label="y"];
4 -> 10  [label="x"];
5 -> 0  [label="x"];
5 -> 6  [label="y"];
5 -> 11  [label="z"];
6 -> 9  [label="x"];
6 -> 10  [label="y"];
6 -> 13  [label="z"];
7 -> 0  [label="x"];
7 -> 6  [label="y"];
7 -> 2  [label="z"];
8 -> 1  [label="x"];
8 -> 12  [label="y"];
8 -> 13  [label="z"];
9 -> 3  [label="x"];
9 -> 13  [label="y"];
9 -> 8  [label="z"];
10 -> 2  [label="x"];
10 -> 1  [label="y"];
10 -> 7  [label="z"];
11 -> 12  [label="x"];
11 -> 3  [label="y"];
11 -> 12  [label="z"];
12 -> 4  [label="x"];
12 -> 9  [label="y"];
12 -> 13  [label="z"];
13 -> 6  [label="x"];
13 -> 5  [label="y"];
13 -> 3  [label="z"];
__start0 [label="", shape=none];
__start0 -> 4  [label=""];
}
