digraph "benchmarks-true-state-lstar-3seeds/n_states=13-n_outputs=5-glitch_percent=0.01/49fb067b6d305f5bbc6837c6a59b0f81/pmsatLearned-N13-STOC" {
0 [label="0|a", shape=record, style=rounded];
1 [label="1|b", shape=record, style=rounded];
2 [label="2|c", shape=record, style=rounded];
3 [label="3|d", shape=record, style=rounded];
4 [label="4|e", shape=record, style=rounded];
5 [label="5|a", shape=record, style=rounded];
6 [label="6|c", shape=record, style=rounded];
7 [label="7|e", shape=record, style=rounded];
8 [label="8|d", shape=record, style=rounded];
9 [label="9|a", shape=record, style=rounded];
10 [label="10|a", shape=record, style=rounded];
11 [label="11|c", shape=record, style=rounded];
12 [label="12|a", shape=record, style=rounded];
0 -> 1  [label="z (54)"];
0 -> 11  [label="y (54)"];
0 -> 8  [label="x (53)"];
0 -> 2  [label="!x [1]"];
1 -> 3  [label="x (20)"];
1 -> 7  [label="y (20)"];
1 -> 5  [label="z (20)"];
2 -> 4  [label="x (7)"];
2 -> 8  [label="y (7)"];
2 -> 4  [label="z (7)"];
3 -> 1  [label="x (5)"];
3 -> 5  [label="y (5)"];
3 -> 6  [label="z (5)"];
4 -> 7  [label="x (9)"];
4 -> 5  [label="y (9)"];
4 -> 7  [label="z (8)"];
5 -> 11  [label="x (7)"];
5 -> 10  [label="y (7)"];
5 -> 7  [label="z (7)"];
6 -> 10  [label="x (6)"];
6 -> 12  [label="z (6)"];
6 -> 11  [label="y (5)"];
7 -> 11  [label="x (8)"];
7 -> 2  [label="y (8)"];
7 -> 10  [label="z (8)"];
8 -> 2  [label="x (18)"];
8 -> 4  [label="y (19)"];
8 -> 9  [label="z (19)"];
9 -> 2  [label="x (5)"];
9 -> 1  [label="y (5)"];
9 -> 4  [label="z (5)"];
10 -> 1  [label="x (8)"];
10 -> 4  [label="y (8)"];
10 -> 8  [label="z (7)"];
11 -> 12  [label="x (22)"];
11 -> 10  [label="y (21)"];
11 -> 6  [label="z (21)"];
11 -> 2  [label="!y [1]"];
12 -> 11  [label="x (6)"];
12 -> 11  [label="y (6)"];
12 -> 0  [label="z (6)"];
__start0 [label="", shape=none];
__start0 -> 0  [label=""];
}
