digraph "benchmarks-true-state-lstar-3seeds/n_states=16-n_outputs=5-glitch_percent=0.02/0b8d229222aa19766e89c8881e92977e/pmsatLearned-N16" {
0 [label="0|a", shape=record, style=rounded];
1 [label="1|c", shape=record, style=rounded];
2 [label="2|d", shape=record, style=rounded];
3 [label="3|c", shape=record, style=rounded];
4 [label="4|c", shape=record, style=rounded];
5 [label="5|a", shape=record, style=rounded];
6 [label="6|c", shape=record, style=rounded];
7 [label="7|a", shape=record, style=rounded];
8 [label="8|d", shape=record, style=rounded];
9 [label="9|a", shape=record, style=rounded];
10 [label="10|a", shape=record, style=rounded];
11 [label="11|d", shape=record, style=rounded];
12 [label="12|a", shape=record, style=rounded];
13 [label="13|a", shape=record, style=rounded];
14 [label="14|c", shape=record, style=rounded];
15 [label="15|c", shape=record, style=rounded];
0 -> 14  [label="x"];
0 -> 5  [label="y"];
0 -> 12  [label="z"];
1 -> 2  [label="z"];
1 -> 5  [label="y"];
1 -> 9  [label="x"];
2 -> 3  [label="x"];
2 -> 13  [label="y"];
2 -> 4  [label="z"];
3 -> 4  [label="y"];
3 -> 13  [label="z"];
3 -> 13  [label="x"];
4 -> 10  [label="y"];
4 -> 8  [label="z"];
4 -> 9  [label="x"];
5 -> 12  [label="x"];
5 -> 10  [label="y"];
5 -> 11  [label="z"];
6 -> 3  [label="x"];
6 -> 7  [label="y"];
6 -> 15  [label="z"];
7 -> 15  [label="x"];
7 -> 6  [label="y"];
7 -> 8  [label="z"];
8 -> 2  [label="x"];
8 -> 3  [label="y"];
8 -> 11  [label="z"];
9 -> 7  [label="x"];
9 -> 0  [label="y"];
9 -> 14  [label="z"];
10 -> 5  [label="x"];
10 -> 5  [label="y"];
10 -> 3  [label="z"];
11 -> 12  [label="x"];
11 -> 11  [label="y"];
11 -> 9  [label="z"];
12 -> 10  [label="x"];
12 -> 2  [label="y"];
12 -> 1  [label="z"];
13 -> 7  [label="x"];
13 -> 1  [label="y"];
13 -> 0  [label="z"];
14 -> 13  [label="x"];
14 -> 5  [label="y"];
14 -> 6  [label="z"];
15 -> 10  [label="y"];
15 -> 4  [label="x"];
15 -> 3  [label="z"];
__start0 [label="", shape=none];
__start0 -> 1  [label=""];
}
