digraph "benchmarks-true-state-lstar-rc10seeds/n_states=13-n_outputs=8-glitch_percent=0.05/e24fc417209bd390db0b76cee5cc115c/pmsatLearned_NOP-N13-STOC" {
0 [label="0|c", shape=record, style=rounded];
1 [label="1|b", shape=record, style=rounded];
2 [label="2|a", shape=record, style=rounded];
3 [label="3|b", shape=record, style=rounded];
4 [label="4|a", shape=record, style=rounded];
5 [label="5|g", shape=record, style=rounded];
6 [label="6|b", shape=record, style=rounded];
7 [label="7|e", shape=record, style=rounded];
8 [label="8|d", shape=record, style=rounded];
9 [label="9|e", shape=record, style=rounded];
10 [label="10|d", shape=record, style=rounded];
11 [label="11|g", shape=record, style=rounded];
12 [label="12|c", shape=record, style=rounded];
0 -> 7  [label="x (6)"];
0 -> 5  [label="y (6)"];
0 -> 5  [label="z (6)"];
0 -> 6  [label="!x [1]"];
1 -> 1  [label="x (4)"];
1 -> 3  [label="y (5)"];
1 -> 2  [label="z (6)"];
2 -> 11  [label="x (6)"];
2 -> 11  [label="y (6)"];
2 -> 0  [label="z (6)"];
3 -> 5  [label="x (7)"];
3 -> 9  [label="y (8)"];
3 -> 4  [label="z (9)"];
3 -> 8  [label="!y [1]"];
4 -> 3  [label="x (8)"];
4 -> 10  [label="y (6)"];
4 -> 9  [label="z (5)"];
5 -> 8  [label="z (54)"];
5 -> 12  [label="y (49)"];
5 -> 7  [label="x (54)"];
5 -> 9  [label="!y [1]"];
5 -> 1  [label="!x [1]"];
5 -> 2  [label="!z [2]"];
5 -> 11  [label="!z [1]"];
6 -> 10  [label="x (8)"];
6 -> 12  [label="y (7)"];
6 -> 11  [label="z (8)"];
7 -> 1  [label="x (18)"];
7 -> 4  [label="y (17)"];
7 -> 11  [label="z (17)"];
7 -> 10  [label="!y [1]"];
8 -> 6  [label="x (17)"];
8 -> 10  [label="z (18)"];
8 -> 0  [label="y (18)"];
8 -> 3  [label="!y [1]"];
9 -> 8  [label="y (6)"];
9 -> 8  [label="z (6)"];
9 -> 3  [label="x (5)"];
10 -> 6  [label="x (7)"];
10 -> 6  [label="y (7)"];
10 -> 4  [label="z (7)"];
10 -> 7  [label="!z [1]"];
11 -> 3  [label="x (7)"];
11 -> 6  [label="y (8)"];
11 -> 10  [label="z (8)"];
12 -> 3  [label="x (15)"];
12 -> 9  [label="y (15)"];
12 -> 2  [label="z (16)"];
12 -> 8  [label="!z [1]"];
__start0 [label="", shape=none];
__start0 -> 5  [label=""];
}
