digraph "benchmarks-true-state-lstar-3seeds/n_states=16-n_outputs=2-glitch_percent=0.05/e9ec43c5fcb5ac99d77d10fecf7a4106/RealModel" {
s1 [label="s1|b", shape=record, style=rounded];
s2 [label="s2|a", shape=record, style=rounded];
s3 [label="s3|a", shape=record, style=rounded];
s4 [label="s4|b", shape=record, style=rounded];
s5 [label="s5|a", shape=record, style=rounded];
s6 [label="s6|b", shape=record, style=rounded];
s7 [label="s7|a", shape=record, style=rounded];
s8 [label="s8|a", shape=record, style=rounded];
s9 [label="s9|a", shape=record, style=rounded];
s10 [label="s10|a", shape=record, style=rounded];
s11 [label="s11|a", shape=record, style=rounded];
s12 [label="s12|a", shape=record, style=rounded];
s13 [label="s13|b", shape=record, style=rounded];
s14 [label="s14|b", shape=record, style=rounded];
s15 [label="s15|b", shape=record, style=rounded];
s16 [label="s16|b", shape=record, style=rounded];
s1 -> s7  [label="x"];
s1 -> s3  [label="y"];
s1 -> s9  [label="z"];
s2 -> s12  [label="x"];
s2 -> s16  [label="y"];
s2 -> s15  [label="z"];
s3 -> s4  [label="x"];
s3 -> s6  [label="y"];
s3 -> s13  [label="z"];
s4 -> s7  [label="x"];
s4 -> s5  [label="y"];
s4 -> s9  [label="z"];
s5 -> s16  [label="x"];
s5 -> s16  [label="y"];
s5 -> s7  [label="z"];
s6 -> s8  [label="x"];
s6 -> s2  [label="y"];
s6 -> s2  [label="z"];
s7 -> s8  [label="x"];
s7 -> s15  [label="y"];
s7 -> s5  [label="z"];
s8 -> s10  [label="x"];
s8 -> s16  [label="y"];
s8 -> s11  [label="z"];
s9 -> s2  [label="x"];
s9 -> s12  [label="y"];
s9 -> s14  [label="z"];
s10 -> s9  [label="x"];
s10 -> s6  [label="y"];
s10 -> s1  [label="z"];
s11 -> s12  [label="x"];
s11 -> s7  [label="y"];
s11 -> s13  [label="z"];
s12 -> s5  [label="x"];
s12 -> s8  [label="y"];
s12 -> s16  [label="z"];
s13 -> s14  [label="x"];
s13 -> s2  [label="y"];
s13 -> s11  [label="z"];
s14 -> s15  [label="x"];
s14 -> s12  [label="y"];
s14 -> s2  [label="z"];
s15 -> s12  [label="x"];
s15 -> s13  [label="y"];
s15 -> s4  [label="z"];
s16 -> s8  [label="x"];
s16 -> s1  [label="y"];
s16 -> s10  [label="z"];
__start0 [label="", shape=none];
__start0 -> s1  [label=""];
}
