digraph "benchmarks-true-state-lstar-3seeds/n_states=6-n_outputs=4-glitch_percent=0.05/8075721976dd859b53ad78d9dba3bffc/pmsatLearned-N6" {
0 [label="0|a", shape=record, style=rounded];
1 [label="1|c", shape=record, style=rounded];
2 [label="2|d", shape=record, style=rounded];
3 [label="3|a", shape=record, style=rounded];
4 [label="4|a", shape=record, style=rounded];
5 [label="5|c", shape=record, style=rounded];
0 -> 2  [label="z"];
0 -> 5  [label="y"];
0 -> 1  [label="x"];
1 -> 3  [label="x"];
1 -> 3  [label="z"];
1 -> 4  [label="y"];
2 -> 5  [label="x"];
2 -> 2  [label="y"];
2 -> 5  [label="z"];
3 -> 2  [label="x"];
3 -> 4  [label="y"];
3 -> 0  [label="z"];
4 -> 1  [label="x"];
4 -> 3  [label="y"];
4 -> 1  [label="z"];
5 -> 5  [label="y"];
5 -> 1  [label="z"];
5 -> 5  [label="x"];
__start0 [label="", shape=none];
__start0 -> 0  [label=""];
}
