digraph "benchmarks-true-state-lstar-rc10seeds/n_states=10-n_outputs=2-glitch_percent=0.01/e6095f670fe171d7368dac09e5ee5138/pmsatLearned_NOP-N10" {
0 [label="0|a", shape=record, style=rounded];
1 [label="1|b", shape=record, style=rounded];
2 [label="2|b", shape=record, style=rounded];
3 [label="3|b", shape=record, style=rounded];
4 [label="4|b", shape=record, style=rounded];
5 [label="5|b", shape=record, style=rounded];
6 [label="6|b", shape=record, style=rounded];
7 [label="7|b", shape=record, style=rounded];
8 [label="8|a", shape=record, style=rounded];
9 [label="9|b", shape=record, style=rounded];
0 -> 2  [label="x"];
0 -> 6  [label="y"];
0 -> 8  [label="z"];
1 -> 4  [label="z"];
1 -> 8  [label="y"];
1 -> 6  [label="x"];
2 -> 5  [label="x"];
2 -> 4  [label="y"];
2 -> 1  [label="z"];
3 -> 8  [label="x"];
3 -> 8  [label="y"];
3 -> 2  [label="z"];
4 -> 1  [label="x"];
4 -> 6  [label="y"];
4 -> 1  [label="z"];
5 -> 5  [label="x"];
5 -> 2  [label="y"];
5 -> 6  [label="z"];
6 -> 0  [label="x"];
6 -> 7  [label="y"];
6 -> 2  [label="z"];
7 -> 4  [label="x"];
7 -> 0  [label="y"];
7 -> 2  [label="z"];
8 -> 5  [label="x"];
8 -> 3  [label="y"];
8 -> 9  [label="z"];
9 -> 4  [label="x"];
9 -> 4  [label="y"];
9 -> 8  [label="z"];
__start0 [label="", shape=none];
__start0 -> 1  [label=""];
}
