digraph "benchmarks-true-state-lstar-songp/n_states=17-n_outputs=5-glitch_percent=0.02-pmstrat='fm'/0ed55d29e04287b7143a9cafd666b2ff/alergiaLearned" {
q0 [label="a"];
q1 [label="d"];
q2 [label="e"];
q3 [label="c"];
q4 [label="d"];
q5 [label="c"];
q6 [label="c"];
q7 [label="a"];
q8 [label="b"];
q0 -> q1  [label="z:0.9272727272727272"];
q0 -> q0  [label="z:0.05454545454545454"];
q0 -> q2  [label="z:0.01818181818181818"];
q0 -> q2  [label="x:0.01834862385321101"];
q0 -> q3  [label="x:0.9724770642201835"];
q0 -> q4  [label="x:0.009174311926605505"];
q0 -> q2  [label="y:0.9107142857142857"];
q0 -> q4  [label="y:0.03571428571428571"];
q0 -> q3  [label="y:0.05357142857142857"];
q1 -> q2  [label="y:0.9"];
q1 -> q8  [label="y:0.05"];
q1 -> q0  [label="y:0.05"];
q1 -> q2  [label="z:1.0"];
q1 -> q2  [label="x:0.8421052631578947"];
q1 -> q1  [label="x:0.10526315789473684"];
q1 -> q3  [label="x:0.05263157894736842"];
q2 -> q4  [label="x:0.3695652173913043"];
q2 -> q2  [label="x:0.2391304347826087"];
q2 -> q3  [label="x:0.2608695652173913"];
q2 -> q0  [label="x:0.13043478260869565"];
q2 -> q4  [label="y:0.36363636363636365"];
q2 -> q3  [label="y:0.11363636363636363"];
q2 -> q8  [label="y:0.25"];
q2 -> q0  [label="y:0.1590909090909091"];
q2 -> q2  [label="y:0.11363636363636363"];
q2 -> q4  [label="z:0.5333333333333333"];
q2 -> q0  [label="z:0.35555555555555557"];
q2 -> q2  [label="z:0.1111111111111111"];
q3 -> q5  [label="x:0.8793103448275862"];
q3 -> q0  [label="x:0.10344827586206896"];
q3 -> q8  [label="x:0.017241379310344827"];
q3 -> q6  [label="y:0.8333333333333334"];
q3 -> q2  [label="y:0.1388888888888889"];
q3 -> q1  [label="y:0.027777777777777776"];
q3 -> q7  [label="z:0.8181818181818182"];
q3 -> q8  [label="z:0.045454545454545456"];
q3 -> q2  [label="z:0.13636363636363635"];
q4 -> q0  [label="y:0.29411764705882354"];
q4 -> q8  [label="y:0.35294117647058826"];
q4 -> q3  [label="y:0.29411764705882354"];
q4 -> q2  [label="y:0.058823529411764705"];
q4 -> q3  [label="x:0.2857142857142857"];
q4 -> q1  [label="x:0.6428571428571429"];
q4 -> q2  [label="x:0.07142857142857142"];
q4 -> q2  [label="z:0.7058823529411765"];
q4 -> q1  [label="z:0.29411764705882354"];
q5 -> q7  [label="x:1.0"];
q5 -> q2  [label="y:1.0"];
q5 -> q2  [label="z:1.0"];
q6 -> q1  [label="y:1.0"];
q6 -> q8  [label="z:1.0"];
q6 -> q8  [label="x:1.0"];
q7 -> q3  [label="x:1.0"];
q7 -> q3  [label="y:0.5555555555555556"];
q7 -> q1  [label="y:0.4444444444444444"];
q7 -> q0  [label="z:0.5"];
q7 -> q2  [label="z:0.5"];
q8 -> q2  [label="x:1.0"];
q8 -> q3  [label="y:1.0"];
q8 -> q2  [label="z:1.0"];
__start0 [label="", shape=none];
__start0 -> q0  [label=""];
}
