digraph "benchmarks-true-state-lstar-3seeds/n_states=14-n_outputs=4-glitch_percent=0.02/8d2cb4e5cbfa88d5d85beaa58a78de5d/rpniGroundTruth" {
s0 [label="s0|c", shape=record, style=rounded];
s1 [label="s1|d", shape=record, style=rounded];
s2 [label="s2|a", shape=record, style=rounded];
s3 [label="s3|b", shape=record, style=rounded];
s4 [label="s4|b", shape=record, style=rounded];
s5 [label="s5|a", shape=record, style=rounded];
s6 [label="s6|c", shape=record, style=rounded];
s7 [label="s7|c", shape=record, style=rounded];
s8 [label="s8|b", shape=record, style=rounded];
s9 [label="s9|c", shape=record, style=rounded];
s10 [label="s10|b", shape=record, style=rounded];
s11 [label="s11|a", shape=record, style=rounded];
s12 [label="s12|c", shape=record, style=rounded];
s13 [label="s13|a", shape=record, style=rounded];
s0 -> s1  [label="x"];
s0 -> s2  [label="y"];
s0 -> s3  [label="z"];
s1 -> s4  [label="y"];
s1 -> s5  [label="z"];
s1 -> s6  [label="x"];
s2 -> s7  [label="z"];
s2 -> s8  [label="x"];
s2 -> s9  [label="y"];
s3 -> s10  [label="y"];
s3 -> s11  [label="x"];
s3 -> s12  [label="z"];
s4 -> s1  [label="z"];
s4 -> s4  [label="y"];
s4 -> s12  [label="x"];
s5 -> s7  [label="x"];
s5 -> s7  [label="y"];
s5 -> s9  [label="z"];
s6 -> s13  [label="x"];
s6 -> s2  [label="z"];
s6 -> s2  [label="y"];
s7 -> s5  [label="x"];
s7 -> s1  [label="y"];
s7 -> s4  [label="z"];
s8 -> s9  [label="z"];
s8 -> s12  [label="x"];
s8 -> s8  [label="y"];
s9 -> s6  [label="z"];
s9 -> s3  [label="x"];
s9 -> s3  [label="y"];
s10 -> s12  [label="y"];
s10 -> s1  [label="z"];
s10 -> s9  [label="x"];
s11 -> s7  [label="z"];
s11 -> s5  [label="y"];
s11 -> s12  [label="x"];
s12 -> s6  [label="x"];
s12 -> s12  [label="y"];
s12 -> s7  [label="z"];
s13 -> s12  [label="x"];
s13 -> s0  [label="y"];
s13 -> s2  [label="z"];
__start0 [label="", shape=none];
__start0 -> s0  [label=""];
}
