digraph "benchmarks-true-state-lstar-3seeds/n_states=11-n_outputs=8-glitch_percent=0.1/eebb61a1ae22a09b203a8673c5f35a79/alergiaLearned" {
q0 [label="d"];
q1 [label="d"];
q2 [label="g"];
q3 [label="c"];
q4 [label="f"];
q5 [label="e"];
q6 [label="f"];
q7 [label="d"];
q8 [label="h"];
q0 -> q1  [label="z:0.896551724137931"];
q0 -> q2  [label="z:0.034482758620689655"];
q0 -> q5  [label="z:0.06896551724137931"];
q0 -> q2  [label="y:0.06896551724137931"];
q0 -> q3  [label="y:0.896551724137931"];
q0 -> q4  [label="y:0.034482758620689655"];
q0 -> q4  [label="x:0.9107142857142857"];
q0 -> q5  [label="x:0.05357142857142857"];
q0 -> q1  [label="x:0.017857142857142856"];
q0 -> q2  [label="x:0.017857142857142856"];
q1 -> q5  [label="x:0.9375"];
q1 -> q2  [label="x:0.0625"];
q1 -> q5  [label="z:0.8333333333333334"];
q1 -> q1  [label="z:0.16666666666666666"];
q1 -> q2  [label="y:1.0"];
q2 -> q0  [label="x:0.7142857142857143"];
q2 -> q4  [label="x:0.2857142857142857"];
q2 -> q4  [label="z:0.6"];
q2 -> q5  [label="z:0.3"];
q2 -> q0  [label="z:0.1"];
q2 -> q0  [label="y:0.9090909090909091"];
q2 -> q2  [label="y:0.09090909090909091"];
q3 -> q5  [label="x:0.9444444444444444"];
q3 -> q4  [label="x:0.05555555555555555"];
q3 -> q6  [label="y:1.0"];
q3 -> q2  [label="z:0.9375"];
q3 -> q4  [label="z:0.0625"];
q4 -> q7  [label="x:1.0"];
q4 -> q2  [label="y:0.9411764705882353"];
q4 -> q0  [label="y:0.058823529411764705"];
q4 -> q8  [label="z:0.9545454545454546"];
q4 -> q5  [label="z:0.045454545454545456"];
q5 -> q8  [label="y:0.5384615384615384"];
q5 -> q3  [label="y:0.46153846153846156"];
q5 -> q8  [label="x:0.5"];
q5 -> q0  [label="x:0.5"];
q5 -> q1  [label="z:0.4"];
q5 -> q2  [label="z:0.6"];
q6 -> q3  [label="x:1.0"];
q6 -> q0  [label="y:0.8"];
q6 -> q4  [label="y:0.2"];
q6 -> q4  [label="z:1.0"];
q7 -> q2  [label="x:0.75"];
q7 -> q5  [label="x:0.25"];
q7 -> q4  [label="y:1.0"];
q7 -> q5  [label="z:1.0"];
q8 -> q0  [label="x:0.8571428571428571"];
q8 -> q4  [label="x:0.14285714285714285"];
q8 -> q4  [label="y:1.0"];
q8 -> q0  [label="z:1.0"];
__start0 [label="", shape=none];
__start0 -> q0  [label=""];
}
