digraph "pmsatLearned-N8-STOC" {
0 [label="0|a", shape=record, style=rounded];
1 [label="1|b", shape=record, style=rounded];
2 [label="2|c", shape=record, style=rounded];
3 [label="3|d", shape=record, style=rounded];
4 [label="4|b", shape=record, style=rounded];
5 [label="5|d", shape=record, style=rounded];
6 [label="6|b", shape=record, style=rounded];
7 [label="7|d", shape=record, style=rounded];
0 -> 4  [label="x (62)"];
0 -> 4  [label="y (75)"];
0 -> 1  [label="z (74)"];
1 -> 4  [label="z (142)"];
1 -> 6  [label="y (142)"];
1 -> 3  [label="x (162)"];
1 -> 1  [label="!y [1]"];
1 -> 0  [label="!z [2]"];
2 -> 2  [label="x (335)"];
2 -> 5  [label="y (342)"];
2 -> 2  [label="z (356)"];
2 -> 6  [label="!z [1]"];
2 -> 2  [label="!y [2]"];
3 -> 5  [label="x (102)"];
3 -> 2  [label="y (89)"];
3 -> 0  [label="z (110)"];
3 -> 4  [label="!z [1]"];
3 -> 5  [label="!y [1]"];
3 -> 4  [label="!x [1]"];
4 -> 3  [label="x (89)"];
4 -> 2  [label="y (79)"];
4 -> 3  [label="z (84)"];
4 -> 5  [label="!z [1]"];
4 -> 3  [label="!y [1]"];
5 -> 2  [label="x (128)"];
5 -> 2  [label="y (133)"];
5 -> 6  [label="z (139)"];
5 -> 5  [label="!y [1]"];
5 -> 2  [label="!z [1]"];
6 -> 7  [label="x (152)"];
6 -> 0  [label="y (135)"];
6 -> 6  [label="z (136)"];
6 -> 4  [label="!x [1]"];
6 -> 4  [label="!y [1]"];
6 -> 2  [label="!z [2]"];
7 -> 6  [label="x (64)"];
7 -> 7  [label="y (59)"];
7 -> 2  [label="z (63)"];
7 -> 6  [label="!z [1]"];
7 -> 7  [label="!x [1]"];
__start0 [label="", shape=none];
__start0 -> 1  [label=""];
}
