digraph "benchmarks-true-state-lstar-3seeds/n_states=12-n_outputs=4-glitch_percent=0.01/33861135f84d90f7425a1987bcafc9a2/rpniGroundTruth" {
s0 [label="s0|d", shape=record, style=rounded];
s1 [label="s1|a", shape=record, style=rounded];
s2 [label="s2|a", shape=record, style=rounded];
s3 [label="s3|c", shape=record, style=rounded];
s4 [label="s4|b", shape=record, style=rounded];
s5 [label="s5|a", shape=record, style=rounded];
s6 [label="s6|b", shape=record, style=rounded];
s7 [label="s7|b", shape=record, style=rounded];
s8 [label="s8|a", shape=record, style=rounded];
s9 [label="s9|d", shape=record, style=rounded];
s10 [label="s10|a", shape=record, style=rounded];
s11 [label="s11|b", shape=record, style=rounded];
s0 -> s1  [label="x"];
s0 -> s2  [label="z"];
s0 -> s3  [label="y"];
s1 -> s4  [label="y"];
s1 -> s5  [label="x"];
s1 -> s6  [label="z"];
s2 -> s7  [label="y"];
s2 -> s1  [label="z"];
s2 -> s8  [label="x"];
s3 -> s9  [label="x"];
s3 -> s10  [label="z"];
s3 -> s11  [label="y"];
s4 -> s10  [label="x"];
s4 -> s1  [label="y"];
s4 -> s10  [label="z"];
s5 -> s7  [label="x"];
s5 -> s2  [label="z"];
s5 -> s10  [label="y"];
s6 -> s11  [label="x"];
s6 -> s10  [label="z"];
s6 -> s3  [label="y"];
s7 -> s9  [label="y"];
s7 -> s0  [label="z"];
s7 -> s4  [label="x"];
s8 -> s7  [label="y"];
s8 -> s11  [label="z"];
s8 -> s9  [label="x"];
s9 -> s5  [label="x"];
s9 -> s0  [label="z"];
s9 -> s11  [label="y"];
s10 -> s6  [label="x"];
s10 -> s9  [label="z"];
s10 -> s6  [label="y"];
s11 -> s3  [label="x"];
s11 -> s8  [label="y"];
s11 -> s10  [label="z"];
__start0 [label="", shape=none];
__start0 -> s0  [label=""];
}
