digraph "benchmarks-true-state-lstar-3seeds/n_states=11-n_outputs=3-glitch_percent=0.02/f331815f5982082afa40b97abccae021/pmsatLearned-N11" {
0 [label="0|a", shape=record, style=rounded];
1 [label="1|b", shape=record, style=rounded];
2 [label="2|c", shape=record, style=rounded];
3 [label="3|b", shape=record, style=rounded];
4 [label="4|b", shape=record, style=rounded];
5 [label="5|b", shape=record, style=rounded];
6 [label="6|c", shape=record, style=rounded];
7 [label="7|a", shape=record, style=rounded];
8 [label="8|b", shape=record, style=rounded];
9 [label="9|c", shape=record, style=rounded];
10 [label="10|b", shape=record, style=rounded];
0 -> 1  [label="x"];
0 -> 1  [label="y"];
0 -> 6  [label="z"];
1 -> 4  [label="z"];
1 -> 3  [label="y"];
1 -> 7  [label="x"];
2 -> 10  [label="x"];
2 -> 6  [label="y"];
2 -> 5  [label="z"];
3 -> 0  [label="x"];
3 -> 5  [label="y"];
3 -> 2  [label="z"];
4 -> 9  [label="x"];
4 -> 10  [label="y"];
4 -> 2  [label="z"];
5 -> 2  [label="x"];
5 -> 7  [label="y"];
5 -> 8  [label="z"];
6 -> 9  [label="x"];
6 -> 9  [label="y"];
6 -> 8  [label="z"];
7 -> 6  [label="x"];
7 -> 8  [label="y"];
7 -> 10  [label="z"];
8 -> 3  [label="x"];
8 -> 10  [label="y"];
8 -> 10  [label="z"];
9 -> 9  [label="y"];
9 -> 5  [label="z"];
9 -> 7  [label="x"];
10 -> 9  [label="x"];
10 -> 2  [label="y"];
10 -> 3  [label="z"];
__start0 [label="", shape=none];
__start0 -> 1  [label=""];
}
