digraph "pmsatLearned-N6" {
0 [label="0|b", shape=record, style=rounded];
1 [label="1|c", shape=record, style=rounded];
2 [label="2|d", shape=record, style=rounded];
3 [label="3|e", shape=record, style=rounded];
4 [label="4|c", shape=record, style=rounded];
5 [label="5|b", shape=record, style=rounded];
0 -> 2  [label="x"];
0 -> 0  [label="y"];
0 -> 4  [label="z"];
1 -> 0  [label="x"];
1 -> 4  [label="y"];
1 -> 3  [label="z"];
2 -> 0  [label="z"];
2 -> 5  [label="y"];
2 -> 3  [label="x"];
3 -> 4  [label="x"];
3 -> 1  [label="y"];
3 -> 1  [label="z"];
4 -> 3  [label="x"];
4 -> 4  [label="z"];
4 -> 0  [label="y"];
5 -> 5  [label="y"];
5 -> 0  [label="z"];
5 -> 5  [label="x"];
__start0 [label="", shape=none];
__start0 -> 2  [label=""];
}
