{
    "is_sat": true,
    "num_states": 9,
    "automata_type": "moore",
    "solve_time": 0.16484737396240234,
    "solve_perf_counter": 0.1648439429991413,
    "input_alphabet": [
        "connection_req",
        "feature_req",
        "feature_rsp",
        "length_req",
        "length_rsp",
        "pairing_req",
        "scan_req",
        "version_req"
    ],
    "output_alphabet": [
        "Adv",
        "BTLE|BTLE_CTRL|BTLE_DATA|LL_FEATURE_RSP",
        "BTLE|BTLE_CTRL|BTLE_DATA|LL_LENGTH_RSP",
        "BTLE|BTLE_CTRL|BTLE_DATA|LL_UNKNOWN_RSP",
        "BTLE|BTLE_CTRL|BTLE_DATA|LL_VERSION_IND",
        "BTLE|BTLE_DATA",
        "BTLE|BTLE_DATA|L2CAP_Hdr|Raw|SM_Hdr",
        "BTLE|BTLE_DATA|L2CAP_Hdr|SM_Hdr|SM_Pairing_Response",
        "Empty"
    ],
    "optimal_solution": true,
    "timed_out": false,
    "num_vars": 25145,
    "num_hard": 287710,
    "num_soft": 2240,
    "cost": 106,
    "glitch_steps": [
        [
            0,
            9
        ],
        [
            1,
            6
        ],
        [
            5,
            5
        ],
        [
            5,
            6
        ],
        [
            7,
            5
        ],
        [
            11,
            6
        ],
        [
            13,
            5
        ],
        [
            13,
            7
        ],
        [
            15,
            5
        ],
        [
            16,
            7
        ],
        [
            18,
            6
        ],
        [
            18,
            8
        ],
        [
            19,
            6
        ],
        [
            21,
            5
        ],
        [
            23,
            5
        ],
        [
            23,
            6
        ],
        [
            23,
            8
        ],
        [
            25,
            6
        ],
        [
            25,
            9
        ],
        [
            26,
            10
        ],
        [
            27,
            6
        ],
        [
            27,
            9
        ],
        [
            29,
            5
        ],
        [
            29,
            6
        ],
        [
            29,
            7
        ],
        [
            29,
            8
        ],
        [
            29,
            9
        ],
        [
            31,
            4
        ],
        [
            31,
            5
        ],
        [
            33,
            4
        ],
        [
            34,
            4
        ],
        [
            35,
            6
        ],
        [
            37,
            4
        ],
        [
            37,
            5
        ],
        [
            37,
            6
        ],
        [
            39,
            4
        ],
        [
            39,
            5
        ],
        [
            39,
            6
        ],
        [
            39,
            10
        ],
        [
            41,
            4
        ],
        [
            41,
            6
        ],
        [
            42,
            4
        ],
        [
            43,
            4
        ],
        [
            47,
            3
        ],
        [
            49,
            4
        ],
        [
            50,
            4
        ],
        [
            51,
            4
        ],
        [
            53,
            6
        ],
        [
            55,
            3
        ],
        [
            57,
            4
        ],
        [
            58,
            4
        ],
        [
            59,
            4
        ],
        [
            63,
            3
        ],
        [
            67,
            3
        ],
        [
            68,
            3
        ],
        [
            71,
            9
        ],
        [
            73,
            4
        ],
        [
            73,
            6
        ],
        [
            74,
            4
        ],
        [
            74,
            7
        ],
        [
            75,
            4
        ],
        [
            75,
            7
        ],
        [
            78,
            8
        ],
        [
            79,
            5
        ],
        [
            79,
            6
        ],
        [
            80,
            7
        ],
        [
            82,
            3
        ],
        [
            82,
            4
        ],
        [
            85,
            4
        ],
        [
            87,
            4
        ],
        [
            95,
            5
        ],
        [
            101,
            5
        ],
        [
            106,
            6
        ],
        [
            106,
            7
        ],
        [
            109,
            6
        ],
        [
            119,
            4
        ],
        [
            119,
            5
        ],
        [
            121,
            4
        ],
        [
            121,
            6
        ],
        [
            122,
            4
        ],
        [
            124,
            9
        ],
        [
            125,
            4
        ],
        [
            127,
            4
        ],
        [
            128,
            6
        ],
        [
            129,
            3
        ],
        [
            129,
            6
        ],
        [
            130,
            3
        ],
        [
            131,
            3
        ],
        [
            131,
            5
        ],
        [
            136,
            6
        ],
        [
            138,
            9
        ],
        [
            145,
            7
        ],
        [
            146,
            5
        ],
        [
            151,
            3
        ],
        [
            156,
            4
        ],
        [
            159,
            3
        ],
        [
            161,
            6
        ],
        [
            167,
            3
        ],
        [
            171,
            3
        ],
        [
            172,
            3
        ],
        [
            183,
            9
        ],
        [
            190,
            8
        ],
        [
            194,
            8
        ],
        [
            203,
            6
        ],
        [
            203,
            8
        ],
        [
            204,
            3
        ]
    ],
    "dominant_reachable_states": 9,
    "glitched_delta_freq": [
        11,
        8,
        7,
        10,
        16,
        10,
        11,
        11,
        9,
        1,
        11,
        1
    ],
    "dominant_delta_freq": [
        13,
        37,
        15,
        82,
        24,
        17,
        14,
        16,
        9,
        14,
        14,
        13,
        17,
        21,
        17,
        23,
        97,
        13,
        37,
        126,
        33,
        13,
        14,
        14,
        28,
        260,
        45,
        30,
        14,
        72,
        32,
        23,
        15,
        9,
        16,
        12,
        7,
        39,
        76,
        16,
        39,
        15,
        14,
        21,
        27,
        22,
        21,
        15,
        11,
        12,
        108,
        11,
        24,
        65,
        8,
        12,
        13,
        79,
        8,
        15,
        13,
        29,
        13,
        25,
        12,
        16,
        10,
        18,
        24,
        15,
        16,
        16
    ],
    "bisimilar_to_pmsat_with_states": 9
}