digraph "pmsatLearned-rc2-N25-STOC" {
0 [label="0|Adv", shape=record, style=rounded];
1 [label="1|BTLE|BTLE_CTRL|BTLE_DATA|LL_FEATURE_RSP", shape=record, style=rounded];
2 [label="2|BTLE|BTLE_CTRL|BTLE_DATA|LL_LENGTH_RSP", shape=record, style=rounded];
3 [label="3|BTLE|BTLE_CTRL|BTLE_DATA|LL_UNKNOWN_RSP", shape=record, style=rounded];
4 [label="4|BTLE|BTLE_CTRL|BTLE_DATA|LL_VERSION_IND", shape=record, style=rounded];
5 [label="5|BTLE|BTLE_DATA", shape=record, style=rounded];
6 [label="6|BTLE|BTLE_DATA|L2CAP_Hdr|Raw|SM_Hdr", shape=record, style=rounded];
7 [label="7|BTLE|BTLE_DATA|L2CAP_Hdr|SM_Hdr|SM_Pairing_Response", shape=record, style=rounded];
8 [label="8|Empty", shape=record, style=rounded];
9 [label="9|BTLE|BTLE_DATA|L2CAP_Hdr|Raw|SM_Hdr", shape=record, style=rounded];
10 [label="10|BTLE|BTLE_CTRL|BTLE_DATA|LL_UNKNOWN_RSP", shape=record, style=rounded];
11 [label="11|BTLE|BTLE_DATA|L2CAP_Hdr|SM_Hdr|SM_Pairing_Response", shape=record, style=rounded];
12 [label="12|BTLE|BTLE_CTRL|BTLE_DATA|LL_UNKNOWN_RSP", shape=record, style=rounded];
13 [label="13|BTLE|BTLE_CTRL|BTLE_DATA|LL_FEATURE_RSP", shape=record, style=rounded];
14 [label="14|BTLE|BTLE_DATA", shape=record, style=rounded];
15 [label="15|BTLE|BTLE_DATA|L2CAP_Hdr|Raw|SM_Hdr", shape=record, style=rounded];
16 [label="16|BTLE|BTLE_DATA|L2CAP_Hdr|Raw|SM_Hdr", shape=record, style=rounded];
17 [label="17|BTLE|BTLE_DATA", shape=record, style=rounded];
18 [label="18|BTLE|BTLE_CTRL|BTLE_DATA|LL_UNKNOWN_RSP", shape=record, style=rounded];
19 [label="19|BTLE|BTLE_DATA", shape=record, style=rounded];
20 [label="20|BTLE|BTLE_DATA", shape=record, style=rounded];
21 [label="21|BTLE|BTLE_DATA", shape=record, style=rounded];
22 [label="22|BTLE|BTLE_DATA|L2CAP_Hdr|Raw|SM_Hdr", shape=record, style=rounded];
23 [label="23|BTLE|BTLE_CTRL|BTLE_DATA|LL_LENGTH_RSP", shape=record, style=rounded];
24 [label="24|BTLE|BTLE_CTRL|BTLE_DATA|LL_VERSION_IND", shape=record, style=rounded];
0 -> 9  [label="connection_req (25)"];
0 -> 8  [label="length_req (15)"];
0 -> 8  [label="pairing_req (32)"];
0 -> 8  [label="version_req (39)"];
0 -> 8  [label="feature_req (24)"];
0 -> 8  [label="length_rsp (21)"];
0 -> 0  [label="scan_req (17)"];
0 -> 8  [label="feature_rsp (24)"];
1 -> 15  [label="connection_req (10)"];
1 -> 1  [label="feature_req (6)"];
1 -> 14  [label="version_req (14)"];
1 -> 3  [label="feature_rsp (3)"];
1 -> 2  [label="length_req (15)"];
1 -> 5  [label="length_rsp (9)"];
1 -> 7  [label="pairing_req (9)"];
1 -> 0  [label="scan_req (8)"];
2 -> 2  [label="length_req (9)"];
2 -> 16  [label="connection_req (9)"];
2 -> 20  [label="version_req (11)"];
2 -> 0  [label="scan_req (10)"];
2 -> 7  [label="pairing_req (6)"];
2 -> 5  [label="length_rsp (9)"];
2 -> 1  [label="feature_req (8)"];
2 -> 3  [label="feature_rsp (5)"];
3 -> 19  [label="version_req (13)"];
3 -> 2  [label="length_req (6)"];
3 -> 22  [label="connection_req (8)"];
3 -> 1  [label="feature_req (5)"];
3 -> 3  [label="feature_rsp (9)"];
3 -> 5  [label="length_rsp (8)"];
3 -> 7  [label="pairing_req (6)"];
3 -> 0  [label="scan_req (5)"];
4 -> 1  [label="feature_req (29)"];
4 -> 3  [label="feature_rsp (27)"];
4 -> 5  [label="length_rsp (12)"];
4 -> 2  [label="length_req (22)"];
4 -> 19  [label="version_req (33)"];
4 -> 7  [label="pairing_req (20)"];
4 -> 15  [label="connection_req (8)"];
4 -> 0  [label="scan_req (9)"];
5 -> 8  [label="length_req (10)"];
5 -> 8  [label="version_req (28)"];
5 -> 8  [label="pairing_req (16)"];
5 -> 8  [label="feature_req (15)"];
5 -> 8  [label="feature_rsp (16)"];
5 -> 0  [label="scan_req (11)"];
5 -> 8  [label="length_rsp (11)"];
5 -> 16  [label="connection_req (8)"];
6 -> 4  [label="version_req (5)"];
6 -> 7  [label="pairing_req (6)"];
6 -> 16  [label="connection_req (1)"];
6 -> 1  [label="feature_req (1)"];
6 -> 12  [label="feature_rsp (1)"];
6 -> 0  [label="scan_req (1)"];
6 -> 2  [label="length_req (1)"];
7 -> 19  [label="version_req (11)"];
7 -> 1  [label="feature_req (15)"];
7 -> 7  [label="pairing_req (7)"];
7 -> 2  [label="length_req (6)"];
7 -> 6  [label="connection_req (3)"];
7 -> 5  [label="length_rsp (7)"];
7 -> 3  [label="feature_rsp (4)"];
7 -> 0  [label="scan_req (7)"];
8 -> 9  [label="connection_req (260)"];
8 -> 8  [label="length_req (79)"];
8 -> 8  [label="version_req (108)"];
8 -> 8  [label="length_rsp (76)"];
8 -> 0  [label="scan_req (97)"];
8 -> 8  [label="pairing_req (65)"];
8 -> 8  [label="feature_req (82)"];
8 -> 8  [label="feature_rsp (72)"];
9 -> 4  [label="version_req (105)"];
9 -> 18  [label="feature_rsp (25)"];
9 -> 23  [label="length_req (29)"];
9 -> 11  [label="pairing_req (32)"];
9 -> 13  [label="feature_req (27)"];
9 -> 5  [label="length_rsp (28)"];
9 -> 0  [label="scan_req (15)"];
9 -> 6  [label="connection_req (8)"];
9 -> 24  [color=red, label="version_req [1]"];
10 -> 5  [label="length_rsp (1)"];
10 -> 0  [label="scan_req (2)"];
10 -> 24  [label="version_req (2)"];
10 -> 13  [label="feature_req (1)"];
10 -> 16  [label="connection_req (2)"];
10 -> 11  [label="pairing_req (1)"];
11 -> 0  [label="scan_req (5)"];
11 -> 4  [label="version_req (14)"];
11 -> 13  [label="feature_req (6)"];
11 -> 10  [label="feature_rsp (9)"];
11 -> 23  [label="length_req (9)"];
11 -> 16  [label="connection_req (4)"];
11 -> 5  [label="length_rsp (6)"];
11 -> 11  [label="pairing_req (2)"];
12 -> 24  [label="version_req (2)"];
12 -> 13  [label="feature_req (2)"];
12 -> 17  [label="length_rsp (2)"];
12 -> 6  [label="connection_req (1)"];
12 -> 23  [label="length_req (1)"];
13 -> 13  [label="feature_req (8)"];
13 -> 0  [label="scan_req (6)"];
13 -> 16  [label="connection_req (6)"];
13 -> 23  [label="length_req (8)"];
13 -> 4  [label="version_req (10)"];
13 -> 12  [label="feature_rsp (5)"];
13 -> 5  [label="length_rsp (5)"];
13 -> 11  [label="pairing_req (7)"];
14 -> 18  [label="feature_rsp (1)"];
14 -> 14  [label="version_req (4)"];
14 -> 6  [label="connection_req (2)"];
14 -> 2  [label="length_req (2)"];
14 -> 5  [label="length_rsp (6)"];
14 -> 1  [label="feature_req (4)"];
14 -> 0  [label="scan_req (1)"];
14 -> 7  [label="pairing_req (1)"];
15 -> 4  [label="version_req (7)"];
15 -> 5  [label="length_rsp (3)"];
15 -> 1  [label="feature_req (6)"];
15 -> 11  [label="pairing_req (3)"];
15 -> 9  [label="connection_req (4)"];
15 -> 23  [label="length_req (4)"];
15 -> 0  [label="scan_req (1)"];
16 -> 4  [label="version_req (6)"];
16 -> 13  [label="feature_req (3)"];
16 -> 2  [label="length_req (3)"];
16 -> 0  [label="scan_req (5)"];
16 -> 7  [label="pairing_req (2)"];
16 -> 5  [label="length_rsp (4)"];
16 -> 6  [label="connection_req (2)"];
16 -> 3  [label="feature_rsp (3)"];
17 -> 22  [label="connection_req (1)"];
18 -> 13  [label="feature_req (4)"];
18 -> 0  [label="scan_req (6)"];
18 -> 15  [label="connection_req (4)"];
18 -> 12  [label="feature_rsp (3)"];
18 -> 23  [label="length_req (2)"];
18 -> 5  [label="length_rsp (5)"];
18 -> 11  [label="pairing_req (4)"];
18 -> 4  [label="version_req (4)"];
19 -> 15  [label="connection_req (6)"];
19 -> 3  [label="feature_rsp (8)"];
19 -> 0  [label="scan_req (9)"];
19 -> 5  [label="length_rsp (7)"];
19 -> 20  [label="version_req (9)"];
19 -> 1  [label="feature_req (5)"];
19 -> 2  [label="length_req (7)"];
19 -> 7  [label="pairing_req (5)"];
20 -> 2  [label="length_req (4)"];
20 -> 7  [label="pairing_req (1)"];
20 -> 0  [label="scan_req (3)"];
20 -> 3  [label="feature_rsp (2)"];
20 -> 14  [label="version_req (3)"];
20 -> 1  [label="feature_req (2)"];
20 -> 5  [label="length_rsp (4)"];
20 -> 15  [label="connection_req (1)"];
21 -> 3  [label="version_req (1)"];
22 -> 4  [label="version_req (2)"];
22 -> 11  [label="pairing_req (2)"];
22 -> 13  [label="feature_req (2)"];
22 -> 5  [label="length_rsp (2)"];
22 -> 18  [label="feature_rsp (1)"];
23 -> 18  [label="feature_rsp (7)"];
23 -> 4  [label="version_req (9)"];
23 -> 16  [label="connection_req (6)"];
23 -> 13  [label="feature_req (6)"];
23 -> 23  [label="length_req (7)"];
23 -> 5  [label="length_rsp (5)"];
23 -> 11  [label="pairing_req (7)"];
23 -> 0  [label="scan_req (7)"];
24 -> 0  [label="scan_req (1)"];
24 -> 5  [label="length_rsp (1)"];
24 -> 2  [label="length_req (1)"];
24 -> 21  [label="feature_rsp (1)"];
24 -> 7  [label="pairing_req (1)"];
__start0 [label="", shape=none];
__start0 -> 8  [label=""];
}
