digraph "benchmarks-true-state-lstar-3seeds/n_states=12-n_outputs=5-glitch_percent=0.01/eb3cbf07fade81608daefdb842beca31/RealModel" {
s1 [label="s1|a", shape=record, style=rounded];
s2 [label="s2|c", shape=record, style=rounded];
s3 [label="s3|d", shape=record, style=rounded];
s4 [label="s4|a", shape=record, style=rounded];
s5 [label="s5|c", shape=record, style=rounded];
s6 [label="s6|e", shape=record, style=rounded];
s7 [label="s7|e", shape=record, style=rounded];
s8 [label="s8|a", shape=record, style=rounded];
s9 [label="s9|a", shape=record, style=rounded];
s10 [label="s10|c", shape=record, style=rounded];
s11 [label="s11|b", shape=record, style=rounded];
s12 [label="s12|d", shape=record, style=rounded];
s1 -> s2  [label="x"];
s1 -> s11  [label="y"];
s1 -> s12  [label="z"];
s2 -> s6  [label="x"];
s2 -> s10  [label="y"];
s2 -> s8  [label="z"];
s3 -> s4  [label="x"];
s3 -> s11  [label="y"];
s3 -> s2  [label="z"];
s4 -> s12  [label="x"];
s4 -> s9  [label="y"];
s4 -> s10  [label="z"];
s5 -> s7  [label="x"];
s5 -> s10  [label="y"];
s5 -> s10  [label="z"];
s6 -> s3  [label="x"];
s6 -> s2  [label="y"];
s6 -> s7  [label="z"];
s7 -> s1  [label="x"];
s7 -> s11  [label="y"];
s7 -> s7  [label="z"];
s8 -> s6  [label="x"];
s8 -> s5  [label="y"];
s8 -> s11  [label="z"];
s9 -> s10  [label="x"];
s9 -> s5  [label="y"];
s9 -> s9  [label="z"];
s10 -> s12  [label="x"];
s10 -> s7  [label="y"];
s10 -> s6  [label="z"];
s11 -> s5  [label="x"];
s11 -> s7  [label="y"];
s11 -> s4  [label="z"];
s12 -> s3  [label="x"];
s12 -> s9  [label="y"];
s12 -> s12  [label="z"];
__start0 [label="", shape=none];
__start0 -> s1  [label=""];
}
