digraph "benchmarks-true-state-lstar-rc10seeds/n_states=12-n_outputs=6-glitch_percent=0.0/89068c41dc720bc2c2413fcec28b5389/pmsatLearned_NOP-N12-STOC" {
0 [label="0|a", shape=record, style=rounded];
1 [label="1|f", shape=record, style=rounded];
2 [label="2|a", shape=record, style=rounded];
3 [label="3|d", shape=record, style=rounded];
4 [label="4|e", shape=record, style=rounded];
5 [label="5|a", shape=record, style=rounded];
6 [label="6|c", shape=record, style=rounded];
7 [label="7|f", shape=record, style=rounded];
8 [label="8|c", shape=record, style=rounded];
9 [label="9|c", shape=record, style=rounded];
10 [label="10|e", shape=record, style=rounded];
11 [label="11|a", shape=record, style=rounded];
0 -> 8  [label="z (42)"];
0 -> 11  [label="y (54)"];
0 -> 5  [label="x (54)"];
1 -> 10  [label="x (7)"];
1 -> 9  [label="y (7)"];
1 -> 7  [label="z (7)"];
2 -> 0  [label="x (5)"];
2 -> 7  [label="y (5)"];
2 -> 4  [label="z (5)"];
3 -> 5  [label="x (6)"];
3 -> 7  [label="y (6)"];
3 -> 8  [label="z (6)"];
4 -> 3  [label="x (9)"];
4 -> 8  [label="y (9)"];
4 -> 4  [label="z (9)"];
5 -> 4  [label="x (18)"];
5 -> 6  [label="y (18)"];
5 -> 1  [label="z (18)"];
6 -> 6  [label="x (8)"];
6 -> 4  [label="y (8)"];
6 -> 10  [label="z (8)"];
7 -> 11  [label="x (8)"];
7 -> 9  [label="y (8)"];
7 -> 1  [label="z (8)"];
8 -> 3  [label="x (19)"];
8 -> 7  [label="y (19)"];
8 -> 6  [label="z (7)"];
9 -> 6  [label="x (7)"];
9 -> 1  [label="y (7)"];
9 -> 11  [label="z (7)"];
10 -> 4  [label="x (7)"];
10 -> 11  [label="y (7)"];
10 -> 11  [label="z (7)"];
11 -> 10  [label="x (21)"];
11 -> 2  [label="y (21)"];
11 -> 9  [label="z (21)"];
__start0 [label="", shape=none];
__start0 -> 0  [label=""];
}
