digraph "benchmarks-true-state-lstar-3seeds/n_states=16-n_outputs=8-glitch_percent=0.05/6b63f3cf9422ea3638e2e10fb211a8bc/alergiaLearned" {
q0 [label="d"];
q1 [label="b"];
q2 [label="g"];
q3 [label="c"];
q4 [label="e"];
q5 [label="h"];
q6 [label="f"];
q7 [label="a"];
q8 [label="d"];
q9 [label="g"];
q10 [label="e"];
q0 -> q1  [label="z:0.9365079365079365"];
q0 -> q4  [label="z:0.031746031746031744"];
q0 -> q5  [label="z:0.015873015873015872"];
q0 -> q0  [label="z:0.015873015873015872"];
q0 -> q2  [label="y:0.8870967741935484"];
q0 -> q6  [label="y:0.016129032258064516"];
q0 -> q4  [label="y:0.016129032258064516"];
q0 -> q0  [label="y:0.08064516129032258"];
q0 -> q3  [label="x:0.925531914893617"];
q0 -> q4  [label="x:0.031914893617021274"];
q0 -> q7  [label="x:0.0425531914893617"];
q1 -> q7  [label="x:1.0"];
q1 -> q8  [label="y:1.0"];
q1 -> q8  [label="z:1.0"];
q2 -> q6  [label="x:0.8095238095238095"];
q2 -> q4  [label="x:0.09523809523809523"];
q2 -> q7  [label="x:0.0"];
q2 -> q5  [label="x:0.09523809523809523"];
q2 -> q9  [label="y:0.8181818181818182"];
q2 -> q1  [label="y:0.13636363636363635"];
q2 -> q0  [label="y:0.045454545454545456"];
q2 -> q5  [label="z:0.7727272727272727"];
q2 -> q0  [label="z:0.22727272727272727"];
q3 -> q4  [label="x:1.0"];
q3 -> q6  [label="y:1.0"];
q3 -> q10  [label="z:0.9375"];
q3 -> q7  [label="z:0.0625"];
q4 -> q7  [label="z:0.9523809523809523"];
q4 -> q0  [label="z:0.047619047619047616"];
q4 -> q2  [label="y:0.8260869565217391"];
q4 -> q6  [label="y:0.08695652173913043"];
q4 -> q7  [label="y:0.08695652173913043"];
q4 -> q10  [label="x:0.8823529411764706"];
q4 -> q2  [label="x:0.058823529411764705"];
q4 -> q0  [label="x:0.058823529411764705"];
q5 -> q4  [label="x:0.8333333333333334"];
q5 -> q0  [label="x:0.16666666666666666"];
q5 -> q2  [label="y:1.0"];
q5 -> q2  [label="z:1.0"];
q6 -> q4  [label="x:0.07692307692307693"];
q6 -> q0  [label="x:0.9230769230769231"];
q6 -> q1  [label="y:0.4444444444444444"];
q6 -> q3  [label="y:0.5555555555555556"];
q6 -> q1  [label="z:0.45454545454545453"];
q6 -> q0  [label="z:0.5454545454545454"];
q7 -> q7  [label="x:0.8888888888888888"];
q7 -> q0  [label="x:0.1111111111111111"];
q7 -> q1  [label="x:0.0"];
q7 -> q4  [label="y:1.0"];
q7 -> q6  [label="y:0.0"];
q7 -> q0  [label="z:1.0"];
q7 -> q6  [label="z:0.0"];
q8 -> q7  [label="x:0.5"];
q8 -> q3  [label="x:0.5"];
q8 -> q0  [label="y:0.4444444444444444"];
q8 -> q4  [label="y:0.5555555555555556"];
q8 -> q1  [label="z:0.5454545454545454"];
q8 -> q0  [label="z:0.45454545454545453"];
q9 -> q5  [label="x:1.0"];
q9 -> q2  [label="y:1.0"];
q9 -> q0  [label="z:1.0"];
q10 -> q0  [label="x:0.5555555555555556"];
q10 -> q2  [label="x:0.4444444444444444"];
q10 -> q2  [label="y:0.5555555555555556"];
q10 -> q7  [label="y:0.4444444444444444"];
q10 -> q7  [label="z:0.2857142857142857"];
q10 -> q0  [label="z:0.7142857142857143"];
__start0 [label="", shape=none];
__start0 -> q0  [label=""];
}
