digraph "benchmarks-true-state-lstar-rc10seeds/n_states=10-n_outputs=5-glitch_percent=0.05/f56dc36e95530ae3b11b70c1381b4687/pmsatLearned_NOP-N10-STOC" {
0 [label="0|b", shape=record, style=rounded];
1 [label="1|a", shape=record, style=rounded];
2 [label="2|e", shape=record, style=rounded];
3 [label="3|b", shape=record, style=rounded];
4 [label="4|e", shape=record, style=rounded];
5 [label="5|e", shape=record, style=rounded];
6 [label="6|b", shape=record, style=rounded];
7 [label="7|e", shape=record, style=rounded];
8 [label="8|e", shape=record, style=rounded];
9 [label="9|d", shape=record, style=rounded];
0 -> 7  [label="z (16)"];
0 -> 1  [label="y (50)"];
0 -> 9  [label="x (47)"];
0 -> 3  [label="!x [1]"];
0 -> 5  [label="!z [1]"];
0 -> 5  [label="!y [1]"];
0 -> 6  [label="!z [2]"];
1 -> 3  [label="x (16)"];
1 -> 8  [label="y (19)"];
1 -> 4  [label="z (18)"];
1 -> 3  [label="!z [1]"];
2 -> 1  [label="y (7)"];
2 -> 3  [label="z (6)"];
2 -> 6  [label="x (6)"];
2 -> 1  [label="!x [1]"];
3 -> 2  [label="x (10)"];
3 -> 7  [label="y (10)"];
3 -> 6  [label="z (8)"];
4 -> 1  [label="x (6)"];
4 -> 8  [label="z (5)"];
4 -> 0  [label="!y [1]"];
4 -> 9  [label="y (6)"];
5 -> 9  [label="y (7)"];
5 -> 3  [label="x (6)"];
5 -> 3  [label="z (5)"];
6 -> 4  [label="x (5)"];
6 -> 8  [label="y (7)"];
6 -> 9  [label="z (7)"];
6 -> 4  [label="!z [1]"];
7 -> 9  [label="x (6)"];
7 -> 2  [label="y (5)"];
7 -> 3  [label="z (7)"];
8 -> 3  [label="y (6)"];
8 -> 5  [label="z (6)"];
8 -> 4  [label="x (6)"];
9 -> 2  [label="x (21)"];
9 -> 5  [label="y (19)"];
9 -> 6  [label="z (18)"];
__start0 [label="", shape=none];
__start0 -> 0  [label=""];
}
