digraph "benchmarks-true-state-lstar-songp/n_states=13-n_outputs=7-glitch_percent=0.02-pmstrat='rc2'/fcf964fa5d20cce44069e6d3973453f1/alergiaLearned" {
q0 [label="a"];
q1 [label="c"];
q2 [label="d"];
q3 [label="f"];
q4 [label="a"];
q5 [label="b"];
q6 [label="g"];
q7 [label="f"];
q8 [label="d"];
q9 [label="e"];
q10 [label="c"];
q0 -> q1  [label="z:1.0"];
q0 -> q2  [label="y:0.9642857142857143"];
q0 -> q4  [label="y:0.017857142857142856"];
q0 -> q6  [label="y:0.017857142857142856"];
q0 -> q3  [label="x:0.9821428571428571"];
q0 -> q5  [label="x:0.017857142857142856"];
q1 -> q6  [label="x:0.875"];
q1 -> q3  [label="x:0.125"];
q1 -> q7  [label="y:0.9583333333333334"];
q1 -> q0  [label="y:0.041666666666666664"];
q1 -> q8  [label="z:0.875"];
q1 -> q3  [label="z:0.125"];
q2 -> q5  [label="x:1.0"];
q2 -> q4  [label="y:0.9375"];
q2 -> q5  [label="y:0.0625"];
q2 -> q7  [label="z:1.0"];
q3 -> q9  [label="x:0.8636363636363636"];
q3 -> q3  [label="x:0.13636363636363635"];
q3 -> q6  [label="y:0.782608695652174"];
q3 -> q0  [label="y:0.17391304347826086"];
q3 -> q1  [label="y:0.043478260869565216"];
q3 -> q10  [label="z:0.8333333333333334"];
q3 -> q3  [label="z:0.16666666666666666"];
q4 -> q6  [label="z:1.0"];
q4 -> q3  [label="x:1.0"];
q4 -> q5  [label="y:1.0"];
q5 -> q6  [label="z:1.0"];
q5 -> q9  [label="x:1.0"];
q5 -> q1  [label="y:1.0"];
q6 -> q7  [label="z:0.5454545454545454"];
q6 -> q0  [label="z:0.45454545454545453"];
q6 -> q0  [label="x:0.4166666666666667"];
q6 -> q3  [label="x:0.5833333333333334"];
q6 -> q6  [label="y:0.45454545454545453"];
q6 -> q1  [label="y:0.5454545454545454"];
q7 -> q3  [label="x:1.0"];
q7 -> q3  [label="z:0.5454545454545454"];
q7 -> q1  [label="z:0.45454545454545453"];
q7 -> q0  [label="y:0.4444444444444444"];
q7 -> q1  [label="y:0.5555555555555556"];
q8 -> q5  [label="x:1.0"];
q8 -> q5  [label="y:1.0"];
q8 -> q1  [label="z:1.0"];
q9 -> q1  [label="x:1.0"];
q9 -> q1  [label="y:0.8571428571428571"];
q9 -> q3  [label="y:0.14285714285714285"];
q9 -> q1  [label="z:1.0"];
q10 -> q3  [label="x:1.0"];
q10 -> q3  [label="y:1.0"];
q10 -> q3  [label="z:1.0"];
__start0 [label="", shape=none];
__start0 -> q0  [label=""];
}
