digraph "benchmarks-true-state-lstar-3seeds/n_states=10-n_outputs=4-glitch_percent=0.05/68ea463647561b94f79993262c1e336d/rpniGroundTruth" {
s0 [label="s0|d", shape=record, style=rounded];
s1 [label="s1|b", shape=record, style=rounded];
s2 [label="s2|b", shape=record, style=rounded];
s3 [label="s3|a", shape=record, style=rounded];
s4 [label="s4|a", shape=record, style=rounded];
s5 [label="s5|b", shape=record, style=rounded];
s6 [label="s6|c", shape=record, style=rounded];
s7 [label="s7|a", shape=record, style=rounded];
s8 [label="s8|d", shape=record, style=rounded];
s9 [label="s9|a", shape=record, style=rounded];
s0 -> s1  [label="x"];
s0 -> s2  [label="y"];
s0 -> s3  [label="z"];
s1 -> s4  [label="z"];
s1 -> s5  [label="x"];
s1 -> s6  [label="y"];
s2 -> s7  [label="x"];
s2 -> s8  [label="y"];
s2 -> s9  [label="z"];
s3 -> s6  [label="z"];
s3 -> s9  [label="y"];
s3 -> s6  [label="x"];
s4 -> s9  [label="y"];
s4 -> s2  [label="z"];
s4 -> s3  [label="x"];
s5 -> s1  [label="z"];
s5 -> s2  [label="x"];
s5 -> s3  [label="y"];
s6 -> s9  [label="x"];
s6 -> s4  [label="y"];
s6 -> s9  [label="z"];
s7 -> s2  [label="z"];
s7 -> s6  [label="x"];
s7 -> s9  [label="y"];
s8 -> s6  [label="y"];
s8 -> s0  [label="x"];
s8 -> s7  [label="z"];
s9 -> s9  [label="x"];
s9 -> s5  [label="y"];
s9 -> s5  [label="z"];
__start0 [label="", shape=none];
__start0 -> s0  [label=""];
}
