digraph "benchmarks-true-state-lstar-3seeds/n_states=11-n_outputs=4-glitch_percent=0.1/11ddc150f1d1f929e57700d27436acb3/pmsatLearned-N11-STOC" {
0 [label="0|a", shape=record, style=rounded];
1 [label="1|c", shape=record, style=rounded];
2 [label="2|d", shape=record, style=rounded];
3 [label="3|d", shape=record, style=rounded];
4 [label="4|d", shape=record, style=rounded];
5 [label="5|c", shape=record, style=rounded];
6 [label="6|c", shape=record, style=rounded];
7 [label="7|a", shape=record, style=rounded];
8 [label="8|d", shape=record, style=rounded];
9 [label="9|d", shape=record, style=rounded];
10 [label="10|a", shape=record, style=rounded];
0 -> 3  [label="x (25)"];
0 -> 5  [label="y (20)"];
0 -> 10  [label="z (21)"];
0 -> 4  [label="!z [1]"];
0 -> 10  [label="!y [1]"];
1 -> 9  [label="z (37)"];
1 -> 0  [label="y (68)"];
1 -> 2  [label="x (64)"];
1 -> 2  [label="!y [2]"];
1 -> 5  [label="!y [1]"];
1 -> 0  [label="!x [1]"];
1 -> 6  [label="!x [3]"];
1 -> 0  [label="!z [1]"];
2 -> 7  [label="x (29)"];
2 -> 4  [label="y (18)"];
2 -> 8  [label="z (19)"];
2 -> 1  [label="!z [1]"];
2 -> 3  [label="!x [1]"];
2 -> 1  [label="!y [1]"];
3 -> 10  [label="y (9)"];
3 -> 3  [label="z (10)"];
3 -> 5  [label="x (22)"];
4 -> 3  [label="x (9)"];
4 -> 1  [label="y (8)"];
4 -> 10  [label="z (5)"];
5 -> 3  [label="x (23)"];
5 -> 3  [label="y (9)"];
5 -> 1  [label="z (11)"];
6 -> 5  [label="x (10)"];
6 -> 4  [label="z (5)"];
6 -> 8  [label="y (4)"];
7 -> 10  [label="x (7)"];
7 -> 5  [label="y (4)"];
7 -> 9  [label="z (3)"];
8 -> 5  [label="y (5)"];
8 -> 8  [label="z (8)"];
8 -> 5  [label="x (8)"];
8 -> 6  [label="!x [1]"];
9 -> 6  [label="x (18)"];
9 -> 3  [label="y (6)"];
9 -> 10  [label="z (7)"];
9 -> 8  [label="!x [1]"];
9 -> 4  [label="!y [1]"];
10 -> 2  [label="x (17)"];
10 -> 5  [label="y (8)"];
10 -> 0  [label="z (8)"];
__start0 [label="", shape=none];
__start0 -> 1  [label=""];
}
