digraph "benchmarks-true-state-lstar-3seeds/n_states=11-n_outputs=4-glitch_percent=0.1/11ddc150f1d1f929e57700d27436acb3/pmsatLearned-N11" {
0 [label="0|a", shape=record, style=rounded];
1 [label="1|c", shape=record, style=rounded];
2 [label="2|d", shape=record, style=rounded];
3 [label="3|d", shape=record, style=rounded];
4 [label="4|d", shape=record, style=rounded];
5 [label="5|c", shape=record, style=rounded];
6 [label="6|c", shape=record, style=rounded];
7 [label="7|a", shape=record, style=rounded];
8 [label="8|d", shape=record, style=rounded];
9 [label="9|d", shape=record, style=rounded];
10 [label="10|a", shape=record, style=rounded];
0 -> 3  [label="x"];
0 -> 5  [label="y"];
0 -> 10  [label="z"];
1 -> 9  [label="z"];
1 -> 0  [label="y"];
1 -> 2  [label="x"];
2 -> 7  [label="x"];
2 -> 4  [label="y"];
2 -> 8  [label="z"];
3 -> 10  [label="y"];
3 -> 3  [label="z"];
3 -> 5  [label="x"];
4 -> 3  [label="x"];
4 -> 1  [label="y"];
4 -> 10  [label="z"];
5 -> 3  [label="x"];
5 -> 3  [label="y"];
5 -> 1  [label="z"];
6 -> 5  [label="x"];
6 -> 4  [label="z"];
6 -> 8  [label="y"];
7 -> 10  [label="x"];
7 -> 5  [label="y"];
7 -> 9  [label="z"];
8 -> 5  [label="y"];
8 -> 8  [label="z"];
8 -> 5  [label="x"];
9 -> 6  [label="x"];
9 -> 3  [label="y"];
9 -> 10  [label="z"];
10 -> 2  [label="x"];
10 -> 5  [label="y"];
10 -> 0  [label="z"];
__start0 [label="", shape=none];
__start0 -> 1  [label=""];
}
