digraph "benchmarks-true-state-lstar-rc10seeds/n_states=12-n_outputs=8-glitch_percent=0.02/25021d7e08b5096c7a39122175e1bceb/pmsatLearned_NOP-N12-STOC" {
0 [label="0|b", shape=record, style=rounded];
1 [label="1|h", shape=record, style=rounded];
2 [label="2|g", shape=record, style=rounded];
3 [label="3|d", shape=record, style=rounded];
4 [label="4|f", shape=record, style=rounded];
5 [label="5|d", shape=record, style=rounded];
6 [label="6|c", shape=record, style=rounded];
7 [label="7|e", shape=record, style=rounded];
8 [label="8|c", shape=record, style=rounded];
9 [label="9|c", shape=record, style=rounded];
10 [label="10|d", shape=record, style=rounded];
11 [label="11|c", shape=record, style=rounded];
0 -> 9  [label="x (5)"];
0 -> 11  [label="y (5)"];
0 -> 9  [label="z (5)"];
1 -> 3  [label="x (17)"];
1 -> 0  [label="y (18)"];
1 -> 7  [label="z (17)"];
2 -> 8  [label="x (21)"];
2 -> 5  [label="z (21)"];
2 -> 11  [label="y (21)"];
3 -> 11  [label="x (6)"];
3 -> 1  [label="y (6)"];
3 -> 2  [label="z (6)"];
4 -> 6  [label="z (43)"];
4 -> 2  [label="y (54)"];
4 -> 1  [label="x (53)"];
4 -> 5  [label="!z [1]"];
4 -> 3  [label="!x [1]"];
5 -> 7  [label="x (8)"];
5 -> 9  [label="y (8)"];
5 -> 5  [label="z (6)"];
6 -> 9  [label="x (18)"];
6 -> 10  [label="y (18)"];
6 -> 4  [label="z (6)"];
7 -> 6  [label="x (7)"];
7 -> 10  [label="y (6)"];
7 -> 2  [label="z (7)"];
7 -> 1  [label="!y [1]"];
8 -> 2  [label="x (7)"];
8 -> 5  [label="y (7)"];
8 -> 4  [label="z (7)"];
9 -> 8  [label="x (8)"];
9 -> 7  [label="y (8)"];
9 -> 3  [label="z (8)"];
10 -> 8  [label="x (8)"];
10 -> 2  [label="z (8)"];
10 -> 10  [label="y (6)"];
11 -> 10  [label="x (7)"];
11 -> 2  [label="y (7)"];
11 -> 5  [label="z (7)"];
__start0 [label="", shape=none];
__start0 -> 4  [label=""];
}
