digraph "benchmarks-true-state-lstar-rc10seeds/n_states=16-n_outputs=7-glitch_percent=0.02/de32aaf9310b63dd72f8521c74770ce7/pmsatLearned_NOP-N16-STOC" {
0 [label="0|a", shape=record, style=rounded];
1 [label="1|f", shape=record, style=rounded];
2 [label="2|e", shape=record, style=rounded];
3 [label="3|g", shape=record, style=rounded];
4 [label="4|c", shape=record, style=rounded];
5 [label="5|e", shape=record, style=rounded];
6 [label="6|g", shape=record, style=rounded];
7 [label="7|g", shape=record, style=rounded];
8 [label="8|c", shape=record, style=rounded];
9 [label="9|d", shape=record, style=rounded];
10 [label="10|c", shape=record, style=rounded];
11 [label="11|f", shape=record, style=rounded];
12 [label="12|a", shape=record, style=rounded];
13 [label="13|a", shape=record, style=rounded];
14 [label="14|b", shape=record, style=rounded];
15 [label="15|a", shape=record, style=rounded];
0 -> 8  [label="z (54)"];
0 -> 11  [label="y (55)"];
0 -> 7  [label="x (90)"];
0 -> 5  [label="!y [1]"];
0 -> 4  [label="!x [1]"];
1 -> 14  [label="x (7)"];
1 -> 14  [label="y (7)"];
1 -> 3  [label="z (7)"];
2 -> 12  [label="x (7)"];
2 -> 9  [label="y (7)"];
2 -> 8  [label="z (7)"];
3 -> 15  [label="x (8)"];
3 -> 7  [label="y (8)"];
3 -> 3  [label="z (8)"];
4 -> 13  [label="x (16)"];
4 -> 2  [label="y (18)"];
4 -> 14  [label="z (15)"];
4 -> 15  [label="!x [1]"];
5 -> 9  [label="x (5)"];
5 -> 7  [label="y (5)"];
5 -> 1  [label="z (6)"];
5 -> 4  [label="!x [1]"];
6 -> 8  [label="x (5)"];
6 -> 11  [label="y (5)"];
6 -> 2  [label="z (5)"];
7 -> 4  [label="x (54)"];
7 -> 15  [label="y (21)"];
7 -> 3  [label="z (21)"];
7 -> 14  [label="!z [1]"];
8 -> 10  [label="x (19)"];
8 -> 1  [label="y (18)"];
8 -> 9  [label="z (20)"];
8 -> 14  [label="!y [1]"];
8 -> 11  [label="!z [1]"];
9 -> 7  [label="x (8)"];
9 -> 0  [label="y (8)"];
9 -> 10  [label="z (8)"];
10 -> 1  [label="x (7)"];
10 -> 7  [label="y (7)"];
10 -> 11  [label="z (5)"];
11 -> 6  [label="x (21)"];
11 -> 5  [label="y (20)"];
11 -> 12  [label="z (21)"];
11 -> 7  [label="!z [1]"];
12 -> 10  [label="x (6)"];
12 -> 5  [label="z (6)"];
12 -> 14  [label="y (5)"];
13 -> 0  [label="x (5)"];
13 -> 9  [label="z (5)"];
13 -> 2  [label="y (4)"];
14 -> 15  [label="x (7)"];
14 -> 8  [label="y (8)"];
14 -> 11  [label="z (8)"];
15 -> 11  [label="x (7)"];
15 -> 3  [label="y (7)"];
15 -> 1  [label="z (7)"];
__start0 [label="", shape=none];
__start0 -> 0  [label=""];
}
