digraph "benchmarks-true-state-lstar-3seeds/n_states=9-n_outputs=5-glitch_percent=0.0/7bdd1505c44c9284179d4f41bd570f22/pmsatLearned-N9" {
0 [label="0|a", shape=record, style=rounded];
1 [label="1|b", shape=record, style=rounded];
2 [label="2|d", shape=record, style=rounded];
3 [label="3|e", shape=record, style=rounded];
4 [label="4|e", shape=record, style=rounded];
5 [label="5|e", shape=record, style=rounded];
6 [label="6|b", shape=record, style=rounded];
7 [label="7|a", shape=record, style=rounded];
8 [label="8|e", shape=record, style=rounded];
0 -> 4  [label="z"];
0 -> 7  [label="y"];
0 -> 2  [label="x"];
1 -> 5  [label="x"];
1 -> 4  [label="y"];
1 -> 6  [label="z"];
2 -> 5  [label="x"];
2 -> 8  [label="y"];
2 -> 6  [label="z"];
3 -> 3  [label="x"];
3 -> 1  [label="y"];
3 -> 8  [label="z"];
4 -> 6  [label="x"];
4 -> 2  [label="y"];
4 -> 5  [label="z"];
5 -> 1  [label="x"];
5 -> 6  [label="y"];
5 -> 7  [label="z"];
6 -> 1  [label="x"];
6 -> 3  [label="y"];
6 -> 2  [label="z"];
7 -> 1  [label="x"];
7 -> 3  [label="y"];
7 -> 3  [label="z"];
8 -> 1  [label="x"];
8 -> 1  [label="y"];
8 -> 2  [label="z"];
__start0 [label="", shape=none];
__start0 -> 0  [label=""];
}
