digraph "benchmarks-true-state-lstar-3seeds/n_states=16-n_outputs=6-glitch_percent=0.05/683ccd29671d7b9661d0b66874c8929f/alergiaLearned" {
q0 [label="e"];
q1 [label="e"];
q2 [label="d"];
q3 [label="f"];
q4 [label="b"];
q5 [label="c"];
q6 [label="f"];
q7 [label="e"];
q8 [label="b"];
q9 [label="a"];
q10 [label="b"];
q0 -> q1  [label="z:0.9137931034482759"];
q0 -> q2  [label="z:0.034482758620689655"];
q0 -> q6  [label="z:0.017241379310344827"];
q0 -> q4  [label="z:0.034482758620689655"];
q0 -> q3  [label="y:0.9272727272727272"];
q0 -> q2  [label="y:0.01818181818181818"];
q0 -> q5  [label="y:0.01818181818181818"];
q0 -> q0  [label="y:0.03636363636363636"];
q0 -> q4  [label="x:0.9270833333333334"];
q0 -> q5  [label="x:0.020833333333333332"];
q0 -> q7  [label="x:0.03125"];
q0 -> q6  [label="x:0.010416666666666666"];
q0 -> q2  [label="x:0.010416666666666666"];
q1 -> q5  [label="x:0.9411764705882353"];
q1 -> q0  [label="x:0.058823529411764705"];
q1 -> q5  [label="y:1.0"];
q1 -> q2  [label="z:1.0"];
q2 -> q0  [label="x:0.5333333333333333"];
q2 -> q4  [label="x:0.4666666666666667"];
q2 -> q3  [label="y:0.5333333333333333"];
q2 -> q0  [label="y:0.4666666666666667"];
q2 -> q3  [label="z:1.0"];
q3 -> q7  [label="x:0.95"];
q3 -> q2  [label="x:0.05"];
q3 -> q2  [label="y:0.8571428571428571"];
q3 -> q7  [label="y:0.047619047619047616"];
q3 -> q3  [label="y:0.09523809523809523"];
q3 -> q8  [label="z:0.76"];
q3 -> q6  [label="z:0.12"];
q3 -> q5  [label="z:0.12"];
q4 -> q6  [label="y:0.9444444444444444"];
q4 -> q4  [label="y:0.05555555555555555"];
q4 -> q9  [label="z:0.8095238095238095"];
q4 -> q6  [label="z:0.14285714285714285"];
q4 -> q2  [label="z:0.047619047619047616"];
q4 -> q10  [label="x:0.9245283018867925"];
q4 -> q7  [label="x:0.07547169811320754"];
q5 -> q8  [label="x:0.5454545454545454"];
q5 -> q1  [label="x:0.45454545454545453"];
q5 -> q5  [label="y:0.5"];
q5 -> q0  [label="y:0.5"];
q5 -> q4  [label="z:1.0"];
q6 -> q3  [label="z:0.6363636363636364"];
q6 -> q5  [label="z:0.36363636363636365"];
q6 -> q2  [label="x:0.6363636363636364"];
q6 -> q0  [label="x:0.36363636363636365"];
q6 -> q3  [label="y:0.5"];
q6 -> q5  [label="y:0.1"];
q6 -> q2  [label="y:0.4"];
q7 -> q4  [label="z:0.5833333333333334"];
q7 -> q7  [label="z:0.4166666666666667"];
q7 -> q7  [label="x:0.5"];
q7 -> q2  [label="x:0.5"];
q7 -> q0  [label="y:1.0"];
q8 -> q3  [label="x:0.625"];
q8 -> q0  [label="x:0.375"];
q8 -> q4  [label="y:0.45454545454545453"];
q8 -> q3  [label="y:0.45454545454545453"];
q8 -> q0  [label="y:0.09090909090909091"];
q8 -> q3  [label="z:0.45454545454545453"];
q8 -> q2  [label="z:0.5454545454545454"];
q9 -> q6  [label="x:1.0"];
q9 -> q2  [label="z:1.0"];
q9 -> q2  [label="y:1.0"];
q10 -> q7  [label="x:1.0"];
q10 -> q8  [label="y:1.0"];
q10 -> q6  [label="z:1.0"];
__start0 [label="", shape=none];
__start0 -> q0  [label=""];
}
