digraph "benchmarks-true-state-lstar-rc10seeds/n_states=10-n_outputs=5-glitch_percent=0.01/90d376bd6fc47e6349a63bb393e5ede7/pmsatLearned_NOP-N10" {
0 [label="0|b", shape=record, style=rounded];
1 [label="1|a", shape=record, style=rounded];
2 [label="2|c", shape=record, style=rounded];
3 [label="3|e", shape=record, style=rounded];
4 [label="4|b", shape=record, style=rounded];
5 [label="5|d", shape=record, style=rounded];
6 [label="6|c", shape=record, style=rounded];
7 [label="7|a", shape=record, style=rounded];
8 [label="8|d", shape=record, style=rounded];
9 [label="9|d", shape=record, style=rounded];
0 -> 2  [label="x"];
0 -> 5  [label="y"];
0 -> 7  [label="z"];
1 -> 8  [label="x"];
1 -> 6  [label="y"];
1 -> 4  [label="z"];
2 -> 9  [label="z"];
2 -> 4  [label="y"];
2 -> 8  [label="x"];
3 -> 4  [label="x"];
3 -> 7  [label="y"];
3 -> 1  [label="z"];
4 -> 0  [label="x"];
4 -> 7  [label="y"];
4 -> 6  [label="z"];
5 -> 3  [label="x"];
5 -> 3  [label="y"];
5 -> 4  [label="z"];
6 -> 9  [label="x"];
6 -> 0  [label="y"];
6 -> 3  [label="z"];
7 -> 1  [label="x"];
7 -> 5  [label="y"];
7 -> 7  [label="z"];
8 -> 5  [label="x"];
8 -> 1  [label="y"];
8 -> 3  [label="z"];
9 -> 2  [label="x"];
9 -> 8  [label="y"];
9 -> 1  [label="z"];
__start0 [label="", shape=none];
__start0 -> 2  [label=""];
}
