digraph "benchmarks-true-state-lstar-3seeds/n_states=11-n_outputs=3-glitch_percent=0.1/925dc8f271bb3e595034a4f8bdf71f16/alergiaLearned" {
q0 [label="b"];
q1 [label="b"];
q2 [label="b"];
q3 [label="b"];
q4 [label="a"];
q5 [label="b"];
q6 [label="b"];
q0 -> q1  [label="z:1.0"];
q0 -> q4  [label="z:0.0"];
q0 -> q2  [label="y:0.9326923076923077"];
q0 -> q4  [label="y:0.0673076923076923"];
q0 -> q3  [label="x:0.9565217391304348"];
q0 -> q4  [label="x:0.043478260869565216"];
q1 -> q4  [label="x:0.8695652173913043"];
q1 -> q1  [label="x:0.13043478260869565"];
q1 -> q1  [label="y:0.8181818181818182"];
q1 -> q4  [label="y:0.18181818181818182"];
q1 -> q1  [label="z:1.0"];
q2 -> q4  [label="x:0.8333333333333334"];
q2 -> q2  [label="x:0.16666666666666666"];
q2 -> q4  [label="y:0.8484848484848485"];
q2 -> q1  [label="y:0.15151515151515152"];
q2 -> q5  [label="z:1.0"];
q3 -> q5  [label="x:1.0"];
q3 -> q6  [label="z:0.896551724137931"];
q3 -> q4  [label="z:0.10344827586206896"];
q3 -> q4  [label="y:0.8666666666666667"];
q3 -> q0  [label="y:0.13333333333333333"];
q4 -> q4  [label="z:0.2222222222222222"];
q4 -> q0  [label="z:0.7777777777777778"];
q4 -> q4  [label="x:0.25925925925925924"];
q4 -> q0  [label="x:0.7407407407407407"];
q4 -> q0  [label="y:0.7352941176470589"];
q4 -> q4  [label="y:0.2647058823529412"];
q5 -> q0  [label="y:0.9444444444444444"];
q5 -> q4  [label="y:0.05555555555555555"];
q5 -> q1  [label="z:1.0"];
q5 -> q0  [label="x:1.0"];
q6 -> q0  [label="x:1.0"];
q6 -> q0  [label="y:1.0"];
q6 -> q4  [label="z:1.0"];
__start0 [label="", shape=none];
__start0 -> q0  [label=""];
}
