digraph "pmsatLearned-N5" {
0 [label="0|a", shape=record, style=rounded];
1 [label="1|d", shape=record, style=rounded];
2 [label="2|e", shape=record, style=rounded];
3 [label="3|d", shape=record, style=rounded];
4 [label="4|e", shape=record, style=rounded];
0 -> 1  [label="x"];
0 -> 3  [label="y"];
0 -> 0  [label="z"];
1 -> 3  [label="x"];
1 -> 2  [label="y"];
1 -> 1  [label="z"];
2 -> 4  [label="z"];
2 -> 3  [label="y"];
2 -> 0  [label="x"];
3 -> 2  [label="x"];
3 -> 4  [label="y"];
3 -> 1  [label="z"];
4 -> 3  [label="x"];
4 -> 2  [label="y"];
4 -> 0  [label="z"];
__start0 [label="", shape=none];
__start0 -> 2  [label=""];
}
