digraph "benchmarks-true-state-lstar-3seeds/n_states=8-n_outputs=2-glitch_percent=0.01/de83ca8bc3e348cbacd6c02574b9e135/RealModel" {
s1 [label="s1|b", shape=record, style=rounded];
s2 [label="s2|a", shape=record, style=rounded];
s3 [label="s3|b", shape=record, style=rounded];
s4 [label="s4|b", shape=record, style=rounded];
s5 [label="s5|b", shape=record, style=rounded];
s6 [label="s6|b", shape=record, style=rounded];
s7 [label="s7|b", shape=record, style=rounded];
s8 [label="s8|b", shape=record, style=rounded];
s1 -> s6  [label="x"];
s1 -> s2  [label="y"];
s1 -> s7  [label="z"];
s2 -> s8  [label="x"];
s2 -> s8  [label="y"];
s2 -> s1  [label="z"];
s3 -> s4  [label="x"];
s3 -> s6  [label="y"];
s3 -> s8  [label="z"];
s4 -> s4  [label="x"];
s4 -> s1  [label="y"];
s4 -> s6  [label="z"];
s5 -> s6  [label="x"];
s5 -> s6  [label="y"];
s5 -> s4  [label="z"];
s6 -> s3  [label="x"];
s6 -> s4  [label="y"];
s6 -> s5  [label="z"];
s7 -> s6  [label="x"];
s7 -> s7  [label="y"];
s7 -> s4  [label="z"];
s8 -> s4  [label="x"];
s8 -> s1  [label="y"];
s8 -> s3  [label="z"];
__start0 [label="", shape=none];
__start0 -> s1  [label=""];
}
