digraph "benchmarks-true-state-lstar-3seeds/n_states=12-n_outputs=8-glitch_percent=0.05/0f6ce3e27305dd9c2235394410adea9e/pmsatLearned-N12" {
0 [label="0|c", shape=record, style=rounded];
1 [label="1|d", shape=record, style=rounded];
2 [label="2|e", shape=record, style=rounded];
3 [label="3|f", shape=record, style=rounded];
4 [label="4|g", shape=record, style=rounded];
5 [label="5|h", shape=record, style=rounded];
6 [label="6|d", shape=record, style=rounded];
7 [label="7|e", shape=record, style=rounded];
8 [label="8|d", shape=record, style=rounded];
9 [label="9|g", shape=record, style=rounded];
10 [label="10|g", shape=record, style=rounded];
11 [label="11|f", shape=record, style=rounded];
0 -> 7  [label="y"];
0 -> 10  [label="z"];
0 -> 11  [label="x"];
1 -> 8  [label="z"];
1 -> 6  [label="y"];
1 -> 0  [label="x"];
2 -> 8  [label="x"];
2 -> 11  [label="y"];
2 -> 3  [label="z"];
3 -> 5  [label="x"];
3 -> 6  [label="y"];
3 -> 4  [label="z"];
4 -> 0  [label="x"];
4 -> 11  [label="z"];
4 -> 3  [label="y"];
5 -> 9  [label="x"];
5 -> 10  [label="y"];
5 -> 0  [label="z"];
6 -> 5  [label="x"];
6 -> 2  [label="y"];
6 -> 9  [label="z"];
7 -> 3  [label="x"];
7 -> 8  [label="y"];
7 -> 3  [label="z"];
8 -> 3  [label="x"];
8 -> 3  [label="z"];
8 -> 4  [label="y"];
9 -> 1  [label="x"];
9 -> 2  [label="y"];
9 -> 5  [label="z"];
10 -> 1  [label="x"];
10 -> 1  [label="y"];
10 -> 0  [label="z"];
11 -> 2  [label="x"];
11 -> 6  [label="y"];
11 -> 1  [label="z"];
__start0 [label="", shape=none];
__start0 -> 1  [label=""];
}
