digraph "benchmarks-true-state-lstar-rc10seeds/n_states=16-n_outputs=3-glitch_percent=0.0/4ed8ebeeeb59f4d0131b743260b6cda8/pmsatLearned_NOP-N16-STOC" {
0 [label="0|c", shape=record, style=rounded];
1 [label="1|b", shape=record, style=rounded];
2 [label="2|b", shape=record, style=rounded];
3 [label="3|a", shape=record, style=rounded];
4 [label="4|a", shape=record, style=rounded];
5 [label="5|a", shape=record, style=rounded];
6 [label="6|c", shape=record, style=rounded];
7 [label="7|b", shape=record, style=rounded];
8 [label="8|b", shape=record, style=rounded];
9 [label="9|c", shape=record, style=rounded];
10 [label="10|c", shape=record, style=rounded];
11 [label="11|b", shape=record, style=rounded];
12 [label="12|a", shape=record, style=rounded];
13 [label="13|a", shape=record, style=rounded];
14 [label="14|b", shape=record, style=rounded];
15 [label="15|c", shape=record, style=rounded];
0 -> 8  [label="x (9)"];
0 -> 9  [label="y (7)"];
0 -> 1  [label="z (7)"];
1 -> 2  [label="z (69)"];
1 -> 5  [label="y (70)"];
1 -> 7  [label="x (122)"];
2 -> 8  [label="x (24)"];
2 -> 9  [label="y (22)"];
2 -> 6  [label="z (22)"];
3 -> 4  [label="x (32)"];
3 -> 14  [label="y (27)"];
3 -> 12  [label="z (24)"];
4 -> 4  [label="x (15)"];
4 -> 12  [label="y (20)"];
4 -> 1  [label="z (8)"];
5 -> 11  [label="x (28)"];
5 -> 10  [label="y (35)"];
5 -> 13  [label="z (25)"];
6 -> 5  [label="x (7)"];
6 -> 0  [label="y (6)"];
6 -> 2  [label="z (6)"];
7 -> 3  [label="x (75)"];
7 -> 0  [label="y (27)"];
7 -> 15  [label="z (23)"];
8 -> 10  [label="x (11)"];
8 -> 9  [label="y (12)"];
8 -> 10  [label="z (8)"];
9 -> 5  [label="x (17)"];
9 -> 9  [label="y (14)"];
9 -> 12  [label="z (11)"];
10 -> 13  [label="x (13)"];
10 -> 3  [label="y (12)"];
10 -> 13  [label="z (9)"];
11 -> 9  [label="x (11)"];
11 -> 10  [label="y (14)"];
11 -> 7  [label="z (8)"];
12 -> 5  [label="x (13)"];
12 -> 11  [label="y (13)"];
12 -> 15  [label="z (9)"];
13 -> 12  [label="x (12)"];
13 -> 3  [label="y (12)"];
13 -> 7  [label="z (8)"];
14 -> 4  [label="x (7)"];
14 -> 1  [label="y (6)"];
14 -> 9  [label="z (6)"];
15 -> 11  [label="x (9)"];
15 -> 8  [label="y (7)"];
15 -> 3  [label="z (7)"];
__start0 [label="", shape=none];
__start0 -> 1  [label=""];
}
