digraph "benchmarks-true-state-lstar-rc10seeds/n_states=8-n_outputs=5-glitch_percent=0.0/f175cf9946ec4ae79cbc1bbea37b8325/pmsatLearned_NOP-N8" {
0 [label="0|c", shape=record, style=rounded];
1 [label="1|b", shape=record, style=rounded];
2 [label="2|e", shape=record, style=rounded];
3 [label="3|d", shape=record, style=rounded];
4 [label="4|d", shape=record, style=rounded];
5 [label="5|c", shape=record, style=rounded];
6 [label="6|a", shape=record, style=rounded];
7 [label="7|c", shape=record, style=rounded];
0 -> 5  [label="x"];
0 -> 5  [label="y"];
0 -> 5  [label="z"];
1 -> 7  [label="x"];
1 -> 4  [label="y"];
1 -> 6  [label="z"];
2 -> 1  [label="x"];
2 -> 1  [label="y"];
2 -> 7  [label="z"];
3 -> 2  [label="z"];
3 -> 0  [label="y"];
3 -> 1  [label="x"];
4 -> 7  [label="x"];
4 -> 5  [label="y"];
4 -> 6  [label="z"];
5 -> 4  [label="x"];
5 -> 6  [label="y"];
5 -> 7  [label="z"];
6 -> 3  [label="x"];
6 -> 1  [label="y"];
6 -> 5  [label="z"];
7 -> 5  [label="x"];
7 -> 6  [label="y"];
7 -> 7  [label="z"];
__start0 [label="", shape=none];
__start0 -> 3  [label=""];
}
