digraph "benchmarks-true-state-lstar-3seeds/n_states=10-n_outputs=4-glitch_percent=0.1/0f1cb1b8ad61dd63693ac42e9fe78a0d/alergiaLearned" {
q0 [label="a"];
q1 [label="a"];
q2 [label="b"];
q3 [label="d"];
q4 [label="c"];
q5 [label="b"];
q0 -> q1  [label="z:0.8076923076923077"];
q0 -> q2  [label="z:0.07692307692307693"];
q0 -> q3  [label="z:0.11538461538461539"];
q0 -> q2  [label="y:0.7741935483870968"];
q0 -> q0  [label="y:0.1935483870967742"];
q0 -> q4  [label="y:0.03225806451612903"];
q0 -> q3  [label="x:0.7903225806451613"];
q0 -> q4  [label="x:0.03225806451612903"];
q0 -> q1  [label="x:0.12903225806451613"];
q0 -> q2  [label="x:0.04838709677419355"];
q1 -> q0  [label="x:0.6666666666666666"];
q1 -> q3  [label="x:0.20833333333333334"];
q1 -> q2  [label="x:0.125"];
q1 -> q0  [label="y:0.8095238095238095"];
q1 -> q4  [label="y:0.19047619047619047"];
q1 -> q0  [label="z:0.44"];
q1 -> q3  [label="z:0.4"];
q1 -> q2  [label="z:0.16"];
q2 -> q4  [label="x:0.8"];
q2 -> q0  [label="x:0.2"];
q2 -> q1  [label="y:0.95"];
q2 -> q4  [label="y:0.05"];
q2 -> q5  [label="z:0.7222222222222222"];
q2 -> q3  [label="z:0.2222222222222222"];
q2 -> q1  [label="z:0.05555555555555555"];
q3 -> q1  [label="x:1.0"];
q3 -> q1  [label="y:1.0"];
q3 -> q1  [label="z:1.0"];
q4 -> q1  [label="z:1.0"];
q4 -> q4  [label="y:1.0"];
q4 -> q0  [label="x:1.0"];
q5 -> q0  [label="x:1.0"];
q5 -> q3  [label="z:1.0"];
q5 -> q0  [label="y:1.0"];
__start0 [label="", shape=none];
__start0 -> q0  [label=""];
}
