digraph "benchmarks-true-state-lstar-3seeds/n_states=6-n_outputs=4-glitch_percent=0.01/8d7a0e3c32dff8e9952a29e38f9d0012/RealModel" {
s1 [label="s1|a", shape=record, style=rounded];
s2 [label="s2|d", shape=record, style=rounded];
s3 [label="s3|a", shape=record, style=rounded];
s4 [label="s4|b", shape=record, style=rounded];
s5 [label="s5|b", shape=record, style=rounded];
s6 [label="s6|a", shape=record, style=rounded];
s1 -> s2  [label="x"];
s1 -> s3  [label="y"];
s1 -> s5  [label="z"];
s2 -> s4  [label="x"];
s2 -> s6  [label="y"];
s2 -> s2  [label="z"];
s3 -> s5  [label="x"];
s3 -> s3  [label="y"];
s3 -> s5  [label="z"];
s4 -> s4  [label="x"];
s4 -> s6  [label="y"];
s4 -> s4  [label="z"];
s5 -> s3  [label="x"];
s5 -> s6  [label="y"];
s5 -> s1  [label="z"];
s6 -> s3  [label="x"];
s6 -> s2  [label="y"];
s6 -> s4  [label="z"];
__start0 [label="", shape=none];
__start0 -> s1  [label=""];
}
