digraph "benchmarks-true-state-lstar-3seeds/n_states=17-n_outputs=2-glitch_percent=0.1/907eb237f9417d66e2d1d588d852e253/alergiaLearned" {
q0 [label="a"];
q1 [label="b"];
q2 [label="b"];
q3 [label="a"];
q4 [label="a"];
q5 [label="b"];
q6 [label="a"];
q7 [label="a"];
q0 -> q1  [label="z:0.9361702127659575"];
q0 -> q4  [label="z:0.06382978723404255"];
q0 -> q2  [label="y:0.9872611464968153"];
q0 -> q0  [label="y:0.012738853503184714"];
q0 -> q3  [label="x:0.9900990099009901"];
q0 -> q5  [label="x:0.009900990099009901"];
q1 -> q5  [label="x:0.9583333333333334"];
q1 -> q4  [label="x:0.041666666666666664"];
q1 -> q5  [label="y:0.7567567567567568"];
q1 -> q3  [label="y:0.24324324324324326"];
q1 -> q4  [label="z:0.7931034482758621"];
q1 -> q5  [label="z:0.20689655172413793"];
q2 -> q6  [label="x:0.9629629629629629"];
q2 -> q5  [label="x:0.037037037037037035"];
q2 -> q5  [label="y:0.9848484848484849"];
q2 -> q0  [label="y:0.015151515151515152"];
q2 -> q4  [label="z:0.75"];
q2 -> q5  [label="z:0.25"];
q3 -> q5  [label="y:0.9354838709677419"];
q3 -> q0  [label="y:0.06451612903225806"];
q3 -> q5  [label="z:0.7073170731707317"];
q3 -> q0  [label="z:0.2926829268292683"];
q3 -> q4  [label="x:1.0"];
q4 -> q5  [label="z:0.4"];
q4 -> q0  [label="z:0.6"];
q4 -> q7  [label="y:0.5319148936170213"];
q4 -> q1  [label="y:0.46808510638297873"];
q4 -> q4  [label="x:0.82"];
q4 -> q1  [label="x:0.18"];
q5 -> q1  [label="z:0.9058823529411765"];
q5 -> q0  [label="z:0.09411764705882353"];
q5 -> q3  [label="x:0.6307692307692307"];
q5 -> q1  [label="x:0.36923076923076925"];
q5 -> q4  [label="y:0.6515151515151515"];
q5 -> q2  [label="y:0.3484848484848485"];
q6 -> q3  [label="x:1.0"];
q6 -> q0  [label="z:1.0"];
q6 -> q0  [label="y:0.5384615384615384"];
q6 -> q5  [label="y:0.46153846153846156"];
q7 -> q1  [label="x:0.2857142857142857"];
q7 -> q0  [label="x:0.7142857142857143"];
q7 -> q1  [label="z:0.5"];
q7 -> q0  [label="z:0.5"];
q7 -> q0  [label="y:0.5"];
q7 -> q1  [label="y:0.5"];
__start0 [label="", shape=none];
__start0 -> q0  [label=""];
}
