digraph "pmsatLearned-N8-STOC" {
0 [label="0|a", shape=record, style=rounded];
1 [label="1|b", shape=record, style=rounded];
2 [label="2|c", shape=record, style=rounded];
3 [label="3|d", shape=record, style=rounded];
4 [label="4|e", shape=record, style=rounded];
5 [label="5|a", shape=record, style=rounded];
6 [label="6|c", shape=record, style=rounded];
7 [label="7|e", shape=record, style=rounded];
0 -> 2  [label="x (220)"];
0 -> 1  [label="y (190)"];
0 -> 2  [label="z (237)"];
0 -> 6  [label="!z [1]"];
0 -> 0  [label="!x [3]"];
0 -> 5  [label="!x [1]"];
0 -> 1  [label="!z [1] t1"];
1 -> 2  [label="x (238)"];
1 -> 2  [label="y (219)"];
1 -> 4  [label="z (225)"];
1 -> 0  [label="!x [1]"];
1 -> 7  [label="!y [2]"];
1 -> 3  [label="!z [1]"];
1 -> 1  [label="!z [1] t1"];
2 -> 0  [label="x (473)"];
2 -> 7  [label="y (467)"];
2 -> 1  [label="z (466)"];
2 -> 2  [label="!y [4]"];
2 -> 0  [label="!z [1]"];
2 -> 2  [label="!z [1] t1"];
2 -> 5  [label="!x [1]"];
2 -> 1  [label="!y [4] t1"];
2 -> 2  [label="!x [2]"];
2 -> 6  [label="!x [1] t1"];
3 -> 7  [label="x (99)"];
3 -> 1  [label="y (98)"];
3 -> 5  [label="z (104)"];
3 -> 2  [label="!y [2]"];
3 -> 2  [label="!x [1]"];
3 -> 4  [label="!z [1]"];
4 -> 3  [label="z (339)"];
4 -> 6  [label="y (327)"];
4 -> 2  [label="x (373)"];
4 -> 7  [label="!y [2]"];
4 -> 1  [label="!y [2] t1"];
4 -> 4  [label="!y [1]"];
4 -> 0  [label="!x [1]"];
4 -> 4  [label="!z [1]"];
4 -> 1  [label="!z [1] t1"];
4 -> 5  [label="!x [1] t1"];
4 -> 4  [label="!x [1] t2"];
5 -> 4  [label="x (77)"];
5 -> 7  [label="y (84)"];
5 -> 7  [label="z (90)"];
5 -> 3  [label="!z [1]"];
5 -> 2  [label="!y [1]"];
6 -> 5  [label="x (182)"];
6 -> 7  [label="y (171)"];
6 -> 4  [label="z (196)"];
6 -> 2  [label="!x [1]"];
6 -> 2  [label="!y [1]"];
7 -> 6  [label="x (284)"];
7 -> 2  [label="y (278)"];
7 -> 0  [label="z (257)"];
7 -> 1  [label="!z [1]"];
7 -> 7  [label="!y [2]"];
7 -> 4  [label="!z [1] t1"];
7 -> 6  [label="!y [1]"];
7 -> 5  [label="!x [1]"];
7 -> 4  [label="!y [1] t1"];
7 -> 1  [label="!y [1] t2"];
__start0 [label="", shape=none];
__start0 -> 4  [label=""];
}
