digraph "benchmarks-true-state-lstar-3seeds/n_states=14-n_outputs=9-glitch_percent=0.1/3c306e08d78ef0aa9b200f6dece34ef7/alergiaLearned" {
q0 [label="e"];
q1 [label="e"];
q2 [label="b"];
q3 [label="e"];
q4 [label="h"];
q5 [label="a"];
q6 [label="b"];
q7 [label="f"];
q8 [label="g"];
q9 [label="e"];
q0 -> q1  [label="z:0.863013698630137"];
q0 -> q4  [label="z:0.0136986301369863"];
q0 -> q6  [label="z:0.0821917808219178"];
q0 -> q7  [label="z:0.0273972602739726"];
q0 -> q8  [label="z:0.0136986301369863"];
q0 -> q2  [label="y:0.9076923076923077"];
q0 -> q0  [label="y:0.06153846153846154"];
q0 -> q5  [label="y:0.015384615384615385"];
q0 -> q4  [label="y:0.015384615384615385"];
q0 -> q3  [label="x:0.8494623655913979"];
q0 -> q6  [label="x:0.03225806451612903"];
q0 -> q5  [label="x:0.021505376344086023"];
q0 -> q8  [label="x:0.07526881720430108"];
q0 -> q4  [label="x:0.021505376344086023"];
q1 -> q6  [label="x:0.9285714285714286"];
q1 -> q1  [label="x:0.07142857142857142"];
q1 -> q5  [label="y:1.0"];
q1 -> q4  [label="z:1.0"];
q2 -> q5  [label="x:0.8260869565217391"];
q2 -> q7  [label="x:0.08695652173913043"];
q2 -> q2  [label="x:0.0"];
q2 -> q1  [label="x:0.08695652173913043"];
q2 -> q6  [label="z:0.7777777777777778"];
q2 -> q8  [label="z:0.05555555555555555"];
q2 -> q1  [label="z:0.16666666666666666"];
q2 -> q6  [label="y:0.8947368421052632"];
q2 -> q3  [label="y:0.10526315789473684"];
q3 -> q8  [label="x:0.9767441860465116"];
q3 -> q0  [label="x:0.023255813953488372"];
q3 -> q7  [label="z:1.0"];
q3 -> q4  [label="y:0.1"];
q3 -> q9  [label="y:0.9"];
q3 -> q2  [label="y:0.0"];
q4 -> q5  [label="z:0.875"];
q4 -> q2  [label="z:0.125"];
q4 -> q6  [label="x:1.0"];
q4 -> q2  [label="y:0.8888888888888888"];
q4 -> q0  [label="y:0.1111111111111111"];
q5 -> q2  [label="z:0.6"];
q5 -> q1  [label="z:0.4"];
q5 -> q6  [label="x:0.5555555555555556"];
q5 -> q1  [label="x:0.4444444444444444"];
q5 -> q3  [label="y:0.5"];
q5 -> q7  [label="y:0.5"];
q6 -> q1  [label="x:0.36363636363636365"];
q6 -> q7  [label="x:0.15151515151515152"];
q6 -> q6  [label="x:0.48484848484848486"];
q6 -> q3  [label="z:0.6666666666666666"];
q6 -> q8  [label="z:0.3333333333333333"];
q6 -> q8  [label="y:0.3888888888888889"];
q6 -> q0  [label="y:0.6111111111111112"];
q7 -> q0  [label="x:1.0"];
q7 -> q3  [label="z:0.8888888888888888"];
q7 -> q7  [label="z:0.1111111111111111"];
q7 -> q4  [label="y:1.0"];
q8 -> q7  [label="z:0.8"];
q8 -> q5  [label="z:0.2"];
q8 -> q4  [label="y:0.6666666666666666"];
q8 -> q2  [label="y:0.3333333333333333"];
q8 -> q0  [label="x:0.034482758620689655"];
q8 -> q4  [label="x:0.9310344827586207"];
q8 -> q6  [label="x:0.034482758620689655"];
q9 -> q0  [label="z:1.0"];
q9 -> q6  [label="y:1.0"];
q9 -> q4  [label="x:1.0"];
__start0 [label="", shape=none];
__start0 -> q0  [label=""];
}
