digraph "benchmarks-true-state-lstar-3seeds/n_states=8-n_outputs=7-glitch_percent=0.01/4d45f11e55b6152338dc7af80b7d8e68/rpniGroundTruth" {
s0 [label="s0|d", shape=record, style=rounded];
s1 [label="s1|g", shape=record, style=rounded];
s2 [label="s2|e", shape=record, style=rounded];
s3 [label="s3|e", shape=record, style=rounded];
s4 [label="s4|d", shape=record, style=rounded];
s5 [label="s5|a", shape=record, style=rounded];
s6 [label="s6|b", shape=record, style=rounded];
s7 [label="s7|f", shape=record, style=rounded];
s0 -> s1  [label="y"];
s0 -> s2  [label="z"];
s0 -> s3  [label="x"];
s1 -> s3  [label="y"];
s1 -> s1  [label="z"];
s1 -> s4  [label="x"];
s2 -> s5  [label="z"];
s2 -> s6  [label="y"];
s2 -> s6  [label="x"];
s3 -> s5  [label="x"];
s3 -> s7  [label="y"];
s3 -> s6  [label="z"];
s4 -> s5  [label="x"];
s4 -> s1  [label="z"];
s4 -> s2  [label="y"];
s5 -> s5  [label="x"];
s5 -> s2  [label="y"];
s5 -> s5  [label="z"];
s6 -> s1  [label="z"];
s6 -> s2  [label="y"];
s6 -> s2  [label="x"];
s7 -> s3  [label="y"];
s7 -> s1  [label="x"];
s7 -> s2  [label="z"];
__start0 [label="", shape=none];
__start0 -> s0  [label=""];
}
