digraph "benchmarks-true-state-lstar-songp/n_states=11-n_outputs=8-glitch_percent=0.0-pmstrat='fm'/0f599b023f2b1d5ef8f55ba86f4e7ac6/RealModel" {
s1 [label="s1|a", shape=record, style=rounded];
s2 [label="s2|e", shape=record, style=rounded];
s3 [label="s3|c", shape=record, style=rounded];
s4 [label="s4|h", shape=record, style=rounded];
s5 [label="s5|f", shape=record, style=rounded];
s6 [label="s6|b", shape=record, style=rounded];
s7 [label="s7|h", shape=record, style=rounded];
s8 [label="s8|h", shape=record, style=rounded];
s9 [label="s9|a", shape=record, style=rounded];
s10 [label="s10|g", shape=record, style=rounded];
s11 [label="s11|f", shape=record, style=rounded];
s1 -> s11  [label="x"];
s1 -> s10  [label="y"];
s1 -> s8  [label="z"];
s2 -> s5  [label="x"];
s2 -> s10  [label="y"];
s2 -> s3  [label="z"];
s3 -> s7  [label="x"];
s3 -> s10  [label="y"];
s3 -> s9  [label="z"];
s4 -> s7  [label="x"];
s4 -> s2  [label="y"];
s4 -> s1  [label="z"];
s5 -> s9  [label="x"];
s5 -> s8  [label="y"];
s5 -> s3  [label="z"];
s6 -> s10  [label="x"];
s6 -> s1  [label="y"];
s6 -> s3  [label="z"];
s7 -> s5  [label="x"];
s7 -> s2  [label="y"];
s7 -> s9  [label="z"];
s8 -> s7  [label="x"];
s8 -> s2  [label="y"];
s8 -> s3  [label="z"];
s9 -> s1  [label="x"];
s9 -> s3  [label="y"];
s9 -> s5  [label="z"];
s10 -> s4  [label="x"];
s10 -> s6  [label="y"];
s10 -> s9  [label="z"];
s11 -> s5  [label="x"];
s11 -> s3  [label="y"];
s11 -> s2  [label="z"];
__start0 [label="", shape=none];
__start0 -> s1  [label=""];
}
