digraph "benchmarks-true-state-lstar-songp/n_states=10-n_outputs=9-glitch_percent=0.01-pmstrat='rc2'/599fe8d2ba5941ccde83107ff4aea452/alergiaLearned" {
q0 [label="a"];
q1 [label="b"];
q2 [label="h"];
q3 [label="h"];
q4 [label="f"];
q5 [label="e"];
q6 [label="c"];
q7 [label="h"];
q8 [label="a"];
q9 [label="i"];
q0 -> q1  [label="z:0.9047619047619048"];
q0 -> q0  [label="z:0.09523809523809523"];
q0 -> q2  [label="y:0.9482758620689655"];
q0 -> q4  [label="y:0.017241379310344827"];
q0 -> q6  [label="y:0.034482758620689655"];
q0 -> q3  [label="x:0.9642857142857143"];
q0 -> q5  [label="x:0.03571428571428571"];
q1 -> q5  [label="x:1.0"];
q1 -> q2  [label="y:1.0"];
q1 -> q6  [label="z:1.0"];
q2 -> q5  [label="x:0.95"];
q2 -> q0  [label="x:0.05"];
q2 -> q6  [label="y:0.95"];
q2 -> q4  [label="y:0.05"];
q2 -> q7  [label="z:0.95"];
q2 -> q9  [label="z:0.05"];
q3 -> q8  [label="x:1.0"];
q3 -> q4  [label="y:1.0"];
q3 -> q9  [label="z:1.0"];
q4 -> q6  [label="y:1.0"];
q4 -> q2  [label="x:1.0"];
q4 -> q2  [label="z:1.0"];
q5 -> q9  [label="x:1.0"];
q5 -> q6  [label="y:1.0"];
q5 -> q2  [label="z:1.0"];
q6 -> q5  [label="x:1.0"];
q6 -> q0  [label="y:1.0"];
q6 -> q9  [label="z:1.0"];
q7 -> q0  [label="x:1.0"];
q7 -> q6  [label="y:1.0"];
q7 -> q0  [label="z:1.0"];
q8 -> q5  [label="x:1.0"];
q8 -> q6  [label="y:1.0"];
q8 -> q0  [label="z:1.0"];
q9 -> q9  [label="x:1.0"];
q9 -> q0  [label="y:1.0"];
q9 -> q4  [label="z:1.0"];
__start0 [label="", shape=none];
__start0 -> q0  [label=""];
}
