digraph "benchmarks-true-state-lstar-rc10seeds/n_states=14-n_outputs=6-glitch_percent=0.02/446cd1fcafaebb56cade1f8021a849b2/pmsatLearned_NOP-N14-STOC" {
0 [label="0|a", shape=record, style=rounded];
1 [label="1|d", shape=record, style=rounded];
2 [label="2|d", shape=record, style=rounded];
3 [label="3|f", shape=record, style=rounded];
4 [label="4|a", shape=record, style=rounded];
5 [label="5|c", shape=record, style=rounded];
6 [label="6|a", shape=record, style=rounded];
7 [label="7|f", shape=record, style=rounded];
8 [label="8|b", shape=record, style=rounded];
9 [label="9|c", shape=record, style=rounded];
10 [label="10|c", shape=record, style=rounded];
11 [label="11|e", shape=record, style=rounded];
12 [label="12|e", shape=record, style=rounded];
13 [label="13|a", shape=record, style=rounded];
0 -> 1  [label="z (53)"];
0 -> 9  [label="y (52)"];
0 -> 8  [label="x (64)"];
0 -> 6  [label="!y [1]"];
0 -> 12  [label="!z [1]"];
0 -> 3  [label="!x [1]"];
1 -> 11  [label="x (16)"];
1 -> 6  [label="y (16)"];
1 -> 2  [label="z (16)"];
1 -> 8  [label="!z [1]"];
1 -> 10  [label="!x [1]"];
2 -> 9  [label="x (6)"];
2 -> 13  [label="y (5)"];
2 -> 5  [label="z (6)"];
3 -> 7  [label="x (20)"];
3 -> 2  [label="z (7)"];
3 -> 10  [label="y (7)"];
4 -> 11  [label="x (5)"];
4 -> 13  [label="y (5)"];
4 -> 13  [label="z (5)"];
5 -> 0  [label="x (7)"];
5 -> 3  [label="y (6)"];
5 -> 11  [label="z (7)"];
5 -> 2  [label="!z [1]"];
6 -> 6  [label="x (6)"];
6 -> 3  [label="y (6)"];
6 -> 8  [label="z (5)"];
7 -> 7  [label="x (8)"];
7 -> 13  [label="y (8)"];
7 -> 7  [label="z (8)"];
8 -> 3  [label="x (30)"];
8 -> 10  [label="y (19)"];
8 -> 12  [label="z (18)"];
9 -> 13  [label="x (18)"];
9 -> 4  [label="y (19)"];
9 -> 5  [label="z (18)"];
10 -> 9  [label="x (8)"];
10 -> 11  [label="y (8)"];
10 -> 10  [label="z (7)"];
11 -> 10  [label="x (8)"];
11 -> 7  [label="y (9)"];
11 -> 13  [label="z (9)"];
12 -> 11  [label="x (7)"];
12 -> 12  [label="y (7)"];
12 -> 8  [label="z (7)"];
13 -> 12  [label="x (10)"];
13 -> 5  [label="y (10)"];
13 -> 3  [label="z (10)"];
__start0 [label="", shape=none];
__start0 -> 0  [label=""];
}
