digraph "benchmarks-true-state-lstar-rc10seeds/n_states=14-n_outputs=8-glitch_percent=0.01/75b0e9a49c571ebff531a8ad411a1946/pmsatLearned_NOP-N14" {
0 [label="0|c", shape=record, style=rounded];
1 [label="1|h", shape=record, style=rounded];
2 [label="2|e", shape=record, style=rounded];
3 [label="3|a", shape=record, style=rounded];
4 [label="4|a", shape=record, style=rounded];
5 [label="5|g", shape=record, style=rounded];
6 [label="6|a", shape=record, style=rounded];
7 [label="7|c", shape=record, style=rounded];
8 [label="8|f", shape=record, style=rounded];
9 [label="9|c", shape=record, style=rounded];
10 [label="10|h", shape=record, style=rounded];
11 [label="11|a", shape=record, style=rounded];
12 [label="12|g", shape=record, style=rounded];
13 [label="13|f", shape=record, style=rounded];
0 -> 12  [label="x"];
0 -> 9  [label="y"];
0 -> 4  [label="z"];
1 -> 6  [label="x"];
1 -> 11  [label="y"];
1 -> 10  [label="z"];
2 -> 13  [label="z"];
2 -> 0  [label="y"];
2 -> 7  [label="x"];
3 -> 1  [label="x"];
3 -> 10  [label="y"];
3 -> 12  [label="z"];
4 -> 10  [label="x"];
4 -> 10  [label="y"];
4 -> 9  [label="z"];
5 -> 5  [label="x"];
5 -> 13  [label="y"];
5 -> 5  [label="z"];
6 -> 10  [label="x"];
6 -> 4  [label="y"];
6 -> 0  [label="z"];
7 -> 6  [label="x"];
7 -> 11  [label="y"];
7 -> 8  [label="z"];
8 -> 2  [label="x"];
8 -> 7  [label="y"];
8 -> 9  [label="z"];
9 -> 13  [label="x"];
9 -> 11  [label="y"];
9 -> 5  [label="z"];
10 -> 4  [label="x"];
10 -> 1  [label="y"];
10 -> 9  [label="z"];
11 -> 9  [label="x"];
11 -> 6  [label="y"];
11 -> 3  [label="z"];
12 -> 6  [label="x"];
12 -> 7  [label="y"];
12 -> 9  [label="z"];
13 -> 3  [label="y"];
13 -> 1  [label="z"];
13 -> 5  [label="x"];
__start0 [label="", shape=none];
__start0 -> 2  [label=""];
}
