digraph "benchmarks-true-state-lstar-songp/n_states=11-n_outputs=7-glitch_percent=0.0-pmstrat='lsu'/eec3cbd11df187025be40653d5aba74c/pmsatLearned-N11-STOC" {
0 [label="0|a", shape=record, style=rounded];
1 [label="1|b", shape=record, style=rounded];
2 [label="2|c", shape=record, style=rounded];
3 [label="3|d", shape=record, style=rounded];
4 [label="4|f", shape=record, style=rounded];
5 [label="5|g", shape=record, style=rounded];
6 [label="6|g", shape=record, style=rounded];
7 [label="7|f", shape=record, style=rounded];
8 [label="8|f", shape=record, style=rounded];
9 [label="9|c", shape=record, style=rounded];
10 [label="10|a", shape=record, style=rounded];
0 -> 2  [label="z (32)"];
0 -> 5  [label="y (56)"];
0 -> 8  [label="x (56)"];
1 -> 9  [label="x (6)"];
1 -> 5  [label="y (6)"];
1 -> 8  [label="z (6)"];
2 -> 4  [label="x (21)"];
2 -> 4  [label="y (9)"];
2 -> 0  [label="z (9)"];
3 -> 4  [label="x (5)"];
3 -> 2  [label="y (5)"];
3 -> 4  [label="z (5)"];
4 -> 5  [label="x (11)"];
4 -> 0  [label="y (11)"];
4 -> 4  [label="z (11)"];
5 -> 1  [label="x (20)"];
5 -> 7  [label="y (20)"];
5 -> 6  [label="z (20)"];
6 -> 9  [label="x (5)"];
6 -> 2  [label="y (5)"];
6 -> 0  [label="z (5)"];
7 -> 1  [label="x (6)"];
7 -> 5  [label="y (6)"];
7 -> 4  [label="z (6)"];
8 -> 9  [label="x (19)"];
8 -> 3  [label="y (19)"];
8 -> 10  [label="z (19)"];
9 -> 2  [label="x (8)"];
9 -> 2  [label="y (8)"];
9 -> 9  [label="z (8)"];
10 -> 8  [label="x (5)"];
10 -> 7  [label="y (5)"];
10 -> 4  [label="z (5)"];
__start0 [label="", shape=none];
__start0 -> 0  [label=""];
}
