digraph alergiaLearned {
q0 [label="e"];
q1 [label="e"];
q2 [label="d"];
q3 [label="a"];
q0 -> q1  [label="z:0.9523809523809523"];
q0 -> q3  [label="z:0.047619047619047616"];
q0 -> q2  [label="y:0.9090909090909091"];
q0 -> q0  [label="y:0.09090909090909091"];
q0 -> q3  [label="x:0.96875"];
q0 -> q2  [label="x:0.03125"];
q1 -> q2  [label="x:1.0"];
q1 -> q0  [label="y:1.0"];
q1 -> q3  [label="z:1.0"];
q2 -> q0  [label="x:0.5"];
q2 -> q2  [label="x:0.5"];
q2 -> q0  [label="y:1.0"];
q2 -> q2  [label="z:1.0"];
q3 -> q2  [label="x:1.0"];
q3 -> q2  [label="y:1.0"];
q3 -> q3  [label="z:1.0"];
__start0 [label="", shape=none];
__start0 -> q0  [label=""];
}
