digraph "benchmarks-true-state-lstar-3seeds/n_states=5-n_outputs=4-glitch_percent=0.1/28b6976ef70705938a22b37d5046c9ac/pmsatLearned-N5" {
0 [label="0|a", shape=record, style=rounded];
1 [label="1|c", shape=record, style=rounded];
2 [label="2|d", shape=record, style=rounded];
3 [label="3|c", shape=record, style=rounded];
4 [label="4|d", shape=record, style=rounded];
0 -> 1  [label="x"];
0 -> 4  [label="z"];
0 -> 2  [label="y"];
1 -> 2  [label="z"];
1 -> 4  [label="y"];
1 -> 3  [label="x"];
2 -> 4  [label="x"];
2 -> 1  [label="y"];
2 -> 0  [label="z"];
3 -> 0  [label="x"];
3 -> 3  [label="y"];
3 -> 1  [label="z"];
4 -> 1  [label="x"];
4 -> 4  [label="y"];
4 -> 1  [label="z"];
__start0 [label="", shape=none];
__start0 -> 1  [label=""];
}
