digraph "benchmarks-true-state-lstar-songp/n_states=5-n_outputs=5-glitch_percent=0.0-pmstrat='lsu'/51707ed5861cbd803a1d94776e91be79/pmsatLearned-N5-STOC" {
0 [label="0|a", shape=record, style=rounded];
1 [label="1|b", shape=record, style=rounded];
2 [label="2|c", shape=record, style=rounded];
3 [label="3|d", shape=record, style=rounded];
4 [label="4|c", shape=record, style=rounded];
0 -> 2  [label="z (19)"];
0 -> 3  [label="y (19)"];
0 -> 4  [label="x (31)"];
1 -> 4  [label="x (6)"];
1 -> 0  [label="y (6)"];
1 -> 0  [label="z (6)"];
2 -> 2  [label="x (9)"];
2 -> 3  [label="y (9)"];
2 -> 3  [label="z (9)"];
3 -> 2  [label="x (8)"];
3 -> 1  [label="y (8)"];
3 -> 2  [label="z (8)"];
4 -> 1  [label="x (18)"];
4 -> 2  [label="y (6)"];
4 -> 3  [label="z (6)"];
__start0 [label="", shape=none];
__start0 -> 0  [label=""];
}
