digraph "benchmarks-true-state-lstar-rc10seeds/n_states=15-n_outputs=9-glitch_percent=0.01/936171b3ece42f7cce9d7454a02a3167/pmsatLearned_NOP-N15-STOC" {
0 [label="0|i", shape=record, style=rounded];
1 [label="1|b", shape=record, style=rounded];
2 [label="2|d", shape=record, style=rounded];
3 [label="3|c", shape=record, style=rounded];
4 [label="4|f", shape=record, style=rounded];
5 [label="5|i", shape=record, style=rounded];
6 [label="6|b", shape=record, style=rounded];
7 [label="7|b", shape=record, style=rounded];
8 [label="8|f", shape=record, style=rounded];
9 [label="9|f", shape=record, style=rounded];
10 [label="10|h", shape=record, style=rounded];
11 [label="11|d", shape=record, style=rounded];
12 [label="12|i", shape=record, style=rounded];
13 [label="13|e", shape=record, style=rounded];
14 [label="14|f", shape=record, style=rounded];
0 -> 11  [label="x (6)"];
0 -> 8  [label="y (6)"];
0 -> 2  [label="z (6)"];
1 -> 13  [label="x (9)"];
1 -> 7  [label="y (9)"];
1 -> 0  [label="z (9)"];
2 -> 2  [label="x (9)"];
2 -> 1  [label="y (8)"];
2 -> 6  [label="z (9)"];
3 -> 12  [label="x (6)"];
3 -> 10  [label="y (5)"];
3 -> 1  [label="z (7)"];
4 -> 13  [label="x (7)"];
4 -> 11  [label="y (7)"];
4 -> 1  [label="z (7)"];
5 -> 10  [label="z (53)"];
5 -> 12  [label="y (52)"];
5 -> 7  [label="x (77)"];
5 -> 3  [label="!y [1]"];
6 -> 1  [label="x (8)"];
6 -> 7  [label="y (8)"];
6 -> 6  [label="z (8)"];
7 -> 9  [label="x (42)"];
7 -> 14  [label="y (20)"];
7 -> 6  [label="z (19)"];
8 -> 4  [label="x (6)"];
8 -> 13  [label="y (6)"];
8 -> 4  [label="z (6)"];
9 -> 2  [label="x (18)"];
9 -> 8  [label="y (17)"];
9 -> 11  [label="z (6)"];
10 -> 11  [label="x (19)"];
10 -> 0  [label="y (20)"];
10 -> 1  [label="z (19)"];
11 -> 14  [label="x (8)"];
11 -> 10  [label="y (8)"];
11 -> 2  [label="z (8)"];
12 -> 4  [label="x (19)"];
12 -> 3  [label="y (18)"];
12 -> 13  [label="z (18)"];
12 -> 12  [label="!z [1]"];
13 -> 6  [label="x (8)"];
13 -> 2  [label="y (8)"];
13 -> 12  [label="z (7)"];
14 -> 9  [label="x (6)"];
14 -> 10  [label="y (6)"];
14 -> 3  [label="z (6)"];
__start0 [label="", shape=none];
__start0 -> 5  [label=""];
}
