digraph "benchmarks-true-state-lstar-rc10seeds/n_states=13-n_outputs=5-glitch_percent=0.02/3094eba82285539e2d8bc8a3b6888d83/pmsatLearned_NOP-N13" {
0 [label="0|a", shape=record, style=rounded];
1 [label="1|e", shape=record, style=rounded];
2 [label="2|a", shape=record, style=rounded];
3 [label="3|d", shape=record, style=rounded];
4 [label="4|b", shape=record, style=rounded];
5 [label="5|d", shape=record, style=rounded];
6 [label="6|c", shape=record, style=rounded];
7 [label="7|b", shape=record, style=rounded];
8 [label="8|a", shape=record, style=rounded];
9 [label="9|a", shape=record, style=rounded];
10 [label="10|e", shape=record, style=rounded];
11 [label="11|e", shape=record, style=rounded];
12 [label="12|b", shape=record, style=rounded];
0 -> 2  [label="x"];
0 -> 3  [label="y"];
0 -> 3  [label="z"];
1 -> 0  [label="x"];
1 -> 0  [label="y"];
1 -> 10  [label="z"];
2 -> 4  [label="x"];
2 -> 11  [label="y"];
2 -> 0  [label="z"];
3 -> 11  [label="z"];
3 -> 4  [label="y"];
3 -> 10  [label="x"];
4 -> 12  [label="x"];
4 -> 5  [label="y"];
4 -> 7  [label="z"];
5 -> 3  [label="x"];
5 -> 5  [label="y"];
5 -> 12  [label="z"];
6 -> 7  [label="x"];
6 -> 10  [label="y"];
6 -> 1  [label="z"];
7 -> 1  [label="x"];
7 -> 6  [label="y"];
7 -> 6  [label="z"];
8 -> 1  [label="x"];
8 -> 4  [label="y"];
8 -> 5  [label="z"];
9 -> 8  [label="x"];
9 -> 1  [label="y"];
9 -> 7  [label="z"];
10 -> 9  [label="y"];
10 -> 8  [label="z"];
10 -> 6  [label="x"];
11 -> 1  [label="x"];
11 -> 2  [label="y"];
11 -> 0  [label="z"];
12 -> 1  [label="x"];
12 -> 9  [label="y"];
12 -> 4  [label="z"];
__start0 [label="", shape=none];
__start0 -> 3  [label=""];
}
