digraph "benchmarks-true-state-lstar-3seeds/n_states=7-n_outputs=7-glitch_percent=0.02/a1f51a566546d9510db0cc9cf5dfef59/alergiaLearned" {
q0 [label="c"];
q1 [label="c"];
q2 [label="d"];
q3 [label="a"];
q0 -> q1  [label="z:0.95"];
q0 -> q2  [label="z:0.05"];
q0 -> q2  [label="y:0.9473684210526315"];
q0 -> q3  [label="y:0.05263157894736842"];
q0 -> q2  [label="x:0.9811320754716981"];
q0 -> q0  [label="x:0.018867924528301886"];
q1 -> q1  [label="x:1.0"];
q1 -> q2  [label="x:0.0"];
q1 -> q1  [label="y:0.5"];
q1 -> q2  [label="y:0.5"];
q1 -> q3  [label="y:0.0"];
q1 -> q0  [label="z:0.5"];
q1 -> q2  [label="z:0.5"];
q2 -> q1  [label="x:1.0"];
q2 -> q0  [label="y:0.2608695652173913"];
q2 -> q3  [label="y:0.7391304347826086"];
q2 -> q2  [label="z:0.2916666666666667"];
q2 -> q1  [label="z:0.7083333333333334"];
q3 -> q2  [label="x:1.0"];
q3 -> q2  [label="y:0.8333333333333334"];
q3 -> q0  [label="y:0.16666666666666666"];
q3 -> q1  [label="z:1.0"];
__start0 [label="", shape=none];
__start0 -> q0  [label=""];
}
