digraph "benchmarks-true-state-lstar-3seeds/n_states=8-n_outputs=8-glitch_percent=0.0/38aedb365c394a021f3f8d74668551d5/pmsatLearned-N8-STOC" {
0 [label="0|b", shape=record, style=rounded];
1 [label="1|d", shape=record, style=rounded];
2 [label="2|e", shape=record, style=rounded];
3 [label="3|f", shape=record, style=rounded];
4 [label="4|h", shape=record, style=rounded];
5 [label="5|f", shape=record, style=rounded];
6 [label="6|h", shape=record, style=rounded];
7 [label="7|f", shape=record, style=rounded];
0 -> 1  [label="x (8)"];
0 -> 1  [label="y (8)"];
0 -> 2  [label="z (8)"];
1 -> 2  [label="x (8)"];
1 -> 7  [label="y (8)"];
1 -> 0  [label="z (8)"];
2 -> 7  [label="x (9)"];
2 -> 0  [label="y (9)"];
2 -> 2  [label="z (9)"];
3 -> 2  [label="x (17)"];
3 -> 1  [label="y (17)"];
3 -> 7  [label="z (17)"];
4 -> 0  [label="z (18)"];
4 -> 5  [label="y (30)"];
4 -> 3  [label="x (54)"];
5 -> 6  [label="x (17)"];
5 -> 7  [label="y (5)"];
5 -> 7  [label="z (5)"];
6 -> 6  [label="x (6)"];
6 -> 0  [label="y (6)"];
6 -> 2  [label="z (6)"];
7 -> 4  [label="x (10)"];
7 -> 1  [label="y (10)"];
7 -> 7  [label="z (10)"];
__start0 [label="", shape=none];
__start0 -> 4  [label=""];
}
