digraph "benchmarks-true-state-lstar-rc10seeds/n_states=16-n_outputs=7-glitch_percent=0.0/692ce9530649a734395d0216a77b5bb7/pmsatLearned_NOP-N16-STOC" {
0 [label="0|a", shape=record, style=rounded];
1 [label="1|a", shape=record, style=rounded];
2 [label="2|f", shape=record, style=rounded];
3 [label="3|f", shape=record, style=rounded];
4 [label="4|a", shape=record, style=rounded];
5 [label="5|e", shape=record, style=rounded];
6 [label="6|a", shape=record, style=rounded];
7 [label="7|a", shape=record, style=rounded];
8 [label="8|c", shape=record, style=rounded];
9 [label="9|b", shape=record, style=rounded];
10 [label="10|d", shape=record, style=rounded];
11 [label="11|b", shape=record, style=rounded];
12 [label="12|e", shape=record, style=rounded];
13 [label="13|b", shape=record, style=rounded];
14 [label="14|e", shape=record, style=rounded];
15 [label="15|g", shape=record, style=rounded];
0 -> 13  [label="x (19)"];
0 -> 11  [label="y (19)"];
0 -> 15  [label="z (19)"];
1 -> 14  [label="x (21)"];
1 -> 12  [label="y (21)"];
1 -> 7  [label="z (21)"];
2 -> 1  [label="x (56)"];
2 -> 9  [label="y (20)"];
2 -> 8  [label="z (20)"];
3 -> 6  [label="z (53)"];
3 -> 0  [label="y (53)"];
3 -> 2  [label="x (89)"];
4 -> 6  [label="x (6)"];
4 -> 13  [label="y (6)"];
4 -> 1  [label="z (6)"];
5 -> 11  [label="x (10)"];
5 -> 10  [label="y (10)"];
5 -> 5  [label="z (10)"];
6 -> 5  [label="x (19)"];
6 -> 10  [label="y (19)"];
6 -> 4  [label="z (19)"];
7 -> 5  [label="x (6)"];
7 -> 11  [label="y (6)"];
7 -> 7  [label="z (6)"];
8 -> 6  [label="x (6)"];
8 -> 2  [label="y (6)"];
8 -> 8  [label="z (6)"];
9 -> 12  [label="x (7)"];
9 -> 2  [label="y (7)"];
9 -> 11  [label="z (7)"];
10 -> 5  [label="x (7)"];
10 -> 14  [label="y (7)"];
10 -> 5  [label="z (7)"];
11 -> 2  [label="x (8)"];
11 -> 1  [label="y (8)"];
11 -> 1  [label="z (8)"];
12 -> 1  [label="x (6)"];
12 -> 0  [label="y (6)"];
12 -> 13  [label="z (6)"];
13 -> 5  [label="x (8)"];
13 -> 13  [label="y (8)"];
13 -> 4  [label="z (8)"];
14 -> 0  [label="x (6)"];
14 -> 15  [label="y (6)"];
14 -> 10  [label="z (6)"];
15 -> 9  [label="x (7)"];
15 -> 9  [label="y (7)"];
15 -> 15  [label="z (7)"];
__start0 [label="", shape=none];
__start0 -> 3  [label=""];
}
