digraph "benchmarks-true-state-lstar-songp/n_states=15-n_outputs=4-glitch_percent=0.02-pmstrat='lsu'/d913f9967b08877d6b314b5ff1d29e35/pmsatLearned-N15" {
0 [label="0|a", shape=record, style=rounded];
1 [label="1|b", shape=record, style=rounded];
2 [label="2|c", shape=record, style=rounded];
3 [label="3|d", shape=record, style=rounded];
4 [label="4|d", shape=record, style=rounded];
5 [label="5|c", shape=record, style=rounded];
6 [label="6|c", shape=record, style=rounded];
7 [label="7|d", shape=record, style=rounded];
8 [label="8|a", shape=record, style=rounded];
9 [label="9|d", shape=record, style=rounded];
10 [label="10|a", shape=record, style=rounded];
11 [label="11|b", shape=record, style=rounded];
12 [label="12|d", shape=record, style=rounded];
13 [label="13|c", shape=record, style=rounded];
14 [label="14|a", shape=record, style=rounded];
0 -> 3  [label="z"];
0 -> 1  [label="y"];
0 -> 0  [label="x"];
1 -> 3  [label="x"];
1 -> 12  [label="y"];
1 -> 6  [label="z"];
2 -> 1  [label="y"];
2 -> 3  [label="x"];
2 -> 8  [label="z"];
3 -> 3  [label="x"];
3 -> 2  [label="z"];
3 -> 3  [label="y"];
4 -> 5  [label="z"];
4 -> 1  [label="y"];
4 -> 1  [label="x"];
5 -> 5  [label="y"];
5 -> 10  [label="z"];
6 -> 5  [label="z"];
6 -> 0  [label="x"];
6 -> 6  [label="y"];
7 -> 7  [label="z"];
7 -> 2  [label="x"];
7 -> 2  [label="y"];
8 -> 3  [label="x"];
8 -> 8  [label="y"];
8 -> 6  [label="z"];
9 -> 1  [label="y"];
9 -> 1  [label="x"];
9 -> 4  [label="z"];
10 -> 0  [label="y"];
10 -> 13  [label="z"];
10 -> 1  [label="x"];
11 -> 0  [label="y"];
11 -> 2  [label="x"];
11 -> 5  [label="z"];
12 -> 0  [label="y"];
12 -> 2  [label="z"];
12 -> 0  [label="x"];
13 -> 3  [label="y"];
13 -> 0  [label="z"];
14 -> 2  [label="z"];
14 -> 2  [label="x"];
14 -> 3  [label="y"];
__start0 [label="", shape=none];
__start0 -> 0  [label=""];
}
