digraph "benchmarks-true-state-lstar-rc10seeds/n_states=4-n_outputs=4-glitch_percent=0.05/de07f23bb41f563533550e00e3de605a/pmsatLearned_NOP-N4" {
0 [label="0|a", shape=record, style=rounded];
1 [label="1|a", shape=record, style=rounded];
2 [label="2|b", shape=record, style=rounded];
3 [label="3|d", shape=record, style=rounded];
0 -> 1  [label="z"];
0 -> 3  [label="y"];
0 -> 2  [label="x"];
1 -> 1  [label="x"];
1 -> 1  [label="y"];
1 -> 0  [label="z"];
2 -> 0  [label="x"];
2 -> 0  [label="y"];
2 -> 1  [label="z"];
3 -> 0  [label="x"];
3 -> 0  [label="y"];
3 -> 3  [label="z"];
__start0 [label="", shape=none];
__start0 -> 0  [label=""];
}
