digraph "benchmarks-true-state-lstar-3seeds/n_states=13-n_outputs=2-glitch_percent=0.01/a360c6d8713be49c88df833df22bb214/rpniGroundTruth" {
s0 [label="s0|b", shape=record, style=rounded];
s1 [label="s1|b", shape=record, style=rounded];
s2 [label="s2|b", shape=record, style=rounded];
s3 [label="s3|a", shape=record, style=rounded];
s4 [label="s4|b", shape=record, style=rounded];
s5 [label="s5|a", shape=record, style=rounded];
s6 [label="s6|a", shape=record, style=rounded];
s7 [label="s7|b", shape=record, style=rounded];
s8 [label="s8|a", shape=record, style=rounded];
s9 [label="s9|a", shape=record, style=rounded];
s10 [label="s10|b", shape=record, style=rounded];
s11 [label="s11|a", shape=record, style=rounded];
s12 [label="s12|b", shape=record, style=rounded];
s13 [label="s13|a", shape=record, style=rounded];
s14 [label="s14|a", shape=record, style=rounded];
s0 -> s1  [label="y"];
s0 -> s2  [label="z"];
s0 -> s3  [label="x"];
s1 -> s4  [label="y"];
s1 -> s5  [label="z"];
s1 -> s6  [label="x"];
s2 -> s7  [label="y"];
s2 -> s8  [label="z"];
s2 -> s9  [label="x"];
s3 -> s10  [label="x"];
s3 -> s11  [label="z"];
s3 -> s12  [label="y"];
s4 -> s3  [label="x"];
s4 -> s7  [label="z"];
s4 -> s4  [label="y"];
s5 -> s2  [label="z"];
s5 -> s1  [label="y"];
s5 -> s8  [label="x"];
s6 -> s11  [label="z"];
s6 -> s2  [label="y"];
s6 -> s10  [label="x"];
s7 -> s9  [label="z"];
s7 -> s2  [label="y"];
s7 -> s12  [label="x"];
s8 -> s3  [label="z"];
s8 -> s8  [label="x"];
s8 -> s3  [label="y"];
s9 -> s0  [label="z"];
s9 -> s0  [label="x"];
s9 -> s9  [label="y"];
s10 -> s10  [label="z"];
s10 -> s4  [label="x"];
s10 -> s13  [label="y"];
s11 -> s14  [label="z"];
s11 -> s0  [label="y"];
s11 -> s3  [label="x"];
s12 -> s5  [label="z"];
s12 -> s4  [label="y"];
s12 -> s11  [label="x"];
s13 -> s9  [label="y"];
s13 -> s4  [label="x"];
s13 -> s1  [label="z"];
s14 -> s6  [label="y"];
s14 -> s8  [label="x"];
s14 -> s9  [label="z"];
__start0 [label="", shape=none];
__start0 -> s0  [label=""];
}
