digraph "benchmarks-true-state-lstar-rc10seeds/n_states=5-n_outputs=2-glitch_percent=0.05/c04a64f4723f2d7d05a468833ed9383f/pmsatLearned_NOP-N5" {
0 [label="0|b", shape=record, style=rounded];
1 [label="1|b", shape=record, style=rounded];
2 [label="2|b", shape=record, style=rounded];
3 [label="3|a", shape=record, style=rounded];
4 [label="4|a", shape=record, style=rounded];
0 -> 4  [label="z"];
0 -> 1  [label="y"];
0 -> 2  [label="x"];
1 -> 4  [label="z"];
1 -> 3  [label="y"];
1 -> 2  [label="x"];
2 -> 0  [label="x"];
2 -> 3  [label="y"];
2 -> 3  [label="z"];
3 -> 0  [label="x"];
3 -> 1  [label="y"];
3 -> 0  [label="z"];
4 -> 3  [label="x"];
4 -> 4  [label="y"];
4 -> 3  [label="z"];
__start0 [label="", shape=none];
__start0 -> 1  [label=""];
}
