digraph "benchmarks-true-state-lstar-rc10seeds/n_states=9-n_outputs=9-glitch_percent=0.05/9189247f6b989736de71c3f724bea009/pmsatLearned_NOP-N9-STOC" {
0 [label="0|i", shape=record, style=rounded];
1 [label="1|b", shape=record, style=rounded];
2 [label="2|g", shape=record, style=rounded];
3 [label="3|f", shape=record, style=rounded];
4 [label="4|a", shape=record, style=rounded];
5 [label="5|a", shape=record, style=rounded];
6 [label="6|f", shape=record, style=rounded];
7 [label="7|b", shape=record, style=rounded];
8 [label="8|i", shape=record, style=rounded];
0 -> 1  [label="x (10)"];
0 -> 7  [label="y (8)"];
0 -> 2  [label="z (10)"];
1 -> 0  [label="z (18)"];
1 -> 2  [label="y (39)"];
1 -> 8  [label="x (55)"];
1 -> 7  [label="!y [2]"];
1 -> 5  [label="!x [1]"];
2 -> 5  [label="x (16)"];
2 -> 7  [label="y (18)"];
2 -> 0  [label="z (5)"];
3 -> 3  [label="x (6)"];
3 -> 0  [label="y (7)"];
3 -> 0  [label="z (7)"];
4 -> 0  [label="x (8)"];
4 -> 1  [label="y (7)"];
4 -> 0  [label="z (8)"];
5 -> 7  [label="y (5)"];
5 -> 3  [label="z (5)"];
5 -> 4  [label="x (3)"];
6 -> 8  [label="x (7)"];
6 -> 8  [label="y (6)"];
6 -> 6  [label="z (5)"];
7 -> 6  [label="x (5)"];
7 -> 4  [label="y (7)"];
7 -> 4  [label="z (6)"];
7 -> 3  [label="!z [1]"];
8 -> 3  [label="x (19)"];
8 -> 6  [label="y (18)"];
8 -> 4  [label="z (19)"];
__start0 [label="", shape=none];
__start0 -> 1  [label=""];
}
