digraph "benchmarks-true-state-lstar-3seeds/n_states=14-n_outputs=6-glitch_percent=0.02/2cc1108ef4001f4755aa54eefe2b9c5c/RealModel" {
s1 [label="s1|d", shape=record, style=rounded];
s2 [label="s2|d", shape=record, style=rounded];
s3 [label="s3|b", shape=record, style=rounded];
s4 [label="s4|d", shape=record, style=rounded];
s5 [label="s5|c", shape=record, style=rounded];
s6 [label="s6|c", shape=record, style=rounded];
s7 [label="s7|b", shape=record, style=rounded];
s8 [label="s8|a", shape=record, style=rounded];
s9 [label="s9|e", shape=record, style=rounded];
s10 [label="s10|b", shape=record, style=rounded];
s11 [label="s11|e", shape=record, style=rounded];
s12 [label="s12|f", shape=record, style=rounded];
s13 [label="s13|f", shape=record, style=rounded];
s14 [label="s14|f", shape=record, style=rounded];
s1 -> s12  [label="x"];
s1 -> s7  [label="y"];
s1 -> s3  [label="z"];
s2 -> s4  [label="x"];
s2 -> s6  [label="y"];
s2 -> s2  [label="z"];
s3 -> s6  [label="x"];
s3 -> s14  [label="y"];
s3 -> s2  [label="z"];
s4 -> s12  [label="x"];
s4 -> s14  [label="y"];
s4 -> s6  [label="z"];
s5 -> s14  [label="x"];
s5 -> s5  [label="y"];
s5 -> s7  [label="z"];
s6 -> s9  [label="x"];
s6 -> s11  [label="y"];
s6 -> s12  [label="z"];
s7 -> s10  [label="x"];
s7 -> s5  [label="y"];
s7 -> s9  [label="z"];
s8 -> s13  [label="x"];
s8 -> s7  [label="y"];
s8 -> s2  [label="z"];
s9 -> s10  [label="x"];
s9 -> s11  [label="y"];
s9 -> s1  [label="z"];
s10 -> s11  [label="x"];
s10 -> s12  [label="y"];
s10 -> s3  [label="z"];
s11 -> s3  [label="x"];
s11 -> s10  [label="y"];
s11 -> s1  [label="z"];
s12 -> s8  [label="x"];
s12 -> s4  [label="y"];
s12 -> s11  [label="z"];
s13 -> s2  [label="x"];
s13 -> s7  [label="y"];
s13 -> s8  [label="z"];
s14 -> s1  [label="x"];
s14 -> s4  [label="y"];
s14 -> s13  [label="z"];
__start0 [label="", shape=none];
__start0 -> s1  [label=""];
}
