digraph "benchmarks-true-state-lstar-3seeds/n_states=17-n_outputs=9-glitch_percent=0.01/246670658c796d0375f5937c8a5e0816/alergiaLearned" {
q0 [label="f"];
q1 [label="e"];
q2 [label="h"];
q3 [label="b"];
q4 [label="i"];
q5 [label="g"];
q6 [label="f"];
q7 [label="e"];
q8 [label="a"];
q9 [label="a"];
q10 [label="b"];
q11 [label="h"];
q0 -> q1  [label="z:1.0"];
q0 -> q2  [label="y:1.0"];
q0 -> q3  [label="x:0.9900990099009901"];
q0 -> q4  [label="x:0.009900990099009901"];
q1 -> q5  [label="x:0.8636363636363636"];
q1 -> q2  [label="x:0.13636363636363635"];
q1 -> q4  [label="y:0.8695652173913043"];
q1 -> q5  [label="y:0.13043478260869565"];
q1 -> q5  [label="z:0.8695652173913043"];
q1 -> q4  [label="z:0.13043478260869565"];
q2 -> q6  [label="x:0.9047619047619048"];
q2 -> q1  [label="x:0.09523809523809523"];
q2 -> q7  [label="y:0.9047619047619048"];
q2 -> q5  [label="y:0.09523809523809523"];
q2 -> q5  [label="z:0.9047619047619048"];
q2 -> q2  [label="z:0.09523809523809523"];
q3 -> q4  [label="x:0.9814814814814815"];
q3 -> q1  [label="x:0.018518518518518517"];
q3 -> q8  [label="y:0.967741935483871"];
q3 -> q5  [label="y:0.03225806451612903"];
q3 -> q5  [label="z:0.9473684210526315"];
q3 -> q8  [label="z:0.05263157894736842"];
q4 -> q9  [label="z:0.6896551724137931"];
q4 -> q4  [label="z:0.3103448275862069"];
q4 -> q5  [label="x:0.3"];
q4 -> q10  [label="x:0.7"];
q4 -> q5  [label="y:0.2903225806451613"];
q4 -> q9  [label="y:0.6774193548387096"];
q4 -> q1  [label="y:0.03225806451612903"];
q5 -> q1  [label="x:0.2962962962962963"];
q5 -> q5  [label="x:0.18518518518518517"];
q5 -> q4  [label="x:0.2962962962962963"];
q5 -> q3  [label="x:0.2222222222222222"];
q5 -> q3  [label="z:0.5"];
q5 -> q1  [label="z:0.2857142857142857"];
q5 -> q8  [label="z:0.21428571428571427"];
q5 -> q4  [label="y:0.27586206896551724"];
q5 -> q5  [label="y:0.1724137931034483"];
q5 -> q8  [label="y:0.27586206896551724"];
q5 -> q2  [label="y:0.2413793103448276"];
q5 -> q1  [label="y:0.034482758620689655"];
q6 -> q4  [label="x:1.0"];
q6 -> q5  [label="y:1.0"];
q6 -> q8  [label="z:1.0"];
q7 -> q2  [label="x:1.0"];
q7 -> q5  [label="y:1.0"];
q7 -> q4  [label="z:1.0"];
q8 -> q11  [label="x:0.9047619047619048"];
q8 -> q4  [label="x:0.09523809523809523"];
q8 -> q1  [label="y:1.0"];
q8 -> q4  [label="z:0.8"];
q8 -> q8  [label="z:0.2"];
q9 -> q8  [label="z:0.5"];
q9 -> q4  [label="z:0.5"];
q9 -> q4  [label="x:0.5"];
q9 -> q5  [label="x:0.5"];
q9 -> q1  [label="y:0.4444444444444444"];
q9 -> q2  [label="y:0.5555555555555556"];
q10 -> q1  [label="x:1.0"];
q10 -> q5  [label="y:1.0"];
q10 -> q8  [label="z:1.0"];
q11 -> q1  [label="x:1.0"];
q11 -> q5  [label="y:1.0"];
q11 -> q2  [label="z:1.0"];
__start0 [label="", shape=none];
__start0 -> q0  [label=""];
}
