digraph "benchmarks-true-state-lstar-3seeds/n_states=3-n_outputs=2-glitch_percent=0.0/53aae596dd9b88baa4c967c76c2a1448/alergiaLearned" {
q0 [label="b"];
q1 [label="a"];
q0 -> q1  [label="z:1.0"];
q0 -> q1  [label="y:1.0"];
q0 -> q1  [label="x:1.0"];
q1 -> q1  [label="x:0.5454545454545454"];
q1 -> q0  [label="x:0.45454545454545453"];
q1 -> q0  [label="y:1.0"];
q1 -> q0  [label="z:1.0"];
__start0 [label="", shape=none];
__start0 -> q0  [label=""];
}
