digraph "benchmarks-true-state-lstar-rc10seeds/n_states=15-n_outputs=9-glitch_percent=0.0/aa1ce76e356df56897950be536609430/pmsatLearned_NOP-N15" {
0 [label="0|i", shape=record, style=rounded];
1 [label="1|b", shape=record, style=rounded];
2 [label="2|c", shape=record, style=rounded];
3 [label="3|a", shape=record, style=rounded];
4 [label="4|i", shape=record, style=rounded];
5 [label="5|f", shape=record, style=rounded];
6 [label="6|h", shape=record, style=rounded];
7 [label="7|i", shape=record, style=rounded];
8 [label="8|a", shape=record, style=rounded];
9 [label="9|f", shape=record, style=rounded];
10 [label="10|g", shape=record, style=rounded];
11 [label="11|e", shape=record, style=rounded];
12 [label="12|i", shape=record, style=rounded];
13 [label="13|a", shape=record, style=rounded];
14 [label="14|b", shape=record, style=rounded];
0 -> 11  [label="x"];
0 -> 14  [label="y"];
0 -> 2  [label="z"];
1 -> 12  [label="z"];
1 -> 6  [label="y"];
1 -> 5  [label="x"];
2 -> 12  [label="x"];
2 -> 11  [label="y"];
2 -> 11  [label="z"];
3 -> 10  [label="x"];
3 -> 8  [label="y"];
3 -> 14  [label="z"];
4 -> 3  [label="x"];
4 -> 0  [label="y"];
4 -> 9  [label="z"];
5 -> 7  [label="x"];
5 -> 13  [label="y"];
5 -> 2  [label="z"];
6 -> 9  [label="x"];
6 -> 14  [label="y"];
6 -> 0  [label="z"];
7 -> 3  [label="x"];
7 -> 8  [label="y"];
7 -> 3  [label="z"];
8 -> 4  [label="x"];
8 -> 5  [label="y"];
8 -> 11  [label="z"];
9 -> 1  [label="x"];
9 -> 2  [label="y"];
9 -> 12  [label="z"];
10 -> 11  [label="x"];
10 -> 5  [label="y"];
10 -> 13  [label="z"];
11 -> 11  [label="x"];
11 -> 13  [label="y"];
11 -> 4  [label="z"];
12 -> 4  [label="x"];
12 -> 10  [label="y"];
12 -> 11  [label="z"];
13 -> 4  [label="x"];
13 -> 5  [label="y"];
13 -> 2  [label="z"];
14 -> 6  [label="x"];
14 -> 13  [label="y"];
14 -> 0  [label="z"];
__start0 [label="", shape=none];
__start0 -> 1  [label=""];
}
