digraph "benchmarks-true-state-lstar-3seeds/n_states=13-n_outputs=4-glitch_percent=0.01/68126c149befc9648562b635da7574f2/pmsatLearned-N13" {
0 [label="0|a", shape=record, style=rounded];
1 [label="1|b", shape=record, style=rounded];
2 [label="2|c", shape=record, style=rounded];
3 [label="3|d", shape=record, style=rounded];
4 [label="4|b", shape=record, style=rounded];
5 [label="5|c", shape=record, style=rounded];
6 [label="6|d", shape=record, style=rounded];
7 [label="7|c", shape=record, style=rounded];
8 [label="8|d", shape=record, style=rounded];
9 [label="9|d", shape=record, style=rounded];
10 [label="10|b", shape=record, style=rounded];
11 [label="11|b", shape=record, style=rounded];
12 [label="12|c", shape=record, style=rounded];
0 -> 7  [label="x"];
0 -> 10  [label="y"];
0 -> 7  [label="z"];
1 -> 3  [label="z"];
1 -> 11  [label="y"];
1 -> 10  [label="x"];
2 -> 8  [label="x"];
2 -> 11  [label="y"];
2 -> 10  [label="z"];
3 -> 2  [label="x"];
3 -> 9  [label="y"];
3 -> 5  [label="z"];
4 -> 0  [label="x"];
4 -> 2  [label="y"];
4 -> 4  [label="z"];
5 -> 2  [label="x"];
5 -> 9  [label="y"];
5 -> 9  [label="z"];
6 -> 1  [label="x"];
6 -> 1  [label="y"];
6 -> 11  [label="z"];
7 -> 7  [label="x"];
7 -> 0  [label="y"];
7 -> 0  [label="z"];
8 -> 0  [label="x"];
8 -> 3  [label="y"];
8 -> 0  [label="z"];
9 -> 12  [label="x"];
9 -> 7  [label="y"];
9 -> 1  [label="z"];
10 -> 7  [label="x"];
10 -> 4  [label="y"];
10 -> 12  [label="z"];
11 -> 0  [label="x"];
11 -> 6  [label="y"];
11 -> 8  [label="z"];
12 -> 0  [label="x"];
12 -> 0  [label="y"];
12 -> 1  [label="z"];
__start0 [label="", shape=none];
__start0 -> 1  [label=""];
}
