digraph "benchmarks-true-state-lstar-3seeds/n_states=6-n_outputs=5-glitch_percent=0.1/201e4dda671a81cee31a1b18f88ac45b/pmsatLearned-N6-STOC" {
0 [label="0|b", shape=record, style=rounded];
1 [label="1|c", shape=record, style=rounded];
2 [label="2|d", shape=record, style=rounded];
3 [label="3|c", shape=record, style=rounded];
4 [label="4|c", shape=record, style=rounded];
5 [label="5|d", shape=record, style=rounded];
0 -> 1  [label="x (6)"];
0 -> 5  [label="z (6)"];
0 -> 5  [label="y (4)"];
1 -> 4  [label="x (7)"];
1 -> 4  [label="y (9)"];
1 -> 2  [label="z (10)"];
2 -> 1  [label="z (19)"];
2 -> 5  [label="y (19)"];
2 -> 4  [label="x (37)"];
2 -> 1  [label="!y [1]"];
2 -> 3  [label="!y [2]"];
2 -> 0  [label="!x [1]"];
3 -> 0  [label="x (6)"];
3 -> 3  [label="y (4)"];
3 -> 2  [label="z (4)"];
3 -> 2  [label="!y [1]"];
4 -> 0  [label="x (15)"];
4 -> 3  [label="y (15)"];
4 -> 1  [label="z (5)"];
4 -> 2  [label="!y [1]"];
5 -> 5  [label="x (5)"];
5 -> 1  [label="y (6)"];
5 -> 1  [label="z (8)"];
5 -> 1  [label="!x [1]"];
__start0 [label="", shape=none];
__start0 -> 2  [label=""];
}
