digraph "benchmarks-true-state-lstar-songp/n_states=9-n_outputs=6-glitch_percent=0.05-pmstrat='rc2'/e019ae77e7a0fd6f47929a49bde7a246/pmsatLearned-N9" {
0 [label="0|a", shape=record, style=rounded];
1 [label="1|b", shape=record, style=rounded];
2 [label="2|c", shape=record, style=rounded];
3 [label="3|d", shape=record, style=rounded];
4 [label="4|f", shape=record, style=rounded];
5 [label="5|c", shape=record, style=rounded];
6 [label="6|a", shape=record, style=rounded];
7 [label="7|f", shape=record, style=rounded];
8 [label="8|f", shape=record, style=rounded];
0 -> 3  [label="z"];
0 -> 5  [label="y"];
0 -> 6  [label="x"];
1 -> 7  [label="x"];
1 -> 8  [label="y"];
1 -> 6  [label="z"];
2 -> 8  [label="x"];
2 -> 7  [label="y"];
2 -> 2  [label="z"];
3 -> 8  [label="x"];
3 -> 8  [label="y"];
3 -> 7  [label="z"];
4 -> 0  [label="x"];
4 -> 2  [label="y"];
4 -> 2  [label="z"];
5 -> 1  [label="x"];
5 -> 7  [label="y"];
5 -> 6  [label="z"];
6 -> 4  [label="x"];
6 -> 8  [label="z"];
6 -> 2  [label="y"];
7 -> 3  [label="x"];
7 -> 7  [label="y"];
7 -> 8  [label="z"];
8 -> 7  [label="x"];
8 -> 6  [label="y"];
8 -> 4  [label="z"];
__start0 [label="", shape=none];
__start0 -> 0  [label=""];
}
