digraph "benchmarks-true-state-lstar-3seeds/n_states=8-n_outputs=8-glitch_percent=0.01/e0f13c8bb8c3d59b3d7e1e2abb4bd95c/pmsatLearned-N8-STOC" {
0 [label="0|a", shape=record, style=rounded];
1 [label="1|c", shape=record, style=rounded];
2 [label="2|e", shape=record, style=rounded];
3 [label="3|f", shape=record, style=rounded];
4 [label="4|g", shape=record, style=rounded];
5 [label="5|h", shape=record, style=rounded];
6 [label="6|a", shape=record, style=rounded];
7 [label="7|c", shape=record, style=rounded];
0 -> 7  [label="x (8)"];
0 -> 1  [label="y (8)"];
0 -> 0  [label="z (7)"];
1 -> 2  [label="x (8)"];
1 -> 1  [label="y (8)"];
1 -> 0  [label="z (8)"];
2 -> 5  [label="z (19)"];
2 -> 4  [label="y (31)"];
2 -> 7  [label="x (54)"];
2 -> 0  [label="!z [1]"];
3 -> 3  [label="x (7)"];
3 -> 4  [label="y (7)"];
3 -> 7  [label="z (7)"];
4 -> 1  [label="x (18)"];
4 -> 1  [label="y (6)"];
4 -> 7  [label="z (6)"];
5 -> 2  [label="x (7)"];
5 -> 3  [label="y (7)"];
5 -> 0  [label="z (7)"];
6 -> 5  [label="x (5)"];
6 -> 5  [label="y (5)"];
6 -> 7  [label="z (4)"];
7 -> 6  [label="x (20)"];
7 -> 3  [label="y (21)"];
7 -> 0  [label="z (20)"];
7 -> 7  [label="!z [1]"];
__start0 [label="", shape=none];
__start0 -> 2  [label=""];
}
