digraph "benchmarks-true-state-lstar-songp/n_states=8-n_outputs=5-glitch_percent=0.1-pmstrat='lsu'/fc307206bb5aac2fdf22bb683c14e972/pmsatLearned-N8-STOC" {
0 [label="0|a", shape=record, style=rounded];
1 [label="1|b", shape=record, style=rounded];
2 [label="2|c", shape=record, style=rounded];
3 [label="3|d", shape=record, style=rounded];
4 [label="4|e", shape=record, style=rounded];
5 [label="5|d", shape=record, style=rounded];
6 [label="6|a", shape=record, style=rounded];
7 [label="7|c", shape=record, style=rounded];
0 -> 2  [label="z (18)"];
0 -> 3  [label="y (28)"];
0 -> 7  [label="x (44)"];
0 -> 7  [label="!y [1]"];
0 -> 6  [label="!y [2]"];
0 -> 1  [label="!x [2]"];
0 -> 5  [label="!z [1]"];
0 -> 4  [label="!x [1]"];
1 -> 3  [label="x (10)"];
1 -> 2  [label="y (10)"];
1 -> 0  [label="z (8)"];
1 -> 3  [label="!y [1]"];
2 -> 0  [label="x (7)"];
2 -> 2  [label="y (8)"];
2 -> 2  [label="z (8)"];
2 -> 2  [label="!x [1]"];
3 -> 1  [label="x (19)"];
3 -> 3  [label="y (8)"];
3 -> 1  [label="z (8)"];
4 -> 3  [label="x (5)"];
4 -> 1  [label="y (6)"];
4 -> 2  [label="z (5)"];
4 -> 0  [label="!x [1]"];
4 -> 1  [label="!z [1]"];
5 -> 7  [label="y (2)"];
5 -> 1  [label="z (4)"];
5 -> 3  [label="x (4)"];
6 -> 1  [label="x (4)"];
6 -> 4  [label="y (5)"];
6 -> 1  [label="z (4)"];
7 -> 5  [label="z (13)"];
7 -> 6  [label="y (13)"];
7 -> 4  [label="x (16)"];
7 -> 1  [label="!z [1]"];
__start0 [label="", shape=none];
__start0 -> 0  [label=""];
}
