digraph "benchmarks-true-state-lstar-rc10seeds/n_states=11-n_outputs=8-glitch_percent=0.05/bca4d20401c0d06c0f7747df545d11c9/pmsatLearned_NOP-N11" {
0 [label="0|a", shape=record, style=rounded];
1 [label="1|a", shape=record, style=rounded];
2 [label="2|b", shape=record, style=rounded];
3 [label="3|c", shape=record, style=rounded];
4 [label="4|d", shape=record, style=rounded];
5 [label="5|g", shape=record, style=rounded];
6 [label="6|g", shape=record, style=rounded];
7 [label="7|d", shape=record, style=rounded];
8 [label="8|b", shape=record, style=rounded];
9 [label="9|e", shape=record, style=rounded];
10 [label="10|b", shape=record, style=rounded];
0 -> 10  [label="x"];
0 -> 2  [label="y"];
0 -> 10  [label="z"];
1 -> 10  [label="x"];
1 -> 10  [label="y"];
1 -> 9  [label="z"];
2 -> 4  [label="x"];
2 -> 0  [label="y"];
2 -> 3  [label="z"];
3 -> 1  [label="x"];
3 -> 10  [label="y"];
3 -> 7  [label="z"];
4 -> 4  [label="x"];
4 -> 5  [label="y"];
4 -> 9  [label="z"];
5 -> 1  [label="z"];
5 -> 8  [label="y"];
5 -> 6  [label="x"];
6 -> 0  [label="y"];
6 -> 9  [label="z"];
6 -> 2  [label="x"];
7 -> 9  [label="x"];
7 -> 10  [label="y"];
7 -> 8  [label="z"];
8 -> 7  [label="x"];
8 -> 4  [label="y"];
8 -> 3  [label="z"];
9 -> 0  [label="x"];
9 -> 10  [label="y"];
9 -> 4  [label="z"];
10 -> 7  [label="x"];
10 -> 6  [label="y"];
10 -> 6  [label="z"];
__start0 [label="", shape=none];
__start0 -> 5  [label=""];
}
