digraph "benchmarks-true-state-lstar-songp/n_states=10-n_outputs=8-glitch_percent=0.02-pmstrat='fm'/2886986c86f9e3c6943d444a59d0a0e4/pmsatLearned-N10" {
0 [label="0|a", shape=record, style=rounded];
1 [label="1|b", shape=record, style=rounded];
2 [label="2|c", shape=record, style=rounded];
3 [label="3|e", shape=record, style=rounded];
4 [label="4|f", shape=record, style=rounded];
5 [label="5|g", shape=record, style=rounded];
6 [label="6|h", shape=record, style=rounded];
7 [label="7|h", shape=record, style=rounded];
8 [label="8|a", shape=record, style=rounded];
9 [label="9|h", shape=record, style=rounded];
0 -> 4  [label="z"];
0 -> 8  [label="y"];
0 -> 7  [label="x"];
1 -> 3  [label="x"];
1 -> 0  [label="y"];
1 -> 5  [label="z"];
2 -> 9  [label="x"];
2 -> 2  [label="y"];
2 -> 7  [label="z"];
3 -> 5  [label="x"];
3 -> 8  [label="y"];
3 -> 4  [label="z"];
4 -> 3  [label="x"];
4 -> 2  [label="y"];
4 -> 8  [label="z"];
5 -> 0  [label="x"];
5 -> 2  [label="y"];
5 -> 0  [label="z"];
6 -> 5  [label="x"];
6 -> 2  [label="y"];
6 -> 7  [label="z"];
7 -> 2  [label="x"];
7 -> 3  [label="y"];
7 -> 6  [label="z"];
8 -> 1  [label="x"];
8 -> 5  [label="y"];
8 -> 9  [label="z"];
9 -> 2  [label="x"];
9 -> 4  [label="y"];
9 -> 4  [label="z"];
__start0 [label="", shape=none];
__start0 -> 0  [label=""];
}
