digraph "benchmarks-true-state-lstar-3seeds/n_states=16-n_outputs=2-glitch_percent=0.01/d7c776ed430ae59d9d841166b6120d0e/rpniGroundTruth" {
s0 [label="s0|a", shape=record, style=rounded];
s1 [label="s1|b", shape=record, style=rounded];
s2 [label="s2|b", shape=record, style=rounded];
s3 [label="s3|a", shape=record, style=rounded];
s4 [label="s4|a", shape=record, style=rounded];
s5 [label="s5|a", shape=record, style=rounded];
s6 [label="s6|b", shape=record, style=rounded];
s7 [label="s7|a", shape=record, style=rounded];
s8 [label="s8|b", shape=record, style=rounded];
s9 [label="s9|a", shape=record, style=rounded];
s10 [label="s10|b", shape=record, style=rounded];
s11 [label="s11|b", shape=record, style=rounded];
s12 [label="s12|a", shape=record, style=rounded];
s13 [label="s13|a", shape=record, style=rounded];
s14 [label="s14|b", shape=record, style=rounded];
s15 [label="s15|a", shape=record, style=rounded];
s0 -> s1  [label="y"];
s0 -> s2  [label="x"];
s0 -> s3  [label="z"];
s1 -> s4  [label="y"];
s1 -> s5  [label="x"];
s1 -> s6  [label="z"];
s2 -> s7  [label="y"];
s2 -> s8  [label="x"];
s2 -> s9  [label="z"];
s3 -> s10  [label="z"];
s3 -> s11  [label="x"];
s3 -> s12  [label="y"];
s4 -> s9  [label="y"];
s4 -> s13  [label="x"];
s4 -> s13  [label="z"];
s5 -> s5  [label="z"];
s5 -> s11  [label="y"];
s5 -> s10  [label="x"];
s6 -> s10  [label="z"];
s6 -> s1  [label="x"];
s6 -> s14  [label="y"];
s7 -> s4  [label="z"];
s7 -> s15  [label="y"];
s7 -> s14  [label="x"];
s8 -> s14  [label="z"];
s8 -> s15  [label="y"];
s8 -> s13  [label="x"];
s9 -> s11  [label="x"];
s9 -> s13  [label="y"];
s9 -> s1  [label="z"];
s10 -> s4  [label="z"];
s10 -> s10  [label="y"];
s10 -> s13  [label="x"];
s11 -> s5  [label="z"];
s11 -> s10  [label="y"];
s11 -> s8  [label="x"];
s12 -> s2  [label="z"];
s12 -> s4  [label="x"];
s12 -> s6  [label="y"];
s13 -> s15  [label="x"];
s13 -> s3  [label="z"];
s13 -> s1  [label="y"];
s14 -> s7  [label="x"];
s14 -> s13  [label="z"];
s14 -> s5  [label="y"];
s15 -> s9  [label="z"];
s15 -> s7  [label="x"];
s15 -> s6  [label="y"];
__start0 [label="", shape=none];
__start0 -> s0  [label=""];
}
