digraph "benchmarks-true-state-lstar-3seeds/n_states=12-n_outputs=6-glitch_percent=0.02/61168407c8a971445dcec314032f8ccb/rpniGroundTruth" {
s0 [label="s0|b", shape=record, style=rounded];
s1 [label="s1|e", shape=record, style=rounded];
s2 [label="s2|e", shape=record, style=rounded];
s3 [label="s3|d", shape=record, style=rounded];
s4 [label="s4|f", shape=record, style=rounded];
s5 [label="s5|b", shape=record, style=rounded];
s6 [label="s6|b", shape=record, style=rounded];
s7 [label="s7|c", shape=record, style=rounded];
s8 [label="s8|b", shape=record, style=rounded];
s9 [label="s9|e", shape=record, style=rounded];
s10 [label="s10|e", shape=record, style=rounded];
s11 [label="s11|d", shape=record, style=rounded];
s0 -> s1  [label="z"];
s0 -> s2  [label="x"];
s0 -> s3  [label="y"];
s1 -> s4  [label="y"];
s1 -> s0  [label="z"];
s1 -> s5  [label="x"];
s2 -> s6  [label="z"];
s2 -> s7  [label="x"];
s2 -> s8  [label="y"];
s3 -> s9  [label="y"];
s3 -> s10  [label="z"];
s3 -> s11  [label="x"];
s4 -> s0  [label="z"];
s4 -> s7  [label="y"];
s4 -> s11  [label="x"];
s5 -> s10  [label="z"];
s5 -> s9  [label="y"];
s5 -> s2  [label="x"];
s6 -> s5  [label="x"];
s6 -> s3  [label="z"];
s6 -> s7  [label="y"];
s7 -> s7  [label="x"];
s7 -> s10  [label="z"];
s7 -> s3  [label="y"];
s8 -> s2  [label="y"];
s8 -> s8  [label="z"];
s8 -> s5  [label="x"];
s9 -> s10  [label="x"];
s9 -> s7  [label="y"];
s9 -> s0  [label="z"];
s10 -> s0  [label="x"];
s10 -> s4  [label="z"];
s10 -> s9  [label="y"];
s11 -> s0  [label="y"];
s11 -> s6  [label="x"];
s11 -> s7  [label="z"];
__start0 [label="", shape=none];
__start0 -> s0  [label=""];
}
