digraph "benchmarks-true-state-lstar-songp/n_states=13-n_outputs=9-glitch_percent=0.1-pmstrat='fm'/e7e2d7b4a8af49fbdc979b0803d3d33c/pmsatLearned-N13" {
0 [label="0|a", shape=record, style=rounded];
1 [label="1|b", shape=record, style=rounded];
2 [label="2|c", shape=record, style=rounded];
3 [label="3|e", shape=record, style=rounded];
4 [label="4|f", shape=record, style=rounded];
5 [label="5|g", shape=record, style=rounded];
6 [label="6|h", shape=record, style=rounded];
7 [label="7|i", shape=record, style=rounded];
8 [label="8|f", shape=record, style=rounded];
9 [label="9|a", shape=record, style=rounded];
10 [label="10|i", shape=record, style=rounded];
11 [label="11|h", shape=record, style=rounded];
12 [label="12|h", shape=record, style=rounded];
0 -> 6  [label="z"];
0 -> 9  [label="y"];
0 -> 12  [label="x"];
1 -> 10  [label="z"];
1 -> 9  [label="y"];
1 -> 3  [label="x"];
2 -> 3  [label="x"];
2 -> 0  [label="y"];
2 -> 10  [label="z"];
3 -> 2  [label="x"];
3 -> 7  [label="y"];
3 -> 11  [label="z"];
4 -> 5  [label="x"];
4 -> 5  [label="y"];
4 -> 0  [label="z"];
5 -> 0  [label="x"];
5 -> 0  [label="z"];
5 -> 2  [label="y"];
6 -> 1  [label="x"];
6 -> 10  [label="y"];
6 -> 4  [label="z"];
7 -> 10  [label="x"];
7 -> 2  [label="y"];
7 -> 11  [label="z"];
8 -> 10  [label="x"];
8 -> 9  [label="y"];
8 -> 8  [label="z"];
9 -> 2  [label="x"];
9 -> 5  [label="y"];
9 -> 11  [label="z"];
10 -> 5  [label="z"];
10 -> 10  [label="y"];
10 -> 3  [label="x"];
11 -> 8  [label="y"];
11 -> 8  [label="z"];
11 -> 2  [label="x"];
12 -> 7  [label="z"];
12 -> 8  [label="y"];
12 -> 3  [label="x"];
__start0 [label="", shape=none];
__start0 -> 0  [label=""];
}
