digraph "benchmarks-true-state-lstar-rc10seeds/n_states=17-n_outputs=9-glitch_percent=0.0/abcfa6942ffd12120ee0a36c79b662b3/pmsatLearned_NOP-N17-STOC" {
0 [label="0|g", shape=record, style=rounded];
1 [label="1|h", shape=record, style=rounded];
2 [label="2|g", shape=record, style=rounded];
3 [label="3|i", shape=record, style=rounded];
4 [label="4|e", shape=record, style=rounded];
5 [label="5|h", shape=record, style=rounded];
6 [label="6|e", shape=record, style=rounded];
7 [label="7|g", shape=record, style=rounded];
8 [label="8|b", shape=record, style=rounded];
9 [label="9|f", shape=record, style=rounded];
10 [label="10|a", shape=record, style=rounded];
11 [label="11|a", shape=record, style=rounded];
12 [label="12|i", shape=record, style=rounded];
13 [label="13|a", shape=record, style=rounded];
14 [label="14|b", shape=record, style=rounded];
15 [label="15|g", shape=record, style=rounded];
16 [label="16|i", shape=record, style=rounded];
0 -> 16  [label="x (8)"];
0 -> 11  [label="y (8)"];
0 -> 6  [label="z (8)"];
1 -> 9  [label="x (19)"];
1 -> 6  [label="y (19)"];
1 -> 0  [label="z (19)"];
2 -> 7  [label="x (5)"];
2 -> 0  [label="y (5)"];
2 -> 8  [label="z (5)"];
3 -> 4  [label="z (53)"];
3 -> 1  [label="y (53)"];
3 -> 8  [label="x (101)"];
4 -> 7  [label="x (20)"];
4 -> 12  [label="y (20)"];
4 -> 2  [label="z (20)"];
5 -> 4  [label="x (7)"];
5 -> 7  [label="y (7)"];
5 -> 5  [label="z (7)"];
6 -> 1  [label="x (8)"];
6 -> 7  [label="y (8)"];
6 -> 12  [label="z (8)"];
7 -> 4  [label="x (9)"];
7 -> 12  [label="y (9)"];
7 -> 14  [label="z (9)"];
8 -> 16  [label="x (55)"];
8 -> 13  [label="y (31)"];
8 -> 15  [label="z (19)"];
9 -> 12  [label="x (5)"];
9 -> 0  [label="y (5)"];
9 -> 13  [label="z (5)"];
10 -> 7  [label="x (5)"];
10 -> 1  [label="y (5)"];
10 -> 16  [label="z (5)"];
11 -> 12  [label="x (7)"];
11 -> 6  [label="y (7)"];
11 -> 13  [label="z (7)"];
12 -> 0  [label="x (9)"];
12 -> 15  [label="y (9)"];
12 -> 16  [label="z (9)"];
13 -> 5  [label="x (20)"];
13 -> 6  [label="y (8)"];
13 -> 16  [label="z (8)"];
14 -> 4  [label="x (6)"];
14 -> 15  [label="y (6)"];
14 -> 13  [label="z (6)"];
15 -> 8  [label="x (7)"];
15 -> 5  [label="y (7)"];
15 -> 11  [label="z (7)"];
16 -> 14  [label="x (21)"];
16 -> 10  [label="y (21)"];
16 -> 11  [label="z (21)"];
__start0 [label="", shape=none];
__start0 -> 3  [label=""];
}
