digraph "benchmarks-true-state-lstar-rc10seeds/n_states=17-n_outputs=8-glitch_percent=0.0/0e3a3f0f88bcea8209c30e345d46e315/pmsatLearned_NOP-N17-STOC" {
0 [label="0|a", shape=record, style=rounded];
1 [label="1|b", shape=record, style=rounded];
2 [label="2|a", shape=record, style=rounded];
3 [label="3|c", shape=record, style=rounded];
4 [label="4|e", shape=record, style=rounded];
5 [label="5|h", shape=record, style=rounded];
6 [label="6|g", shape=record, style=rounded];
7 [label="7|f", shape=record, style=rounded];
8 [label="8|d", shape=record, style=rounded];
9 [label="9|f", shape=record, style=rounded];
10 [label="10|b", shape=record, style=rounded];
11 [label="11|a", shape=record, style=rounded];
12 [label="12|c", shape=record, style=rounded];
13 [label="13|g", shape=record, style=rounded];
14 [label="14|a", shape=record, style=rounded];
15 [label="15|b", shape=record, style=rounded];
16 [label="16|a", shape=record, style=rounded];
0 -> 3  [label="x (38)"];
0 -> 9  [label="y (28)"];
0 -> 11  [label="z (24)"];
1 -> 2  [label="z (68)"];
1 -> 8  [label="y (68)"];
1 -> 4  [label="x (138)"];
2 -> 14  [label="x (29)"];
2 -> 15  [label="y (24)"];
2 -> 5  [label="z (24)"];
3 -> 16  [label="x (21)"];
3 -> 4  [label="y (10)"];
3 -> 8  [label="z (10)"];
4 -> 0  [label="x (83)"];
4 -> 16  [label="y (40)"];
4 -> 7  [label="z (26)"];
5 -> 5  [label="x (14)"];
5 -> 14  [label="y (8)"];
5 -> 11  [label="z (8)"];
6 -> 4  [label="x (12)"];
6 -> 14  [label="y (6)"];
6 -> 4  [label="z (6)"];
7 -> 16  [label="x (8)"];
7 -> 0  [label="y (6)"];
7 -> 10  [label="z (6)"];
8 -> 6  [label="x (32)"];
8 -> 12  [label="y (25)"];
8 -> 10  [label="z (25)"];
9 -> 0  [label="x (11)"];
9 -> 14  [label="y (6)"];
9 -> 1  [label="z (6)"];
10 -> 8  [label="x (9)"];
10 -> 15  [label="y (7)"];
10 -> 0  [label="z (7)"];
11 -> 14  [label="x (11)"];
11 -> 2  [label="y (8)"];
11 -> 4  [label="z (8)"];
12 -> 2  [label="x (7)"];
12 -> 3  [label="y (6)"];
12 -> 11  [label="z (6)"];
13 -> 1  [label="x (13)"];
13 -> 5  [label="y (7)"];
13 -> 13  [label="z (7)"];
14 -> 16  [label="x (24)"];
14 -> 2  [label="y (11)"];
14 -> 8  [label="z (11)"];
15 -> 3  [label="x (9)"];
15 -> 14  [label="y (7)"];
15 -> 3  [label="z (7)"];
16 -> 13  [label="x (41)"];
16 -> 8  [label="y (9)"];
16 -> 3  [label="z (9)"];
__start0 [label="", shape=none];
__start0 -> 1  [label=""];
}
