digraph "benchmarks-true-state-lstar-rc10seeds/n_states=13-n_outputs=4-glitch_percent=0.0/0fb2340be02edf41a7af217ed6583782/pmsatLearned_NOP-N13-STOC" {
0 [label="0|c", shape=record, style=rounded];
1 [label="1|b", shape=record, style=rounded];
2 [label="2|a", shape=record, style=rounded];
3 [label="3|d", shape=record, style=rounded];
4 [label="4|a", shape=record, style=rounded];
5 [label="5|a", shape=record, style=rounded];
6 [label="6|a", shape=record, style=rounded];
7 [label="7|b", shape=record, style=rounded];
8 [label="8|a", shape=record, style=rounded];
9 [label="9|d", shape=record, style=rounded];
10 [label="10|b", shape=record, style=rounded];
11 [label="11|b", shape=record, style=rounded];
12 [label="12|c", shape=record, style=rounded];
0 -> 8  [label="x (18)"];
0 -> 4  [label="y (18)"];
0 -> 9  [label="z (18)"];
1 -> 6  [label="x (19)"];
1 -> 10  [label="y (19)"];
1 -> 11  [label="z (19)"];
2 -> 3  [label="x (9)"];
2 -> 12  [label="y (9)"];
2 -> 4  [label="z (9)"];
3 -> 1  [label="z (56)"];
3 -> 7  [label="y (56)"];
3 -> 0  [label="x (56)"];
4 -> 2  [label="x (7)"];
4 -> 11  [label="y (7)"];
4 -> 12  [label="z (7)"];
5 -> 9  [label="x (6)"];
5 -> 9  [label="y (6)"];
5 -> 10  [label="z (6)"];
6 -> 11  [label="x (8)"];
6 -> 7  [label="y (8)"];
6 -> 9  [label="z (8)"];
7 -> 2  [label="x (18)"];
7 -> 12  [label="y (18)"];
7 -> 5  [label="z (18)"];
8 -> 8  [label="x (6)"];
8 -> 2  [label="y (6)"];
8 -> 5  [label="z (6)"];
9 -> 2  [label="x (8)"];
9 -> 6  [label="y (8)"];
9 -> 11  [label="z (8)"];
10 -> 0  [label="x (6)"];
10 -> 3  [label="y (6)"];
10 -> 3  [label="z (6)"];
11 -> 6  [label="x (8)"];
11 -> 6  [label="y (8)"];
11 -> 4  [label="z (8)"];
12 -> 2  [label="x (7)"];
12 -> 1  [label="y (7)"];
12 -> 1  [label="z (7)"];
__start0 [label="", shape=none];
__start0 -> 3  [label=""];
}
