digraph "benchmarks-true-state-lstar-songp/n_states=15-n_outputs=2-glitch_percent=0.01-pmstrat='rc2'/0bc3289e8b4fea075daf554af269b462/alergiaLearned" {
q0 [label="a"];
q1 [label="b"];
q2 [label="a"];
q3 [label="a"];
q4 [label="b"];
q5 [label="b"];
q6 [label="a"];
q7 [label="b"];
q8 [label="b"];
q9 [label="b"];
q10 [label="b"];
q11 [label="a"];
q12 [label="a"];
q13 [label="b"];
q0 -> q1  [label="z:1.0"];
q0 -> q2  [label="y:0.9793103448275862"];
q0 -> q1  [label="y:0.020689655172413793"];
q0 -> q3  [label="x:0.975"];
q0 -> q4  [label="x:0.025"];
q1 -> q5  [label="x:0.9591836734693877"];
q1 -> q0  [label="x:0.04081632653061224"];
q1 -> q6  [label="y:0.9636363636363636"];
q1 -> q1  [label="y:0.03636363636363636"];
q1 -> q7  [label="z:0.95"];
q1 -> q0  [label="z:0.05"];
q2 -> q8  [label="x:1.0"];
q2 -> q7  [label="y:1.0"];
q2 -> q0  [label="y:0.0"];
q2 -> q9  [label="z:1.0"];
q3 -> q10  [label="x:1.0"];
q3 -> q11  [label="y:1.0"];
q3 -> q1  [label="y:0.0"];
q3 -> q8  [label="z:1.0"];
q4 -> q4  [label="z:1.0"];
q4 -> q0  [label="z:0.0"];
q4 -> q0  [label="x:0.8947368421052632"];
q4 -> q1  [label="x:0.10526315789473684"];
q4 -> q0  [label="y:0.07692307692307693"];
q4 -> q1  [label="y:0.9230769230769231"];
q5 -> q6  [label="x:0.8333333333333334"];
q5 -> q1  [label="x:0.16666666666666666"];
q5 -> q6  [label="y:0.52"];
q5 -> q4  [label="y:0.48"];
q5 -> q5  [label="z:0.84"];
q5 -> q0  [label="z:0.16"];
q6 -> q4  [label="x:0.8918918918918919"];
q6 -> q0  [label="x:0.10810810810810811"];
q6 -> q3  [label="y:0.9354838709677419"];
q6 -> q1  [label="y:0.06451612903225806"];
q6 -> q9  [label="z:1.0"];
q7 -> q4  [label="x:1.0"];
q7 -> q0  [label="y:0.9090909090909091"];
q7 -> q1  [label="y:0.09090909090909091"];
q7 -> q5  [label="z:0.9259259259259259"];
q7 -> q0  [label="z:0.07407407407407407"];
q8 -> q6  [label="x:0.9714285714285714"];
q8 -> q1  [label="x:0.02857142857142857"];
q8 -> q2  [label="y:0.8285714285714286"];
q8 -> q1  [label="y:0.17142857142857143"];
q8 -> q1  [label="z:0.52"];
q8 -> q0  [label="z:0.48"];
q9 -> q0  [label="x:1.0"];
q9 -> q8  [label="y:1.0"];
q9 -> q0  [label="y:0.0"];
q9 -> q5  [label="z:1.0"];
q10 -> q12  [label="x:1.0"];
q10 -> q13  [label="y:1.0"];
q10 -> q5  [label="z:1.0"];
q11 -> q7  [label="x:1.0"];
q11 -> q0  [label="y:1.0"];
q11 -> q9  [label="z:0.9090909090909091"];
q11 -> q0  [label="z:0.09090909090909091"];
q12 -> q6  [label="x:1.0"];
q12 -> q5  [label="y:1.0"];
q12 -> q5  [label="z:1.0"];
q13 -> q7  [label="x:1.0"];
q13 -> q5  [label="y:1.0"];
q13 -> q3  [label="z:1.0"];
__start0 [label="", shape=none];
__start0 -> q0  [label=""];
}
