digraph "benchmarks-true-state-lstar-songp/n_states=15-n_outputs=2-glitch_percent=0.01-pmstrat='rc2'/0bc3289e8b4fea075daf554af269b462/pmsatLearned-N15" {
0 [label="0|a", shape=record, style=rounded];
1 [label="1|b", shape=record, style=rounded];
2 [label="2|a", shape=record, style=rounded];
3 [label="3|b", shape=record, style=rounded];
4 [label="4|b", shape=record, style=rounded];
5 [label="5|b", shape=record, style=rounded];
6 [label="6|a", shape=record, style=rounded];
7 [label="7|b", shape=record, style=rounded];
8 [label="8|b", shape=record, style=rounded];
9 [label="9|b", shape=record, style=rounded];
10 [label="10|b", shape=record, style=rounded];
11 [label="11|b", shape=record, style=rounded];
12 [label="12|a", shape=record, style=rounded];
13 [label="13|a", shape=record, style=rounded];
14 [label="14|a", shape=record, style=rounded];
0 -> 7  [label="z"];
0 -> 13  [label="y"];
0 -> 2  [label="x"];
1 -> 9  [label="x"];
1 -> 0  [label="y"];
1 -> 10  [label="z"];
2 -> 8  [label="x"];
2 -> 14  [label="y"];
2 -> 5  [label="z"];
3 -> 6  [label="x"];
3 -> 13  [label="y"];
3 -> 5  [label="z"];
4 -> 5  [label="x"];
4 -> 2  [label="y"];
4 -> 10  [label="z"];
5 -> 0  [label="x"];
5 -> 13  [label="y"];
5 -> 0  [label="z"];
6 -> 9  [label="x"];
6 -> 2  [label="y"];
6 -> 9  [label="z"];
7 -> 11  [label="x"];
7 -> 6  [label="y"];
7 -> 1  [label="z"];
8 -> 12  [label="x"];
8 -> 10  [label="y"];
8 -> 11  [label="z"];
9 -> 12  [label="x"];
9 -> 8  [label="y"];
9 -> 10  [label="z"];
10 -> 1  [label="x"];
10 -> 9  [label="y"];
10 -> 2  [label="z"];
11 -> 6  [label="x"];
11 -> 6  [label="y"];
11 -> 8  [label="z"];
12 -> 6  [label="x"];
12 -> 8  [label="y"];
12 -> 3  [label="z"];
13 -> 3  [label="x"];
13 -> 4  [label="y"];
13 -> 9  [label="z"];
14 -> 10  [label="x"];
14 -> 0  [label="y"];
14 -> 8  [label="z"];
__start0 [label="", shape=none];
__start0 -> 0  [label=""];
}
