digraph "benchmarks-true-state-lstar-3seeds/n_states=3-n_outputs=2-glitch_percent=0.02/015f3a82a1cce02399fa471cb9605074/pmsatLearned-N3-STOC" {
0 [label="0|a", shape=record, style=rounded];
1 [label="1|b", shape=record, style=rounded];
2 [label="2|a", shape=record, style=rounded];
0 -> 1  [label="x (6)"];
0 -> 1  [label="y (6)"];
0 -> 1  [label="z (6)"];
1 -> 2  [label="z (10)"];
1 -> 2  [label="y (22)"];
1 -> 0  [label="x (22)"];
2 -> 0  [label="x (6)"];
2 -> 1  [label="y (6)"];
2 -> 1  [label="z (5)"];
__start0 [label="", shape=none];
__start0 -> 1  [label=""];
}
