digraph "benchmarks-true-state-lstar-3seeds/n_states=17-n_outputs=2-glitch_percent=0.0/7346858b24638abad375a590c659a767/pmsatLearned-N17-STOC" {
0 [label="0|a", shape=record, style=rounded];
1 [label="1|b", shape=record, style=rounded];
2 [label="2|a", shape=record, style=rounded];
3 [label="3|b", shape=record, style=rounded];
4 [label="4|a", shape=record, style=rounded];
5 [label="5|a", shape=record, style=rounded];
6 [label="6|b", shape=record, style=rounded];
7 [label="7|b", shape=record, style=rounded];
8 [label="8|b", shape=record, style=rounded];
9 [label="9|a", shape=record, style=rounded];
10 [label="10|b", shape=record, style=rounded];
11 [label="11|a", shape=record, style=rounded];
12 [label="12|b", shape=record, style=rounded];
13 [label="13|b", shape=record, style=rounded];
14 [label="14|a", shape=record, style=rounded];
15 [label="15|a", shape=record, style=rounded];
16 [label="16|b", shape=record, style=rounded];
0 -> 1  [label="x (26)"];
0 -> 5  [label="y (32)"];
0 -> 5  [label="z (19)"];
1 -> 9  [label="z (140)"];
1 -> 12  [label="y (160)"];
1 -> 10  [label="x (119)"];
2 -> 1  [label="x (24)"];
2 -> 11  [label="y (11)"];
2 -> 9  [label="z (19)"];
3 -> 4  [label="x (17)"];
3 -> 7  [label="y (9)"];
3 -> 13  [label="z (12)"];
4 -> 14  [label="x (18)"];
4 -> 13  [label="y (9)"];
4 -> 13  [label="z (13)"];
5 -> 1  [label="x (28)"];
5 -> 2  [label="y (11)"];
5 -> 7  [label="z (17)"];
6 -> 5  [label="x (15)"];
6 -> 0  [label="y (9)"];
6 -> 5  [label="z (13)"];
7 -> 15  [label="x (20)"];
7 -> 3  [label="y (10)"];
7 -> 8  [label="z (13)"];
8 -> 13  [label="x (42)"];
8 -> 2  [label="y (10)"];
8 -> 4  [label="z (34)"];
9 -> 15  [label="x (53)"];
9 -> 2  [label="y (35)"];
9 -> 16  [label="z (55)"];
10 -> 3  [label="x (39)"];
10 -> 6  [label="y (29)"];
10 -> 11  [label="z (34)"];
11 -> 6  [label="x (14)"];
11 -> 14  [label="y (9)"];
11 -> 8  [label="z (11)"];
12 -> 0  [label="x (65)"];
12 -> 8  [label="y (73)"];
12 -> 14  [label="z (42)"];
13 -> 13  [label="x (34)"];
13 -> 16  [label="y (12)"];
13 -> 2  [label="z (25)"];
14 -> 16  [label="x (28)"];
14 -> 9  [label="y (11)"];
14 -> 0  [label="z (20)"];
15 -> 12  [label="x (29)"];
15 -> 0  [label="y (10)"];
15 -> 15  [label="z (19)"];
16 -> 14  [label="x (23)"];
16 -> 7  [label="y (31)"];
16 -> 12  [label="z (18)"];
__start0 [label="", shape=none];
__start0 -> 1  [label=""];
}
