digraph "benchmarks-true-state-lstar-3seeds/n_states=17-n_outputs=8-glitch_percent=0.05/cc853133eb8ea9b747dd54863bd3da67/rpniGroundTruth" {
s0 [label="s0|b", shape=record, style=rounded];
s1 [label="s1|d", shape=record, style=rounded];
s2 [label="s2|a", shape=record, style=rounded];
s3 [label="s3|e", shape=record, style=rounded];
s4 [label="s4|b", shape=record, style=rounded];
s5 [label="s5|g", shape=record, style=rounded];
s6 [label="s6|c", shape=record, style=rounded];
s7 [label="s7|b", shape=record, style=rounded];
s8 [label="s8|a", shape=record, style=rounded];
s9 [label="s9|h", shape=record, style=rounded];
s10 [label="s10|a", shape=record, style=rounded];
s11 [label="s11|f", shape=record, style=rounded];
s12 [label="s12|a", shape=record, style=rounded];
s13 [label="s13|c", shape=record, style=rounded];
s14 [label="s14|a", shape=record, style=rounded];
s15 [label="s15|f", shape=record, style=rounded];
s16 [label="s16|g", shape=record, style=rounded];
s0 -> s1  [label="y"];
s0 -> s2  [label="z"];
s0 -> s3  [label="x"];
s1 -> s4  [label="z"];
s1 -> s5  [label="x"];
s1 -> s6  [label="y"];
s2 -> s7  [label="y"];
s2 -> s8  [label="x"];
s2 -> s9  [label="z"];
s3 -> s10  [label="x"];
s3 -> s11  [label="z"];
s3 -> s12  [label="y"];
s4 -> s1  [label="x"];
s4 -> s10  [label="z"];
s4 -> s7  [label="y"];
s5 -> s3  [label="z"];
s5 -> s8  [label="y"];
s5 -> s3  [label="x"];
s6 -> s13  [label="y"];
s6 -> s2  [label="x"];
s6 -> s14  [label="z"];
s7 -> s13  [label="z"];
s7 -> s8  [label="y"];
s7 -> s13  [label="x"];
s8 -> s1  [label="z"];
s8 -> s12  [label="x"];
s8 -> s2  [label="y"];
s9 -> s8  [label="y"];
s9 -> s14  [label="z"];
s9 -> s9  [label="x"];
s10 -> s13  [label="x"];
s10 -> s14  [label="z"];
s10 -> s15  [label="y"];
s11 -> s10  [label="y"];
s11 -> s4  [label="z"];
s11 -> s12  [label="x"];
s12 -> s13  [label="z"];
s12 -> s16  [label="x"];
s12 -> s1  [label="y"];
s13 -> s1  [label="z"];
s13 -> s3  [label="y"];
s13 -> s12  [label="x"];
s14 -> s8  [label="x"];
s14 -> s3  [label="z"];
s14 -> s2  [label="y"];
s15 -> s0  [label="z"];
s15 -> s10  [label="x"];
s15 -> s8  [label="y"];
s16 -> s16  [label="z"];
s16 -> s0  [label="x"];
s16 -> s9  [label="y"];
__start0 [label="", shape=none];
__start0 -> s0  [label=""];
}
