digraph "benchmarks-true-state-lstar-3seeds/n_states=7-n_outputs=2-glitch_percent=0.05/46766ab57aeb05e8f19e9925ef2cefa6/pmsatLearned-N7-STOC" {
0 [label="0|a", shape=record, style=rounded];
1 [label="1|b", shape=record, style=rounded];
2 [label="2|b", shape=record, style=rounded];
3 [label="3|b", shape=record, style=rounded];
4 [label="4|a", shape=record, style=rounded];
5 [label="5|b", shape=record, style=rounded];
6 [label="6|b", shape=record, style=rounded];
0 -> 2  [label="x (10)"];
0 -> 4  [label="y (7)"];
0 -> 1  [label="z (7)"];
1 -> 2  [label="z (26)"];
1 -> 0  [label="y (27)"];
1 -> 5  [label="x (69)"];
1 -> 3  [label="!y [1]"];
1 -> 3  [label="!x [1]"];
2 -> 2  [label="x (17)"];
2 -> 2  [label="y (15)"];
2 -> 6  [label="z (9)"];
2 -> 0  [label="!x [1]"];
3 -> 0  [label="x (5)"];
3 -> 5  [label="y (10)"];
3 -> 1  [label="z (6)"];
4 -> 6  [label="x (10)"];
4 -> 1  [label="y (11)"];
4 -> 4  [label="z (8)"];
5 -> 4  [label="x (32)"];
5 -> 6  [label="y (29)"];
5 -> 3  [label="z (18)"];
6 -> 2  [label="x (10)"];
6 -> 5  [label="y (13)"];
6 -> 3  [label="z (7)"];
__start0 [label="", shape=none];
__start0 -> 1  [label=""];
}
