digraph "pmsatLearned-N8-STOC" {
0 [label="0|a", shape=record, style=rounded];
1 [label="1|b", shape=record, style=rounded];
2 [label="2|c", shape=record, style=rounded];
3 [label="3|d", shape=record, style=rounded];
4 [label="4|a", shape=record, style=rounded];
5 [label="5|a", shape=record, style=rounded];
6 [label="6|d", shape=record, style=rounded];
7 [label="7|b", shape=record, style=rounded];
0 -> 7  [label="x (34)"];
0 -> 0  [label="y (27)"];
0 -> 6  [label="z (42)"];
0 -> 3  [label="!x [1]"];
1 -> 4  [label="z (164)"];
1 -> 7  [label="y (192)"];
1 -> 2  [label="x (222)"];
1 -> 3  [label="!x [1]"];
1 -> 5  [label="!y [2]"];
1 -> 3  [label="!y [1]"];
2 -> 3  [label="x (102)"];
2 -> 5  [label="y (109)"];
2 -> 6  [label="z (102)"];
2 -> 3  [label="!z [1]"];
3 -> 1  [label="x (290)"];
3 -> 3  [label="y (287)"];
3 -> 3  [label="z (288)"];
3 -> 7  [label="!y [2]"];
3 -> 7  [label="!x [1]"];
4 -> 2  [label="x (49)"];
4 -> 3  [label="y (50)"];
4 -> 6  [label="z (50)"];
4 -> 3  [label="!z [1]"];
5 -> 6  [label="x (74)"];
5 -> 5  [label="y (85)"];
5 -> 3  [label="z (93)"];
5 -> 1  [label="!x [1]"];
6 -> 3  [label="x (70)"];
6 -> 7  [label="y (82)"];
6 -> 2  [label="z (78)"];
6 -> 3  [label="!y [1]"];
6 -> 0  [label="!x [1]"];
7 -> 0  [label="x (92)"];
7 -> 3  [label="y (95)"];
7 -> 5  [label="z (83)"];
7 -> 3  [label="!z [1]"];
7 -> 7  [label="!x [1]"];
__start0 [label="", shape=none];
__start0 -> 1  [label=""];
}
