digraph "benchmarks-true-state-lstar-songp/n_states=13-n_outputs=6-glitch_percent=0.02-pmstrat='fm'/1f8a24172ff15bc9d5612b3b8c8b1513/alergiaLearned" {
q0 [label="a"];
q1 [label="a"];
q2 [label="e"];
q3 [label="c"];
q4 [label="d"];
q5 [label="f"];
q6 [label="e"];
q7 [label="b"];
q8 [label="c"];
q0 -> q1  [label="z:0.9298245614035088"];
q0 -> q4  [label="z:0.07017543859649122"];
q0 -> q2  [label="y:0.9661016949152542"];
q0 -> q5  [label="y:0.01694915254237288"];
q0 -> q4  [label="y:0.01694915254237288"];
q0 -> q3  [label="x:0.9482758620689655"];
q0 -> q5  [label="x:0.05172413793103448"];
q1 -> q5  [label="x:1.0"];
q1 -> q6  [label="y:1.0"];
q1 -> q4  [label="z:1.0"];
q2 -> q7  [label="x:0.8947368421052632"];
q2 -> q0  [label="x:0.05263157894736842"];
q2 -> q5  [label="x:0.05263157894736842"];
q2 -> q5  [label="y:1.0"];
q2 -> q4  [label="z:1.0"];
q3 -> q5  [label="x:1.0"];
q3 -> q4  [label="y:1.0"];
q3 -> q8  [label="z:1.0"];
q4 -> q4  [label="x:0.7619047619047619"];
q4 -> q5  [label="x:0.23809523809523808"];
q4 -> q6  [label="z:0.22727272727272727"];
q4 -> q4  [label="z:0.4090909090909091"];
q4 -> q5  [label="z:0.36363636363636365"];
q4 -> q3  [label="y:0.4"];
q4 -> q0  [label="y:0.35"];
q4 -> q5  [label="y:0.25"];
q5 -> q5  [label="y:0.5909090909090909"];
q5 -> q0  [label="y:0.045454545454545456"];
q5 -> q3  [label="y:0.36363636363636365"];
q5 -> q5  [label="x:0.3684210526315789"];
q5 -> q0  [label="x:0.3157894736842105"];
q5 -> q3  [label="x:0.3157894736842105"];
q5 -> q4  [label="z:0.3"];
q5 -> q0  [label="z:0.7"];
q6 -> q4  [label="x:1.0"];
q6 -> q3  [label="y:1.0"];
q6 -> q0  [label="z:1.0"];
q7 -> q4  [label="x:1.0"];
q7 -> q4  [label="y:1.0"];
q7 -> q5  [label="z:1.0"];
q8 -> q5  [label="x:1.0"];
q8 -> q4  [label="y:1.0"];
q8 -> q0  [label="z:1.0"];
__start0 [label="", shape=none];
__start0 -> q0  [label=""];
}
