digraph "pmsatLearned-N12" {
0 [label="0|a", shape=record, style=rounded];
1 [label="1|b", shape=record, style=rounded];
2 [label="2|c", shape=record, style=rounded];
3 [label="3|e", shape=record, style=rounded];
4 [label="4|e", shape=record, style=rounded];
5 [label="5|a", shape=record, style=rounded];
6 [label="6|a", shape=record, style=rounded];
7 [label="7|c", shape=record, style=rounded];
8 [label="8|a", shape=record, style=rounded];
9 [label="9|b", shape=record, style=rounded];
10 [label="10|e", shape=record, style=rounded];
11 [label="11|c", shape=record, style=rounded];
0 -> 1  [label="z"];
0 -> 11  [label="y"];
0 -> 4  [label="x"];
1 -> 5  [label="x"];
1 -> 6  [label="y"];
1 -> 0  [label="z"];
2 -> 5  [label="x"];
2 -> 11  [label="y"];
2 -> 11  [label="z"];
3 -> 0  [label="x"];
3 -> 7  [label="y"];
3 -> 10  [label="z"];
4 -> 3  [label="x"];
4 -> 8  [label="y"];
4 -> 10  [label="z"];
5 -> 1  [label="x"];
5 -> 7  [label="y"];
5 -> 1  [label="z"];
6 -> 8  [label="x"];
6 -> 1  [label="y"];
6 -> 5  [label="z"];
7 -> 5  [label="x"];
7 -> 5  [label="y"];
7 -> 1  [label="z"];
8 -> 7  [label="x"];
8 -> 2  [label="y"];
8 -> 2  [label="z"];
9 -> 0  [label="x"];
9 -> 5  [label="y"];
9 -> 7  [label="z"];
10 -> 1  [label="x"];
10 -> 5  [label="y"];
10 -> 1  [label="z"];
11 -> 2  [label="x"];
11 -> 9  [label="y"];
11 -> 7  [label="z"];
__start0 [label="", shape=none];
__start0 -> 0  [label=""];
}
