digraph "benchmarks-true-state-lstar-3seeds/n_states=8-n_outputs=5-glitch_percent=0.05/486c95e8a6f5cd9157d9c6de9759c776/alergiaLearned" {
q0 [label="d"];
q1 [label="e"];
q2 [label="a"];
q3 [label="e"];
q4 [label="b"];
q5 [label="c"];
q6 [label="d"];
q0 -> q1  [label="z:0.9565217391304348"];
q0 -> q4  [label="z:0.043478260869565216"];
q0 -> q2  [label="y:0.8"];
q0 -> q4  [label="y:0.05714285714285714"];
q0 -> q0  [label="y:0.05714285714285714"];
q0 -> q1  [label="y:0.08571428571428572"];
q0 -> q3  [label="x:0.9821428571428571"];
q0 -> q4  [label="x:0.017857142857142856"];
q1 -> q0  [label="x:0.5555555555555556"];
q1 -> q4  [label="x:0.4444444444444444"];
q1 -> q0  [label="y:1.0"];
q1 -> q1  [label="z:0.5555555555555556"];
q1 -> q4  [label="z:0.4444444444444444"];
q2 -> q4  [label="y:1.0"];
q2 -> q4  [label="z:1.0"];
q2 -> q5  [label="x:1.0"];
q3 -> q4  [label="x:1.0"];
q3 -> q6  [label="y:1.0"];
q3 -> q4  [label="z:0.9285714285714286"];
q3 -> q1  [label="z:0.07142857142857142"];
q4 -> q4  [label="x:0.36363636363636365"];
q4 -> q0  [label="x:0.6363636363636364"];
q4 -> q6  [label="y:0.5384615384615384"];
q4 -> q4  [label="y:0.46153846153846156"];
q4 -> q1  [label="z:1.0"];
q5 -> q4  [label="x:1.0"];
q5 -> q0  [label="y:1.0"];
q5 -> q0  [label="z:0.75"];
q5 -> q1  [label="z:0.25"];
q6 -> q1  [label="x:1.0"];
q6 -> q1  [label="y:1.0"];
q6 -> q1  [label="z:1.0"];
__start0 [label="", shape=none];
__start0 -> q0  [label=""];
}
