digraph "benchmarks-true-state-lstar-3seeds/n_states=10-n_outputs=7-glitch_percent=0.05/9acc67645d66917ea65ecad6fe1bc5aa/pmsatLearned-N10-STOC" {
0 [label="0|a", shape=record, style=rounded];
1 [label="1|c", shape=record, style=rounded];
2 [label="2|d", shape=record, style=rounded];
3 [label="3|e", shape=record, style=rounded];
4 [label="4|g", shape=record, style=rounded];
5 [label="5|a", shape=record, style=rounded];
6 [label="6|c", shape=record, style=rounded];
7 [label="7|a", shape=record, style=rounded];
8 [label="8|g", shape=record, style=rounded];
9 [label="9|e", shape=record, style=rounded];
0 -> 5  [label="z (18)"];
0 -> 3  [label="y (53)"];
0 -> 6  [label="x (53)"];
0 -> 9  [label="!x [1]"];
0 -> 8  [label="!y [1]"];
0 -> 8  [label="!z [1]"];
1 -> 6  [label="x (7)"];
1 -> 7  [label="y (7)"];
1 -> 1  [label="z (7)"];
2 -> 3  [label="x (5)"];
2 -> 4  [label="y (6)"];
2 -> 4  [label="z (6)"];
3 -> 7  [label="x (22)"];
3 -> 8  [label="y (18)"];
3 -> 1  [label="z (21)"];
3 -> 7  [label="!y [1]"];
4 -> 1  [label="x (6)"];
4 -> 7  [label="z (6)"];
4 -> 3  [label="y (6)"];
5 -> 3  [label="x (6)"];
5 -> 5  [label="z (7)"];
5 -> 0  [label="y (7)"];
6 -> 9  [label="x (18)"];
6 -> 2  [label="y (17)"];
6 -> 4  [label="z (16)"];
6 -> 1  [label="!x [1]"];
7 -> 7  [label="x (9)"];
7 -> 0  [label="y (8)"];
7 -> 3  [label="z (7)"];
7 -> 4  [label="!y [1]"];
8 -> 8  [label="x (6)"];
8 -> 7  [label="y (4)"];
8 -> 5  [label="z (7)"];
9 -> 2  [label="x (5)"];
9 -> 3  [label="z (4)"];
9 -> 4  [label="!y [1]"];
9 -> 6  [label="y (2)"];
9 -> 3  [label="!x [1]"];
9 -> 8  [label="!z [1]"];
__start0 [label="", shape=none];
__start0 -> 0  [label=""];
}
