digraph "benchmarks-true-state-lstar-songp/n_states=8-n_outputs=5-glitch_percent=0.01-pmstrat='rc2'/14ba181eaa4547b38857ede45a4fb922/pmsatLearned-N8" {
0 [label="0|a", shape=record, style=rounded];
1 [label="1|b", shape=record, style=rounded];
2 [label="2|c", shape=record, style=rounded];
3 [label="3|d", shape=record, style=rounded];
4 [label="4|e", shape=record, style=rounded];
5 [label="5|a", shape=record, style=rounded];
6 [label="6|c", shape=record, style=rounded];
7 [label="7|d", shape=record, style=rounded];
0 -> 6  [label="z"];
0 -> 3  [label="y"];
0 -> 2  [label="x"];
1 -> 3  [label="x"];
1 -> 6  [label="y"];
1 -> 0  [label="z"];
2 -> 5  [label="y"];
2 -> 7  [label="z"];
2 -> 4  [label="x"];
3 -> 1  [label="x"];
3 -> 3  [label="y"];
3 -> 1  [label="z"];
4 -> 3  [label="x"];
4 -> 1  [label="y"];
4 -> 6  [label="z"];
5 -> 1  [label="x"];
5 -> 4  [label="y"];
5 -> 1  [label="z"];
6 -> 0  [label="x"];
6 -> 6  [label="y"];
6 -> 6  [label="z"];
7 -> 3  [label="x"];
7 -> 2  [label="y"];
7 -> 1  [label="z"];
__start0 [label="", shape=none];
__start0 -> 0  [label=""];
}
