digraph "benchmarks-true-state-lstar-rc10seeds/n_states=14-n_outputs=3-glitch_percent=0.01/354852f6905dcc2e0e814942f03b949b/pmsatLearned_NOP-N14-STOC" {
0 [label="0|c", shape=record, style=rounded];
1 [label="1|b", shape=record, style=rounded];
2 [label="2|c", shape=record, style=rounded];
3 [label="3|b", shape=record, style=rounded];
4 [label="4|c", shape=record, style=rounded];
5 [label="5|c", shape=record, style=rounded];
6 [label="6|b", shape=record, style=rounded];
7 [label="7|b", shape=record, style=rounded];
8 [label="8|a", shape=record, style=rounded];
9 [label="9|c", shape=record, style=rounded];
10 [label="10|b", shape=record, style=rounded];
11 [label="11|b", shape=record, style=rounded];
12 [label="12|a", shape=record, style=rounded];
13 [label="13|a", shape=record, style=rounded];
0 -> 3  [label="x (30)"];
0 -> 10  [label="y (16)"];
0 -> 12  [label="z (14)"];
1 -> 13  [label="z (85)"];
1 -> 8  [label="y (86)"];
1 -> 7  [label="x (100)"];
1 -> 9  [label="!z [1]"];
1 -> 0  [label="!x [1]"];
2 -> 8  [label="x (12)"];
2 -> 12  [label="y (12)"];
2 -> 5  [label="z (12)"];
3 -> 5  [label="x (12)"];
3 -> 0  [label="y (18)"];
3 -> 13  [label="z (12)"];
4 -> 10  [label="x (12)"];
4 -> 0  [label="y (24)"];
4 -> 3  [label="z (12)"];
5 -> 3  [label="x (14)"];
5 -> 10  [label="y (19)"];
5 -> 8  [label="z (18)"];
6 -> 0  [label="x (11)"];
6 -> 9  [label="y (9)"];
6 -> 8  [label="z (12)"];
6 -> 4  [label="!x [1]"];
7 -> 0  [label="x (43)"];
7 -> 11  [label="y (26)"];
7 -> 12  [label="z (26)"];
7 -> 13  [label="!z [1]"];
7 -> 4  [label="!x [1]"];
8 -> 9  [label="x (32)"];
8 -> 6  [label="y (41)"];
8 -> 10  [label="z (35)"];
9 -> 2  [label="x (12)"];
9 -> 6  [label="y (16)"];
9 -> 1  [label="z (12)"];
10 -> 4  [label="x (18)"];
10 -> 6  [label="y (16)"];
10 -> 12  [label="z (14)"];
11 -> 5  [label="x (10)"];
11 -> 2  [label="y (13)"];
11 -> 9  [label="z (10)"];
12 -> 4  [label="x (15)"];
12 -> 12  [label="y (21)"];
12 -> 11  [label="z (16)"];
13 -> 4  [label="x (28)"];
13 -> 2  [label="y (32)"];
13 -> 5  [label="z (31)"];
__start0 [label="", shape=none];
__start0 -> 1  [label=""];
}
