digraph "benchmarks-true-state-lstar-songp/n_states=11-n_outputs=5-glitch_percent=0.05-pmstrat='fm'/aff894cea0a1e2f95fbd6e3893f4d304/RealModel" {
s1 [label="s1|a", shape=record, style=rounded];
s2 [label="s2|c", shape=record, style=rounded];
s3 [label="s3|b", shape=record, style=rounded];
s4 [label="s4|d", shape=record, style=rounded];
s5 [label="s5|c", shape=record, style=rounded];
s6 [label="s6|a", shape=record, style=rounded];
s7 [label="s7|d", shape=record, style=rounded];
s8 [label="s8|e", shape=record, style=rounded];
s9 [label="s9|d", shape=record, style=rounded];
s10 [label="s10|e", shape=record, style=rounded];
s11 [label="s11|a", shape=record, style=rounded];
s1 -> s10  [label="x"];
s1 -> s8  [label="y"];
s1 -> s7  [label="z"];
s2 -> s7  [label="x"];
s2 -> s2  [label="y"];
s2 -> s1  [label="z"];
s3 -> s10  [label="x"];
s3 -> s1  [label="y"];
s3 -> s3  [label="z"];
s4 -> s1  [label="x"];
s4 -> s3  [label="y"];
s4 -> s5  [label="z"];
s5 -> s7  [label="x"];
s5 -> s10  [label="y"];
s5 -> s9  [label="z"];
s6 -> s3  [label="x"];
s6 -> s2  [label="y"];
s6 -> s3  [label="z"];
s7 -> s4  [label="x"];
s7 -> s2  [label="y"];
s7 -> s7  [label="z"];
s8 -> s11  [label="x"];
s8 -> s2  [label="y"];
s8 -> s3  [label="z"];
s9 -> s9  [label="x"];
s9 -> s8  [label="y"];
s9 -> s3  [label="z"];
s10 -> s6  [label="x"];
s10 -> s9  [label="y"];
s10 -> s5  [label="z"];
s11 -> s5  [label="x"];
s11 -> s10  [label="y"];
s11 -> s3  [label="z"];
__start0 [label="", shape=none];
__start0 -> s1  [label=""];
}
