digraph "pmsatLearned-N8-STOC" {
0 [label="0|a", shape=record, style=rounded];
1 [label="1|b", shape=record, style=rounded];
2 [label="2|c", shape=record, style=rounded];
3 [label="3|d", shape=record, style=rounded];
4 [label="4|e", shape=record, style=rounded];
5 [label="5|b", shape=record, style=rounded];
6 [label="6|c", shape=record, style=rounded];
7 [label="7|b", shape=record, style=rounded];
0 -> 5  [label="x (30)"];
0 -> 4  [label="y (23)"];
0 -> 5  [label="z (15)"];
0 -> 1  [label="!y [1]"];
1 -> 0  [label="x (15)"];
1 -> 7  [label="y (21)"];
1 -> 1  [label="z (27)"];
2 -> 6  [label="x (16)"];
2 -> 5  [label="y (16)"];
2 -> 4  [label="z (18)"];
3 -> 2  [label="x (22)"];
3 -> 3  [label="y (26)"];
3 -> 6  [label="z (14)"];
4 -> 7  [label="z (61)"];
4 -> 0  [label="y (71)"];
4 -> 6  [label="x (100)"];
4 -> 5  [label="!x [1]"];
4 -> 3  [label="!z [1]"];
5 -> 6  [label="x (29)"];
5 -> 5  [label="y (38)"];
5 -> 4  [label="z (33)"];
5 -> 0  [label="!y [1]"];
6 -> 1  [label="x (53)"];
6 -> 2  [label="y (43)"];
6 -> 3  [label="z (50)"];
6 -> 6  [label="!x [1]"];
6 -> 6  [label="!z [1]"];
7 -> 5  [label="x (22)"];
7 -> 4  [label="y (26)"];
7 -> 6  [label="z (20)"];
__start0 [label="", shape=none];
__start0 -> 4  [label=""];
}
