digraph "benchmarks-true-state-lstar-3seeds/n_states=11-n_outputs=2-glitch_percent=0.05/9d9355c010706bf849a7035589ec2e79/alergiaLearned" {
q0 [label="a"];
q1 [label="b"];
q2 [label="a"];
q3 [label="b"];
q4 [label="a"];
q5 [label="b"];
q6 [label="a"];
q0 -> q1  [label="z:0.9473684210526315"];
q0 -> q2  [label="z:0.05263157894736842"];
q0 -> q2  [label="y:0.9714285714285714"];
q0 -> q1  [label="y:0.02857142857142857"];
q0 -> q3  [label="x:0.9342105263157895"];
q0 -> q4  [label="x:0.06578947368421052"];
q1 -> q1  [label="x:0.9393939393939394"];
q1 -> q0  [label="x:0.06060606060606061"];
q1 -> q3  [label="y:0.5"];
q1 -> q0  [label="y:0.5"];
q1 -> q3  [label="z:0.9230769230769231"];
q1 -> q0  [label="z:0.07692307692307693"];
q2 -> q4  [label="x:1.0"];
q2 -> q5  [label="z:0.9523809523809523"];
q2 -> q0  [label="z:0.047619047619047616"];
q2 -> q3  [label="y:1.0"];
q3 -> q4  [label="x:1.0"];
q3 -> q4  [label="y:0.7352941176470589"];
q3 -> q1  [label="y:0.2647058823529412"];
q3 -> q6  [label="z:0.9142857142857143"];
q3 -> q3  [label="z:0.08571428571428572"];
q4 -> q0  [label="z:1.0"];
q4 -> q0  [label="x:0.95"];
q4 -> q3  [label="x:0.05"];
q4 -> q0  [label="y:0.7307692307692307"];
q4 -> q1  [label="y:0.2692307692307692"];
q5 -> q2  [label="x:1.0"];
q5 -> q3  [label="y:1.0"];
q5 -> q3  [label="z:1.0"];
q6 -> q2  [label="x:1.0"];
q6 -> q1  [label="y:0.8571428571428571"];
q6 -> q0  [label="y:0.14285714285714285"];
q6 -> q1  [label="z:1.0"];
__start0 [label="", shape=none];
__start0 -> q0  [label=""];
}
