digraph "benchmarks-true-state-lstar-3seeds/n_states=9-n_outputs=7-glitch_percent=0.01/63c07a872a009d72e8719e419e5ba5f5/pmsatLearned-N9-STOC" {
0 [label="0|a", shape=record, style=rounded];
1 [label="1|c", shape=record, style=rounded];
2 [label="2|d", shape=record, style=rounded];
3 [label="3|e", shape=record, style=rounded];
4 [label="4|g", shape=record, style=rounded];
5 [label="5|a", shape=record, style=rounded];
6 [label="6|e", shape=record, style=rounded];
7 [label="7|g", shape=record, style=rounded];
8 [label="8|c", shape=record, style=rounded];
0 -> 2  [label="z (18)"];
0 -> 6  [label="y (43)"];
0 -> 1  [label="x (55)"];
0 -> 3  [label="!y [1]"];
1 -> 4  [label="x (19)"];
1 -> 8  [label="y (19)"];
1 -> 3  [label="z (19)"];
2 -> 4  [label="x (6)"];
2 -> 3  [label="y (5)"];
2 -> 0  [label="z (6)"];
3 -> 4  [label="x (10)"];
3 -> 8  [label="y (10)"];
3 -> 3  [label="z (10)"];
4 -> 5  [label="x (8)"];
4 -> 2  [label="y (8)"];
4 -> 1  [label="z (8)"];
5 -> 0  [label="x (7)"];
5 -> 3  [label="y (7)"];
5 -> 7  [label="z (6)"];
6 -> 5  [label="x (16)"];
6 -> 7  [label="y (17)"];
6 -> 8  [label="z (6)"];
7 -> 5  [label="x (6)"];
7 -> 1  [label="y (6)"];
7 -> 8  [label="z (5)"];
8 -> 3  [label="x (8)"];
8 -> 3  [label="y (8)"];
8 -> 4  [label="z (8)"];
__start0 [label="", shape=none];
__start0 -> 0  [label=""];
}
