digraph RealModel {
s1 [label="s1|b", shape=record, style=rounded];
s2 [label="s2|c", shape=record, style=rounded];
s3 [label="s3|d", shape=record, style=rounded];
s4 [label="s4|b", shape=record, style=rounded];
s5 [label="s5|b", shape=record, style=rounded];
s6 [label="s6|a", shape=record, style=rounded];
s7 [label="s7|a", shape=record, style=rounded];
s8 [label="s8|b", shape=record, style=rounded];
s9 [label="s9|b", shape=record, style=rounded];
s10 [label="s10|e", shape=record, style=rounded];
s11 [label="s11|b", shape=record, style=rounded];
s12 [label="s12|d", shape=record, style=rounded];
s13 [label="s13|a", shape=record, style=rounded];
s14 [label="s14|d", shape=record, style=rounded];
s15 [label="s15|d", shape=record, style=rounded];
s16 [label="s16|d", shape=record, style=rounded];
s1 -> s8  [label="x"];
s1 -> s10  [label="y"];
s1 -> s13  [label="z"];
s2 -> s16  [label="x"];
s2 -> s7  [label="y"];
s2 -> s5  [label="z"];
s3 -> s13  [label="x"];
s3 -> s13  [label="y"];
s3 -> s4  [label="z"];
s4 -> s10  [label="x"];
s4 -> s5  [label="y"];
s4 -> s12  [label="z"];
s5 -> s6  [label="x"];
s5 -> s12  [label="y"];
s5 -> s4  [label="z"];
s6 -> s6  [label="x"];
s6 -> s4  [label="y"];
s6 -> s11  [label="z"];
s7 -> s3  [label="x"];
s7 -> s16  [label="y"];
s7 -> s7  [label="z"];
s8 -> s5  [label="x"];
s8 -> s11  [label="y"];
s8 -> s3  [label="z"];
s9 -> s15  [label="x"];
s9 -> s15  [label="y"];
s9 -> s10  [label="z"];
s10 -> s15  [label="x"];
s10 -> s7  [label="y"];
s10 -> s16  [label="z"];
s11 -> s9  [label="x"];
s11 -> s4  [label="y"];
s11 -> s3  [label="z"];
s12 -> s12  [label="x"];
s12 -> s16  [label="y"];
s12 -> s7  [label="z"];
s13 -> s2  [label="x"];
s13 -> s9  [label="y"];
s13 -> s14  [label="z"];
s14 -> s12  [label="x"];
s14 -> s14  [label="y"];
s14 -> s5  [label="z"];
s15 -> s2  [label="x"];
s15 -> s11  [label="y"];
s15 -> s8  [label="z"];
s16 -> s5  [label="x"];
s16 -> s3  [label="y"];
s16 -> s2  [label="z"];
__start0 [label="", shape=none];
__start0 -> s1  [label=""];
}
