digraph "benchmarks-true-state-lstar-3seeds/n_states=16-n_outputs=2-glitch_percent=0.01/06210756d71a87a682c1cfa4928aed0f/alergiaLearned" {
q0 [label="a"];
q1 [label="a"];
q2 [label="b"];
q3 [label="b"];
q4 [label="a"];
q5 [label="a"];
q6 [label="b"];
q7 [label="b"];
q8 [label="b"];
q9 [label="b"];
q10 [label="a"];
q11 [label="a"];
q0 -> q1  [label="z:0.9166666666666666"];
q0 -> q2  [label="z:0.08333333333333333"];
q0 -> q2  [label="y:0.8907563025210085"];
q0 -> q0  [label="y:0.1092436974789916"];
q0 -> q3  [label="x:0.9658536585365853"];
q0 -> q0  [label="x:0.03414634146341464"];
q1 -> q4  [label="x:1.0"];
q1 -> q2  [label="x:0.0"];
q1 -> q5  [label="y:1.0"];
q1 -> q2  [label="y:0.0"];
q1 -> q6  [label="z:0.9722222222222222"];
q1 -> q0  [label="z:0.027777777777777776"];
q2 -> q7  [label="x:0.8852459016393442"];
q2 -> q0  [label="x:0.11475409836065574"];
q2 -> q8  [label="y:0.8809523809523809"];
q2 -> q0  [label="y:0.11904761904761904"];
q2 -> q4  [label="z:0.9512195121951219"];
q2 -> q2  [label="z:0.04878048780487805"];
q3 -> q9  [label="x:0.9651162790697675"];
q3 -> q0  [label="x:0.03488372093023256"];
q3 -> q5  [label="y:0.9444444444444444"];
q3 -> q2  [label="y:0.05555555555555555"];
q3 -> q10  [label="z:0.9473684210526315"];
q3 -> q2  [label="z:0.05263157894736842"];
q4 -> q0  [label="x:0.9047619047619048"];
q4 -> q2  [label="x:0.09523809523809523"];
q4 -> q1  [label="y:0.8636363636363636"];
q4 -> q2  [label="y:0.13636363636363635"];
q4 -> q2  [label="z:0.875"];
q4 -> q0  [label="z:0.125"];
q5 -> q6  [label="x:0.9166666666666666"];
q5 -> q0  [label="x:0.08333333333333333"];
q5 -> q2  [label="y:0.5333333333333333"];
q5 -> q0  [label="y:0.4666666666666667"];
q5 -> q6  [label="z:0.5"];
q5 -> q0  [label="z:0.5"];
q6 -> q0  [label="x:0.8524590163934426"];
q6 -> q2  [label="x:0.14754098360655737"];
q6 -> q6  [label="y:0.9230769230769231"];
q6 -> q0  [label="y:0.07692307692307693"];
q6 -> q2  [label="z:0.65625"];
q6 -> q0  [label="z:0.34375"];
q7 -> q0  [label="x:0.8823529411764706"];
q7 -> q6  [label="x:0.11764705882352941"];
q7 -> q0  [label="y:0.7857142857142857"];
q7 -> q2  [label="y:0.21428571428571427"];
q7 -> q2  [label="z:0.7857142857142857"];
q7 -> q0  [label="z:0.21428571428571427"];
q8 -> q4  [label="x:1.0"];
q8 -> q1  [label="y:1.0"];
q8 -> q6  [label="z:1.0"];
q9 -> q6  [label="x:0.972972972972973"];
q9 -> q5  [label="x:0.02702702702702703"];
q9 -> q6  [label="y:1.0"];
q9 -> q11  [label="z:1.0"];
q10 -> q2  [label="x:1.0"];
q10 -> q1  [label="y:1.0"];
q10 -> q6  [label="z:1.0"];
q11 -> q1  [label="x:1.0"];
q11 -> q1  [label="y:1.0"];
q11 -> q0  [label="z:1.0"];
__start0 [label="", shape=none];
__start0 -> q0  [label=""];
}
