digraph "benchmarks-true-state-lstar-3seeds/n_states=17-n_outputs=3-glitch_percent=0.05/9a555517ecb7ba89fec94579586c0aae/alergiaLearned" {
q0 [label="a"];
q1 [label="a"];
q2 [label="b"];
q3 [label="c"];
q4 [label="a"];
q5 [label="c"];
q6 [label="b"];
q7 [label="c"];
q0 -> q1  [label="z:0.9583333333333334"];
q0 -> q3  [label="z:0.041666666666666664"];
q0 -> q2  [label="y:0.8823529411764706"];
q0 -> q5  [label="y:0.023529411764705882"];
q0 -> q0  [label="y:0.09411764705882353"];
q0 -> q3  [label="x:0.9924242424242424"];
q0 -> q4  [label="x:0.007575757575757576"];
q1 -> q4  [label="x:0.8888888888888888"];
q1 -> q5  [label="x:0.1111111111111111"];
q1 -> q5  [label="y:0.9230769230769231"];
q1 -> q0  [label="y:0.07692307692307693"];
q1 -> q2  [label="y:0.0"];
q1 -> q6  [label="z:0.875"];
q1 -> q5  [label="z:0.125"];
q1 -> q0  [label="z:0.0"];
q2 -> q5  [label="y:0.9130434782608695"];
q2 -> q0  [label="y:0.08695652173913043"];
q2 -> q5  [label="z:0.9130434782608695"];
q2 -> q0  [label="z:0.08695652173913043"];
q2 -> q4  [label="x:0.8181818181818182"];
q2 -> q3  [label="x:0.18181818181818182"];
q3 -> q7  [label="x:0.9565217391304348"];
q3 -> q0  [label="x:0.028985507246376812"];
q3 -> q2  [label="x:0.014492753623188406"];
q3 -> q6  [label="y:0.8536585365853658"];
q3 -> q3  [label="y:0.14634146341463414"];
q3 -> q0  [label="y:0.0"];
q3 -> q5  [label="z:0.9565217391304348"];
q3 -> q1  [label="z:0.043478260869565216"];
q4 -> q3  [label="z:0.9166666666666666"];
q4 -> q0  [label="z:0.08333333333333333"];
q4 -> q5  [label="x:1.0"];
q4 -> q5  [label="y:0.6666666666666666"];
q4 -> q0  [label="y:0.3333333333333333"];
q5 -> q0  [label="x:0.8032786885245902"];
q5 -> q3  [label="x:0.16393442622950818"];
q5 -> q2  [label="x:0.03278688524590164"];
q5 -> q5  [label="y:0.5686274509803921"];
q5 -> q1  [label="y:0.27450980392156865"];
q5 -> q2  [label="y:0.1568627450980392"];
q5 -> q1  [label="z:0.4523809523809524"];
q5 -> q5  [label="z:0.5476190476190477"];
q5 -> q2  [label="z:0.0"];
q6 -> q5  [label="x:0.9666666666666667"];
q6 -> q0  [label="x:0.03333333333333333"];
q6 -> q5  [label="y:0.6842105263157895"];
q6 -> q2  [label="y:0.3157894736842105"];
q6 -> q5  [label="z:0.6875"];
q6 -> q1  [label="z:0.3125"];
q7 -> q5  [label="x:0.9130434782608695"];
q7 -> q0  [label="x:0.08695652173913043"];
q7 -> q5  [label="y:0.9523809523809523"];
q7 -> q2  [label="y:0.047619047619047616"];
q7 -> q6  [label="z:0.95"];
q7 -> q0  [label="z:0.05"];
__start0 [label="", shape=none];
__start0 -> q0  [label=""];
}
