digraph "benchmarks-true-state-lstar-rc10seeds/n_states=14-n_outputs=6-glitch_percent=0.01/80259fdf0fb687e8a7507733c0dde570/pmsatLearned_NOP-N14-STOC" {
0 [label="0|c", shape=record, style=rounded];
1 [label="1|f", shape=record, style=rounded];
2 [label="2|a", shape=record, style=rounded];
3 [label="3|d", shape=record, style=rounded];
4 [label="4|b", shape=record, style=rounded];
5 [label="5|e", shape=record, style=rounded];
6 [label="6|e", shape=record, style=rounded];
7 [label="7|b", shape=record, style=rounded];
8 [label="8|a", shape=record, style=rounded];
9 [label="9|a", shape=record, style=rounded];
10 [label="10|b", shape=record, style=rounded];
11 [label="11|d", shape=record, style=rounded];
12 [label="12|a", shape=record, style=rounded];
13 [label="13|e", shape=record, style=rounded];
0 -> 9  [label="x (6)"];
0 -> 1  [label="y (6)"];
0 -> 5  [label="z (6)"];
1 -> 3  [label="x (8)"];
1 -> 3  [label="y (8)"];
1 -> 10  [label="z (8)"];
2 -> 8  [label="x (20)"];
2 -> 12  [label="y (19)"];
2 -> 4  [label="z (20)"];
3 -> 9  [label="z (55)"];
3 -> 2  [label="y (56)"];
3 -> 13  [label="x (67)"];
3 -> 6  [label="!x [1]"];
4 -> 4  [label="x (7)"];
4 -> 11  [label="y (7)"];
4 -> 6  [label="z (6)"];
5 -> 12  [label="x (6)"];
5 -> 6  [label="y (5)"];
5 -> 2  [label="z (5)"];
5 -> 9  [label="!y [1]"];
6 -> 1  [label="x (10)"];
6 -> 13  [label="y (11)"];
6 -> 2  [label="z (10)"];
7 -> 1  [label="x (19)"];
7 -> 12  [label="y (7)"];
7 -> 13  [label="z (7)"];
8 -> 4  [label="x (5)"];
8 -> 6  [label="y (6)"];
8 -> 10  [label="z (6)"];
8 -> 5  [label="!z [1]"];
9 -> 11  [label="x (18)"];
9 -> 6  [label="y (18)"];
9 -> 0  [label="z (18)"];
10 -> 6  [label="x (7)"];
10 -> 0  [label="y (7)"];
10 -> 6  [label="z (7)"];
11 -> 7  [label="x (6)"];
11 -> 7  [label="y (6)"];
11 -> 1  [label="z (6)"];
12 -> 8  [label="x (6)"];
12 -> 2  [label="y (7)"];
12 -> 3  [label="z (7)"];
13 -> 7  [label="x (31)"];
13 -> 10  [label="y (19)"];
13 -> 5  [label="z (18)"];
__start0 [label="", shape=none];
__start0 -> 3  [label=""];
}
