digraph "benchmarks-true-state-lstar-songp/n_states=11-n_outputs=5-glitch_percent=0.1-pmstrat='rc2'/324fd71abdffc1cdfecbc593cd517c49/pmsatLearned-N11" {
0 [label="0|a", shape=record, style=rounded];
1 [label="1|b", shape=record, style=rounded];
2 [label="2|c", shape=record, style=rounded];
3 [label="3|d", shape=record, style=rounded];
4 [label="4|e", shape=record, style=rounded];
5 [label="5|a", shape=record, style=rounded];
6 [label="6|d", shape=record, style=rounded];
7 [label="7|d", shape=record, style=rounded];
8 [label="8|a", shape=record, style=rounded];
9 [label="9|e", shape=record, style=rounded];
10 [label="10|c", shape=record, style=rounded];
0 -> 7  [label="z"];
0 -> 4  [label="y"];
0 -> 9  [label="x"];
1 -> 9  [label="x"];
1 -> 0  [label="y"];
1 -> 1  [label="z"];
2 -> 7  [label="x"];
2 -> 2  [label="y"];
2 -> 0  [label="z"];
3 -> 3  [label="x"];
3 -> 4  [label="y"];
3 -> 1  [label="z"];
4 -> 8  [label="x"];
4 -> 2  [label="y"];
4 -> 1  [label="z"];
5 -> 1  [label="x"];
5 -> 2  [label="y"];
5 -> 1  [label="z"];
6 -> 0  [label="x"];
6 -> 1  [label="y"];
6 -> 2  [label="z"];
7 -> 6  [label="x"];
7 -> 2  [label="y"];
7 -> 7  [label="z"];
8 -> 10  [label="x"];
8 -> 4  [label="y"];
8 -> 1  [label="z"];
9 -> 5  [label="x"];
9 -> 3  [label="y"];
9 -> 10  [label="z"];
10 -> 7  [label="x"];
10 -> 9  [label="y"];
10 -> 7  [label="z"];
__start0 [label="", shape=none];
__start0 -> 0  [label=""];
}
