digraph "benchmarks-true-state-lstar-rc10seeds/n_states=7-n_outputs=7-glitch_percent=0.02/549ccd34e0528730b52a4ec3f017ba0b/pmsatLearned_NOP-N7" {
0 [label="0|c", shape=record, style=rounded];
1 [label="1|e", shape=record, style=rounded];
2 [label="2|e", shape=record, style=rounded];
3 [label="3|f", shape=record, style=rounded];
4 [label="4|e", shape=record, style=rounded];
5 [label="5|b", shape=record, style=rounded];
6 [label="6|c", shape=record, style=rounded];
0 -> 6  [label="x"];
0 -> 0  [label="y"];
0 -> 3  [label="z"];
1 -> 6  [label="x"];
1 -> 4  [label="y"];
1 -> 3  [label="z"];
2 -> 0  [label="z"];
2 -> 5  [label="y"];
2 -> 1  [label="x"];
3 -> 2  [label="y"];
3 -> 4  [label="z"];
3 -> 2  [label="x"];
4 -> 6  [label="x"];
4 -> 4  [label="y"];
4 -> 6  [label="z"];
5 -> 4  [label="x"];
5 -> 1  [label="y"];
5 -> 6  [label="z"];
6 -> 3  [label="x"];
6 -> 0  [label="y"];
6 -> 3  [label="z"];
__start0 [label="", shape=none];
__start0 -> 2  [label=""];
}
