digraph "benchmarks-true-state-lstar-3seeds/n_states=7-n_outputs=7-glitch_percent=0.02/549ccd34e0528730b52a4ec3f017ba0b/rpniGroundTruth" {
s0 [label="s0|e", shape=record, style=rounded];
s1 [label="s1|e", shape=record, style=rounded];
s2 [label="s2|b", shape=record, style=rounded];
s3 [label="s3|c", shape=record, style=rounded];
s4 [label="s4|c", shape=record, style=rounded];
s5 [label="s5|f", shape=record, style=rounded];
s6 [label="s6|e", shape=record, style=rounded];
s0 -> s1  [label="x"];
s0 -> s2  [label="y"];
s0 -> s3  [label="z"];
s1 -> s4  [label="x"];
s1 -> s5  [label="z"];
s1 -> s6  [label="y"];
s2 -> s1  [label="y"];
s2 -> s4  [label="z"];
s2 -> s6  [label="x"];
s3 -> s3  [label="y"];
s3 -> s4  [label="x"];
s3 -> s5  [label="z"];
s4 -> s5  [label="x"];
s4 -> s5  [label="z"];
s4 -> s3  [label="y"];
s5 -> s0  [label="x"];
s5 -> s0  [label="y"];
s5 -> s6  [label="z"];
s6 -> s4  [label="x"];
s6 -> s6  [label="y"];
s6 -> s4  [label="z"];
__start0 [label="", shape=none];
__start0 -> s0  [label=""];
}
