digraph "benchmarks-true-state-lstar-3seeds/n_states=10-n_outputs=9-glitch_percent=0.01/d5ddac516dca3d9a44f24fde41a2bcc9/pmsatLearned-N10-STOC" {
0 [label="0|c", shape=record, style=rounded];
1 [label="1|d", shape=record, style=rounded];
2 [label="2|e", shape=record, style=rounded];
3 [label="3|g", shape=record, style=rounded];
4 [label="4|i", shape=record, style=rounded];
5 [label="5|i", shape=record, style=rounded];
6 [label="6|i", shape=record, style=rounded];
7 [label="7|d", shape=record, style=rounded];
8 [label="8|i", shape=record, style=rounded];
9 [label="9|d", shape=record, style=rounded];
0 -> 5  [label="x (6)"];
0 -> 9  [label="y (6)"];
0 -> 8  [label="z (6)"];
1 -> 9  [label="z (21)"];
1 -> 6  [label="y (57)"];
1 -> 3  [label="x (58)"];
1 -> 1  [label="!y [1]"];
2 -> 7  [label="x (9)"];
2 -> 9  [label="y (9)"];
2 -> 2  [label="z (9)"];
3 -> 8  [label="x (18)"];
3 -> 0  [label="y (18)"];
3 -> 2  [label="z (18)"];
4 -> 1  [label="x (7)"];
4 -> 4  [label="y (7)"];
4 -> 8  [label="z (7)"];
5 -> 0  [label="x (7)"];
5 -> 1  [label="y (7)"];
5 -> 2  [label="z (6)"];
6 -> 5  [label="x (17)"];
6 -> 7  [label="y (17)"];
6 -> 4  [label="z (17)"];
7 -> 5  [label="x (7)"];
7 -> 2  [label="y (7)"];
7 -> 1  [label="z (7)"];
8 -> 7  [label="x (7)"];
8 -> 1  [label="y (7)"];
8 -> 2  [label="z (7)"];
9 -> 4  [label="x (7)"];
9 -> 1  [label="y (6)"];
9 -> 3  [label="z (7)"];
__start0 [label="", shape=none];
__start0 -> 1  [label=""];
}
