digraph "benchmarks-true-state-lstar-3seeds/n_states=14-n_outputs=6-glitch_percent=0.1/bf36e76311aa9fe7fb8255b2e7c0b046/alergiaLearned" {
q0 [label="d"];
q1 [label="a"];
q2 [label="a"];
q3 [label="e"];
q4 [label="f"];
q5 [label="c"];
q6 [label="d"];
q7 [label="e"];
q8 [label="b"];
q9 [label="a"];
q0 -> q1  [label="z:0.9444444444444444"];
q0 -> q5  [label="z:0.018518518518518517"];
q0 -> q7  [label="z:0.037037037037037035"];
q0 -> q4  [label="z:0.0"];
q0 -> q2  [label="y:0.9464285714285714"];
q0 -> q4  [label="y:0.017857142857142856"];
q0 -> q8  [label="y:0.03571428571428571"];
q0 -> q3  [label="x:0.8923076923076924"];
q0 -> q6  [label="x:0.015384615384615385"];
q0 -> q1  [label="x:0.03076923076923077"];
q0 -> q8  [label="x:0.046153846153846156"];
q0 -> q4  [label="x:0.015384615384615385"];
q1 -> q5  [label="z:0.6818181818181818"];
q1 -> q4  [label="z:0.045454545454545456"];
q1 -> q8  [label="z:0.22727272727272727"];
q1 -> q0  [label="z:0.045454545454545456"];
q1 -> q7  [label="y:0.9090909090909091"];
q1 -> q1  [label="y:0.09090909090909091"];
q1 -> q6  [label="x:0.5909090909090909"];
q1 -> q8  [label="x:0.2727272727272727"];
q1 -> q3  [label="x:0.045454545454545456"];
q1 -> q1  [label="x:0.09090909090909091"];
q2 -> q1  [label="x:1.0"];
q2 -> q2  [label="y:0.95"];
q2 -> q7  [label="y:0.05"];
q2 -> q8  [label="z:0.7619047619047619"];
q2 -> q0  [label="z:0.23809523809523808"];
q3 -> q8  [label="x:0.8"];
q3 -> q9  [label="x:0.13333333333333333"];
q3 -> q3  [label="x:0.03333333333333333"];
q3 -> q4  [label="x:0.03333333333333333"];
q3 -> q8  [label="y:0.8235294117647058"];
q3 -> q1  [label="y:0.058823529411764705"];
q3 -> q3  [label="y:0.11764705882352941"];
q3 -> q7  [label="z:0.8571428571428571"];
q3 -> q1  [label="z:0.14285714285714285"];
q4 -> q0  [label="x:1.0"];
q4 -> q8  [label="z:1.0"];
q4 -> q1  [label="z:0.0"];
q4 -> q0  [label="y:1.0"];
q5 -> q1  [label="x:1.0"];
q5 -> q3  [label="z:1.0"];
q5 -> q4  [label="y:1.0"];
q6 -> q8  [label="x:1.0"];
q6 -> q8  [label="y:1.0"];
q6 -> q4  [label="z:1.0"];
q7 -> q3  [label="y:0.9166666666666666"];
q7 -> q0  [label="y:0.08333333333333333"];
q7 -> q4  [label="x:0.7142857142857143"];
q7 -> q0  [label="x:0.14285714285714285"];
q7 -> q2  [label="x:0.14285714285714285"];
q7 -> q1  [label="z:1.0"];
q8 -> q3  [label="z:1.0"];
q8 -> q5  [label="y:0.3333333333333333"];
q8 -> q0  [label="y:0.3333333333333333"];
q8 -> q8  [label="y:0.06666666666666667"];
q8 -> q1  [label="y:0.26666666666666666"];
q8 -> q4  [label="x:0.5925925925925926"];
q8 -> q8  [label="x:0.2222222222222222"];
q8 -> q3  [label="x:0.14814814814814814"];
q8 -> q1  [label="x:0.037037037037037035"];
q9 -> q0  [label="z:1.0"];
__start0 [label="", shape=none];
__start0 -> q0  [label=""];
}
