digraph "benchmarks-true-state-lstar-3seeds/n_states=2-n_outputs=2-glitch_percent=0.01/e200720234321855ddf98f06cd66ca2e/RealModel" {
s1 [label="s1|a", shape=record, style=rounded];
s2 [label="s2|b", shape=record, style=rounded];
s1 -> s2  [label="x"];
s1 -> s2  [label="y"];
s1 -> s2  [label="z"];
s2 -> s2  [label="x"];
s2 -> s2  [label="y"];
s2 -> s1  [label="z"];
__start0 [label="", shape=none];
__start0 -> s1  [label=""];
}
