digraph "pmsatLearned-N8-STOC" {
0 [label="0|a", shape=record, style=rounded];
1 [label="1|b", shape=record, style=rounded];
2 [label="2|c", shape=record, style=rounded];
3 [label="3|d", shape=record, style=rounded];
4 [label="4|e", shape=record, style=rounded];
5 [label="5|c", shape=record, style=rounded];
6 [label="6|d", shape=record, style=rounded];
7 [label="7|a", shape=record, style=rounded];
0 -> 5  [label="z (242)"];
0 -> 6  [label="y (289)"];
0 -> 2  [label="x (306)"];
0 -> 3  [label="!z [2]"];
0 -> 1  [label="!x [1]"];
0 -> 4  [label="!x [1] t1"];
0 -> 0  [label="!x [1] t2"];
0 -> 1  [label="!z [1]"];
1 -> 6  [label="x (161)"];
1 -> 5  [label="y (178)"];
1 -> 0  [label="z (168)"];
1 -> 2  [label="!x [1]"];
1 -> 1  [label="!z [1]"];
2 -> 4  [label="x (106)"];
2 -> 7  [label="y (95)"];
2 -> 3  [label="z (103)"];
3 -> 6  [label="x (41)"];
3 -> 2  [label="y (30)"];
3 -> 1  [label="z (27)"];
3 -> 0  [label="!z [1]"];
4 -> 6  [label="x (51)"];
4 -> 1  [label="y (37)"];
4 -> 5  [label="z (36)"];
5 -> 0  [label="x (320)"];
5 -> 5  [label="y (383)"];
5 -> 5  [label="z (399)"];
5 -> 2  [label="!x [4]"];
5 -> 6  [label="!y [2]"];
6 -> 1  [label="x (218)"];
6 -> 6  [label="y (232)"];
6 -> 1  [label="z (234)"];
6 -> 5  [label="!y [2]"];
6 -> 6  [label="!x [1]"];
6 -> 0  [label="!z [1]"];
6 -> 3  [label="!x [1] t1"];
6 -> 3  [label="!y [1]"];
7 -> 1  [label="x (28)"];
7 -> 4  [label="y (33)"];
7 -> 1  [label="z (27)"];
__start0 [label="", shape=none];
__start0 -> 0  [label=""];
}
