digraph "benchmarks-true-state-lstar-3seeds/n_states=11-n_outputs=3-glitch_percent=0.01/dccfe2124d5875bed47344602e7c0d39/alergiaLearned" {
q0 [label="b"];
q1 [label="b"];
q2 [label="b"];
q3 [label="a"];
q4 [label="c"];
q5 [label="a"];
q6 [label="b"];
q0 -> q1  [label="z:0.9714285714285714"];
q0 -> q4  [label="z:0.02857142857142857"];
q0 -> q2  [label="y:0.9344262295081968"];
q0 -> q4  [label="y:0.04918032786885246"];
q0 -> q3  [label="y:0.01639344262295082"];
q0 -> q3  [label="x:0.8870967741935484"];
q0 -> q4  [label="x:0.08064516129032258"];
q0 -> q0  [label="x:0.03225806451612903"];
q1 -> q4  [label="x:1.0"];
q1 -> q0  [label="y:0.3333333333333333"];
q1 -> q3  [label="y:0.3333333333333333"];
q1 -> q4  [label="y:0.3333333333333333"];
q1 -> q4  [label="z:0.3333333333333333"];
q1 -> q0  [label="z:0.6666666666666666"];
q2 -> q5  [label="x:1.0"];
q2 -> q1  [label="y:1.0"];
q2 -> q4  [label="z:1.0"];
q3 -> q4  [label="x:1.0"];
q3 -> q6  [label="y:1.0"];
q3 -> q1  [label="z:1.0"];
q4 -> q4  [label="y:1.0"];
q4 -> q0  [label="z:1.0"];
q4 -> q3  [label="x:0.3333333333333333"];
q4 -> q0  [label="x:0.38095238095238093"];
q4 -> q4  [label="x:0.2857142857142857"];
q5 -> q0  [label="x:1.0"];
q5 -> q0  [label="y:1.0"];
q5 -> q4  [label="z:1.0"];
q6 -> q0  [label="x:1.0"];
q6 -> q0  [label="y:1.0"];
q6 -> q0  [label="z:1.0"];
__start0 [label="", shape=none];
__start0 -> q0  [label=""];
}
