digraph "benchmarks-true-state-lstar-3seeds/n_states=11-n_outputs=3-glitch_percent=0.01/dccfe2124d5875bed47344602e7c0d39/pmsatLearned-N11-STOC" {
0 [label="0|a", shape=record, style=rounded];
1 [label="1|b", shape=record, style=rounded];
2 [label="2|c", shape=record, style=rounded];
3 [label="3|b", shape=record, style=rounded];
4 [label="4|a", shape=record, style=rounded];
5 [label="5|b", shape=record, style=rounded];
6 [label="6|c", shape=record, style=rounded];
7 [label="7|b", shape=record, style=rounded];
8 [label="8|c", shape=record, style=rounded];
9 [label="9|b", shape=record, style=rounded];
10 [label="10|b", shape=record, style=rounded];
0 -> 6  [label="x (19)"];
0 -> 3  [label="y (19)"];
0 -> 10  [label="z (19)"];
1 -> 5  [label="z (29)"];
1 -> 7  [label="y (54)"];
1 -> 0  [label="x (54)"];
1 -> 2  [label="!x [1]"];
2 -> 2  [label="y (9)"];
2 -> 9  [label="z (9)"];
2 -> 0  [label="x (8)"];
3 -> 7  [label="x (8)"];
3 -> 10  [label="y (8)"];
3 -> 10  [label="z (7)"];
4 -> 3  [label="x (5)"];
4 -> 1  [label="y (5)"];
4 -> 6  [label="z (5)"];
5 -> 2  [label="x (16)"];
5 -> 10  [label="y (5)"];
5 -> 8  [label="z (5)"];
6 -> 2  [label="x (7)"];
6 -> 2  [label="y (6)"];
6 -> 3  [label="z (7)"];
7 -> 4  [label="x (19)"];
7 -> 9  [label="y (19)"];
7 -> 8  [label="z (19)"];
8 -> 10  [label="x (8)"];
8 -> 6  [label="y (8)"];
8 -> 9  [label="z (8)"];
9 -> 8  [label="x (7)"];
9 -> 0  [label="y (7)"];
9 -> 3  [label="z (7)"];
10 -> 2  [label="x (9)"];
10 -> 8  [label="y (9)"];
10 -> 7  [label="z (9)"];
__start0 [label="", shape=none];
__start0 -> 1  [label=""];
}
