digraph "benchmarks-true-state-lstar-3seeds/n_states=17-n_outputs=7-glitch_percent=0.02/d34765a1de2f7f122fb3787c66ced782/rpniGroundTruth" {
s0 [label="s0|c", shape=record, style=rounded];
s1 [label="s1|f", shape=record, style=rounded];
s2 [label="s2|a", shape=record, style=rounded];
s3 [label="s3|g", shape=record, style=rounded];
s4 [label="s4|a", shape=record, style=rounded];
s5 [label="s5|g", shape=record, style=rounded];
s6 [label="s6|d", shape=record, style=rounded];
s7 [label="s7|b", shape=record, style=rounded];
s8 [label="s8|e", shape=record, style=rounded];
s9 [label="s9|d", shape=record, style=rounded];
s10 [label="s10|b", shape=record, style=rounded];
s11 [label="s11|b", shape=record, style=rounded];
s12 [label="s12|c", shape=record, style=rounded];
s13 [label="s13|d", shape=record, style=rounded];
s14 [label="s14|d", shape=record, style=rounded];
s15 [label="s15|c", shape=record, style=rounded];
s16 [label="s16|g", shape=record, style=rounded];
s0 -> s1  [label="y"];
s0 -> s2  [label="x"];
s0 -> s3  [label="z"];
s1 -> s4  [label="z"];
s1 -> s5  [label="y"];
s1 -> s6  [label="x"];
s2 -> s7  [label="x"];
s2 -> s8  [label="z"];
s2 -> s9  [label="y"];
s3 -> s10  [label="y"];
s3 -> s11  [label="z"];
s3 -> s12  [label="x"];
s4 -> s1  [label="z"];
s4 -> s5  [label="x"];
s4 -> s4  [label="y"];
s5 -> s13  [label="z"];
s5 -> s13  [label="y"];
s5 -> s9  [label="x"];
s6 -> s14  [label="z"];
s6 -> s3  [label="x"];
s6 -> s14  [label="y"];
s7 -> s15  [label="x"];
s7 -> s13  [label="z"];
s7 -> s16  [label="y"];
s8 -> s9  [label="x"];
s8 -> s1  [label="y"];
s8 -> s9  [label="z"];
s9 -> s2  [label="z"];
s9 -> s8  [label="y"];
s9 -> s14  [label="x"];
s10 -> s0  [label="y"];
s10 -> s16  [label="x"];
s10 -> s12  [label="z"];
s11 -> s0  [label="x"];
s11 -> s13  [label="z"];
s11 -> s12  [label="y"];
s12 -> s16  [label="z"];
s12 -> s11  [label="x"];
s12 -> s5  [label="y"];
s13 -> s12  [label="z"];
s13 -> s1  [label="x"];
s13 -> s14  [label="y"];
s14 -> s7  [label="x"];
s14 -> s12  [label="y"];
s14 -> s16  [label="z"];
s15 -> s14  [label="z"];
s15 -> s15  [label="x"];
s15 -> s10  [label="y"];
s16 -> s5  [label="z"];
s16 -> s8  [label="y"];
s16 -> s5  [label="x"];
__start0 [label="", shape=none];
__start0 -> s0  [label=""];
}
