digraph "benchmarks-true-state-lstar-3seeds/n_states=12-n_outputs=4-glitch_percent=0.05/d9dd629558d467acaa73170c3c8d05c9/RealModel" {
s1 [label="s1|c", shape=record, style=rounded];
s2 [label="s2|a", shape=record, style=rounded];
s3 [label="s3|d", shape=record, style=rounded];
s4 [label="s4|c", shape=record, style=rounded];
s5 [label="s5|d", shape=record, style=rounded];
s6 [label="s6|a", shape=record, style=rounded];
s7 [label="s7|b", shape=record, style=rounded];
s8 [label="s8|b", shape=record, style=rounded];
s9 [label="s9|d", shape=record, style=rounded];
s10 [label="s10|b", shape=record, style=rounded];
s11 [label="s11|c", shape=record, style=rounded];
s12 [label="s12|d", shape=record, style=rounded];
s1 -> s12  [label="x"];
s1 -> s2  [label="y"];
s1 -> s3  [label="z"];
s2 -> s6  [label="x"];
s2 -> s5  [label="y"];
s2 -> s8  [label="z"];
s3 -> s9  [label="x"];
s3 -> s11  [label="y"];
s3 -> s4  [label="z"];
s4 -> s1  [label="x"];
s4 -> s10  [label="y"];
s4 -> s7  [label="z"];
s5 -> s11  [label="x"];
s5 -> s6  [label="y"];
s5 -> s9  [label="z"];
s6 -> s2  [label="x"];
s6 -> s10  [label="y"];
s6 -> s7  [label="z"];
s7 -> s8  [label="x"];
s7 -> s7  [label="y"];
s7 -> s2  [label="z"];
s8 -> s3  [label="x"];
s8 -> s3  [label="y"];
s8 -> s7  [label="z"];
s9 -> s9  [label="x"];
s9 -> s11  [label="y"];
s9 -> s9  [label="z"];
s10 -> s11  [label="x"];
s10 -> s5  [label="y"];
s10 -> s8  [label="z"];
s11 -> s12  [label="x"];
s11 -> s3  [label="y"];
s11 -> s5  [label="z"];
s12 -> s10  [label="x"];
s12 -> s7  [label="y"];
s12 -> s4  [label="z"];
__start0 [label="", shape=none];
__start0 -> s1  [label=""];
}
