digraph "benchmarks-true-state-lstar-3seeds/n_states=8-n_outputs=7-glitch_percent=0.05/eb8498dc42f3c9270d560d29d04eeaa2/rpniGroundTruth" {
s0 [label="s0|a", shape=record, style=rounded];
s1 [label="s1|g", shape=record, style=rounded];
s2 [label="s2|f", shape=record, style=rounded];
s3 [label="s3|a", shape=record, style=rounded];
s4 [label="s4|d", shape=record, style=rounded];
s5 [label="s5|e", shape=record, style=rounded];
s6 [label="s6|e", shape=record, style=rounded];
s7 [label="s7|b", shape=record, style=rounded];
s0 -> s1  [label="x"];
s0 -> s2  [label="z"];
s0 -> s3  [label="y"];
s1 -> s4  [label="x"];
s1 -> s5  [label="z"];
s1 -> s6  [label="y"];
s2 -> s1  [label="z"];
s2 -> s5  [label="y"];
s2 -> s3  [label="x"];
s3 -> s7  [label="x"];
s3 -> s0  [label="z"];
s3 -> s0  [label="y"];
s4 -> s4  [label="x"];
s4 -> s2  [label="z"];
s4 -> s7  [label="y"];
s5 -> s2  [label="z"];
s5 -> s4  [label="y"];
s5 -> s2  [label="x"];
s6 -> s3  [label="y"];
s6 -> s2  [label="z"];
s6 -> s1  [label="x"];
s7 -> s4  [label="x"];
s7 -> s6  [label="z"];
s7 -> s7  [label="y"];
__start0 [label="", shape=none];
__start0 -> s0  [label=""];
}
