digraph "benchmarks-true-state-lstar-rc10seeds/n_states=8-n_outputs=3-glitch_percent=0.05/18aceba507ccaec952415ee874e59eed/pmsatLearned_NOP-N8-STOC" {
0 [label="0|c", shape=record, style=rounded];
1 [label="1|a", shape=record, style=rounded];
2 [label="2|c", shape=record, style=rounded];
3 [label="3|c", shape=record, style=rounded];
4 [label="4|c", shape=record, style=rounded];
5 [label="5|b", shape=record, style=rounded];
6 [label="6|c", shape=record, style=rounded];
7 [label="7|b", shape=record, style=rounded];
0 -> 4  [label="y (9)"];
0 -> 4  [label="z (11)"];
0 -> 7  [label="x (22)"];
1 -> 4  [label="x (22)"];
1 -> 5  [label="y (25)"];
1 -> 6  [label="z (28)"];
1 -> 2  [label="!x [1]"];
2 -> 3  [label="z (29)"];
2 -> 0  [label="y (35)"];
2 -> 1  [label="x (67)"];
2 -> 5  [label="!z [1]"];
2 -> 4  [label="!y [1]"];
3 -> 1  [label="x (13)"];
3 -> 4  [label="z (14)"];
3 -> 0  [label="y (7)"];
4 -> 6  [label="x (17)"];
4 -> 5  [label="y (6)"];
4 -> 7  [label="z (12)"];
4 -> 0  [label="!z [1]"];
4 -> 1  [label="!x [1]"];
5 -> 5  [label="x (7)"];
5 -> 1  [label="y (8)"];
5 -> 0  [label="z (9)"];
6 -> 1  [label="x (12)"];
6 -> 1  [label="y (7)"];
6 -> 2  [label="z (9)"];
7 -> 6  [label="x (10)"];
7 -> 3  [label="y (7)"];
7 -> 3  [label="z (7)"];
__start0 [label="", shape=none];
__start0 -> 2  [label=""];
}
