digraph "benchmarks-true-state-lstar-songp/n_states=13-n_outputs=3-glitch_percent=0.01-pmstrat='fm'/e1dc6f4742d59378a06251b00b9eae5b/alergiaLearned" {
q0 [label="a"];
q1 [label="a"];
q2 [label="c"];
q3 [label="b"];
q4 [label="c"];
q5 [label="b"];
q6 [label="a"];
q0 -> q1  [label="z:1.0"];
q0 -> q2  [label="y:1.0"];
q0 -> q3  [label="x:0.9857142857142858"];
q0 -> q4  [label="x:0.014285714285714285"];
q1 -> q4  [label="x:0.967741935483871"];
q1 -> q3  [label="x:0.03225806451612903"];
q1 -> q4  [label="y:1.0"];
q1 -> q5  [label="z:1.0"];
q1 -> q0  [label="z:0.0"];
q2 -> q6  [label="x:0.696969696969697"];
q2 -> q2  [label="x:0.24242424242424243"];
q2 -> q5  [label="x:0.06060606060606061"];
q2 -> q4  [label="y:0.8620689655172413"];
q2 -> q3  [label="y:0.13793103448275862"];
q2 -> q5  [label="z:0.7777777777777778"];
q2 -> q0  [label="z:0.2222222222222222"];
q3 -> q4  [label="x:0.71875"];
q3 -> q3  [label="x:0.28125"];
q3 -> q5  [label="y:0.8888888888888888"];
q3 -> q4  [label="y:0.027777777777777776"];
q3 -> q0  [label="y:0.08333333333333333"];
q3 -> q5  [label="z:0.9285714285714286"];
q3 -> q2  [label="z:0.07142857142857142"];
q4 -> q3  [label="x:0.40625"];
q4 -> q0  [label="x:0.34375"];
q4 -> q2  [label="x:0.25"];
q4 -> q2  [label="y:0.5714285714285714"];
q4 -> q3  [label="y:0.42857142857142855"];
q4 -> q3  [label="z:0.25"];
q4 -> q1  [label="z:0.75"];
q5 -> q3  [label="x:0.5"];
q5 -> q2  [label="x:0.5"];
q5 -> q3  [label="y:0.48"];
q5 -> q0  [label="y:0.28"];
q5 -> q2  [label="y:0.24"];
q5 -> q3  [label="z:0.25"];
q5 -> q2  [label="z:0.5"];
q5 -> q1  [label="z:0.25"];
q6 -> q3  [label="x:1.0"];
q6 -> q3  [label="y:0.8"];
q6 -> q2  [label="y:0.2"];
q6 -> q2  [label="z:1.0"];
__start0 [label="", shape=none];
__start0 -> q0  [label=""];
}
