digraph "benchmarks-true-state-lstar-rc10seeds/n_states=8-n_outputs=7-glitch_percent=0.05/f6cb0cf9a578df6336e0a7e016bfd202/pmsatLearned_NOP-N8" {
0 [label="0|a", shape=record, style=rounded];
1 [label="1|f", shape=record, style=rounded];
2 [label="2|e", shape=record, style=rounded];
3 [label="3|d", shape=record, style=rounded];
4 [label="4|e", shape=record, style=rounded];
5 [label="5|e", shape=record, style=rounded];
6 [label="6|g", shape=record, style=rounded];
7 [label="7|b", shape=record, style=rounded];
0 -> 0  [label="x"];
0 -> 4  [label="y"];
0 -> 0  [label="z"];
1 -> 6  [label="x"];
1 -> 5  [label="y"];
1 -> 4  [label="z"];
2 -> 4  [label="z"];
2 -> 6  [label="y"];
2 -> 5  [label="x"];
3 -> 0  [label="x"];
3 -> 4  [label="y"];
3 -> 6  [label="z"];
4 -> 7  [label="x"];
4 -> 7  [label="y"];
4 -> 0  [label="z"];
5 -> 0  [label="x"];
5 -> 1  [label="y"];
5 -> 7  [label="z"];
6 -> 5  [label="y"];
6 -> 6  [label="z"];
6 -> 3  [label="x"];
7 -> 4  [label="x"];
7 -> 4  [label="y"];
7 -> 6  [label="z"];
__start0 [label="", shape=none];
__start0 -> 2  [label=""];
}
