digraph "benchmarks-true-state-lstar-rc10seeds/n_states=12-n_outputs=9-glitch_percent=0.02/61d788230fc8567cd95b7a477d9629d0/pmsatLearned_NOP-N12-STOC" {
0 [label="0|a", shape=record, style=rounded];
1 [label="1|g", shape=record, style=rounded];
2 [label="2|e", shape=record, style=rounded];
3 [label="3|e", shape=record, style=rounded];
4 [label="4|b", shape=record, style=rounded];
5 [label="5|b", shape=record, style=rounded];
6 [label="6|b", shape=record, style=rounded];
7 [label="7|e", shape=record, style=rounded];
8 [label="8|a", shape=record, style=rounded];
9 [label="9|h", shape=record, style=rounded];
10 [label="10|h", shape=record, style=rounded];
11 [label="11|f", shape=record, style=rounded];
0 -> 4  [label="x (5)"];
0 -> 3  [label="y (4)"];
0 -> 1  [label="z (5)"];
1 -> 11  [label="x (8)"];
1 -> 1  [label="y (8)"];
1 -> 10  [label="z (7)"];
2 -> 8  [label="z (42)"];
2 -> 9  [label="y (56)"];
2 -> 3  [label="x (54)"];
2 -> 11  [label="!x [1]"];
2 -> 10  [label="!z [1]"];
3 -> 1  [label="x (21)"];
3 -> 10  [label="y (21)"];
3 -> 7  [label="z (21)"];
4 -> 11  [label="x (10)"];
4 -> 1  [label="y (10)"];
4 -> 2  [label="z (10)"];
5 -> 4  [label="x (6)"];
5 -> 4  [label="y (6)"];
5 -> 5  [label="z (6)"];
6 -> 3  [label="x (6)"];
6 -> 3  [label="y (6)"];
6 -> 11  [label="z (6)"];
7 -> 2  [label="x (5)"];
7 -> 2  [label="y (5)"];
7 -> 9  [label="z (5)"];
8 -> 6  [label="x (17)"];
8 -> 5  [label="y (17)"];
8 -> 4  [label="z (5)"];
9 -> 11  [label="x (18)"];
9 -> 0  [label="y (17)"];
9 -> 4  [label="z (19)"];
9 -> 2  [label="!y [1]"];
10 -> 11  [label="x (6)"];
10 -> 9  [label="y (6)"];
10 -> 4  [label="z (6)"];
11 -> 3  [label="x (9)"];
11 -> 6  [label="y (9)"];
11 -> 3  [label="z (8)"];
__start0 [label="", shape=none];
__start0 -> 2  [label=""];
}
