digraph "benchmarks-true-state-lstar-songp/n_states=15-n_outputs=9-glitch_percent=0.01-pmstrat='lsu'/906683c0c75f3f686d28fdc2dfc0bfd1/pmsatLearned-N15-STOC" {
0 [label="0|a", shape=record, style=rounded];
1 [label="1|b", shape=record, style=rounded];
2 [label="2|c", shape=record, style=rounded];
3 [label="3|e", shape=record, style=rounded];
4 [label="4|f", shape=record, style=rounded];
5 [label="5|g", shape=record, style=rounded];
6 [label="6|h", shape=record, style=rounded];
7 [label="7|i", shape=record, style=rounded];
8 [label="8|i", shape=record, style=rounded];
9 [label="9|h", shape=record, style=rounded];
10 [label="10|a", shape=record, style=rounded];
11 [label="11|f", shape=record, style=rounded];
12 [label="12|g", shape=record, style=rounded];
13 [label="13|g", shape=record, style=rounded];
14 [label="14|h", shape=record, style=rounded];
0 -> 11  [label="z (57)"];
0 -> 3  [label="y (56)"];
0 -> 6  [label="x (81)"];
0 -> 10  [label="!y [1]"];
1 -> 5  [label="x (17)"];
1 -> 2  [label="y (17)"];
1 -> 14  [label="z (5)"];
2 -> 7  [label="x (7)"];
2 -> 13  [label="y (6)"];
2 -> 5  [label="z (7)"];
3 -> 14  [label="x (21)"];
3 -> 10  [label="y (20)"];
3 -> 12  [label="z (20)"];
4 -> 3  [label="x (5)"];
4 -> 0  [label="y (4)"];
4 -> 8  [label="z (5)"];
5 -> 12  [label="x (8)"];
5 -> 8  [label="y (8)"];
5 -> 9  [label="z (8)"];
6 -> 1  [label="x (41)"];
6 -> 4  [label="y (16)"];
6 -> 9  [label="z (17)"];
6 -> 0  [label="!y [1]"];
7 -> 12  [label="x (6)"];
7 -> 12  [label="y (6)"];
7 -> 8  [label="z (6)"];
8 -> 13  [label="x (8)"];
8 -> 5  [label="y (9)"];
8 -> 13  [label="z (8)"];
9 -> 0  [label="x (6)"];
9 -> 2  [label="y (5)"];
9 -> 0  [label="z (6)"];
9 -> 5  [label="!y [1]"];
10 -> 11  [label="x (6)"];
10 -> 5  [label="y (6)"];
10 -> 3  [label="z (6)"];
11 -> 7  [label="x (19)"];
11 -> 8  [label="y (18)"];
11 -> 13  [label="z (20)"];
12 -> 10  [label="x (9)"];
12 -> 8  [label="y (9)"];
12 -> 3  [label="z (8)"];
12 -> 5  [label="!z [1]"];
13 -> 13  [label="x (9)"];
13 -> 0  [label="y (9)"];
13 -> 3  [label="z (9)"];
14 -> 12  [label="x (6)"];
14 -> 2  [label="y (6)"];
14 -> 11  [label="z (6)"];
__start0 [label="", shape=none];
__start0 -> 0  [label=""];
}
