digraph "benchmarks-true-state-lstar-3seeds/n_states=6-n_outputs=5-glitch_percent=0.05/5d737b6bb473208b6d9f2ebe67c8af58/pmsatLearned-N6-STOC" {
0 [label="0|b", shape=record, style=rounded];
1 [label="1|e", shape=record, style=rounded];
2 [label="2|b", shape=record, style=rounded];
3 [label="3|e", shape=record, style=rounded];
4 [label="4|b", shape=record, style=rounded];
5 [label="5|b", shape=record, style=rounded];
0 -> 1  [label="z (22)"];
0 -> 5  [label="y (31)"];
0 -> 2  [label="x (57)"];
0 -> 1  [label="!x [2]"];
0 -> 3  [label="!y [2]"];
0 -> 1  [label="!y [1]"];
1 -> 1  [label="x (8)"];
1 -> 5  [label="y (11)"];
1 -> 2  [label="z (9)"];
2 -> 4  [label="x (27)"];
2 -> 3  [label="y (30)"];
2 -> 4  [label="z (8)"];
3 -> 4  [label="x (7)"];
3 -> 1  [label="y (6)"];
3 -> 0  [label="z (6)"];
4 -> 0  [label="x (11)"];
4 -> 0  [label="y (12)"];
4 -> 0  [label="z (7)"];
5 -> 2  [label="x (13)"];
5 -> 1  [label="y (9)"];
5 -> 5  [label="z (8)"];
__start0 [label="", shape=none];
__start0 -> 0  [label=""];
}
