digraph "benchmarks-true-state-lstar-songp/n_states=12-n_outputs=7-glitch_percent=0.02-pmstrat='fm'/2e5a47318fef2d5380a9dde1bd41bf2d/alergiaLearned" {
q0 [label="a"];
q1 [label="c"];
q2 [label="f"];
q3 [label="a"];
q4 [label="c"];
q5 [label="f"];
q6 [label="d"];
q7 [label="g"];
q8 [label="b"];
q0 -> q1  [label="z:1.0"];
q0 -> q2  [label="y:0.9824561403508771"];
q0 -> q4  [label="y:0.017543859649122806"];
q0 -> q3  [label="x:1.0"];
q1 -> q5  [label="x:0.8695652173913043"];
q1 -> q1  [label="x:0.13043478260869565"];
q1 -> q6  [label="y:0.8636363636363636"];
q1 -> q2  [label="y:0.13636363636363635"];
q1 -> q1  [label="z:0.7"];
q1 -> q2  [label="z:0.3"];
q2 -> q6  [label="x:0.6"];
q2 -> q1  [label="x:0.03333333333333333"];
q2 -> q7  [label="x:0.2"];
q2 -> q0  [label="x:0.16666666666666666"];
q2 -> q2  [label="y:1.0"];
q2 -> q7  [label="z:0.6206896551724138"];
q2 -> q0  [label="z:0.1724137931034483"];
q2 -> q1  [label="z:0.20689655172413793"];
q3 -> q7  [label="x:1.0"];
q3 -> q4  [label="y:0.9375"];
q3 -> q5  [label="y:0.0625"];
q3 -> q8  [label="z:1.0"];
q4 -> q1  [label="x:1.0"];
q4 -> q2  [label="y:1.0"];
q4 -> q2  [label="z:1.0"];
q5 -> q0  [label="x:1.0"];
q5 -> q2  [label="y:1.0"];
q5 -> q0  [label="z:1.0"];
q6 -> q8  [label="y:0.5555555555555556"];
q6 -> q2  [label="y:0.4444444444444444"];
q6 -> q8  [label="z:1.0"];
q6 -> q2  [label="x:0.4444444444444444"];
q6 -> q7  [label="x:0.5555555555555556"];
q7 -> q1  [label="x:1.0"];
q7 -> q0  [label="y:0.4166666666666667"];
q7 -> q1  [label="y:0.5833333333333334"];
q7 -> q7  [label="z:0.38461538461538464"];
q7 -> q2  [label="z:0.5384615384615384"];
q7 -> q0  [label="z:0.07692307692307693"];
q8 -> q2  [label="x:1.0"];
q8 -> q2  [label="y:1.0"];
q8 -> q1  [label="z:1.0"];
__start0 [label="", shape=none];
__start0 -> q0  [label=""];
}
