digraph "benchmarks-true-state-lstar-rc10seeds/n_states=17-n_outputs=7-glitch_percent=0.02/face791c6d59e771afc2aa2799158aa2/pmsatLearned_NOP-N17" {
0 [label="0|f", shape=record, style=rounded];
1 [label="1|g", shape=record, style=rounded];
2 [label="2|b", shape=record, style=rounded];
3 [label="3|e", shape=record, style=rounded];
4 [label="4|e", shape=record, style=rounded];
5 [label="5|e", shape=record, style=rounded];
6 [label="6|g", shape=record, style=rounded];
7 [label="7|c", shape=record, style=rounded];
8 [label="8|g", shape=record, style=rounded];
9 [label="9|g", shape=record, style=rounded];
10 [label="10|f", shape=record, style=rounded];
11 [label="11|d", shape=record, style=rounded];
12 [label="12|b", shape=record, style=rounded];
13 [label="13|b", shape=record, style=rounded];
14 [label="14|b", shape=record, style=rounded];
15 [label="15|c", shape=record, style=rounded];
16 [label="16|e", shape=record, style=rounded];
0 -> 10  [label="x"];
0 -> 0  [label="y"];
0 -> 1  [label="z"];
1 -> 0  [label="x"];
1 -> 0  [label="y"];
1 -> 4  [label="z"];
2 -> 10  [label="x"];
2 -> 15  [label="y"];
2 -> 13  [label="z"];
3 -> 14  [label="z"];
3 -> 13  [label="y"];
3 -> 10  [label="x"];
4 -> 3  [label="x"];
4 -> 13  [label="y"];
4 -> 10  [label="z"];
5 -> 8  [label="x"];
5 -> 9  [label="y"];
5 -> 0  [label="z"];
6 -> 8  [label="x"];
6 -> 16  [label="y"];
6 -> 16  [label="z"];
7 -> 11  [label="x"];
7 -> 1  [label="y"];
7 -> 5  [label="z"];
8 -> 13  [label="x"];
8 -> 13  [label="y"];
8 -> 1  [label="z"];
9 -> 4  [label="x"];
9 -> 4  [label="y"];
9 -> 8  [label="z"];
10 -> 5  [label="x"];
10 -> 7  [label="y"];
10 -> 2  [label="z"];
11 -> 0  [label="x"];
11 -> 14  [label="y"];
11 -> 4  [label="z"];
12 -> 7  [label="x"];
12 -> 11  [label="y"];
12 -> 16  [label="z"];
13 -> 1  [label="x"];
13 -> 6  [label="y"];
13 -> 4  [label="z"];
14 -> 16  [label="x"];
14 -> 12  [label="y"];
14 -> 15  [label="z"];
15 -> 3  [label="x"];
15 -> 9  [label="y"];
15 -> 4  [label="z"];
16 -> 9  [label="x"];
16 -> 14  [label="y"];
16 -> 5  [label="z"];
__start0 [label="", shape=none];
__start0 -> 3  [label=""];
}
