digraph "benchmarks-true-state-lstar-3seeds/n_states=6-n_outputs=5-glitch_percent=0.0/23a522d58ca851898f2f8891d5fe7646/pmsatLearned-N6-STOC" {
0 [label="0|b", shape=record, style=rounded];
1 [label="1|e", shape=record, style=rounded];
2 [label="2|e", shape=record, style=rounded];
3 [label="3|b", shape=record, style=rounded];
4 [label="4|b", shape=record, style=rounded];
5 [label="5|b", shape=record, style=rounded];
0 -> 1  [label="z (25)"];
0 -> 3  [label="y (31)"];
0 -> 5  [label="x (61)"];
1 -> 1  [label="x (13)"];
1 -> 3  [label="y (13)"];
1 -> 5  [label="z (9)"];
2 -> 4  [label="x (7)"];
2 -> 1  [label="y (6)"];
2 -> 0  [label="z (6)"];
3 -> 5  [label="x (14)"];
3 -> 1  [label="y (8)"];
3 -> 3  [label="z (8)"];
4 -> 0  [label="x (11)"];
4 -> 0  [label="y (13)"];
4 -> 0  [label="z (8)"];
5 -> 4  [label="x (27)"];
5 -> 2  [label="y (34)"];
5 -> 4  [label="z (8)"];
__start0 [label="", shape=none];
__start0 -> 0  [label=""];
}
