digraph "benchmarks-true-state-lstar-3seeds/n_states=7-n_outputs=5-glitch_percent=0.1/5db7faecb0b22bc79ee24dd7d28d12d1/RealModel" {
s1 [label="s1|e", shape=record, style=rounded];
s2 [label="s2|b", shape=record, style=rounded];
s3 [label="s3|d", shape=record, style=rounded];
s4 [label="s4|e", shape=record, style=rounded];
s5 [label="s5|d", shape=record, style=rounded];
s6 [label="s6|e", shape=record, style=rounded];
s7 [label="s7|c", shape=record, style=rounded];
s1 -> s7  [label="x"];
s1 -> s5  [label="y"];
s1 -> s2  [label="z"];
s2 -> s6  [label="x"];
s2 -> s1  [label="y"];
s2 -> s2  [label="z"];
s3 -> s1  [label="x"];
s3 -> s3  [label="y"];
s3 -> s2  [label="z"];
s4 -> s4  [label="x"];
s4 -> s2  [label="y"];
s4 -> s2  [label="z"];
s5 -> s6  [label="x"];
s5 -> s2  [label="y"];
s5 -> s3  [label="z"];
s6 -> s2  [label="x"];
s6 -> s2  [label="y"];
s6 -> s3  [label="z"];
s7 -> s3  [label="x"];
s7 -> s4  [label="y"];
s7 -> s6  [label="z"];
__start0 [label="", shape=none];
__start0 -> s1  [label=""];
}
