digraph "benchmarks-true-state-lstar-3seeds/n_states=10-n_outputs=5-glitch_percent=0.01/bc54efbff380e99ca8498c581816932b/pmsatLearned-N10" {
0 [label="0|a", shape=record, style=rounded];
1 [label="1|c", shape=record, style=rounded];
2 [label="2|d", shape=record, style=rounded];
3 [label="3|e", shape=record, style=rounded];
4 [label="4|d", shape=record, style=rounded];
5 [label="5|e", shape=record, style=rounded];
6 [label="6|e", shape=record, style=rounded];
7 [label="7|c", shape=record, style=rounded];
8 [label="8|c", shape=record, style=rounded];
9 [label="9|d", shape=record, style=rounded];
0 -> 2  [label="x"];
0 -> 6  [label="y"];
0 -> 7  [label="z"];
1 -> 4  [label="z"];
1 -> 0  [label="y"];
1 -> 8  [label="x"];
2 -> 1  [label="x"];
2 -> 6  [label="y"];
2 -> 3  [label="z"];
3 -> 4  [label="x"];
3 -> 7  [label="y"];
3 -> 5  [label="z"];
4 -> 6  [label="x"];
4 -> 1  [label="y"];
4 -> 3  [label="z"];
5 -> 3  [label="x"];
5 -> 8  [label="y"];
5 -> 5  [label="z"];
6 -> 3  [label="x"];
6 -> 4  [label="y"];
6 -> 3  [label="z"];
7 -> 6  [label="x"];
7 -> 4  [label="y"];
7 -> 5  [label="z"];
8 -> 9  [label="y"];
8 -> 5  [label="z"];
8 -> 3  [label="x"];
9 -> 5  [label="x"];
9 -> 6  [label="y"];
9 -> 6  [label="z"];
__start0 [label="", shape=none];
__start0 -> 1  [label=""];
}
