digraph "benchmarks-true-state-lstar-3seeds/n_states=15-n_outputs=9-glitch_percent=0.0/aa1ce76e356df56897950be536609430/pmsatLearned-N15-STOC" {
0 [label="0|a", shape=record, style=rounded];
1 [label="1|b", shape=record, style=rounded];
2 [label="2|c", shape=record, style=rounded];
3 [label="3|e", shape=record, style=rounded];
4 [label="4|f", shape=record, style=rounded];
5 [label="5|g", shape=record, style=rounded];
6 [label="6|h", shape=record, style=rounded];
7 [label="7|i", shape=record, style=rounded];
8 [label="8|a", shape=record, style=rounded];
9 [label="9|i", shape=record, style=rounded];
10 [label="10|i", shape=record, style=rounded];
11 [label="11|i", shape=record, style=rounded];
12 [label="12|b", shape=record, style=rounded];
13 [label="13|f", shape=record, style=rounded];
14 [label="14|a", shape=record, style=rounded];
0 -> 5  [label="x (7)"];
0 -> 14  [label="y (7)"];
0 -> 12  [label="z (7)"];
1 -> 7  [label="z (54)"];
1 -> 6  [label="y (54)"];
1 -> 4  [label="x (78)"];
2 -> 7  [label="x (8)"];
2 -> 3  [label="y (8)"];
2 -> 3  [label="z (8)"];
3 -> 3  [label="x (11)"];
3 -> 8  [label="y (11)"];
3 -> 9  [label="z (11)"];
4 -> 11  [label="x (44)"];
4 -> 8  [label="y (20)"];
4 -> 2  [label="z (20)"];
5 -> 3  [label="x (6)"];
5 -> 4  [label="y (6)"];
5 -> 8  [label="z (6)"];
6 -> 13  [label="x (18)"];
6 -> 12  [label="y (18)"];
6 -> 10  [label="z (18)"];
7 -> 9  [label="x (19)"];
7 -> 5  [label="y (19)"];
7 -> 3  [label="z (19)"];
8 -> 9  [label="x (8)"];
8 -> 4  [label="y (8)"];
8 -> 2  [label="z (8)"];
9 -> 0  [label="x (8)"];
9 -> 10  [label="y (8)"];
9 -> 13  [label="z (8)"];
10 -> 3  [label="x (7)"];
10 -> 12  [label="y (7)"];
10 -> 2  [label="z (7)"];
11 -> 0  [label="x (17)"];
11 -> 14  [label="y (17)"];
11 -> 0  [label="z (5)"];
12 -> 6  [label="x (7)"];
12 -> 8  [label="y (7)"];
12 -> 10  [label="z (7)"];
13 -> 1  [label="x (6)"];
13 -> 2  [label="y (6)"];
13 -> 7  [label="z (6)"];
14 -> 9  [label="x (6)"];
14 -> 4  [label="y (6)"];
14 -> 3  [label="z (6)"];
__start0 [label="", shape=none];
__start0 -> 1  [label=""];
}
