digraph "benchmarks-true-state-lstar-3seeds/n_states=12-n_outputs=4-glitch_percent=0.0/3cfbd68738fd1ee2c0f681dfcc65cc3f/alergiaLearned" {
q0 [label="c"];
q1 [label="a"];
q2 [label="d"];
q3 [label="c"];
q4 [label="a"];
q5 [label="a"];
q6 [label="c"];
q7 [label="a"];
q8 [label="d"];
q0 -> q1  [label="z:0.9206349206349206"];
q0 -> q0  [label="z:0.07936507936507936"];
q0 -> q2  [label="y:0.935064935064935"];
q0 -> q1  [label="y:0.06493506493506493"];
q0 -> q3  [label="x:0.9506172839506173"];
q0 -> q8  [label="x:0.04938271604938271"];
q1 -> q4  [label="x:0.7142857142857143"];
q1 -> q6  [label="x:0.2857142857142857"];
q1 -> q5  [label="y:0.8125"];
q1 -> q2  [label="y:0.15625"];
q1 -> q0  [label="y:0.03125"];
q1 -> q1  [label="z:0.5833333333333334"];
q1 -> q0  [label="z:0.4166666666666667"];
q2 -> q6  [label="x:1.0"];
q2 -> q4  [label="y:0.8461538461538461"];
q2 -> q2  [label="y:0.15384615384615385"];
q2 -> q7  [label="z:0.8846153846153846"];
q2 -> q2  [label="z:0.11538461538461539"];
q3 -> q8  [label="x:1.0"];
q3 -> q8  [label="y:1.0"];
q3 -> q6  [label="z:1.0"];
q4 -> q0  [label="x:0.5"];
q4 -> q1  [label="x:0.5"];
q4 -> q3  [label="y:0.9333333333333333"];
q4 -> q2  [label="y:0.06666666666666667"];
q4 -> q0  [label="z:0.5"];
q4 -> q2  [label="z:0.5"];
q5 -> q7  [label="x:1.0"];
q5 -> q1  [label="y:1.0"];
q5 -> q1  [label="z:1.0"];
q6 -> q0  [label="x:1.0"];
q6 -> q1  [label="y:0.6956521739130435"];
q6 -> q0  [label="y:0.2608695652173913"];
q6 -> q2  [label="y:0.043478260869565216"];
q6 -> q3  [label="z:0.5"];
q6 -> q2  [label="z:0.5"];
q7 -> q0  [label="x:1.0"];
q7 -> q2  [label="y:1.0"];
q7 -> q0  [label="z:1.0"];
q8 -> q0  [label="x:1.0"];
q8 -> q2  [label="y:1.0"];
q8 -> q2  [label="z:0.5"];
q8 -> q1  [label="z:0.5"];
__start0 [label="", shape=none];
__start0 -> q0  [label=""];
}
