digraph "benchmarks-true-state-lstar-rc10seeds/n_states=16-n_outputs=2-glitch_percent=0.0/32f8d74b2dfa69353b4433fefad38ae6/pmsatLearned_NOP-N16-STOC" {
0 [label="0|b", shape=record, style=rounded];
1 [label="1|b", shape=record, style=rounded];
2 [label="2|b", shape=record, style=rounded];
3 [label="3|a", shape=record, style=rounded];
4 [label="4|b", shape=record, style=rounded];
5 [label="5|b", shape=record, style=rounded];
6 [label="6|a", shape=record, style=rounded];
7 [label="7|a", shape=record, style=rounded];
8 [label="8|a", shape=record, style=rounded];
9 [label="9|a", shape=record, style=rounded];
10 [label="10|b", shape=record, style=rounded];
11 [label="11|b", shape=record, style=rounded];
12 [label="12|b", shape=record, style=rounded];
13 [label="13|a", shape=record, style=rounded];
14 [label="14|a", shape=record, style=rounded];
15 [label="15|b", shape=record, style=rounded];
0 -> 13  [label="x (28)"];
0 -> 0  [label="y (22)"];
0 -> 14  [label="z (15)"];
1 -> 5  [label="z (130)"];
1 -> 6  [label="y (52)"];
1 -> 14  [label="x (305)"];
2 -> 3  [label="x (23)"];
2 -> 6  [label="y (18)"];
2 -> 15  [label="z (15)"];
3 -> 8  [label="x (36)"];
3 -> 1  [label="y (33)"];
3 -> 7  [label="z (25)"];
4 -> 14  [label="x (28)"];
4 -> 9  [label="y (20)"];
4 -> 12  [label="z (21)"];
5 -> 10  [label="x (54)"];
5 -> 3  [label="y (49)"];
5 -> 4  [label="z (48)"];
6 -> 13  [label="x (47)"];
6 -> 9  [label="y (23)"];
6 -> 0  [label="z (27)"];
7 -> 2  [label="x (20)"];
7 -> 6  [label="y (17)"];
7 -> 13  [label="z (67)"];
8 -> 11  [label="x (62)"];
8 -> 15  [label="y (53)"];
8 -> 12  [label="z (76)"];
9 -> 6  [label="x (38)"];
9 -> 6  [label="y (20)"];
9 -> 10  [label="z (20)"];
10 -> 3  [label="x (37)"];
10 -> 4  [label="y (30)"];
10 -> 3  [label="z (24)"];
11 -> 4  [label="x (20)"];
11 -> 9  [label="y (18)"];
11 -> 10  [label="z (16)"];
12 -> 5  [label="x (17)"];
12 -> 10  [label="y (23)"];
12 -> 0  [label="z (40)"];
13 -> 9  [label="x (59)"];
13 -> 5  [label="y (25)"];
13 -> 1  [label="z (27)"];
14 -> 8  [label="x (167)"];
14 -> 7  [label="y (106)"];
14 -> 2  [label="z (52)"];
15 -> 10  [label="x (20)"];
15 -> 8  [label="y (19)"];
15 -> 11  [label="z (13)"];
__start0 [label="", shape=none];
__start0 -> 1  [label=""];
}
