digraph "benchmarks-true-state-lstar-rc10seeds/n_states=3-n_outputs=3-glitch_percent=0.0/b0abe5c139e9ef44a97a31f15d2ad643/pmsatLearned_NOP-N3-STOC" {
0 [label="0|c", shape=record, style=rounded];
1 [label="1|a", shape=record, style=rounded];
2 [label="2|a", shape=record, style=rounded];
0 -> 1  [label="x (1)"];
0 -> 1  [label="y (1)"];
0 -> 1  [label="z (1)"];
1 -> 2  [label="z (13)"];
1 -> 1  [label="y (25)"];
1 -> 2  [label="x (25)"];
2 -> 1  [label="x (8)"];
2 -> 1  [label="y (8)"];
2 -> 0  [label="z (8)"];
__start0 [label="", shape=none];
__start0 -> 1  [label=""];
}
