digraph "benchmarks-true-state-lstar-songp/n_states=13-n_outputs=4-glitch_percent=0.01-pmstrat='rc2'/8d00e5d99702978066ffa4d9eae1be0e/pmsatLearned-N13" {
0 [label="0|a", shape=record, style=rounded];
1 [label="1|b", shape=record, style=rounded];
2 [label="2|c", shape=record, style=rounded];
3 [label="3|d", shape=record, style=rounded];
4 [label="4|d", shape=record, style=rounded];
5 [label="5|d", shape=record, style=rounded];
6 [label="6|a", shape=record, style=rounded];
7 [label="7|d", shape=record, style=rounded];
8 [label="8|a", shape=record, style=rounded];
9 [label="9|d", shape=record, style=rounded];
10 [label="10|d", shape=record, style=rounded];
11 [label="11|c", shape=record, style=rounded];
12 [label="12|c", shape=record, style=rounded];
0 -> 2  [label="z"];
0 -> 12  [label="y"];
0 -> 5  [label="x"];
1 -> 1  [label="x"];
1 -> 2  [label="y"];
1 -> 2  [label="z"];
2 -> 3  [label="x"];
2 -> 11  [label="y"];
2 -> 4  [label="z"];
3 -> 11  [label="x"];
3 -> 11  [label="y"];
3 -> 0  [label="z"];
4 -> 7  [label="x"];
4 -> 11  [label="y"];
4 -> 10  [label="z"];
5 -> 8  [label="x"];
5 -> 10  [label="y"];
5 -> 9  [label="z"];
6 -> 12  [label="x"];
6 -> 6  [label="y"];
6 -> 4  [label="z"];
7 -> 12  [label="x"];
7 -> 4  [label="y"];
7 -> 11  [label="z"];
8 -> 4  [label="x"];
8 -> 1  [label="y"];
8 -> 9  [label="z"];
9 -> 0  [label="x"];
9 -> 1  [label="y"];
9 -> 0  [label="z"];
10 -> 12  [label="x"];
10 -> 0  [label="y"];
10 -> 4  [label="z"];
11 -> 12  [label="x"];
11 -> 4  [label="y"];
11 -> 3  [label="z"];
12 -> 1  [label="x"];
12 -> 6  [label="y"];
12 -> 7  [label="z"];
__start0 [label="", shape=none];
__start0 -> 0  [label=""];
}
