digraph "benchmarks-true-state-lstar-rc10seeds/n_states=15-n_outputs=7-glitch_percent=0.02/2465c7cce92a752ca3b8584e5aefa0c5/pmsatLearned_NOP-N15-STOC" {
0 [label="0|e", shape=record, style=rounded];
1 [label="1|g", shape=record, style=rounded];
2 [label="2|f", shape=record, style=rounded];
3 [label="3|d", shape=record, style=rounded];
4 [label="4|e", shape=record, style=rounded];
5 [label="5|a", shape=record, style=rounded];
6 [label="6|a", shape=record, style=rounded];
7 [label="7|a", shape=record, style=rounded];
8 [label="8|c", shape=record, style=rounded];
9 [label="9|e", shape=record, style=rounded];
10 [label="10|b", shape=record, style=rounded];
11 [label="11|b", shape=record, style=rounded];
12 [label="12|d", shape=record, style=rounded];
13 [label="13|a", shape=record, style=rounded];
14 [label="14|b", shape=record, style=rounded];
0 -> 4  [label="x (6)"];
0 -> 1  [label="y (7)"];
0 -> 14  [label="z (7)"];
1 -> 8  [label="x (19)"];
1 -> 6  [label="y (19)"];
1 -> 9  [label="z (19)"];
1 -> 0  [label="!y [1]"];
2 -> 3  [label="x (8)"];
2 -> 13  [label="y (8)"];
2 -> 0  [label="z (8)"];
3 -> 14  [label="z (55)"];
3 -> 1  [label="y (55)"];
3 -> 4  [label="x (78)"];
3 -> 13  [label="!z [1]"];
3 -> 6  [label="!y [1]"];
3 -> 12  [label="!x [1]"];
4 -> 12  [label="x (41)"];
4 -> 13  [label="y (16)"];
4 -> 7  [label="z (15)"];
4 -> 6  [label="!z [1]"];
4 -> 8  [label="!y [1]"];
5 -> 2  [label="x (6)"];
5 -> 7  [label="y (6)"];
5 -> 3  [label="z (7)"];
6 -> 3  [label="x (7)"];
6 -> 6  [label="y (7)"];
6 -> 11  [label="z (7)"];
7 -> 1  [label="x (6)"];
7 -> 6  [label="y (5)"];
7 -> 9  [label="z (5)"];
8 -> 13  [label="x (6)"];
8 -> 0  [label="y (5)"];
8 -> 1  [label="z (6)"];
9 -> 9  [label="x (9)"];
9 -> 12  [label="y (8)"];
9 -> 12  [label="z (8)"];
10 -> 5  [label="x (6)"];
10 -> 2  [label="y (6)"];
10 -> 2  [label="z (6)"];
11 -> 13  [label="x (6)"];
11 -> 11  [label="y (7)"];
11 -> 14  [label="z (7)"];
12 -> 2  [label="x (19)"];
12 -> 11  [label="y (19)"];
12 -> 10  [label="z (7)"];
13 -> 9  [label="x (8)"];
13 -> 8  [label="y (7)"];
13 -> 9  [label="z (8)"];
14 -> 10  [label="x (19)"];
14 -> 0  [label="y (18)"];
14 -> 5  [label="z (18)"];
14 -> 0  [label="!x [1]"];
__start0 [label="", shape=none];
__start0 -> 3  [label=""];
}
