digraph "benchmarks-true-state-lstar-3seeds/n_states=11-n_outputs=6-glitch_percent=0.0/4b7a489bb95c18c8afbccd41e55d42ec/RealModel" {
s1 [label="s1|a", shape=record, style=rounded];
s2 [label="s2|c", shape=record, style=rounded];
s3 [label="s3|d", shape=record, style=rounded];
s4 [label="s4|a", shape=record, style=rounded];
s5 [label="s5|c", shape=record, style=rounded];
s6 [label="s6|e", shape=record, style=rounded];
s7 [label="s7|e", shape=record, style=rounded];
s8 [label="s8|a", shape=record, style=rounded];
s9 [label="s9|f", shape=record, style=rounded];
s10 [label="s10|a", shape=record, style=rounded];
s11 [label="s11|f", shape=record, style=rounded];
s1 -> s6  [label="x"];
s1 -> s4  [label="y"];
s1 -> s11  [label="z"];
s2 -> s7  [label="x"];
s2 -> s7  [label="y"];
s2 -> s6  [label="z"];
s3 -> s11  [label="x"];
s3 -> s2  [label="y"];
s3 -> s10  [label="z"];
s4 -> s5  [label="x"];
s4 -> s8  [label="y"];
s4 -> s7  [label="z"];
s5 -> s7  [label="x"];
s5 -> s10  [label="y"];
s5 -> s10  [label="z"];
s6 -> s9  [label="x"];
s6 -> s2  [label="y"];
s6 -> s10  [label="z"];
s7 -> s9  [label="x"];
s7 -> s10  [label="y"];
s7 -> s4  [label="z"];
s8 -> s1  [label="x"];
s8 -> s11  [label="y"];
s8 -> s7  [label="z"];
s9 -> s4  [label="x"];
s9 -> s3  [label="y"];
s9 -> s2  [label="z"];
s10 -> s6  [label="x"];
s10 -> s5  [label="y"];
s10 -> s11  [label="z"];
s11 -> s3  [label="x"];
s11 -> s7  [label="y"];
s11 -> s1  [label="z"];
__start0 [label="", shape=none];
__start0 -> s1  [label=""];
}
