digraph "benchmarks-true-state-lstar-3seeds/n_states=15-n_outputs=2-glitch_percent=0.1/c16e3dcc6d11892d8bbb930fccbb2675/alergiaLearned" {
q0 [label="b"];
q1 [label="a"];
q2 [label="a"];
q3 [label="b"];
q4 [label="b"];
q5 [label="b"];
q6 [label="b"];
q7 [label="b"];
q8 [label="b"];
q0 -> q1  [label="z:0.9327731092436975"];
q0 -> q3  [label="z:0.06722689075630252"];
q0 -> q2  [label="x:0.05859375"];
q0 -> q4  [label="x:0.94140625"];
q0 -> q3  [label="y:0.8118811881188119"];
q0 -> q1  [label="y:0.18811881188118812"];
q1 -> q5  [label="z:0.8936170212765957"];
q1 -> q1  [label="z:0.10638297872340426"];
q1 -> q2  [label="y:0.8"];
q1 -> q0  [label="y:0.2"];
q1 -> q2  [label="x:0.6190476190476191"];
q1 -> q0  [label="x:0.38095238095238093"];
q2 -> q0  [label="x:0.9078947368421053"];
q2 -> q1  [label="x:0.09210526315789473"];
q2 -> q0  [label="y:0.7906976744186046"];
q2 -> q1  [label="y:0.20930232558139536"];
q2 -> q0  [label="z:0.5142857142857142"];
q2 -> q1  [label="z:0.4857142857142857"];
q3 -> q6  [label="x:0.9710144927536232"];
q3 -> q1  [label="x:0.028985507246376812"];
q3 -> q5  [label="y:1.0"];
q3 -> q2  [label="z:0.625"];
q3 -> q0  [label="z:0.375"];
q4 -> q7  [label="x:0.9122807017543859"];
q4 -> q1  [label="x:0.08771929824561403"];
q4 -> q2  [label="y:0.7878787878787878"];
q4 -> q8  [label="y:0.21212121212121213"];
q4 -> q3  [label="z:0.9142857142857143"];
q4 -> q1  [label="z:0.08571428571428572"];
q5 -> q3  [label="x:0.8571428571428571"];
q5 -> q1  [label="x:0.14285714285714285"];
q5 -> q1  [label="y:0.8"];
q5 -> q0  [label="y:0.2"];
q5 -> q0  [label="z:0.75"];
q5 -> q2  [label="z:0.25"];
q6 -> q3  [label="y:0.8571428571428571"];
q6 -> q1  [label="y:0.14285714285714285"];
q6 -> q8  [label="x:0.9473684210526315"];
q6 -> q1  [label="x:0.05263157894736842"];
q6 -> q1  [label="z:1.0"];
q7 -> q2  [label="x:0.8888888888888888"];
q7 -> q4  [label="x:0.1111111111111111"];
q7 -> q8  [label="y:0.9791666666666666"];
q7 -> q1  [label="y:0.020833333333333332"];
q7 -> q0  [label="z:0.6666666666666666"];
q7 -> q1  [label="z:0.3333333333333333"];
q8 -> q5  [label="x:0.08108108108108109"];
q8 -> q1  [label="x:0.918918918918919"];
q8 -> q2  [label="y:0.8461538461538461"];
q8 -> q0  [label="y:0.15384615384615385"];
q8 -> q1  [label="z:0.875"];
q8 -> q0  [label="z:0.125"];
__start0 [label="", shape=none];
__start0 -> q0  [label=""];
}
