digraph "benchmarks-true-state-lstar-rc10seeds/n_states=10-n_outputs=6-glitch_percent=0.02/1068fd758ca48d7e3f5d88347136aad5/pmsatLearned_NOP-N10" {
0 [label="0|f", shape=record, style=rounded];
1 [label="1|e", shape=record, style=rounded];
2 [label="2|b", shape=record, style=rounded];
3 [label="3|d", shape=record, style=rounded];
4 [label="4|c", shape=record, style=rounded];
5 [label="5|a", shape=record, style=rounded];
6 [label="6|b", shape=record, style=rounded];
7 [label="7|d", shape=record, style=rounded];
8 [label="8|e", shape=record, style=rounded];
9 [label="9|a", shape=record, style=rounded];
0 -> 5  [label="x"];
0 -> 9  [label="y"];
0 -> 1  [label="z"];
1 -> 9  [label="x"];
1 -> 4  [label="y"];
1 -> 6  [label="z"];
2 -> 9  [label="x"];
2 -> 7  [label="y"];
2 -> 6  [label="z"];
3 -> 2  [label="z"];
3 -> 1  [label="y"];
3 -> 5  [label="x"];
4 -> 6  [label="x"];
4 -> 8  [label="y"];
4 -> 5  [label="z"];
5 -> 8  [label="x"];
5 -> 0  [label="y"];
5 -> 7  [label="z"];
6 -> 3  [label="x"];
6 -> 7  [label="z"];
6 -> 6  [label="y"];
7 -> 8  [label="x"];
7 -> 4  [label="y"];
7 -> 8  [label="z"];
8 -> 6  [label="x"];
8 -> 8  [label="y"];
8 -> 6  [label="z"];
9 -> 9  [label="x"];
9 -> 8  [label="y"];
9 -> 5  [label="z"];
__start0 [label="", shape=none];
__start0 -> 3  [label=""];
}
