digraph "benchmarks-true-state-lstar-3seeds/n_states=10-n_outputs=2-glitch_percent=0.02/cbbb5532a8a641cdbba30b6c9acfbad1/pmsatLearned-N10" {
0 [label="0|a", shape=record, style=rounded];
1 [label="1|b", shape=record, style=rounded];
2 [label="2|b", shape=record, style=rounded];
3 [label="3|a", shape=record, style=rounded];
4 [label="4|a", shape=record, style=rounded];
5 [label="5|a", shape=record, style=rounded];
6 [label="6|b", shape=record, style=rounded];
7 [label="7|b", shape=record, style=rounded];
8 [label="8|a", shape=record, style=rounded];
9 [label="9|b", shape=record, style=rounded];
0 -> 5  [label="x"];
0 -> 2  [label="y"];
0 -> 9  [label="z"];
1 -> 8  [label="z"];
1 -> 0  [label="x"];
1 -> 4  [label="y"];
2 -> 8  [label="x"];
2 -> 8  [label="y"];
2 -> 0  [label="z"];
3 -> 2  [label="x"];
3 -> 2  [label="y"];
3 -> 0  [label="z"];
4 -> 6  [label="x"];
4 -> 7  [label="y"];
4 -> 3  [label="z"];
5 -> 8  [label="x"];
5 -> 7  [label="y"];
5 -> 6  [label="z"];
6 -> 0  [label="x"];
6 -> 5  [label="y"];
6 -> 4  [label="z"];
7 -> 0  [label="x"];
7 -> 3  [label="y"];
7 -> 9  [label="z"];
8 -> 2  [label="y"];
8 -> 2  [label="z"];
8 -> 5  [label="x"];
9 -> 5  [label="x"];
9 -> 2  [label="y"];
9 -> 4  [label="z"];
__start0 [label="", shape=none];
__start0 -> 1  [label=""];
}
