digraph "benchmarks-true-state-lstar-3seeds/n_states=9-n_outputs=2-glitch_percent=0.1/9c2f9cd4611c8d1b0f2d2cd5193d5486/pmsatLearned-N9" {
0 [label="0|a", shape=record, style=rounded];
1 [label="1|b", shape=record, style=rounded];
2 [label="2|b", shape=record, style=rounded];
3 [label="3|b", shape=record, style=rounded];
4 [label="4|a", shape=record, style=rounded];
5 [label="5|b", shape=record, style=rounded];
6 [label="6|a", shape=record, style=rounded];
7 [label="7|b", shape=record, style=rounded];
8 [label="8|a", shape=record, style=rounded];
0 -> 3  [label="z"];
0 -> 1  [label="y"];
0 -> 5  [label="x"];
1 -> 6  [label="x"];
1 -> 8  [label="y"];
1 -> 6  [label="z"];
2 -> 4  [label="y"];
2 -> 5  [label="z"];
2 -> 7  [label="x"];
3 -> 5  [label="x"];
3 -> 3  [label="y"];
3 -> 7  [label="z"];
4 -> 3  [label="y"];
4 -> 8  [label="z"];
4 -> 4  [label="x"];
5 -> 2  [label="x"];
5 -> 4  [label="y"];
5 -> 7  [label="z"];
6 -> 7  [label="x"];
6 -> 2  [label="y"];
6 -> 3  [label="z"];
7 -> 0  [label="x"];
7 -> 4  [label="y"];
7 -> 1  [label="z"];
8 -> 4  [label="x"];
8 -> 8  [label="y"];
8 -> 6  [label="z"];
__start0 [label="", shape=none];
__start0 -> 0  [label=""];
}
