digraph "benchmarks-true-state-lstar-rc10seeds/n_states=8-n_outputs=3-glitch_percent=0.0/5f5ccfda2aa0cac0a24537557a73ef7f/pmsatLearned_NOP-N8-STOC" {
0 [label="0|c", shape=record, style=rounded];
1 [label="1|c", shape=record, style=rounded];
2 [label="2|c", shape=record, style=rounded];
3 [label="3|c", shape=record, style=rounded];
4 [label="4|a", shape=record, style=rounded];
5 [label="5|a", shape=record, style=rounded];
6 [label="6|b", shape=record, style=rounded];
7 [label="7|a", shape=record, style=rounded];
0 -> 5  [label="x (7)"];
0 -> 2  [label="y (7)"];
0 -> 5  [label="z (7)"];
1 -> 7  [label="z (17)"];
1 -> 2  [label="y (29)"];
1 -> 3  [label="x (53)"];
2 -> 6  [label="x (22)"];
2 -> 0  [label="y (10)"];
2 -> 7  [label="z (10)"];
3 -> 0  [label="x (17)"];
3 -> 4  [label="y (17)"];
3 -> 5  [label="z (17)"];
4 -> 7  [label="x (5)"];
4 -> 0  [label="y (5)"];
4 -> 2  [label="z (5)"];
5 -> 2  [label="x (9)"];
5 -> 2  [label="y (9)"];
5 -> 7  [label="z (9)"];
6 -> 5  [label="x (7)"];
6 -> 2  [label="y (7)"];
6 -> 7  [label="z (7)"];
7 -> 6  [label="x (9)"];
7 -> 6  [label="y (9)"];
7 -> 5  [label="z (9)"];
__start0 [label="", shape=none];
__start0 -> 1  [label=""];
}
