digraph "benchmarks-true-state-lstar-3seeds/n_states=5-n_outputs=3-glitch_percent=0.05/856d1d20024b102dccd79cd22b58b782/alergiaLearned" {
q0 [label="c"];
q1 [label="b"];
q2 [label="c"];
q3 [label="a"];
q0 -> q1  [label="z:0.9523809523809523"];
q0 -> q0  [label="z:0.047619047619047616"];
q0 -> q2  [label="y:0.9444444444444444"];
q0 -> q1  [label="y:0.05555555555555555"];
q0 -> q2  [label="x:0.967741935483871"];
q0 -> q3  [label="x:0.03225806451612903"];
q1 -> q1  [label="x:1.0"];
q1 -> q0  [label="y:1.0"];
q1 -> q3  [label="z:1.0"];
q2 -> q3  [label="x:1.0"];
q2 -> q1  [label="y:0.4444444444444444"];
q2 -> q0  [label="y:0.5555555555555556"];
q2 -> q3  [label="z:0.5555555555555556"];
q2 -> q0  [label="z:0.4444444444444444"];
q3 -> q0  [label="x:1.0"];
q3 -> q1  [label="y:1.0"];
q3 -> q3  [label="z:1.0"];
__start0 [label="", shape=none];
__start0 -> q0  [label=""];
}
