digraph "pmsatLearned-N8-STOC" {
0 [label="0|a", shape=record, style=rounded];
1 [label="1|b", shape=record, style=rounded];
2 [label="2|c", shape=record, style=rounded];
3 [label="3|d", shape=record, style=rounded];
4 [label="4|c", shape=record, style=rounded];
5 [label="5|c", shape=record, style=rounded];
6 [label="6|a", shape=record, style=rounded];
7 [label="7|a", shape=record, style=rounded];
0 -> 4  [label="x (8)"];
0 -> 4  [label="y (11)"];
0 -> 2  [label="z (16)"];
1 -> 7  [label="x (26)"];
1 -> 1  [label="y (22)"];
1 -> 4  [label="z (24)"];
1 -> 3  [label="!z [1]"];
2 -> 6  [label="z (56)"];
2 -> 4  [label="y (60)"];
2 -> 3  [label="x (89)"];
2 -> 0  [label="!y [1]"];
2 -> 1  [label="!x [1]"];
3 -> 5  [label="x (47)"];
3 -> 0  [label="y (43)"];
3 -> 7  [label="z (44)"];
3 -> 3  [label="!x [1]"];
3 -> 4  [label="!y [1]"];
4 -> 1  [label="x (47)"];
4 -> 6  [label="y (29)"];
4 -> 3  [label="z (36)"];
5 -> 7  [label="x (17)"];
5 -> 4  [label="y (27)"];
5 -> 1  [label="z (20)"];
6 -> 2  [label="x (24)"];
6 -> 7  [label="y (16)"];
6 -> 7  [label="z (25)"];
7 -> 3  [label="x (30)"];
7 -> 2  [label="y (42)"];
7 -> 5  [label="z (29)"];
7 -> 6  [label="!x [1]"];
7 -> 0  [label="!y [1]"];
__start0 [label="", shape=none];
__start0 -> 2  [label=""];
}
