digraph "benchmarks-true-state-lstar-3seeds/n_states=8-n_outputs=6-glitch_percent=0.0/5ce4f7d6fc4f8bf06aa6a4b5c8d3df9a/pmsatLearned-N8" {
0 [label="0|a", shape=record, style=rounded];
1 [label="1|b", shape=record, style=rounded];
2 [label="2|d", shape=record, style=rounded];
3 [label="3|e", shape=record, style=rounded];
4 [label="4|f", shape=record, style=rounded];
5 [label="5|b", shape=record, style=rounded];
6 [label="6|e", shape=record, style=rounded];
7 [label="7|d", shape=record, style=rounded];
0 -> 7  [label="x"];
0 -> 7  [label="y"];
0 -> 5  [label="z"];
1 -> 0  [label="x"];
1 -> 6  [label="y"];
1 -> 3  [label="z"];
2 -> 0  [label="z"];
2 -> 3  [label="y"];
2 -> 4  [label="x"];
3 -> 7  [label="x"];
3 -> 6  [label="y"];
3 -> 0  [label="z"];
4 -> 6  [label="x"];
4 -> 1  [label="y"];
4 -> 5  [label="z"];
5 -> 3  [label="x"];
5 -> 3  [label="y"];
5 -> 0  [label="z"];
6 -> 5  [label="x"];
6 -> 3  [label="y"];
6 -> 5  [label="z"];
7 -> 5  [label="x"];
7 -> 3  [label="y"];
7 -> 0  [label="z"];
__start0 [label="", shape=none];
__start0 -> 2  [label=""];
}
