digraph "benchmarks-true-state-lstar-3seeds/n_states=12-n_outputs=6-glitch_percent=0.02/9e47fa531578cef09e24bd5b6daf600b/pmsatLearned-N12" {
0 [label="0|b", shape=record, style=rounded];
1 [label="1|c", shape=record, style=rounded];
2 [label="2|d", shape=record, style=rounded];
3 [label="3|e", shape=record, style=rounded];
4 [label="4|f", shape=record, style=rounded];
5 [label="5|e", shape=record, style=rounded];
6 [label="6|f", shape=record, style=rounded];
7 [label="7|c", shape=record, style=rounded];
8 [label="8|b", shape=record, style=rounded];
9 [label="9|e", shape=record, style=rounded];
10 [label="10|b", shape=record, style=rounded];
11 [label="11|e", shape=record, style=rounded];
0 -> 8  [label="x"];
0 -> 6  [label="y"];
0 -> 11  [label="z"];
1 -> 1  [label="x"];
1 -> 7  [label="y"];
1 -> 10  [label="z"];
2 -> 7  [label="x"];
2 -> 8  [label="y"];
2 -> 7  [label="z"];
3 -> 2  [label="z"];
3 -> 10  [label="y"];
3 -> 5  [label="x"];
4 -> 10  [label="x"];
4 -> 3  [label="y"];
4 -> 0  [label="z"];
5 -> 1  [label="x"];
5 -> 6  [label="y"];
5 -> 4  [label="z"];
6 -> 9  [label="x"];
6 -> 2  [label="y"];
6 -> 10  [label="z"];
7 -> 2  [label="x"];
7 -> 3  [label="y"];
7 -> 4  [label="z"];
8 -> 6  [label="x"];
8 -> 10  [label="z"];
8 -> 2  [label="y"];
9 -> 5  [label="x"];
9 -> 6  [label="y"];
9 -> 6  [label="z"];
10 -> 0  [label="x"];
10 -> 9  [label="z"];
10 -> 11  [label="y"];
11 -> 0  [label="x"];
11 -> 11  [label="y"];
11 -> 7  [label="z"];
__start0 [label="", shape=none];
__start0 -> 3  [label=""];
}
