digraph "benchmarks-true-state-lstar-songp/n_states=12-n_outputs=5-glitch_percent=0.1-pmstrat='fm'/5dd24f9f2626f88c148a6caa3ba59b7f/pmsatLearned-N12-STOC" {
0 [label="0|a", shape=record, style=rounded];
1 [label="1|b", shape=record, style=rounded];
2 [label="2|c", shape=record, style=rounded];
3 [label="3|d", shape=record, style=rounded];
4 [label="4|e", shape=record, style=rounded];
5 [label="5|a", shape=record, style=rounded];
6 [label="6|e", shape=record, style=rounded];
7 [label="7|d", shape=record, style=rounded];
8 [label="8|e", shape=record, style=rounded];
9 [label="9|c", shape=record, style=rounded];
10 [label="10|d", shape=record, style=rounded];
11 [label="11|a", shape=record, style=rounded];
0 -> 7  [label="z (37)"];
0 -> 3  [label="!z [1]"];
0 -> 4  [label="y (51)"];
0 -> 6  [label="x (48)"];
0 -> 5  [label="!z [2]"];
0 -> 8  [label="!y [1]"];
0 -> 2  [label="!x [1]"];
0 -> 9  [label="!y [2]"];
0 -> 1  [label="!z [3]"];
1 -> 3  [label="x (10)"];
1 -> 9  [label="y (8)"];
1 -> 8  [label="z (8)"];
2 -> 7  [label="y (8)"];
2 -> 1  [label="x (7)"];
2 -> 2  [label="z (6)"];
3 -> 3  [label="x (8)"];
3 -> 4  [label="y (6)"];
3 -> 2  [label="z (7)"];
4 -> 2  [label="x (11)"];
4 -> 10  [label="y (17)"];
4 -> 5  [label="z (15)"];
4 -> 2  [label="!z [1]"];
4 -> 8  [label="!y [1]"];
4 -> 1  [label="!x [1]"];
5 -> 1  [label="x (5)"];
5 -> 0  [label="y (5)"];
5 -> 1  [label="z (4)"];
5 -> 3  [label="!z [1]"];
6 -> 8  [label="x (18)"];
6 -> 9  [label="y (14)"];
6 -> 1  [label="z (13)"];
6 -> 1  [label="!x [1]"];
7 -> 11  [label="x (17)"];
7 -> 3  [label="y (14)"];
7 -> 2  [label="z (4)"];
7 -> 1  [label="!x [2]"];
8 -> 1  [label="x (9)"];
8 -> 6  [label="z (7)"];
8 -> 3  [label="y (8)"];
9 -> 1  [label="x (5)"];
9 -> 7  [label="y (5)"];
9 -> 8  [label="z (7)"];
10 -> 0  [label="x (5)"];
10 -> 8  [label="y (6)"];
10 -> 0  [label="z (4)"];
11 -> 9  [label="x (4)"];
11 -> 2  [label="z (5)"];
11 -> 2  [label="y (3)"];
11 -> 3  [label="!y [1]"];
__start0 [label="", shape=none];
__start0 -> 0  [label=""];
}
