digraph "benchmarks-true-state-lstar-3seeds/n_states=16-n_outputs=9-glitch_percent=0.01/186156be81f7230f9b6b40b9ede5c675/pmsatLearned-N16-STOC" {
0 [label="0|b", shape=record, style=rounded];
1 [label="1|c", shape=record, style=rounded];
2 [label="2|d", shape=record, style=rounded];
3 [label="3|e", shape=record, style=rounded];
4 [label="4|f", shape=record, style=rounded];
5 [label="5|h", shape=record, style=rounded];
6 [label="6|i", shape=record, style=rounded];
7 [label="7|h", shape=record, style=rounded];
8 [label="8|b", shape=record, style=rounded];
9 [label="9|d", shape=record, style=rounded];
10 [label="10|b", shape=record, style=rounded];
11 [label="11|f", shape=record, style=rounded];
12 [label="12|i", shape=record, style=rounded];
13 [label="13|f", shape=record, style=rounded];
14 [label="14|f", shape=record, style=rounded];
15 [label="15|f", shape=record, style=rounded];
0 -> 14  [label="x (6)"];
0 -> 13  [label="y (7)"];
0 -> 7  [label="z (7)"];
1 -> 0  [label="x (5)"];
1 -> 4  [label="y (5)"];
1 -> 0  [label="z (5)"];
2 -> 8  [label="x (6)"];
2 -> 7  [label="y (6)"];
2 -> 5  [label="z (6)"];
3 -> 9  [label="x (5)"];
3 -> 13  [label="y (5)"];
3 -> 9  [label="z (5)"];
4 -> 14  [label="x (9)"];
4 -> 6  [label="y (9)"];
4 -> 15  [label="z (9)"];
5 -> 15  [label="z (55)"];
5 -> 7  [label="y (54)"];
5 -> 10  [label="x (90)"];
5 -> 6  [label="!y [1]"];
6 -> 9  [label="x (7)"];
6 -> 7  [label="y (7)"];
6 -> 4  [label="z (7)"];
7 -> 1  [label="x (21)"];
7 -> 9  [label="y (21)"];
7 -> 3  [label="z (21)"];
8 -> 5  [label="y (7)"];
8 -> 13  [label="z (7)"];
8 -> 8  [label="x (6)"];
9 -> 7  [label="x (9)"];
9 -> 4  [label="y (9)"];
9 -> 10  [label="z (9)"];
10 -> 11  [label="x (55)"];
10 -> 14  [label="z (19)"];
10 -> 12  [label="y (18)"];
11 -> 8  [label="x (18)"];
11 -> 4  [label="y (18)"];
11 -> 6  [label="z (18)"];
12 -> 6  [label="x (6)"];
12 -> 12  [label="y (6)"];
12 -> 4  [label="z (6)"];
13 -> 14  [label="x (9)"];
13 -> 2  [label="y (9)"];
13 -> 11  [label="z (9)"];
14 -> 13  [label="x (8)"];
14 -> 9  [label="y (7)"];
14 -> 10  [label="z (8)"];
15 -> 0  [label="x (17)"];
15 -> 13  [label="y (18)"];
15 -> 2  [label="z (18)"];
__start0 [label="", shape=none];
__start0 -> 5  [label=""];
}
