digraph "benchmarks-true-state-lstar-rc10seeds/n_states=13-n_outputs=7-glitch_percent=0.05/7f07ad69bc618a9c739814f8476a77de/pmsatLearned_NOP-N13-STOC" {
0 [label="0|b", shape=record, style=rounded];
1 [label="1|e", shape=record, style=rounded];
2 [label="2|g", shape=record, style=rounded];
3 [label="3|e", shape=record, style=rounded];
4 [label="4|f", shape=record, style=rounded];
5 [label="5|e", shape=record, style=rounded];
6 [label="6|b", shape=record, style=rounded];
7 [label="7|f", shape=record, style=rounded];
8 [label="8|c", shape=record, style=rounded];
9 [label="9|g", shape=record, style=rounded];
10 [label="10|d", shape=record, style=rounded];
11 [label="11|c", shape=record, style=rounded];
12 [label="12|e", shape=record, style=rounded];
0 -> 5  [label="x (18)"];
0 -> 6  [label="z (20)"];
0 -> 11  [label="y (19)"];
0 -> 7  [label="!y [1]"];
0 -> 0  [label="!x [1]"];
0 -> 3  [label="!z [1]"];
1 -> 9  [label="x (17)"];
1 -> 2  [label="y (16)"];
1 -> 12  [label="z (15)"];
2 -> 0  [label="x (6)"];
2 -> 2  [label="y (6)"];
2 -> 7  [label="z (5)"];
3 -> 0  [label="z (52)"];
3 -> 2  [label="!y [2]"];
3 -> 4  [label="y (54)"];
3 -> 1  [label="x (50)"];
3 -> 10  [label="!y [1]"];
3 -> 12  [label="!z [2]"];
3 -> 9  [label="!x [1]"];
4 -> 7  [label="x (20)"];
4 -> 8  [label="z (20)"];
4 -> 10  [label="y (18)"];
4 -> 11  [label="!x [1]"];
4 -> 1  [label="!z [1]"];
4 -> 5  [label="!y [1]"];
5 -> 4  [label="x (6)"];
5 -> 3  [label="z (4)"];
5 -> 7  [label="y (4)"];
6 -> 0  [label="x (5)"];
6 -> 12  [label="y (6)"];
6 -> 7  [label="z (6)"];
7 -> 9  [label="x (9)"];
7 -> 5  [label="y (8)"];
7 -> 4  [label="z (9)"];
8 -> 11  [label="x (5)"];
8 -> 1  [label="y (6)"];
8 -> 4  [label="z (6)"];
9 -> 11  [label="x (7)"];
9 -> 8  [label="y (7)"];
9 -> 11  [label="z (6)"];
10 -> 12  [label="x (5)"];
10 -> 9  [label="y (5)"];
10 -> 12  [label="z (4)"];
11 -> 6  [label="x (8)"];
11 -> 4  [label="y (7)"];
11 -> 7  [label="z (8)"];
12 -> 0  [label="x (8)"];
12 -> 3  [label="z (7)"];
12 -> 0  [label="y (5)"];
__start0 [label="", shape=none];
__start0 -> 3  [label=""];
}
