digraph "benchmarks-true-state-lstar-rc10seeds/n_states=14-n_outputs=7-glitch_percent=0.0/1fc7e9bdc9ab67d7b48d64287a686998/pmsatLearned_NOP-N14-STOC" {
0 [label="0|c", shape=record, style=rounded];
1 [label="1|b", shape=record, style=rounded];
2 [label="2|d", shape=record, style=rounded];
3 [label="3|d", shape=record, style=rounded];
4 [label="4|e", shape=record, style=rounded];
5 [label="5|f", shape=record, style=rounded];
6 [label="6|g", shape=record, style=rounded];
7 [label="7|a", shape=record, style=rounded];
8 [label="8|b", shape=record, style=rounded];
9 [label="9|g", shape=record, style=rounded];
10 [label="10|e", shape=record, style=rounded];
11 [label="11|a", shape=record, style=rounded];
12 [label="12|f", shape=record, style=rounded];
13 [label="13|d", shape=record, style=rounded];
0 -> 7  [label="x (11)"];
0 -> 2  [label="y (11)"];
0 -> 0  [label="z (11)"];
1 -> 12  [label="x (6)"];
1 -> 4  [label="y (6)"];
1 -> 7  [label="z (6)"];
2 -> 0  [label="x (7)"];
2 -> 2  [label="y (7)"];
2 -> 5  [label="z (7)"];
3 -> 2  [label="x (17)"];
3 -> 13  [label="y (17)"];
3 -> 10  [label="z (17)"];
4 -> 7  [label="x (7)"];
4 -> 6  [label="y (7)"];
4 -> 7  [label="z (7)"];
5 -> 3  [label="z (55)"];
5 -> 12  [label="y (55)"];
5 -> 9  [label="x (67)"];
6 -> 8  [label="x (7)"];
6 -> 0  [label="y (7)"];
6 -> 11  [label="z (7)"];
7 -> 8  [label="x (12)"];
7 -> 5  [label="y (12)"];
7 -> 13  [label="z (12)"];
8 -> 7  [label="x (7)"];
8 -> 0  [label="y (7)"];
8 -> 13  [label="z (7)"];
9 -> 11  [label="x (29)"];
9 -> 7  [label="y (17)"];
9 -> 0  [label="z (17)"];
10 -> 6  [label="x (5)"];
10 -> 12  [label="y (5)"];
10 -> 0  [label="z (5)"];
11 -> 1  [label="x (18)"];
11 -> 0  [label="y (6)"];
11 -> 7  [label="z (6)"];
12 -> 4  [label="x (19)"];
12 -> 6  [label="y (19)"];
12 -> 8  [label="z (19)"];
13 -> 1  [label="x (7)"];
13 -> 4  [label="y (7)"];
13 -> 7  [label="z (7)"];
__start0 [label="", shape=none];
__start0 -> 5  [label=""];
}
