digraph "benchmarks-true-state-lstar-songp/n_states=9-n_outputs=6-glitch_percent=0.1-pmstrat='lsu'/d865b4299bdcd278dadada571c71a7f5/alergiaLearned" {
q0 [label="a"];
q1 [label="d"];
q2 [label="c"];
q3 [label="a"];
q4 [label="f"];
q5 [label="b"];
q6 [label="c"];
q0 -> q1  [label="z:0.7272727272727273"];
q0 -> q4  [label="z:0.2727272727272727"];
q0 -> q2  [label="y:0.9767441860465116"];
q0 -> q4  [label="y:0.023255813953488372"];
q0 -> q3  [label="x:0.9038461538461539"];
q0 -> q4  [label="x:0.057692307692307696"];
q0 -> q5  [label="x:0.038461538461538464"];
q1 -> q4  [label="x:1.0"];
q1 -> q4  [label="y:1.0"];
q1 -> q4  [label="z:1.0"];
q2 -> q5  [label="x:0.8333333333333334"];
q2 -> q4  [label="x:0.16666666666666666"];
q2 -> q4  [label="y:1.0"];
q2 -> q0  [label="z:0.5714285714285714"];
q2 -> q2  [label="z:0.42857142857142855"];
q3 -> q4  [label="x:1.0"];
q3 -> q4  [label="z:0.9166666666666666"];
q3 -> q1  [label="z:0.08333333333333333"];
q3 -> q6  [label="y:1.0"];
q4 -> q0  [label="y:0.3888888888888889"];
q4 -> q4  [label="y:0.3888888888888889"];
q4 -> q2  [label="y:0.2222222222222222"];
q4 -> q4  [label="z:0.7894736842105263"];
q4 -> q2  [label="z:0.21052631578947367"];
q4 -> q4  [label="x:0.29411764705882354"];
q4 -> q1  [label="x:0.47058823529411764"];
q4 -> q0  [label="x:0.23529411764705882"];
q5 -> q4  [label="y:1.0"];
q5 -> q4  [label="x:1.0"];
q5 -> q0  [label="z:1.0"];
q6 -> q4  [label="x:1.0"];
q6 -> q2  [label="z:1.0"];
q6 -> q4  [label="y:1.0"];
__start0 [label="", shape=none];
__start0 -> q0  [label=""];
}
