digraph "benchmarks-true-state-lstar-3seeds/n_states=11-n_outputs=5-glitch_percent=0.05/fefd8a859e83122cd6fd16800c96ce45/rpniGroundTruth" {
s0 [label="s0|d", shape=record, style=rounded];
s1 [label="s1|d", shape=record, style=rounded];
s2 [label="s2|c", shape=record, style=rounded];
s3 [label="s3|c", shape=record, style=rounded];
s4 [label="s4|b", shape=record, style=rounded];
s5 [label="s5|c", shape=record, style=rounded];
s6 [label="s6|e", shape=record, style=rounded];
s7 [label="s7|b", shape=record, style=rounded];
s8 [label="s8|e", shape=record, style=rounded];
s9 [label="s9|c", shape=record, style=rounded];
s10 [label="s10|a", shape=record, style=rounded];
s0 -> s1  [label="y"];
s0 -> s2  [label="z"];
s0 -> s3  [label="x"];
s1 -> s4  [label="y"];
s1 -> s5  [label="z"];
s1 -> s6  [label="x"];
s2 -> s7  [label="z"];
s2 -> s7  [label="x"];
s2 -> s5  [label="y"];
s3 -> s8  [label="x"];
s3 -> s9  [label="y"];
s3 -> s10  [label="z"];
s4 -> s9  [label="z"];
s4 -> s10  [label="y"];
s4 -> s1  [label="x"];
s5 -> s4  [label="x"];
s5 -> s6  [label="y"];
s5 -> s1  [label="z"];
s6 -> s0  [label="x"];
s6 -> s4  [label="y"];
s6 -> s5  [label="z"];
s7 -> s3  [label="z"];
s7 -> s6  [label="y"];
s7 -> s7  [label="x"];
s8 -> s7  [label="x"];
s8 -> s8  [label="z"];
s8 -> s10  [label="y"];
s9 -> s9  [label="x"];
s9 -> s7  [label="z"];
s9 -> s9  [label="y"];
s10 -> s5  [label="x"];
s10 -> s10  [label="z"];
s10 -> s8  [label="y"];
__start0 [label="", shape=none];
__start0 -> s0  [label=""];
}
