digraph "pmsatLearned-N7-STOC" {
0 [label="0|a", shape=record, style=rounded];
1 [label="1|b", shape=record, style=rounded];
2 [label="2|c", shape=record, style=rounded];
3 [label="3|d", shape=record, style=rounded];
4 [label="4|e", shape=record, style=rounded];
5 [label="5|d", shape=record, style=rounded];
6 [label="6|a", shape=record, style=rounded];
0 -> 4  [label="x (18)"];
0 -> 5  [label="y (20)"];
0 -> 2  [label="z (19)"];
1 -> 6  [label="z (18)"];
1 -> 5  [label="!z [1]"];
1 -> 3  [label="y (19)"];
1 -> 0  [label="x (55)"];
2 -> 4  [label="x (8)"];
2 -> 0  [label="y (8)"];
2 -> 1  [label="z (8)"];
3 -> 5  [label="x (6)"];
3 -> 2  [label="y (7)"];
3 -> 2  [label="z (7)"];
4 -> 1  [label="x (6)"];
4 -> 3  [label="y (5)"];
4 -> 2  [label="z (6)"];
4 -> 3  [label="!x [1]"];
5 -> 0  [label="!z [1]"];
5 -> 6  [label="x (9)"];
5 -> 3  [label="y (9)"];
5 -> 5  [label="z (9)"];
5 -> 4  [label="!x [1]"];
6 -> 0  [label="x (6)"];
6 -> 5  [label="y (6)"];
6 -> 5  [label="z (5)"];
__start0 [label="", shape=none];
__start0 -> 1  [label=""];
}
