digraph "benchmarks-true-state-lstar-rc10seeds/n_states=9-n_outputs=9-glitch_percent=0.0/334f5c7c3efa34c5ed915b07be8e756a/pmsatLearned_NOP-N9" {
0 [label="0|h", shape=record, style=rounded];
1 [label="1|g", shape=record, style=rounded];
2 [label="2|f", shape=record, style=rounded];
3 [label="3|b", shape=record, style=rounded];
4 [label="4|f", shape=record, style=rounded];
5 [label="5|i", shape=record, style=rounded];
6 [label="6|e", shape=record, style=rounded];
7 [label="7|i", shape=record, style=rounded];
8 [label="8|g", shape=record, style=rounded];
0 -> 1  [label="x"];
0 -> 4  [label="y"];
0 -> 4  [label="z"];
1 -> 4  [label="x"];
1 -> 1  [label="y"];
1 -> 7  [label="z"];
2 -> 3  [label="z"];
2 -> 4  [label="y"];
2 -> 5  [label="x"];
3 -> 1  [label="x"];
3 -> 2  [label="y"];
3 -> 4  [label="z"];
4 -> 0  [label="x"];
4 -> 1  [label="y"];
4 -> 5  [label="z"];
5 -> 6  [label="x"];
5 -> 8  [label="y"];
5 -> 7  [label="z"];
6 -> 6  [label="x"];
6 -> 7  [label="y"];
6 -> 7  [label="z"];
7 -> 5  [label="x"];
7 -> 7  [label="y"];
7 -> 2  [label="z"];
8 -> 1  [label="x"];
8 -> 1  [label="y"];
8 -> 4  [label="z"];
__start0 [label="", shape=none];
__start0 -> 2  [label=""];
}
