digraph "benchmarks-true-state-lstar-rc10seeds/n_states=13-n_outputs=3-glitch_percent=0.01/4e4c345815f53828c15bc7c3bbb6d431/pmsatLearned_NOP-N13-STOC" {
0 [label="0|c", shape=record, style=rounded];
1 [label="1|c", shape=record, style=rounded];
2 [label="2|c", shape=record, style=rounded];
3 [label="3|c", shape=record, style=rounded];
4 [label="4|b", shape=record, style=rounded];
5 [label="5|a", shape=record, style=rounded];
6 [label="6|a", shape=record, style=rounded];
7 [label="7|b", shape=record, style=rounded];
8 [label="8|c", shape=record, style=rounded];
9 [label="9|a", shape=record, style=rounded];
10 [label="10|a", shape=record, style=rounded];
11 [label="11|c", shape=record, style=rounded];
12 [label="12|b", shape=record, style=rounded];
0 -> 12  [label="x (10)"];
0 -> 0  [label="y (11)"];
0 -> 11  [label="z (8)"];
1 -> 10  [label="x (10)"];
1 -> 3  [label="y (12)"];
1 -> 4  [label="z (9)"];
2 -> 8  [label="z (86)"];
2 -> 10  [label="y (87)"];
2 -> 9  [label="x (84)"];
2 -> 9  [label="!z [1]"];
2 -> 1  [label="!x [1]"];
3 -> 12  [label="x (22)"];
3 -> 7  [label="y (16)"];
3 -> 12  [label="z (9)"];
4 -> 3  [label="x (15)"];
4 -> 9  [label="y (29)"];
4 -> 3  [label="z (11)"];
5 -> 10  [label="x (14)"];
5 -> 10  [label="y (8)"];
5 -> 2  [label="z (8)"];
5 -> 4  [label="!y [1]"];
6 -> 9  [label="x (17)"];
6 -> 6  [label="y (12)"];
6 -> 11  [label="z (8)"];
7 -> 5  [label="x (10)"];
7 -> 1  [label="y (17)"];
7 -> 4  [label="z (8)"];
8 -> 11  [label="x (35)"];
8 -> 12  [label="y (28)"];
8 -> 1  [label="z (26)"];
8 -> 12  [label="!z [1]"];
9 -> 3  [label="x (38)"];
9 -> 7  [label="y (35)"];
9 -> 5  [label="z (27)"];
10 -> 6  [label="x (39)"];
10 -> 4  [label="y (36)"];
10 -> 0  [label="z (28)"];
11 -> 11  [label="x (23)"];
11 -> 4  [label="y (24)"];
11 -> 2  [label="z (11)"];
12 -> 8  [label="x (21)"];
12 -> 11  [label="y (17)"];
12 -> 4  [label="z (9)"];
__start0 [label="", shape=none];
__start0 -> 2  [label=""];
}
