digraph "benchmarks-true-state-lstar-rc10seeds/n_states=10-n_outputs=8-glitch_percent=0.01/b6a1e61ead17a245e96011b6dc3d6823/pmsatLearned_NOP-N10" {
0 [label="0|a", shape=record, style=rounded];
1 [label="1|h", shape=record, style=rounded];
2 [label="2|d", shape=record, style=rounded];
3 [label="3|c", shape=record, style=rounded];
4 [label="4|f", shape=record, style=rounded];
5 [label="5|h", shape=record, style=rounded];
6 [label="6|c", shape=record, style=rounded];
7 [label="7|f", shape=record, style=rounded];
8 [label="8|h", shape=record, style=rounded];
9 [label="9|a", shape=record, style=rounded];
0 -> 8  [label="x"];
0 -> 3  [label="y"];
0 -> 9  [label="z"];
1 -> 3  [label="x"];
1 -> 7  [label="y"];
1 -> 8  [label="z"];
2 -> 7  [label="z"];
2 -> 5  [label="y"];
2 -> 0  [label="x"];
3 -> 9  [label="x"];
3 -> 2  [label="y"];
3 -> 0  [label="z"];
4 -> 4  [label="x"];
4 -> 9  [label="y"];
4 -> 9  [label="z"];
5 -> 4  [label="x"];
5 -> 1  [label="y"];
5 -> 6  [label="z"];
6 -> 2  [label="x"];
6 -> 3  [label="y"];
6 -> 3  [label="z"];
7 -> 8  [label="x"];
7 -> 8  [label="y"];
7 -> 0  [label="z"];
8 -> 4  [label="x"];
8 -> 0  [label="y"];
8 -> 4  [label="z"];
9 -> 1  [label="x"];
9 -> 8  [label="y"];
9 -> 5  [label="z"];
__start0 [label="", shape=none];
__start0 -> 2  [label=""];
}
