digraph "benchmarks-true-state-lstar-rc10seeds/n_states=9-n_outputs=4-glitch_percent=0.0/7d5e2615802eacfdea102c56bfd50dfa/pmsatLearned_NOP-N9-STOC" {
0 [label="0|d", shape=record, style=rounded];
1 [label="1|b", shape=record, style=rounded];
2 [label="2|d", shape=record, style=rounded];
3 [label="3|b", shape=record, style=rounded];
4 [label="4|a", shape=record, style=rounded];
5 [label="5|c", shape=record, style=rounded];
6 [label="6|d", shape=record, style=rounded];
7 [label="7|a", shape=record, style=rounded];
8 [label="8|c", shape=record, style=rounded];
0 -> 2  [label="x (6)"];
0 -> 4  [label="y (6)"];
0 -> 5  [label="z (6)"];
1 -> 5  [label="z (18)"];
1 -> 6  [label="y (42)"];
1 -> 8  [label="x (54)"];
2 -> 1  [label="x (8)"];
2 -> 4  [label="y (8)"];
2 -> 6  [label="z (8)"];
3 -> 2  [label="x (7)"];
3 -> 0  [label="y (7)"];
3 -> 5  [label="z (7)"];
4 -> 4  [label="x (8)"];
4 -> 5  [label="y (8)"];
4 -> 7  [label="z (8)"];
5 -> 8  [label="x (8)"];
5 -> 8  [label="y (8)"];
5 -> 2  [label="z (8)"];
6 -> 3  [label="x (18)"];
6 -> 7  [label="y (18)"];
6 -> 3  [label="z (6)"];
7 -> 7  [label="x (8)"];
7 -> 7  [label="y (8)"];
7 -> 3  [label="z (8)"];
8 -> 0  [label="x (19)"];
8 -> 4  [label="y (19)"];
8 -> 2  [label="z (19)"];
__start0 [label="", shape=none];
__start0 -> 1  [label=""];
}
