digraph "benchmarks-true-state-lstar-3seeds/n_states=16-n_outputs=8-glitch_percent=0.0/9f9ce41cb0ecadcddeb09b063da97354/pmsatLearned-N16" {
0 [label="0|a", shape=record, style=rounded];
1 [label="1|b", shape=record, style=rounded];
2 [label="2|c", shape=record, style=rounded];
3 [label="3|d", shape=record, style=rounded];
4 [label="4|e", shape=record, style=rounded];
5 [label="5|f", shape=record, style=rounded];
6 [label="6|g", shape=record, style=rounded];
7 [label="7|h", shape=record, style=rounded];
8 [label="8|f", shape=record, style=rounded];
9 [label="9|e", shape=record, style=rounded];
10 [label="10|a", shape=record, style=rounded];
11 [label="11|g", shape=record, style=rounded];
12 [label="12|a", shape=record, style=rounded];
13 [label="13|b", shape=record, style=rounded];
14 [label="14|f", shape=record, style=rounded];
15 [label="15|a", shape=record, style=rounded];
0 -> 10  [label="x"];
0 -> 0  [label="y"];
0 -> 2  [label="z"];
1 -> 13  [label="z"];
1 -> 14  [label="y"];
1 -> 8  [label="x"];
2 -> 7  [label="x"];
2 -> 11  [label="y"];
2 -> 5  [label="z"];
3 -> 8  [label="x"];
3 -> 10  [label="y"];
3 -> 4  [label="z"];
4 -> 12  [label="x"];
4 -> 14  [label="y"];
4 -> 7  [label="z"];
5 -> 3  [label="x"];
5 -> 5  [label="y"];
5 -> 14  [label="z"];
6 -> 15  [label="x"];
6 -> 11  [label="y"];
6 -> 10  [label="z"];
7 -> 15  [label="x"];
7 -> 2  [label="y"];
7 -> 14  [label="z"];
8 -> 11  [label="x"];
8 -> 15  [label="y"];
8 -> 3  [label="z"];
9 -> 10  [label="x"];
9 -> 10  [label="y"];
9 -> 9  [label="z"];
10 -> 1  [label="x"];
10 -> 12  [label="y"];
10 -> 11  [label="z"];
11 -> 6  [label="x"];
11 -> 4  [label="y"];
11 -> 0  [label="z"];
12 -> 2  [label="x"];
12 -> 1  [label="y"];
12 -> 8  [label="z"];
13 -> 10  [label="x"];
13 -> 2  [label="y"];
13 -> 5  [label="z"];
14 -> 7  [label="x"];
14 -> 9  [label="y"];
14 -> 12  [label="z"];
15 -> 11  [label="x"];
15 -> 2  [label="y"];
15 -> 15  [label="z"];
__start0 [label="", shape=none];
__start0 -> 1  [label=""];
}
