digraph "benchmarks-true-state-lstar-songp/n_states=17-n_outputs=3-glitch_percent=0.02-pmstrat='rc2'/ac0ad5a95f84201ee6a8bbcb5260554f/pmsatLearned-N17" {
0 [label="0|a", shape=record, style=rounded];
1 [label="1|b", shape=record, style=rounded];
2 [label="2|c", shape=record, style=rounded];
3 [label="3|b", shape=record, style=rounded];
4 [label="4|c", shape=record, style=rounded];
5 [label="5|a", shape=record, style=rounded];
6 [label="6|b", shape=record, style=rounded];
7 [label="7|b", shape=record, style=rounded];
8 [label="8|c", shape=record, style=rounded];
9 [label="9|a", shape=record, style=rounded];
10 [label="10|b", shape=record, style=rounded];
11 [label="11|b", shape=record, style=rounded];
12 [label="12|c", shape=record, style=rounded];
13 [label="13|a", shape=record, style=rounded];
14 [label="14|c", shape=record, style=rounded];
15 [label="15|c", shape=record, style=rounded];
16 [label="16|c", shape=record, style=rounded];
0 -> 15  [label="z"];
0 -> 8  [label="y"];
0 -> 14  [label="x"];
1 -> 1  [label="x"];
1 -> 6  [label="y"];
1 -> 1  [label="z"];
2 -> 1  [label="x"];
2 -> 9  [label="y"];
2 -> 4  [label="z"];
3 -> 3  [label="y"];
3 -> 5  [label="x"];
3 -> 6  [label="z"];
4 -> 2  [label="x"];
4 -> 9  [label="y"];
4 -> 10  [label="z"];
5 -> 15  [label="x"];
5 -> 5  [label="y"];
5 -> 6  [label="z"];
6 -> 2  [label="x"];
6 -> 8  [label="y"];
6 -> 1  [label="z"];
7 -> 15  [label="y"];
7 -> 2  [label="x"];
7 -> 9  [label="z"];
8 -> 9  [label="x"];
8 -> 1  [label="y"];
8 -> 11  [label="z"];
9 -> 14  [label="x"];
9 -> 2  [label="y"];
9 -> 1  [label="z"];
10 -> 12  [label="x"];
10 -> 6  [label="y"];
10 -> 3  [label="z"];
11 -> 6  [label="x"];
11 -> 5  [label="z"];
11 -> 10  [label="y"];
12 -> 4  [label="x"];
12 -> 6  [label="y"];
12 -> 11  [label="z"];
13 -> 8  [label="x"];
13 -> 8  [label="y"];
13 -> 15  [label="z"];
14 -> 10  [label="x"];
14 -> 16  [label="y"];
14 -> 5  [label="z"];
15 -> 2  [label="y"];
15 -> 13  [label="z"];
15 -> 7  [label="x"];
16 -> 4  [label="x"];
16 -> 14  [label="z"];
16 -> 11  [label="y"];
__start0 [label="", shape=none];
__start0 -> 0  [label=""];
}
