digraph "benchmarks-true-state-lstar-rc10seeds/n_states=12-n_outputs=6-glitch_percent=0.0/29d54253a292f2d00800750ea8e7b3cf/pmsatLearned_NOP-N12" {
0 [label="0|b", shape=record, style=rounded];
1 [label="1|f", shape=record, style=rounded];
2 [label="2|a", shape=record, style=rounded];
3 [label="3|e", shape=record, style=rounded];
4 [label="4|b", shape=record, style=rounded];
5 [label="5|b", shape=record, style=rounded];
6 [label="6|e", shape=record, style=rounded];
7 [label="7|d", shape=record, style=rounded];
8 [label="8|e", shape=record, style=rounded];
9 [label="9|a", shape=record, style=rounded];
10 [label="10|e", shape=record, style=rounded];
11 [label="11|e", shape=record, style=rounded];
0 -> 5  [label="z"];
0 -> 3  [label="y"];
0 -> 7  [label="x"];
1 -> 2  [label="x"];
1 -> 5  [label="y"];
1 -> 8  [label="z"];
2 -> 9  [label="x"];
2 -> 11  [label="y"];
2 -> 11  [label="z"];
3 -> 1  [label="x"];
3 -> 8  [label="y"];
3 -> 6  [label="z"];
4 -> 7  [label="x"];
4 -> 8  [label="y"];
4 -> 4  [label="z"];
5 -> 11  [label="x"];
5 -> 4  [label="y"];
5 -> 1  [label="z"];
6 -> 4  [label="x"];
6 -> 5  [label="y"];
6 -> 11  [label="z"];
7 -> 9  [label="x"];
7 -> 2  [label="y"];
7 -> 10  [label="z"];
8 -> 7  [label="x"];
8 -> 1  [label="y"];
8 -> 3  [label="z"];
9 -> 2  [label="x"];
9 -> 11  [label="y"];
9 -> 0  [label="z"];
10 -> 7  [label="x"];
10 -> 11  [label="y"];
10 -> 2  [label="z"];
11 -> 2  [label="x"];
11 -> 10  [label="y"];
11 -> 9  [label="z"];
__start0 [label="", shape=none];
__start0 -> 0  [label=""];
}
