digraph "benchmarks-true-state-lstar-rc10seeds/n_states=6-n_outputs=4-glitch_percent=0.02/0081d04b6e5d93bb8d881788762e8764/pmsatLearned_NOP-N6-STOC" {
0 [label="0|d", shape=record, style=rounded];
1 [label="1|c", shape=record, style=rounded];
2 [label="2|d", shape=record, style=rounded];
3 [label="3|a", shape=record, style=rounded];
4 [label="4|c", shape=record, style=rounded];
5 [label="5|c", shape=record, style=rounded];
0 -> 0  [label="x (6)"];
0 -> 2  [label="y (7)"];
0 -> 5  [label="z (7)"];
1 -> 0  [label="z (20)"];
1 -> 4  [label="y (20)"];
1 -> 5  [label="x (44)"];
2 -> 4  [label="x (6)"];
2 -> 2  [label="y (7)"];
2 -> 3  [label="z (6)"];
3 -> 4  [label="x (6)"];
3 -> 1  [label="y (6)"];
3 -> 0  [label="z (6)"];
4 -> 4  [label="x (8)"];
4 -> 1  [label="y (8)"];
4 -> 1  [label="z (7)"];
5 -> 3  [label="x (19)"];
5 -> 2  [label="y (19)"];
5 -> 5  [label="z (7)"];
__start0 [label="", shape=none];
__start0 -> 1  [label=""];
}
