digraph "benchmarks-true-state-lstar-3seeds/n_states=15-n_outputs=8-glitch_percent=0.0/fbff2769ed352e2a6308fb1b0a228691/RealModel" {
s1 [label="s1|e", shape=record, style=rounded];
s2 [label="s2|g", shape=record, style=rounded];
s3 [label="s3|h", shape=record, style=rounded];
s4 [label="s4|e", shape=record, style=rounded];
s5 [label="s5|b", shape=record, style=rounded];
s6 [label="s6|e", shape=record, style=rounded];
s7 [label="s7|f", shape=record, style=rounded];
s8 [label="s8|a", shape=record, style=rounded];
s9 [label="s9|b", shape=record, style=rounded];
s10 [label="s10|h", shape=record, style=rounded];
s11 [label="s11|a", shape=record, style=rounded];
s12 [label="s12|b", shape=record, style=rounded];
s13 [label="s13|e", shape=record, style=rounded];
s14 [label="s14|b", shape=record, style=rounded];
s15 [label="s15|e", shape=record, style=rounded];
s1 -> s15  [label="x"];
s1 -> s13  [label="y"];
s1 -> s12  [label="z"];
s2 -> s9  [label="x"];
s2 -> s3  [label="y"];
s2 -> s10  [label="z"];
s3 -> s11  [label="x"];
s3 -> s9  [label="y"];
s3 -> s14  [label="z"];
s4 -> s1  [label="x"];
s4 -> s15  [label="y"];
s4 -> s1  [label="z"];
s5 -> s2  [label="x"];
s5 -> s1  [label="y"];
s5 -> s13  [label="z"];
s6 -> s3  [label="x"];
s6 -> s6  [label="y"];
s6 -> s5  [label="z"];
s7 -> s6  [label="x"];
s7 -> s13  [label="y"];
s7 -> s12  [label="z"];
s8 -> s6  [label="x"];
s8 -> s6  [label="y"];
s8 -> s13  [label="z"];
s9 -> s15  [label="x"];
s9 -> s12  [label="y"];
s9 -> s9  [label="z"];
s10 -> s7  [label="x"];
s10 -> s12  [label="y"];
s10 -> s15  [label="z"];
s11 -> s6  [label="x"];
s11 -> s2  [label="y"];
s11 -> s7  [label="z"];
s12 -> s5  [label="x"];
s12 -> s8  [label="y"];
s12 -> s10  [label="z"];
s13 -> s6  [label="x"];
s13 -> s7  [label="y"];
s13 -> s11  [label="z"];
s14 -> s7  [label="x"];
s14 -> s3  [label="y"];
s14 -> s12  [label="z"];
s15 -> s2  [label="x"];
s15 -> s14  [label="y"];
s15 -> s4  [label="z"];
__start0 [label="", shape=none];
__start0 -> s1  [label=""];
}
