digraph "benchmarks-true-state-lstar-rc10seeds/n_states=10-n_outputs=5-glitch_percent=0.05/2ca6a589f969b9418db25a44374ef4d7/pmsatLearned_NOP-N10" {
0 [label="0|d", shape=record, style=rounded];
1 [label="1|d", shape=record, style=rounded];
2 [label="2|a", shape=record, style=rounded];
3 [label="3|d", shape=record, style=rounded];
4 [label="4|e", shape=record, style=rounded];
5 [label="5|b", shape=record, style=rounded];
6 [label="6|e", shape=record, style=rounded];
7 [label="7|a", shape=record, style=rounded];
8 [label="8|c", shape=record, style=rounded];
9 [label="9|e", shape=record, style=rounded];
0 -> 6  [label="x"];
0 -> 0  [label="y"];
0 -> 0  [label="z"];
1 -> 9  [label="x"];
1 -> 1  [label="y"];
1 -> 3  [label="z"];
2 -> 6  [label="x"];
2 -> 3  [label="y"];
2 -> 6  [label="z"];
3 -> 1  [label="x"];
3 -> 8  [label="y"];
3 -> 7  [label="z"];
4 -> 2  [label="z"];
4 -> 3  [label="y"];
4 -> 6  [label="x"];
5 -> 8  [label="y"];
5 -> 4  [label="z"];
5 -> 2  [label="x"];
6 -> 0  [label="x"];
6 -> 9  [label="y"];
6 -> 5  [label="z"];
7 -> 8  [label="x"];
7 -> 3  [label="y"];
7 -> 6  [label="z"];
8 -> 5  [label="x"];
8 -> 2  [label="y"];
8 -> 8  [label="z"];
9 -> 9  [label="x"];
9 -> 2  [label="y"];
9 -> 9  [label="z"];
__start0 [label="", shape=none];
__start0 -> 4  [label=""];
}
