digraph "benchmarks-true-state-lstar-3seeds/n_states=9-n_outputs=8-glitch_percent=0.0/99f20361e67d61dfd460e74d6a437522/pmsatLearned-N9-STOC" {
0 [label="0|a", shape=record, style=rounded];
1 [label="1|b", shape=record, style=rounded];
2 [label="2|e", shape=record, style=rounded];
3 [label="3|f", shape=record, style=rounded];
4 [label="4|g", shape=record, style=rounded];
5 [label="5|h", shape=record, style=rounded];
6 [label="6|g", shape=record, style=rounded];
7 [label="7|g", shape=record, style=rounded];
8 [label="8|f", shape=record, style=rounded];
0 -> 2  [label="x (9)"];
0 -> 0  [label="y (9)"];
0 -> 5  [label="z (9)"];
1 -> 7  [label="x (5)"];
1 -> 5  [label="y (5)"];
1 -> 5  [label="z (5)"];
2 -> 0  [label="x (10)"];
2 -> 2  [label="y (10)"];
2 -> 2  [label="z (10)"];
3 -> 1  [label="z (19)"];
3 -> 7  [label="y (43)"];
3 -> 4  [label="x (55)"];
4 -> 6  [label="x (18)"];
4 -> 5  [label="y (18)"];
4 -> 2  [label="z (18)"];
5 -> 4  [label="x (10)"];
5 -> 5  [label="y (10)"];
5 -> 3  [label="z (10)"];
6 -> 0  [label="x (6)"];
6 -> 0  [label="y (6)"];
6 -> 2  [label="z (6)"];
7 -> 0  [label="x (18)"];
7 -> 8  [label="y (18)"];
7 -> 2  [label="z (6)"];
8 -> 5  [label="x (5)"];
8 -> 3  [label="y (5)"];
8 -> 6  [label="z (5)"];
__start0 [label="", shape=none];
__start0 -> 3  [label=""];
}
