digraph "benchmarks-true-state-lstar-3seeds/n_states=8-n_outputs=6-glitch_percent=0.0/1859fce2daaf4eb0d3a2032f321b28d6/rpniGroundTruth" {
s0 [label="s0|d", shape=record, style=rounded];
s1 [label="s1|b", shape=record, style=rounded];
s2 [label="s2|d", shape=record, style=rounded];
s3 [label="s3|c", shape=record, style=rounded];
s4 [label="s4|f", shape=record, style=rounded];
s5 [label="s5|f", shape=record, style=rounded];
s6 [label="s6|c", shape=record, style=rounded];
s7 [label="s7|c", shape=record, style=rounded];
s0 -> s1  [label="z"];
s0 -> s2  [label="y"];
s0 -> s3  [label="x"];
s1 -> s4  [label="y"];
s1 -> s5  [label="z"];
s1 -> s4  [label="x"];
s2 -> s4  [label="y"];
s2 -> s3  [label="z"];
s2 -> s4  [label="x"];
s3 -> s6  [label="z"];
s3 -> s5  [label="x"];
s3 -> s7  [label="y"];
s4 -> s4  [label="y"];
s4 -> s1  [label="z"];
s4 -> s5  [label="x"];
s5 -> s3  [label="y"];
s5 -> s5  [label="x"];
s5 -> s4  [label="z"];
s6 -> s2  [label="y"];
s6 -> s0  [label="z"];
s6 -> s4  [label="x"];
s7 -> s2  [label="x"];
s7 -> s3  [label="z"];
s7 -> s3  [label="y"];
__start0 [label="", shape=none];
__start0 -> s0  [label=""];
}
