digraph "benchmarks-true-state-lstar-3seeds/n_states=12-n_outputs=4-glitch_percent=0.1/255427f9d9f3105bb2c8ed06c90bd859/pmsatLearned-N12" {
0 [label="0|a", shape=record, style=rounded];
1 [label="1|c", shape=record, style=rounded];
2 [label="2|d", shape=record, style=rounded];
3 [label="3|a", shape=record, style=rounded];
4 [label="4|d", shape=record, style=rounded];
5 [label="5|a", shape=record, style=rounded];
6 [label="6|d", shape=record, style=rounded];
7 [label="7|c", shape=record, style=rounded];
8 [label="8|c", shape=record, style=rounded];
9 [label="9|c", shape=record, style=rounded];
10 [label="10|a", shape=record, style=rounded];
11 [label="11|a", shape=record, style=rounded];
0 -> 9  [label="z"];
0 -> 8  [label="y"];
0 -> 8  [label="x"];
1 -> 3  [label="z"];
1 -> 2  [label="y"];
1 -> 8  [label="x"];
2 -> 11  [label="y"];
2 -> 5  [label="z"];
2 -> 9  [label="x"];
3 -> 0  [label="x"];
3 -> 10  [label="y"];
3 -> 5  [label="z"];
4 -> 9  [label="x"];
4 -> 4  [label="y"];
4 -> 6  [label="z"];
5 -> 9  [label="x"];
5 -> 4  [label="y"];
5 -> 1  [label="z"];
6 -> 9  [label="x"];
6 -> 2  [label="y"];
6 -> 5  [label="z"];
7 -> 1  [label="x"];
7 -> 1  [label="y"];
7 -> 2  [label="z"];
8 -> 6  [label="y"];
8 -> 7  [label="z"];
8 -> 4  [label="x"];
9 -> 8  [label="x"];
9 -> 0  [label="y"];
9 -> 8  [label="z"];
10 -> 5  [label="x"];
10 -> 5  [label="y"];
10 -> 10  [label="z"];
11 -> 5  [label="x"];
11 -> 8  [label="y"];
11 -> 4  [label="z"];
__start0 [label="", shape=none];
__start0 -> 1  [label=""];
}
