digraph "benchmarks-true-state-lstar-rc10seeds/n_states=15-n_outputs=2-glitch_percent=0.02/d61586064c7c8d07900ff98a09746525/pmsatLearned_NOP-N15-STOC" {
0 [label="0|b", shape=record, style=rounded];
1 [label="1|b", shape=record, style=rounded];
2 [label="2|a", shape=record, style=rounded];
3 [label="3|b", shape=record, style=rounded];
4 [label="4|a", shape=record, style=rounded];
5 [label="5|b", shape=record, style=rounded];
6 [label="6|b", shape=record, style=rounded];
7 [label="7|a", shape=record, style=rounded];
8 [label="8|b", shape=record, style=rounded];
9 [label="9|a", shape=record, style=rounded];
10 [label="10|a", shape=record, style=rounded];
11 [label="11|a", shape=record, style=rounded];
12 [label="12|a", shape=record, style=rounded];
13 [label="13|b", shape=record, style=rounded];
14 [label="14|b", shape=record, style=rounded];
0 -> 6  [label="x (40)"];
0 -> 5  [label="y (17)"];
0 -> 4  [label="z (7)"];
1 -> 12  [label="z (95)"];
1 -> 9  [label="y (139)"];
1 -> 13  [label="x (110)"];
1 -> 4  [label="!y [2]"];
1 -> 9  [label="!z [1]"];
1 -> 0  [label="!y [1]"];
1 -> 2  [label="!z [2]"];
2 -> 13  [label="x (26)"];
2 -> 6  [label="y (16)"];
2 -> 5  [label="z (10)"];
3 -> 7  [label="x (19)"];
3 -> 13  [label="y (16)"];
3 -> 3  [label="z (10)"];
4 -> 13  [label="x (13)"];
4 -> 5  [label="y (29)"];
4 -> 5  [label="z (9)"];
4 -> 9  [label="!x [1]"];
5 -> 9  [label="x (27)"];
5 -> 2  [label="y (20)"];
5 -> 11  [label="z (11)"];
6 -> 2  [label="y (14)"];
6 -> 5  [label="x (27)"];
6 -> 6  [label="z (10)"];
7 -> 1  [label="x (31)"];
7 -> 14  [label="y (18)"];
7 -> 11  [label="z (11)"];
8 -> 14  [label="x (22)"];
8 -> 14  [label="y (13)"];
8 -> 12  [label="z (9)"];
9 -> 14  [label="x (67)"];
9 -> 8  [label="y (41)"];
9 -> 4  [label="z (49)"];
9 -> 10  [label="!z [1]"];
9 -> 3  [label="!y [1]"];
10 -> 7  [label="y (10)"];
10 -> 14  [label="x (11)"];
10 -> 9  [label="z (8)"];
11 -> 8  [label="x (24)"];
11 -> 12  [label="z (9)"];
11 -> 9  [label="y (19)"];
11 -> 0  [label="!y [1]"];
11 -> 14  [label="!x [1]"];
12 -> 3  [label="x (36)"];
12 -> 11  [label="z (31)"];
12 -> 2  [label="y (32)"];
12 -> 1  [label="!y [1]"];
13 -> 0  [label="x (76)"];
13 -> 7  [label="y (22)"];
13 -> 10  [label="z (33)"];
13 -> 5  [label="!z [1]"];
14 -> 11  [label="x (35)"];
14 -> 7  [label="y (42)"];
14 -> 3  [label="z (11)"];
14 -> 5  [label="!x [1]"];
__start0 [label="", shape=none];
__start0 -> 1  [label=""];
}
