digraph "benchmarks-true-state-lstar-3seeds/n_states=9-n_outputs=8-glitch_percent=0.1/2317e72477c8121f4c24591487ffe8d7/alergiaLearned" {
q0 [label="b"];
q1 [label="a"];
q2 [label="f"];
q3 [label="g"];
q4 [label="c"];
q5 [label="b"];
q6 [label="d"];
q0 -> q1  [label="z:0.8461538461538461"];
q0 -> q5  [label="z:0.15384615384615385"];
q0 -> q2  [label="y:0.9047619047619048"];
q0 -> q1  [label="y:0.047619047619047616"];
q0 -> q6  [label="y:0.047619047619047616"];
q0 -> q3  [label="x:0.86"];
q0 -> q4  [label="x:0.08"];
q0 -> q1  [label="x:0.06"];
q1 -> q0  [label="x:0.7"];
q1 -> q2  [label="x:0.3"];
q1 -> q1  [label="y:0.3888888888888889"];
q1 -> q0  [label="y:0.3333333333333333"];
q1 -> q2  [label="y:0.2222222222222222"];
q1 -> q6  [label="y:0.05555555555555555"];
q1 -> q1  [label="z:0.4"];
q1 -> q3  [label="z:0.3"];
q1 -> q4  [label="z:0.3"];
q2 -> q1  [label="x:1.0"];
q2 -> q6  [label="y:0.9375"];
q2 -> q0  [label="y:0.0625"];
q2 -> q1  [label="z:1.0"];
q3 -> q4  [label="x:0.9375"];
q3 -> q1  [label="x:0.0625"];
q3 -> q1  [label="y:0.9375"];
q3 -> q6  [label="y:0.0625"];
q3 -> q5  [label="z:0.9230769230769231"];
q3 -> q3  [label="z:0.07692307692307693"];
q4 -> q0  [label="x:1.0"];
q4 -> q0  [label="y:1.0"];
q4 -> q3  [label="z:0.8333333333333334"];
q4 -> q1  [label="z:0.16666666666666666"];
q5 -> q1  [label="z:1.0"];
q5 -> q6  [label="y:1.0"];
q5 -> q1  [label="x:0.8"];
q5 -> q2  [label="x:0.2"];
q6 -> q1  [label="x:1.0"];
q6 -> q3  [label="y:1.0"];
q6 -> q1  [label="z:1.0"];
__start0 [label="", shape=none];
__start0 -> q0  [label=""];
}
