digraph "benchmarks-true-state-lstar-3seeds/n_states=3-n_outputs=2-glitch_percent=0.05/9d4acdac6d25a87b12eb8d28073cfd36/RealModel" {
s1 [label="s1|a", shape=record, style=rounded];
s2 [label="s2|b", shape=record, style=rounded];
s3 [label="s3|b", shape=record, style=rounded];
s1 -> s3  [label="x"];
s1 -> s2  [label="y"];
s1 -> s3  [label="z"];
s2 -> s2  [label="x"];
s2 -> s3  [label="y"];
s2 -> s1  [label="z"];
s3 -> s1  [label="x"];
s3 -> s1  [label="y"];
s3 -> s1  [label="z"];
__start0 [label="", shape=none];
__start0 -> s1  [label=""];
}
