digraph "benchmarks-true-state-lstar-3seeds/n_states=16-n_outputs=3-glitch_percent=0.02/04b07d725481685ce646a8ebcc47e545/pmsatLearned-N16-STOC" {
0 [label="0|a", shape=record, style=rounded];
1 [label="1|b", shape=record, style=rounded];
2 [label="2|c", shape=record, style=rounded];
3 [label="3|b", shape=record, style=rounded];
4 [label="4|b", shape=record, style=rounded];
5 [label="5|a", shape=record, style=rounded];
6 [label="6|b", shape=record, style=rounded];
7 [label="7|a", shape=record, style=rounded];
8 [label="8|a", shape=record, style=rounded];
9 [label="9|a", shape=record, style=rounded];
10 [label="10|c", shape=record, style=rounded];
11 [label="11|c", shape=record, style=rounded];
12 [label="12|c", shape=record, style=rounded];
13 [label="13|b", shape=record, style=rounded];
14 [label="14|a", shape=record, style=rounded];
15 [label="15|c", shape=record, style=rounded];
0 -> 2  [label="z (56)"];
0 -> 14  [label="y (53)"];
0 -> 4  [label="x (88)"];
0 -> 1  [label="!z [1]"];
0 -> 6  [label="!x [1]"];
0 -> 11  [label="!y [1]"];
1 -> 0  [label="x (9)"];
1 -> 15  [label="y (10)"];
1 -> 1  [label="z (8)"];
2 -> 5  [label="x (20)"];
2 -> 12  [label="y (19)"];
2 -> 1  [label="z (20)"];
2 -> 15  [label="!z [1]"];
3 -> 7  [label="x (18)"];
3 -> 8  [label="y (19)"];
3 -> 9  [label="z (18)"];
3 -> 1  [label="!y [1]"];
4 -> 3  [label="x (52)"];
4 -> 11  [label="y (19)"];
4 -> 15  [label="z (18)"];
4 -> 7  [label="!z [1]"];
4 -> 8  [label="!y [1]"];
5 -> 8  [label="x (5)"];
5 -> 8  [label="y (5)"];
5 -> 7  [label="z (5)"];
6 -> 3  [label="x (7)"];
6 -> 8  [label="y (7)"];
6 -> 9  [label="z (8)"];
7 -> 14  [label="x (6)"];
7 -> 1  [label="y (6)"];
7 -> 13  [label="z (6)"];
8 -> 4  [label="x (9)"];
8 -> 13  [label="y (10)"];
8 -> 6  [label="z (10)"];
9 -> 2  [label="x (6)"];
9 -> 1  [label="y (5)"];
9 -> 8  [label="z (6)"];
10 -> 1  [label="x (8)"];
10 -> 10  [label="y (9)"];
10 -> 2  [label="z (8)"];
11 -> 4  [label="x (6)"];
11 -> 10  [label="y (6)"];
11 -> 8  [label="z (4)"];
11 -> 0  [label="!x [1]"];
12 -> 10  [label="x (5)"];
12 -> 0  [label="y (5)"];
12 -> 3  [label="z (5)"];
13 -> 2  [label="x (7)"];
13 -> 6  [label="z (8)"];
13 -> 11  [label="y (5)"];
14 -> 10  [label="x (19)"];
14 -> 6  [label="y (18)"];
14 -> 13  [label="z (14)"];
14 -> 12  [label="!y [1]"];
15 -> 13  [label="x (8)"];
15 -> 3  [label="y (6)"];
15 -> 15  [label="z (7)"];
__start0 [label="", shape=none];
__start0 -> 0  [label=""];
}
