digraph "benchmarks-true-state-lstar-3seeds/n_states=16-n_outputs=7-glitch_percent=0.01/2c56d07f6ae29074c01d70a102fdb440/pmsatLearned-N16" {
0 [label="0|a", shape=record, style=rounded];
1 [label="1|b", shape=record, style=rounded];
2 [label="2|c", shape=record, style=rounded];
3 [label="3|d", shape=record, style=rounded];
4 [label="4|e", shape=record, style=rounded];
5 [label="5|f", shape=record, style=rounded];
6 [label="6|g", shape=record, style=rounded];
7 [label="7|d", shape=record, style=rounded];
8 [label="8|a", shape=record, style=rounded];
9 [label="9|b", shape=record, style=rounded];
10 [label="10|a", shape=record, style=rounded];
11 [label="11|a", shape=record, style=rounded];
12 [label="12|e", shape=record, style=rounded];
13 [label="13|a", shape=record, style=rounded];
14 [label="14|e", shape=record, style=rounded];
15 [label="15|b", shape=record, style=rounded];
0 -> 14  [label="x"];
0 -> 9  [label="y"];
0 -> 0  [label="z"];
1 -> 14  [label="x"];
1 -> 1  [label="y"];
1 -> 10  [label="z"];
2 -> 8  [label="x"];
2 -> 5  [label="y"];
2 -> 2  [label="z"];
3 -> 8  [label="z"];
3 -> 13  [label="y"];
3 -> 5  [label="x"];
4 -> 11  [label="x"];
4 -> 13  [label="y"];
4 -> 1  [label="z"];
5 -> 11  [label="x"];
5 -> 15  [label="y"];
5 -> 2  [label="z"];
6 -> 15  [label="x"];
6 -> 15  [label="y"];
6 -> 6  [label="z"];
7 -> 14  [label="x"];
7 -> 12  [label="y"];
7 -> 14  [label="z"];
8 -> 14  [label="x"];
8 -> 7  [label="y"];
8 -> 10  [label="z"];
9 -> 5  [label="x"];
9 -> 11  [label="y"];
9 -> 11  [label="z"];
10 -> 8  [label="x"];
10 -> 1  [label="y"];
10 -> 11  [label="z"];
11 -> 12  [label="x"];
11 -> 4  [label="y"];
11 -> 0  [label="z"];
12 -> 13  [label="x"];
12 -> 6  [label="y"];
12 -> 7  [label="z"];
13 -> 1  [label="x"];
13 -> 9  [label="y"];
13 -> 6  [label="z"];
14 -> 9  [label="x"];
14 -> 7  [label="y"];
14 -> 14  [label="z"];
15 -> 4  [label="x"];
15 -> 5  [label="y"];
15 -> 9  [label="z"];
__start0 [label="", shape=none];
__start0 -> 3  [label=""];
}
