digraph "benchmarks-true-state-lstar-songp/n_states=14-n_outputs=8-glitch_percent=0.0-pmstrat='rc2'/3a5276a32b65c78cc60043691b9b23e9/pmsatLearned-N14" {
0 [label="0|a", shape=record, style=rounded];
1 [label="1|b", shape=record, style=rounded];
2 [label="2|c", shape=record, style=rounded];
3 [label="3|e", shape=record, style=rounded];
4 [label="4|f", shape=record, style=rounded];
5 [label="5|g", shape=record, style=rounded];
6 [label="6|h", shape=record, style=rounded];
7 [label="7|c", shape=record, style=rounded];
8 [label="8|h", shape=record, style=rounded];
9 [label="9|g", shape=record, style=rounded];
10 [label="10|a", shape=record, style=rounded];
11 [label="11|h", shape=record, style=rounded];
12 [label="12|g", shape=record, style=rounded];
13 [label="13|f", shape=record, style=rounded];
0 -> 4  [label="z"];
0 -> 8  [label="y"];
0 -> 3  [label="x"];
1 -> 2  [label="x"];
1 -> 0  [label="y"];
1 -> 7  [label="z"];
2 -> 9  [label="x"];
2 -> 13  [label="y"];
2 -> 5  [label="z"];
3 -> 13  [label="x"];
3 -> 11  [label="y"];
3 -> 1  [label="z"];
4 -> 10  [label="x"];
4 -> 12  [label="y"];
4 -> 7  [label="z"];
5 -> 3  [label="x"];
5 -> 7  [label="y"];
5 -> 7  [label="z"];
6 -> 2  [label="x"];
6 -> 4  [label="y"];
6 -> 4  [label="z"];
7 -> 7  [label="x"];
7 -> 12  [label="y"];
7 -> 6  [label="z"];
8 -> 6  [label="x"];
8 -> 9  [label="y"];
8 -> 5  [label="z"];
9 -> 3  [label="x"];
9 -> 10  [label="y"];
9 -> 12  [label="z"];
10 -> 12  [label="x"];
10 -> 13  [label="y"];
10 -> 13  [label="z"];
11 -> 0  [label="x"];
11 -> 12  [label="y"];
11 -> 0  [label="z"];
12 -> 13  [label="x"];
12 -> 0  [label="y"];
12 -> 3  [label="z"];
13 -> 2  [label="x"];
13 -> 11  [label="y"];
13 -> 3  [label="z"];
__start0 [label="", shape=none];
__start0 -> 0  [label=""];
}
