digraph "pmsatLearned-N8-STOC" {
0 [label="0|a", shape=record, style=rounded];
1 [label="1|c", shape=record, style=rounded];
2 [label="2|d", shape=record, style=rounded];
3 [label="3|e", shape=record, style=rounded];
4 [label="4|e", shape=record, style=rounded];
5 [label="5|d", shape=record, style=rounded];
6 [label="6|d", shape=record, style=rounded];
7 [label="7|e", shape=record, style=rounded];
0 -> 0  [label="x (61)"];
0 -> 4  [label="y (76)"];
0 -> 0  [label="z (83)"];
0 -> 7  [label="!y [1]"];
1 -> 2  [label="x (107)"];
1 -> 5  [label="y (129)"];
1 -> 0  [label="z (103)"];
1 -> 3  [label="!z [1]"];
1 -> 1  [label="!x [1]"];
1 -> 4  [label="!y [1]"];
1 -> 6  [label="!y [1] t1"];
2 -> 7  [label="x (57)"];
2 -> 1  [label="y (58)"];
2 -> 5  [label="z (55)"];
2 -> 2  [label="!x [1]"];
2 -> 2  [label="!y [1]"];
2 -> 6  [label="!z [1]"];
3 -> 6  [label="z (109)"];
3 -> 4  [label="y (118)"];
3 -> 1  [label="x (163)"];
3 -> 7  [label="!y [1]"];
3 -> 0  [label="!z [1]"];
3 -> 2  [label="!y [2]"];
3 -> 2  [label="!x [1]"];
3 -> 5  [label="!y [1] t1"];
3 -> 4  [label="!z [1] t1"];
4 -> 7  [label="x (177)"];
4 -> 4  [label="y (137)"];
4 -> 7  [label="z (129)"];
4 -> 5  [label="!z [1]"];
5 -> 1  [label="x (92)"];
5 -> 6  [label="y (85)"];
5 -> 4  [label="z (77)"];
5 -> 7  [label="!z [1]"];
6 -> 1  [label="x (89)"];
6 -> 2  [label="y (85)"];
6 -> 4  [label="z (87)"];
6 -> 0  [label="!z [1]"];
6 -> 3  [label="!x [1]"];
7 -> 3  [label="x (109)"];
7 -> 6  [label="y (99)"];
7 -> 5  [label="z (99)"];
7 -> 6  [label="!z [1]"];
7 -> 4  [label="!z [1] t1"];
__start0 [label="", shape=none];
__start0 -> 3  [label=""];
}
