digraph "benchmarks-true-state-lstar-songp/n_states=11-n_outputs=9-glitch_percent=0.0-pmstrat='fm'/e0ee3e0117ead3e747797a0f1e2b9ea7/pmsatLearned-N11-STOC" {
0 [label="0|a", shape=record, style=rounded];
1 [label="1|b", shape=record, style=rounded];
2 [label="2|c", shape=record, style=rounded];
3 [label="3|e", shape=record, style=rounded];
4 [label="4|f", shape=record, style=rounded];
5 [label="5|g", shape=record, style=rounded];
6 [label="6|h", shape=record, style=rounded];
7 [label="7|i", shape=record, style=rounded];
8 [label="8|h", shape=record, style=rounded];
9 [label="9|a", shape=record, style=rounded];
10 [label="10|h", shape=record, style=rounded];
0 -> 9  [label="z (32)"];
0 -> 10  [label="y (56)"];
0 -> 5  [label="x (56)"];
1 -> 7  [label="x (5)"];
1 -> 0  [label="y (5)"];
1 -> 2  [label="z (5)"];
2 -> 10  [label="x (10)"];
2 -> 7  [label="y (10)"];
2 -> 9  [label="z (10)"];
3 -> 4  [label="x (8)"];
3 -> 7  [label="y (8)"];
3 -> 2  [label="z (8)"];
4 -> 9  [label="x (8)"];
4 -> 8  [label="y (8)"];
4 -> 2  [label="z (8)"];
5 -> 4  [label="x (17)"];
5 -> 2  [label="y (17)"];
5 -> 3  [label="z (17)"];
6 -> 10  [label="x (5)"];
6 -> 3  [label="y (5)"];
6 -> 0  [label="z (5)"];
7 -> 0  [label="x (8)"];
7 -> 2  [label="y (8)"];
7 -> 4  [label="z (8)"];
8 -> 4  [label="x (6)"];
8 -> 3  [label="y (6)"];
8 -> 9  [label="z (6)"];
9 -> 8  [label="x (20)"];
9 -> 3  [label="y (8)"];
9 -> 2  [label="z (8)"];
10 -> 6  [label="x (19)"];
10 -> 1  [label="y (19)"];
10 -> 7  [label="z (19)"];
__start0 [label="", shape=none];
__start0 -> 0  [label=""];
}
