digraph "benchmarks-true-state-lstar-rc10seeds/n_states=14-n_outputs=2-glitch_percent=0.0/947129915d2edee81ef34acac3b0088b/pmsatLearned_NOP-N14" {
0 [label="0|a", shape=record, style=rounded];
1 [label="1|b", shape=record, style=rounded];
2 [label="2|b", shape=record, style=rounded];
3 [label="3|a", shape=record, style=rounded];
4 [label="4|a", shape=record, style=rounded];
5 [label="5|b", shape=record, style=rounded];
6 [label="6|a", shape=record, style=rounded];
7 [label="7|a", shape=record, style=rounded];
8 [label="8|a", shape=record, style=rounded];
9 [label="9|b", shape=record, style=rounded];
10 [label="10|b", shape=record, style=rounded];
11 [label="11|a", shape=record, style=rounded];
12 [label="12|b", shape=record, style=rounded];
13 [label="13|a", shape=record, style=rounded];
0 -> 2  [label="z"];
0 -> 5  [label="y"];
0 -> 11  [label="x"];
1 -> 11  [label="x"];
1 -> 3  [label="y"];
1 -> 12  [label="z"];
2 -> 13  [label="x"];
2 -> 8  [label="y"];
2 -> 9  [label="z"];
3 -> 1  [label="x"];
3 -> 10  [label="y"];
3 -> 8  [label="z"];
4 -> 8  [label="x"];
4 -> 0  [label="y"];
4 -> 3  [label="z"];
5 -> 1  [label="x"];
5 -> 6  [label="y"];
5 -> 4  [label="z"];
6 -> 2  [label="x"];
6 -> 8  [label="y"];
6 -> 1  [label="z"];
7 -> 10  [label="x"];
7 -> 7  [label="y"];
7 -> 5  [label="z"];
8 -> 12  [label="x"];
8 -> 7  [label="y"];
8 -> 6  [label="z"];
9 -> 4  [label="x"];
9 -> 12  [label="y"];
9 -> 1  [label="z"];
10 -> 10  [label="x"];
10 -> 0  [label="y"];
10 -> 8  [label="z"];
11 -> 7  [label="x"];
11 -> 3  [label="y"];
11 -> 12  [label="z"];
12 -> 2  [label="x"];
12 -> 9  [label="y"];
12 -> 11  [label="z"];
13 -> 2  [label="x"];
13 -> 4  [label="y"];
13 -> 3  [label="z"];
__start0 [label="", shape=none];
__start0 -> 0  [label=""];
}
