digraph "benchmarks-true-state-lstar-3seeds/n_states=6-n_outputs=3-glitch_percent=0.0/d4158730b32dab31230e14ab72af6090/pmsatLearned-N6-STOC" {
0 [label="0|a", shape=record, style=rounded];
1 [label="1|b", shape=record, style=rounded];
2 [label="2|c", shape=record, style=rounded];
3 [label="3|c", shape=record, style=rounded];
4 [label="4|a", shape=record, style=rounded];
5 [label="5|c", shape=record, style=rounded];
0 -> 3  [label="x (38)"];
0 -> 4  [label="y (24)"];
0 -> 1  [label="z (9)"];
1 -> 2  [label="z (25)"];
1 -> 5  [label="y (24)"];
1 -> 0  [label="x (62)"];
2 -> 3  [label="x (16)"];
2 -> 0  [label="y (8)"];
2 -> 4  [label="z (8)"];
3 -> 5  [label="x (21)"];
3 -> 4  [label="y (7)"];
3 -> 4  [label="z (7)"];
4 -> 2  [label="x (13)"];
4 -> 0  [label="y (9)"];
4 -> 2  [label="z (9)"];
5 -> 0  [label="x (15)"];
5 -> 1  [label="y (7)"];
5 -> 1  [label="z (7)"];
__start0 [label="", shape=none];
__start0 -> 1  [label=""];
}
