digraph "benchmarks-true-state-lstar-rc10seeds/n_states=13-n_outputs=4-glitch_percent=0.01/b3922e9d9aae74ce097efecf08b238f5/pmsatLearned_NOP-N13" {
0 [label="0|c", shape=record, style=rounded];
1 [label="1|c", shape=record, style=rounded];
2 [label="2|a", shape=record, style=rounded];
3 [label="3|d", shape=record, style=rounded];
4 [label="4|a", shape=record, style=rounded];
5 [label="5|d", shape=record, style=rounded];
6 [label="6|c", shape=record, style=rounded];
7 [label="7|d", shape=record, style=rounded];
8 [label="8|a", shape=record, style=rounded];
9 [label="9|a", shape=record, style=rounded];
10 [label="10|a", shape=record, style=rounded];
11 [label="11|d", shape=record, style=rounded];
12 [label="12|d", shape=record, style=rounded];
0 -> 10  [label="x"];
0 -> 4  [label="y"];
0 -> 7  [label="z"];
1 -> 9  [label="z"];
1 -> 5  [label="y"];
1 -> 0  [label="x"];
2 -> 0  [label="x"];
2 -> 10  [label="y"];
2 -> 0  [label="z"];
3 -> 12  [label="x"];
3 -> 3  [label="y"];
3 -> 2  [label="z"];
4 -> 9  [label="y"];
4 -> 9  [label="z"];
4 -> 0  [label="x"];
5 -> 12  [label="x"];
5 -> 3  [label="y"];
5 -> 6  [label="z"];
6 -> 9  [label="x"];
6 -> 1  [label="y"];
6 -> 11  [label="z"];
7 -> 0  [label="x"];
7 -> 5  [label="y"];
7 -> 0  [label="z"];
8 -> 5  [label="x"];
8 -> 12  [label="y"];
8 -> 4  [label="z"];
9 -> 2  [label="x"];
9 -> 8  [label="y"];
9 -> 11  [label="z"];
10 -> 3  [label="x"];
10 -> 1  [label="y"];
10 -> 4  [label="z"];
11 -> 4  [label="x"];
11 -> 6  [label="y"];
11 -> 10  [label="z"];
12 -> 4  [label="x"];
12 -> 5  [label="y"];
12 -> 2  [label="z"];
__start0 [label="", shape=none];
__start0 -> 1  [label=""];
}
