digraph "benchmarks-true-state-lstar-rc10seeds/n_states=8-n_outputs=7-glitch_percent=0.0/4ed6c88c6258de5c31c3f2bd93f397be/pmsatLearned_NOP-N8-STOC" {
0 [label="0|g", shape=record, style=rounded];
1 [label="1|d", shape=record, style=rounded];
2 [label="2|e", shape=record, style=rounded];
3 [label="3|d", shape=record, style=rounded];
4 [label="4|f", shape=record, style=rounded];
5 [label="5|f", shape=record, style=rounded];
6 [label="6|b", shape=record, style=rounded];
7 [label="7|e", shape=record, style=rounded];
0 -> 5  [label="x (5)"];
0 -> 3  [label="y (5)"];
0 -> 4  [label="z (5)"];
1 -> 2  [label="x (6)"];
1 -> 6  [label="y (6)"];
1 -> 2  [label="z (6)"];
2 -> 1  [label="z (20)"];
2 -> 3  [label="y (32)"];
2 -> 5  [label="x (56)"];
3 -> 4  [label="x (20)"];
3 -> 6  [label="y (8)"];
3 -> 7  [label="z (8)"];
4 -> 1  [label="x (6)"];
4 -> 2  [label="y (6)"];
4 -> 5  [label="z (6)"];
5 -> 0  [label="x (21)"];
5 -> 6  [label="y (21)"];
5 -> 7  [label="z (21)"];
6 -> 3  [label="x (9)"];
6 -> 3  [label="y (9)"];
6 -> 6  [label="z (9)"];
7 -> 6  [label="x (6)"];
7 -> 5  [label="y (6)"];
7 -> 5  [label="z (6)"];
__start0 [label="", shape=none];
__start0 -> 2  [label=""];
}
