digraph "benchmarks-true-state-lstar-3seeds/n_states=8-n_outputs=7-glitch_percent=0.0/4ed6c88c6258de5c31c3f2bd93f397be/rpniGroundTruth" {
s0 [label="s0|e", shape=record, style=rounded];
s1 [label="s1|f", shape=record, style=rounded];
s2 [label="s2|d", shape=record, style=rounded];
s3 [label="s3|d", shape=record, style=rounded];
s4 [label="s4|e", shape=record, style=rounded];
s5 [label="s5|g", shape=record, style=rounded];
s6 [label="s6|b", shape=record, style=rounded];
s7 [label="s7|f", shape=record, style=rounded];
s0 -> s1  [label="x"];
s0 -> s2  [label="y"];
s0 -> s3  [label="z"];
s1 -> s4  [label="z"];
s1 -> s5  [label="x"];
s1 -> s6  [label="y"];
s2 -> s6  [label="y"];
s2 -> s7  [label="x"];
s2 -> s4  [label="z"];
s3 -> s6  [label="y"];
s3 -> s0  [label="z"];
s3 -> s0  [label="x"];
s4 -> s6  [label="x"];
s4 -> s1  [label="y"];
s4 -> s1  [label="z"];
s5 -> s1  [label="x"];
s5 -> s7  [label="z"];
s5 -> s2  [label="y"];
s6 -> s6  [label="z"];
s6 -> s2  [label="x"];
s6 -> s2  [label="y"];
s7 -> s1  [label="z"];
s7 -> s0  [label="y"];
s7 -> s3  [label="x"];
__start0 [label="", shape=none];
__start0 -> s0  [label=""];
}
