digraph "benchmarks-true-state-lstar-3seeds/n_states=12-n_outputs=7-glitch_percent=0.0/c12a640b1dffa2ef255892fb6a880153/pmsatLearned-N12" {
0 [label="0|a", shape=record, style=rounded];
1 [label="1|b", shape=record, style=rounded];
2 [label="2|c", shape=record, style=rounded];
3 [label="3|d", shape=record, style=rounded];
4 [label="4|e", shape=record, style=rounded];
5 [label="5|f", shape=record, style=rounded];
6 [label="6|g", shape=record, style=rounded];
7 [label="7|d", shape=record, style=rounded];
8 [label="8|c", shape=record, style=rounded];
9 [label="9|g", shape=record, style=rounded];
10 [label="10|b", shape=record, style=rounded];
11 [label="11|a", shape=record, style=rounded];
0 -> 3  [label="x"];
0 -> 8  [label="y"];
0 -> 11  [label="z"];
1 -> 8  [label="x"];
1 -> 11  [label="y"];
1 -> 10  [label="z"];
2 -> 0  [label="z"];
2 -> 4  [label="y"];
2 -> 7  [label="x"];
3 -> 0  [label="x"];
3 -> 5  [label="y"];
3 -> 5  [label="z"];
4 -> 5  [label="x"];
4 -> 1  [label="y"];
4 -> 9  [label="z"];
5 -> 11  [label="x"];
5 -> 2  [label="y"];
5 -> 10  [label="z"];
6 -> 5  [label="x"];
6 -> 5  [label="y"];
6 -> 7  [label="z"];
7 -> 6  [label="x"];
7 -> 10  [label="y"];
7 -> 11  [label="z"];
8 -> 8  [label="x"];
8 -> 0  [label="y"];
8 -> 1  [label="z"];
9 -> 8  [label="x"];
9 -> 1  [label="y"];
9 -> 9  [label="z"];
10 -> 4  [label="x"];
10 -> 1  [label="y"];
10 -> 3  [label="z"];
11 -> 7  [label="x"];
11 -> 7  [label="y"];
11 -> 8  [label="z"];
__start0 [label="", shape=none];
__start0 -> 2  [label=""];
}
