digraph "benchmarks-true-state-lstar-3seeds/n_states=4-n_outputs=3-glitch_percent=0.0/1bf6c3c554dda5400aacea62c81f4f6f/alergiaLearned" {
q0 [label="a"];
q1 [label="a"];
q2 [label="b"];
q0 -> q1  [label="z:1.0"];
q0 -> q1  [label="y:0.9545454545454546"];
q0 -> q2  [label="y:0.045454545454545456"];
q0 -> q2  [label="x:0.8636363636363636"];
q0 -> q0  [label="x:0.13636363636363635"];
q1 -> q0  [label="x:1.0"];
q1 -> q2  [label="y:0.5"];
q1 -> q0  [label="y:0.5"];
q1 -> q0  [label="z:1.0"];
q2 -> q0  [label="x:1.0"];
q2 -> q0  [label="y:1.0"];
q2 -> q2  [label="z:1.0"];
__start0 [label="", shape=none];
__start0 -> q0  [label=""];
}
