digraph "benchmarks-true-state-lstar-rc10seeds/n_states=8-n_outputs=4-glitch_percent=0.02/ecc7216fcf458ba190964989210e2b18/pmsatLearned_NOP-N8" {
0 [label="0|b", shape=record, style=rounded];
1 [label="1|b", shape=record, style=rounded];
2 [label="2|c", shape=record, style=rounded];
3 [label="3|d", shape=record, style=rounded];
4 [label="4|a", shape=record, style=rounded];
5 [label="5|c", shape=record, style=rounded];
6 [label="6|a", shape=record, style=rounded];
7 [label="7|d", shape=record, style=rounded];
0 -> 2  [label="x"];
0 -> 0  [label="y"];
0 -> 4  [label="z"];
1 -> 6  [label="x"];
1 -> 5  [label="y"];
1 -> 4  [label="z"];
2 -> 7  [label="z"];
2 -> 3  [label="y"];
2 -> 1  [label="x"];
3 -> 0  [label="x"];
3 -> 0  [label="y"];
3 -> 1  [label="z"];
4 -> 1  [label="x"];
4 -> 0  [label="y"];
4 -> 4  [label="z"];
5 -> 3  [label="y"];
5 -> 1  [label="z"];
5 -> 5  [label="x"];
6 -> 7  [label="x"];
6 -> 7  [label="y"];
6 -> 1  [label="z"];
7 -> 2  [label="x"];
7 -> 5  [label="y"];
7 -> 4  [label="z"];
__start0 [label="", shape=none];
__start0 -> 2  [label=""];
}
