digraph "benchmarks-true-state-lstar-3seeds/n_states=14-n_outputs=4-glitch_percent=0.02/00b2bc8856a0b63399667cf66d445805/pmsatLearned-N14" {
0 [label="0|a", shape=record, style=rounded];
1 [label="1|b", shape=record, style=rounded];
2 [label="2|c", shape=record, style=rounded];
3 [label="3|d", shape=record, style=rounded];
4 [label="4|b", shape=record, style=rounded];
5 [label="5|b", shape=record, style=rounded];
6 [label="6|c", shape=record, style=rounded];
7 [label="7|d", shape=record, style=rounded];
8 [label="8|d", shape=record, style=rounded];
9 [label="9|b", shape=record, style=rounded];
10 [label="10|c", shape=record, style=rounded];
11 [label="11|a", shape=record, style=rounded];
12 [label="12|c", shape=record, style=rounded];
13 [label="13|d", shape=record, style=rounded];
0 -> 9  [label="x"];
0 -> 12  [label="y"];
0 -> 1  [label="z"];
1 -> 13  [label="z"];
1 -> 6  [label="y"];
1 -> 5  [label="x"];
2 -> 5  [label="x"];
2 -> 9  [label="y"];
2 -> 2  [label="z"];
3 -> 12  [label="x"];
3 -> 1  [label="y"];
3 -> 6  [label="z"];
4 -> 7  [label="x"];
4 -> 5  [label="y"];
4 -> 12  [label="z"];
5 -> 9  [label="x"];
5 -> 0  [label="y"];
5 -> 7  [label="z"];
6 -> 12  [label="x"];
6 -> 8  [label="y"];
6 -> 2  [label="z"];
7 -> 1  [label="x"];
7 -> 5  [label="y"];
7 -> 11  [label="z"];
8 -> 11  [label="x"];
8 -> 0  [label="y"];
8 -> 3  [label="z"];
9 -> 11  [label="x"];
9 -> 12  [label="y"];
9 -> 11  [label="z"];
10 -> 13  [label="x"];
10 -> 13  [label="y"];
10 -> 4  [label="z"];
11 -> 0  [label="y"];
11 -> 9  [label="z"];
11 -> 2  [label="x"];
12 -> 0  [label="x"];
12 -> 11  [label="y"];
12 -> 8  [label="z"];
13 -> 3  [label="x"];
13 -> 4  [label="z"];
13 -> 10  [label="y"];
__start0 [label="", shape=none];
__start0 -> 1  [label=""];
}
