digraph "benchmarks-true-state-lstar-3seeds/n_states=7-n_outputs=5-glitch_percent=0.1/99db8d16e9f12e1684850b2495b2671f/pmsatLearned-N7-STOC" {
0 [label="0|a", shape=record, style=rounded];
1 [label="1|b", shape=record, style=rounded];
2 [label="2|d", shape=record, style=rounded];
3 [label="3|e", shape=record, style=rounded];
4 [label="4|e", shape=record, style=rounded];
5 [label="5|a", shape=record, style=rounded];
6 [label="6|e", shape=record, style=rounded];
0 -> 2  [label="z (18)"];
0 -> 3  [label="y (16)"];
0 -> 5  [label="x (50)"];
0 -> 6  [label="!x [1]"];
0 -> 0  [label="!z [2]"];
0 -> 1  [label="!z [1]"];
0 -> 4  [label="!y [2]"];
1 -> 0  [label="x (8)"];
1 -> 1  [label="z (7)"];
1 -> 6  [label="y (6)"];
2 -> 3  [label="x (5)"];
2 -> 0  [label="y (5)"];
2 -> 2  [label="z (5)"];
3 -> 1  [label="x (7)"];
3 -> 3  [label="y (6)"];
3 -> 0  [label="z (5)"];
3 -> 0  [label="!x [1]"];
4 -> 5  [label="x (6)"];
4 -> 1  [label="y (7)"];
4 -> 3  [label="z (7)"];
5 -> 4  [label="y (16)"];
5 -> 1  [label="z (17)"];
5 -> 6  [label="x (15)"];
5 -> 4  [label="!z [1]"];
6 -> 4  [label="x (6)"];
6 -> 5  [label="y (6)"];
6 -> 4  [label="z (4)"];
__start0 [label="", shape=none];
__start0 -> 0  [label=""];
}
