digraph "benchmarks-true-state-lstar-3seeds/n_states=10-n_outputs=8-glitch_percent=0.01/afdd6cd5be1b2e3aff6d83b6fcaf534c/rpniGroundTruth" {
s0 [label="s0|d", shape=record, style=rounded];
s1 [label="s1|f", shape=record, style=rounded];
s2 [label="s2|f", shape=record, style=rounded];
s3 [label="s3|g", shape=record, style=rounded];
s4 [label="s4|h", shape=record, style=rounded];
s5 [label="s5|g", shape=record, style=rounded];
s6 [label="s6|e", shape=record, style=rounded];
s7 [label="s7|d", shape=record, style=rounded];
s8 [label="s8|d", shape=record, style=rounded];
s9 [label="s9|c", shape=record, style=rounded];
s0 -> s1  [label="y"];
s0 -> s2  [label="z"];
s0 -> s3  [label="x"];
s1 -> s4  [label="y"];
s1 -> s5  [label="x"];
s1 -> s6  [label="z"];
s2 -> s2  [label="x"];
s2 -> s7  [label="y"];
s2 -> s3  [label="z"];
s3 -> s8  [label="z"];
s3 -> s9  [label="x"];
s3 -> s7  [label="y"];
s4 -> s7  [label="z"];
s4 -> s9  [label="y"];
s4 -> s5  [label="x"];
s5 -> s0  [label="y"];
s5 -> s0  [label="x"];
s5 -> s9  [label="z"];
s6 -> s1  [label="x"];
s6 -> s2  [label="y"];
s6 -> s0  [label="z"];
s7 -> s8  [label="y"];
s7 -> s0  [label="z"];
s7 -> s2  [label="x"];
s8 -> s7  [label="y"];
s8 -> s2  [label="x"];
s8 -> s2  [label="z"];
s9 -> s3  [label="z"];
s9 -> s6  [label="y"];
s9 -> s5  [label="x"];
__start0 [label="", shape=none];
__start0 -> s0  [label=""];
}
