digraph "benchmarks-true-state-lstar-3seeds/n_states=8-n_outputs=7-glitch_percent=0.0/1fd8b5b739cab012dbf27209bb9b1b01/alergiaLearned" {
q0 [label="a"];
q1 [label="f"];
q2 [label="a"];
q3 [label="g"];
q4 [label="e"];
q5 [label="b"];
q6 [label="d"];
q0 -> q1  [label="z:0.9047619047619048"];
q0 -> q0  [label="z:0.09523809523809523"];
q0 -> q2  [label="y:1.0"];
q0 -> q3  [label="x:0.9649122807017544"];
q0 -> q5  [label="x:0.03508771929824561"];
q1 -> q0  [label="x:1.0"];
q1 -> q4  [label="y:1.0"];
q1 -> q3  [label="z:1.0"];
q2 -> q5  [label="x:1.0"];
q2 -> q0  [label="y:1.0"];
q2 -> q0  [label="z:1.0"];
q3 -> q6  [label="x:1.0"];
q3 -> q4  [label="y:1.0"];
q3 -> q4  [label="z:1.0"];
q4 -> q1  [label="x:0.5"];
q4 -> q3  [label="x:0.5"];
q4 -> q6  [label="y:0.5"];
q4 -> q0  [label="y:0.5"];
q4 -> q1  [label="z:1.0"];
q5 -> q6  [label="x:1.0"];
q5 -> q5  [label="y:1.0"];
q5 -> q4  [label="z:1.0"];
q6 -> q6  [label="x:1.0"];
q6 -> q5  [label="y:1.0"];
q6 -> q1  [label="z:1.0"];
__start0 [label="", shape=none];
__start0 -> q0  [label=""];
}
