digraph "benchmarks-true-state-lstar-3seeds/n_states=8-n_outputs=7-glitch_percent=0.01/15b69b5a4985d18c0c79b1bf40c7cd17/pmsatLearned-N8-STOC" {
0 [label="0|a", shape=record, style=rounded];
1 [label="1|c", shape=record, style=rounded];
2 [label="2|d", shape=record, style=rounded];
3 [label="3|e", shape=record, style=rounded];
4 [label="4|g", shape=record, style=rounded];
5 [label="5|a", shape=record, style=rounded];
6 [label="6|e", shape=record, style=rounded];
7 [label="7|c", shape=record, style=rounded];
0 -> 2  [label="z (18)"];
0 -> 7  [label="y (31)"];
0 -> 3  [label="x (54)"];
0 -> 6  [label="!x [1]"];
1 -> 0  [label="x (6)"];
1 -> 6  [label="y (7)"];
1 -> 5  [label="z (7)"];
1 -> 2  [label="!z [1]"];
2 -> 4  [label="x (6)"];
2 -> 6  [label="y (6)"];
2 -> 0  [label="z (6)"];
3 -> 4  [label="x (16)"];
3 -> 5  [label="y (17)"];
3 -> 6  [label="z (16)"];
3 -> 2  [label="!y [1]"];
4 -> 5  [label="x (8)"];
4 -> 2  [label="y (7)"];
4 -> 7  [label="z (8)"];
5 -> 6  [label="x (8)"];
5 -> 6  [label="y (8)"];
5 -> 4  [label="z (8)"];
6 -> 4  [label="x (10)"];
6 -> 1  [label="y (10)"];
6 -> 6  [label="z (10)"];
7 -> 1  [label="x (18)"];
7 -> 5  [label="y (6)"];
7 -> 1  [label="z (6)"];
__start0 [label="", shape=none];
__start0 -> 0  [label=""];
}
