digraph "benchmarks-true-state-lstar-3seeds/n_states=5-n_outputs=2-glitch_percent=0.01/3a7fd4f42f311b5d7dab48d7f6cb0ce6/pmsatLearned-N5-STOC" {
0 [label="0|a", shape=record, style=rounded];
1 [label="1|b", shape=record, style=rounded];
2 [label="2|b", shape=record, style=rounded];
3 [label="3|b", shape=record, style=rounded];
4 [label="4|b", shape=record, style=rounded];
0 -> 3  [label="x (14)"];
0 -> 1  [label="y (7)"];
0 -> 4  [label="z (8)"];
1 -> 4  [label="z (39)"];
1 -> 3  [label="y (32)"];
1 -> 2  [label="x (79)"];
2 -> 0  [label="x (52)"];
2 -> 3  [label="y (10)"];
2 -> 1  [label="z (12)"];
3 -> 2  [label="x (13)"];
3 -> 1  [label="y (9)"];
3 -> 1  [label="z (15)"];
4 -> 1  [label="x (22)"];
4 -> 4  [label="y (8)"];
4 -> 2  [label="z (11)"];
__start0 [label="", shape=none];
__start0 -> 1  [label=""];
}
