digraph "benchmarks-true-state-lstar-3seeds/n_states=11-n_outputs=8-glitch_percent=0.02/c0901645b52c720ef0568202751f3b79/pmsatLearned-N11-STOC" {
0 [label="0|a", shape=record, style=rounded];
1 [label="1|b", shape=record, style=rounded];
2 [label="2|c", shape=record, style=rounded];
3 [label="3|d", shape=record, style=rounded];
4 [label="4|e", shape=record, style=rounded];
5 [label="5|g", shape=record, style=rounded];
6 [label="6|b", shape=record, style=rounded];
7 [label="7|a", shape=record, style=rounded];
8 [label="8|b", shape=record, style=rounded];
9 [label="9|g", shape=record, style=rounded];
10 [label="10|d", shape=record, style=rounded];
0 -> 1  [label="x (17)"];
0 -> 1  [label="y (6)"];
0 -> 4  [label="z (6)"];
0 -> 3  [label="!x [1]"];
1 -> 10  [label="x (9)"];
1 -> 9  [label="y (11)"];
1 -> 9  [label="z (11)"];
2 -> 0  [label="x (6)"];
2 -> 1  [label="y (6)"];
2 -> 10  [label="z (6)"];
3 -> 3  [label="x (7)"];
3 -> 5  [label="y (8)"];
3 -> 4  [label="z (8)"];
4 -> 7  [label="x (6)"];
4 -> 1  [label="y (6)"];
4 -> 3  [label="z (8)"];
5 -> 0  [label="z (30)"];
5 -> 8  [label="y (55)"];
5 -> 9  [label="x (53)"];
5 -> 5  [label="!x [1]"];
6 -> 3  [label="x (6)"];
6 -> 7  [label="y (6)"];
6 -> 2  [label="z (6)"];
7 -> 1  [label="x (7)"];
7 -> 6  [label="y (7)"];
7 -> 1  [label="z (6)"];
8 -> 10  [label="x (19)"];
8 -> 3  [label="y (18)"];
8 -> 2  [label="z (18)"];
9 -> 7  [label="y (19)"];
9 -> 4  [label="z (17)"];
9 -> 6  [label="x (18)"];
9 -> 7  [label="!x [1]"];
10 -> 4  [label="x (7)"];
10 -> 1  [label="y (7)"];
10 -> 8  [label="z (7)"];
__start0 [label="", shape=none];
__start0 -> 5  [label=""];
}
