digraph "benchmarks-true-state-lstar-3seeds/n_states=3-n_outputs=2-glitch_percent=0.0/e35527fc445d73ccaa53bc7178b690c2/RealModel" {
s1 [label="s1|a", shape=record, style=rounded];
s2 [label="s2|a", shape=record, style=rounded];
s3 [label="s3|b", shape=record, style=rounded];
s1 -> s2  [label="x"];
s1 -> s3  [label="y"];
s1 -> s1  [label="z"];
s2 -> s2  [label="x"];
s2 -> s1  [label="y"];
s2 -> s1  [label="z"];
s3 -> s2  [label="x"];
s3 -> s3  [label="y"];
s3 -> s1  [label="z"];
__start0 [label="", shape=none];
__start0 -> s1  [label=""];
}
