digraph "benchmarks-true-state-lstar-3seeds/n_states=11-n_outputs=4-glitch_percent=0.0/0bfcebdf177d86ecac165af9814e003e/alergiaLearned" {
q0 [label="d"];
q1 [label="a"];
q2 [label="a"];
q3 [label="d"];
q4 [label="a"];
q5 [label="c"];
q6 [label="b"];
q0 -> q1  [label="z:0.9375"];
q0 -> q5  [label="z:0.0625"];
q0 -> q2  [label="y:1.0"];
q0 -> q3  [label="x:0.9642857142857143"];
q0 -> q1  [label="x:0.03571428571428571"];
q1 -> q4  [label="x:0.8275862068965517"];
q1 -> q6  [label="x:0.1724137931034483"];
q1 -> q1  [label="y:0.7647058823529411"];
q1 -> q0  [label="y:0.17647058823529413"];
q1 -> q6  [label="y:0.058823529411764705"];
q1 -> q5  [label="z:0.35294117647058826"];
q1 -> q0  [label="z:0.17647058823529413"];
q1 -> q6  [label="z:0.11764705882352941"];
q1 -> q1  [label="z:0.35294117647058826"];
q2 -> q6  [label="x:1.0"];
q2 -> q6  [label="y:1.0"];
q2 -> q6  [label="z:1.0"];
q3 -> q4  [label="x:1.0"];
q3 -> q1  [label="y:1.0"];
q3 -> q5  [label="z:1.0"];
q4 -> q6  [label="x:1.0"];
q4 -> q0  [label="y:0.5454545454545454"];
q4 -> q1  [label="y:0.45454545454545453"];
q4 -> q0  [label="z:0.5454545454545454"];
q4 -> q6  [label="z:0.45454545454545453"];
q5 -> q1  [label="x:1.0"];
q5 -> q1  [label="y:1.0"];
q5 -> q6  [label="z:1.0"];
q6 -> q5  [label="x:0.3684210526315789"];
q6 -> q6  [label="x:0.3157894736842105"];
q6 -> q1  [label="x:0.3157894736842105"];
q6 -> q1  [label="y:0.6842105263157895"];
q6 -> q0  [label="y:0.3157894736842105"];
q6 -> q1  [label="z:0.3684210526315789"];
q6 -> q5  [label="z:0.3157894736842105"];
q6 -> q6  [label="z:0.3157894736842105"];
__start0 [label="", shape=none];
__start0 -> q0  [label=""];
}
