digraph "pmsatLearned-N8" {
0 [label="0|a", shape=record, style=rounded];
1 [label="1|b", shape=record, style=rounded];
2 [label="2|d", shape=record, style=rounded];
3 [label="3|e", shape=record, style=rounded];
4 [label="4|d", shape=record, style=rounded];
5 [label="5|b", shape=record, style=rounded];
6 [label="6|e", shape=record, style=rounded];
7 [label="7|b", shape=record, style=rounded];
0 -> 7  [label="x"];
0 -> 0  [label="y"];
0 -> 6  [label="z"];
1 -> 7  [label="z"];
1 -> 2  [label="y"];
1 -> 5  [label="x"];
2 -> 4  [label="x"];
2 -> 7  [label="y"];
2 -> 6  [label="z"];
3 -> 1  [label="x"];
3 -> 1  [label="y"];
3 -> 3  [label="z"];
4 -> 5  [label="x"];
4 -> 1  [label="y"];
4 -> 1  [label="z"];
5 -> 6  [label="x"];
5 -> 0  [label="y"];
5 -> 3  [label="z"];
6 -> 4  [label="x"];
6 -> 6  [label="y"];
6 -> 2  [label="z"];
7 -> 1  [label="x"];
7 -> 6  [label="y"];
7 -> 4  [label="z"];
__start0 [label="", shape=none];
__start0 -> 1  [label=""];
}
