digraph "pmsatLearned-N8-STOC" {
0 [label="0|b", shape=record, style=rounded];
1 [label="1|d", shape=record, style=rounded];
2 [label="2|e", shape=record, style=rounded];
3 [label="3|b", shape=record, style=rounded];
4 [label="4|b", shape=record, style=rounded];
5 [label="5|b", shape=record, style=rounded];
6 [label="6|b", shape=record, style=rounded];
7 [label="7|d", shape=record, style=rounded];
0 -> 2  [label="x (9)"];
0 -> 6  [label="y (17)"];
0 -> 3  [label="z (9)"];
1 -> 5  [label="z (23)"];
1 -> 7  [label="y (38)"];
1 -> 3  [label="x (75)"];
1 -> 2  [label="!x [1]"];
2 -> 0  [label="x (12)"];
2 -> 1  [label="y (13)"];
2 -> 5  [label="z (9)"];
3 -> 0  [label="x (30)"];
3 -> 4  [label="y (26)"];
3 -> 6  [label="z (23)"];
4 -> 6  [label="x (18)"];
4 -> 4  [label="y (12)"];
4 -> 7  [label="z (9)"];
5 -> 2  [label="x (7)"];
5 -> 4  [label="y (10)"];
5 -> 0  [label="z (7)"];
6 -> 7  [label="x (16)"];
6 -> 3  [label="y (11)"];
6 -> 4  [label="z (7)"];
7 -> 2  [label="x (24)"];
7 -> 2  [label="y (11)"];
7 -> 0  [label="z (8)"];
__start0 [label="", shape=none];
__start0 -> 1  [label=""];
}
