digraph "benchmarks-true-state-lstar-songp/n_states=13-n_outputs=6-glitch_percent=0.05-pmstrat='rc2'/ae4a2cbc637a18ea13c8775b63f665fb/pmsatLearned-N13" {
0 [label="0|a", shape=record, style=rounded];
1 [label="1|b", shape=record, style=rounded];
2 [label="2|c", shape=record, style=rounded];
3 [label="3|d", shape=record, style=rounded];
4 [label="4|e", shape=record, style=rounded];
5 [label="5|f", shape=record, style=rounded];
6 [label="6|e", shape=record, style=rounded];
7 [label="7|c", shape=record, style=rounded];
8 [label="8|f", shape=record, style=rounded];
9 [label="9|f", shape=record, style=rounded];
10 [label="10|a", shape=record, style=rounded];
11 [label="11|d", shape=record, style=rounded];
12 [label="12|d", shape=record, style=rounded];
0 -> 10  [label="z"];
0 -> 4  [label="y"];
0 -> 2  [label="x"];
1 -> 11  [label="x"];
1 -> 12  [label="y"];
1 -> 5  [label="z"];
2 -> 8  [label="x"];
2 -> 3  [label="y"];
2 -> 7  [label="z"];
3 -> 8  [label="x"];
3 -> 5  [label="y"];
3 -> 6  [label="z"];
4 -> 1  [label="x"];
4 -> 5  [label="y"];
4 -> 11  [label="z"];
5 -> 8  [label="x"];
5 -> 2  [label="y"];
5 -> 0  [label="z"];
6 -> 11  [label="x"];
6 -> 2  [label="y"];
6 -> 10  [label="z"];
7 -> 9  [label="x"];
7 -> 12  [label="y"];
7 -> 10  [label="z"];
8 -> 2  [label="x"];
8 -> 5  [label="y"];
8 -> 10  [label="z"];
9 -> 0  [label="x"];
9 -> 5  [label="y"];
9 -> 11  [label="z"];
10 -> 9  [label="x"];
10 -> 6  [label="y"];
10 -> 12  [label="z"];
11 -> 12  [label="x"];
11 -> 0  [label="y"];
11 -> 5  [label="z"];
12 -> 12  [label="x"];
12 -> 12  [label="z"];
12 -> 2  [label="y"];
__start0 [label="", shape=none];
__start0 -> 0  [label=""];
}
