digraph "benchmarks-true-state-lstar-3seeds/n_states=7-n_outputs=2-glitch_percent=0.01/7706f9ee33a4b16be779ea6580c3a094/pmsatLearned-N7-STOC" {
0 [label="0|a", shape=record, style=rounded];
1 [label="1|b", shape=record, style=rounded];
2 [label="2|a", shape=record, style=rounded];
3 [label="3|b", shape=record, style=rounded];
4 [label="4|a", shape=record, style=rounded];
5 [label="5|b", shape=record, style=rounded];
6 [label="6|a", shape=record, style=rounded];
0 -> 2  [label="z (22)"];
0 -> 1  [label="y (21)"];
0 -> 5  [label="x (56)"];
1 -> 4  [label="x (7)"];
1 -> 2  [label="y (7)"];
1 -> 1  [label="z (7)"];
2 -> 0  [label="x (7)"];
2 -> 5  [label="y (7)"];
2 -> 0  [label="z (7)"];
2 -> 3  [label="!x [1]"];
3 -> 0  [label="x (6)"];
3 -> 3  [label="y (6)"];
3 -> 4  [label="z (6)"];
4 -> 0  [label="x (8)"];
4 -> 2  [label="y (8)"];
4 -> 1  [label="z (7)"];
5 -> 3  [label="x (19)"];
5 -> 4  [label="y (19)"];
5 -> 6  [label="z (18)"];
6 -> 5  [label="x (5)"];
6 -> 6  [label="y (6)"];
6 -> 4  [label="z (6)"];
__start0 [label="", shape=none];
__start0 -> 0  [label=""];
}
