digraph "benchmarks-true-state-lstar-3seeds/n_states=14-n_outputs=2-glitch_percent=0.0/6a22986b0cda6a78148756cd4773cc10/alergiaLearned" {
q0 [label="b"];
q1 [label="a"];
q2 [label="a"];
q3 [label="a"];
q4 [label="b"];
q5 [label="b"];
q6 [label="a"];
q7 [label="a"];
q8 [label="a"];
q9 [label="b"];
q10 [label="a"];
q0 -> q1  [label="z:0.9537037037037037"];
q0 -> q0  [label="z:0.046296296296296294"];
q0 -> q2  [label="y:1.0"];
q0 -> q3  [label="x:0.967741935483871"];
q0 -> q0  [label="x:0.03225806451612903"];
q1 -> q4  [label="x:1.0"];
q1 -> q5  [label="y:0.9743589743589743"];
q1 -> q1  [label="y:0.02564102564102564"];
q1 -> q6  [label="z:0.9714285714285714"];
q1 -> q0  [label="z:0.02857142857142857"];
q2 -> q7  [label="x:0.948051948051948"];
q2 -> q0  [label="x:0.05194805194805195"];
q2 -> q8  [label="y:0.7659574468085106"];
q2 -> q0  [label="y:0.23404255319148937"];
q2 -> q8  [label="z:0.9285714285714286"];
q2 -> q0  [label="z:0.07142857142857142"];
q3 -> q9  [label="x:0.9726027397260274"];
q3 -> q1  [label="x:0.0273972602739726"];
q3 -> q6  [label="y:0.9047619047619048"];
q3 -> q0  [label="y:0.09523809523809523"];
q3 -> q10  [label="z:1.0"];
q4 -> q2  [label="x:0.9459459459459459"];
q4 -> q0  [label="x:0.05405405405405406"];
q4 -> q2  [label="y:1.0"];
q4 -> q0  [label="z:0.88"];
q4 -> q1  [label="z:0.12"];
q5 -> q3  [label="x:1.0"];
q5 -> q1  [label="y:1.0"];
q5 -> q0  [label="z:1.0"];
q6 -> q1  [label="x:1.0"];
q6 -> q9  [label="y:0.5"];
q6 -> q1  [label="y:0.5"];
q6 -> q0  [label="z:0.5"];
q6 -> q2  [label="z:0.5"];
q7 -> q0  [label="x:0.8571428571428571"];
q7 -> q1  [label="x:0.14285714285714285"];
q7 -> q1  [label="y:0.7222222222222222"];
q7 -> q0  [label="y:0.2777777777777778"];
q7 -> q9  [label="z:0.7894736842105263"];
q7 -> q1  [label="z:0.21052631578947367"];
q8 -> q2  [label="x:1.0"];
q8 -> q0  [label="y:0.5"];
q8 -> q2  [label="y:0.5"];
q8 -> q2  [label="z:0.5"];
q8 -> q0  [label="z:0.5"];
q9 -> q4  [label="x:1.0"];
q9 -> q1  [label="y:1.0"];
q9 -> q2  [label="z:1.0"];
q10 -> q9  [label="x:1.0"];
q10 -> q9  [label="y:1.0"];
q10 -> q2  [label="z:1.0"];
__start0 [label="", shape=none];
__start0 -> q0  [label=""];
}
