digraph "benchmarks-true-state-lstar-3seeds/n_states=17-n_outputs=6-glitch_percent=0.0/7585c136d554f45de43532229db207e7/pmsatLearned-N17" {
0 [label="0|a", shape=record, style=rounded];
1 [label="1|c", shape=record, style=rounded];
2 [label="2|d", shape=record, style=rounded];
3 [label="3|e", shape=record, style=rounded];
4 [label="4|f", shape=record, style=rounded];
5 [label="5|a", shape=record, style=rounded];
6 [label="6|a", shape=record, style=rounded];
7 [label="7|a", shape=record, style=rounded];
8 [label="8|d", shape=record, style=rounded];
9 [label="9|d", shape=record, style=rounded];
10 [label="10|e", shape=record, style=rounded];
11 [label="11|e", shape=record, style=rounded];
12 [label="12|c", shape=record, style=rounded];
13 [label="13|d", shape=record, style=rounded];
14 [label="14|c", shape=record, style=rounded];
15 [label="15|e", shape=record, style=rounded];
16 [label="16|d", shape=record, style=rounded];
0 -> 11  [label="x"];
0 -> 11  [label="y"];
0 -> 11  [label="z"];
1 -> 5  [label="z"];
1 -> 12  [label="y"];
1 -> 6  [label="x"];
2 -> 0  [label="x"];
2 -> 10  [label="y"];
2 -> 3  [label="z"];
3 -> 10  [label="x"];
3 -> 0  [label="y"];
3 -> 14  [label="z"];
4 -> 11  [label="x"];
4 -> 13  [label="y"];
4 -> 14  [label="z"];
5 -> 8  [label="x"];
5 -> 15  [label="y"];
5 -> 4  [label="z"];
6 -> 16  [label="x"];
6 -> 0  [label="y"];
6 -> 7  [label="z"];
7 -> 16  [label="x"];
7 -> 12  [label="y"];
7 -> 14  [label="z"];
8 -> 14  [label="x"];
8 -> 16  [label="y"];
8 -> 12  [label="z"];
9 -> 6  [label="x"];
9 -> 8  [label="y"];
9 -> 16  [label="z"];
10 -> 10  [label="x"];
10 -> 11  [label="y"];
10 -> 6  [label="z"];
11 -> 3  [label="x"];
11 -> 12  [label="y"];
11 -> 7  [label="z"];
12 -> 9  [label="x"];
12 -> 13  [label="y"];
12 -> 2  [label="z"];
13 -> 3  [label="x"];
13 -> 11  [label="y"];
13 -> 7  [label="z"];
14 -> 5  [label="x"];
14 -> 13  [label="y"];
14 -> 7  [label="z"];
15 -> 5  [label="x"];
15 -> 3  [label="y"];
15 -> 2  [label="z"];
16 -> 10  [label="x"];
16 -> 14  [label="y"];
16 -> 3  [label="z"];
__start0 [label="", shape=none];
__start0 -> 1  [label=""];
}
