digraph "benchmarks-true-state-lstar-3seeds/n_states=17-n_outputs=4-glitch_percent=0.05/ef8bc6a297626a2b485d371e3d423797/alergiaLearned" {
q0 [label="c"];
q1 [label="a"];
q2 [label="c"];
q3 [label="c"];
q4 [label="d"];
q5 [label="d"];
q6 [label="a"];
q7 [label="c"];
q0 -> q1  [label="z:0.975609756097561"];
q0 -> q5  [label="z:0.024390243902439025"];
q0 -> q2  [label="y:0.9548872180451128"];
q0 -> q4  [label="y:0.03759398496240601"];
q0 -> q6  [label="y:0.007518796992481203"];
q0 -> q3  [label="x:0.9466666666666667"];
q0 -> q6  [label="x:0.05333333333333334"];
q1 -> q6  [label="y:0.9375"];
q1 -> q4  [label="y:0.0625"];
q1 -> q5  [label="z:0.9661016949152542"];
q1 -> q6  [label="z:0.03389830508474576"];
q1 -> q6  [label="x:0.8387096774193549"];
q1 -> q2  [label="x:0.16129032258064516"];
q1 -> q4  [label="x:0.0"];
q2 -> q6  [label="x:0.8490566037735849"];
q2 -> q0  [label="x:0.1509433962264151"];
q2 -> q6  [label="z:1.0"];
q2 -> q0  [label="z:0.0"];
q2 -> q4  [label="y:1.0"];
q3 -> q7  [label="x:1.0"];
q3 -> q7  [label="y:0.96"];
q3 -> q4  [label="y:0.04"];
q3 -> q6  [label="z:0.9565217391304348"];
q3 -> q4  [label="z:0.043478260869565216"];
q4 -> q2  [label="x:0.8181818181818182"];
q4 -> q1  [label="x:0.18181818181818182"];
q4 -> q6  [label="z:0.78125"];
q4 -> q4  [label="z:0.03125"];
q4 -> q0  [label="z:0.1875"];
q4 -> q2  [label="y:0.25"];
q4 -> q1  [label="y:0.5"];
q4 -> q4  [label="y:0.25"];
q5 -> q4  [label="y:1.0"];
q5 -> q2  [label="z:1.0"];
q5 -> q6  [label="x:1.0"];
q6 -> q0  [label="x:0.6323529411764706"];
q6 -> q6  [label="x:0.17647058823529413"];
q6 -> q4  [label="x:0.19117647058823528"];
q6 -> q6  [label="y:0.9491525423728814"];
q6 -> q0  [label="y:0.05084745762711865"];
q6 -> q6  [label="z:0.8076923076923077"];
q6 -> q4  [label="z:0.15384615384615385"];
q6 -> q2  [label="z:0.038461538461538464"];
q7 -> q1  [label="x:1.0"];
q7 -> q0  [label="z:0.2857142857142857"];
q7 -> q6  [label="z:0.7142857142857143"];
q7 -> q6  [label="y:1.0"];
__start0 [label="", shape=none];
__start0 -> q0  [label=""];
}
