digraph "benchmarks-true-state-lstar-3seeds/n_states=3-n_outputs=3-glitch_percent=0.05/6b5d12a85ac902659f6526cfffa139a8/pmsatLearned-N3" {
0 [label="0|a", shape=record, style=rounded];
1 [label="1|b", shape=record, style=rounded];
2 [label="2|a", shape=record, style=rounded];
0 -> 2  [label="z"];
0 -> 2  [label="y"];
0 -> 1  [label="x"];
1 -> 2  [label="x"];
1 -> 0  [label="y"];
1 -> 0  [label="z"];
2 -> 0  [label="x"];
2 -> 1  [label="y"];
2 -> 2  [label="z"];
__start0 [label="", shape=none];
__start0 -> 0  [label=""];
}
