digraph alergiaLearned {
q0 [label="b"];
q1 [label="e"];
q2 [label="e"];
q3 [label="d"];
q4 [label="c"];
q5 [label="e"];
q6 [label="b"];
q0 -> q1  [label="z:0.9615384615384616"];
q0 -> q0  [label="z:0.038461538461538464"];
q0 -> q2  [label="y:1.0"];
q0 -> q3  [label="x:1.0"];
q1 -> q1  [label="x:0.9166666666666666"];
q1 -> q0  [label="x:0.08333333333333333"];
q1 -> q2  [label="y:0.8333333333333334"];
q1 -> q0  [label="y:0.08333333333333333"];
q1 -> q4  [label="y:0.08333333333333333"];
q1 -> q0  [label="z:0.8333333333333334"];
q1 -> q1  [label="z:0.16666666666666666"];
q2 -> q1  [label="x:1.0"];
q2 -> q4  [label="y:0.8333333333333334"];
q2 -> q1  [label="y:0.16666666666666666"];
q2 -> q1  [label="z:1.0"];
q3 -> q4  [label="x:1.0"];
q3 -> q5  [label="y:1.0"];
q3 -> q6  [label="z:1.0"];
q4 -> q4  [label="x:1.0"];
q4 -> q3  [label="y:1.0"];
q4 -> q4  [label="z:1.0"];
q5 -> q0  [label="x:1.0"];
q5 -> q0  [label="y:1.0"];
q5 -> q1  [label="z:1.0"];
q6 -> q3  [label="x:1.0"];
q6 -> q1  [label="y:1.0"];
q6 -> q1  [label="z:1.0"];
__start0 [label="", shape=none];
__start0 -> q0  [label=""];
}
