digraph "benchmarks-true-state-lstar-3seeds/n_states=6-n_outputs=5-glitch_percent=0.05/c0248d19fe50f3e11bec13fcccf56c7a/alergiaLearned" {
q0 [label="a"];
q1 [label="e"];
q2 [label="a"];
q3 [label="b"];
q4 [label="d"];
q0 -> q1  [label="z:0.84"];
q0 -> q0  [label="z:0.16"];
q0 -> q2  [label="y:0.9130434782608695"];
q0 -> q3  [label="y:0.08695652173913043"];
q0 -> q3  [label="x:0.9545454545454546"];
q0 -> q0  [label="x:0.045454545454545456"];
q1 -> q0  [label="x:0.5"];
q1 -> q3  [label="x:0.5"];
q1 -> q4  [label="y:0.5"];
q1 -> q0  [label="y:0.5"];
q1 -> q1  [label="z:1.0"];
q2 -> q0  [label="x:1.0"];
q2 -> q3  [label="y:1.0"];
q2 -> q0  [label="z:1.0"];
q3 -> q4  [label="x:0.8947368421052632"];
q3 -> q3  [label="x:0.05263157894736842"];
q3 -> q2  [label="x:0.05263157894736842"];
q3 -> q1  [label="y:1.0"];
q3 -> q0  [label="z:0.8"];
q3 -> q1  [label="z:0.2"];
q4 -> q0  [label="x:1.0"];
q4 -> q1  [label="y:1.0"];
q4 -> q0  [label="z:1.0"];
__start0 [label="", shape=none];
__start0 -> q0  [label=""];
}
