digraph "pmsatLearned-N8-STOC" {
0 [label="0|a", shape=record, style=rounded];
1 [label="1|b", shape=record, style=rounded];
2 [label="2|c", shape=record, style=rounded];
3 [label="3|d", shape=record, style=rounded];
4 [label="4|a", shape=record, style=rounded];
5 [label="5|b", shape=record, style=rounded];
6 [label="6|a", shape=record, style=rounded];
7 [label="7|b", shape=record, style=rounded];
0 -> 4  [label="z (396)"];
0 -> 5  [label="y (351)"];
0 -> 7  [label="x (404)"];
0 -> 0  [label="!y [2]"];
0 -> 1  [label="!x [2]"];
0 -> 4  [label="!y [2] t1"];
0 -> 6  [label="!z [1]"];
0 -> 0  [label="!z [1] t1"];
0 -> 1  [label="!y [1]"];
0 -> 0  [label="!x [1]"];
1 -> 7  [label="x (146)"];
1 -> 3  [label="y (146)"];
1 -> 7  [label="z (138)"];
1 -> 3  [label="!x [1]"];
1 -> 6  [label="!z [1]"];
1 -> 1  [label="!y [1]"];
2 -> 4  [label="x (148)"];
2 -> 0  [label="y (171)"];
2 -> 6  [label="z (156)"];
2 -> 7  [label="!x [1]"];
2 -> 1  [label="!z [1]"];
3 -> 5  [label="x (127)"];
3 -> 2  [label="y (128)"];
3 -> 4  [label="z (100)"];
3 -> 0  [label="!y [2]"];
3 -> 4  [label="!x [2]"];
3 -> 4  [label="!y [1]"];
3 -> 2  [label="!x [1]"];
4 -> 0  [label="x (284)"];
4 -> 4  [label="y (268)"];
4 -> 2  [label="z (262)"];
4 -> 6  [label="!z [2]"];
5 -> 2  [label="x (151)"];
5 -> 0  [label="y (136)"];
5 -> 1  [label="z (147)"];
5 -> 5  [label="!y [1]"];
5 -> 7  [label="!x [1]"];
5 -> 4  [label="!z [1]"];
6 -> 0  [label="x (127)"];
6 -> 7  [label="y (115)"];
6 -> 1  [label="z (100)"];
6 -> 7  [label="!z [3]"];
6 -> 1  [label="!y [1]"];
7 -> 3  [label="x (250)"];
7 -> 1  [label="y (244)"];
7 -> 6  [label="z (227)"];
7 -> 5  [label="!y [1]"];
7 -> 0  [label="!z [1]"];
7 -> 7  [label="!x [1]"];
__start0 [label="", shape=none];
__start0 -> 0  [label=""];
}
