digraph "benchmarks-true-state-lstar-3seeds/n_states=8-n_outputs=8-glitch_percent=0.0/dd430f0b57c5b3b415b7f76877717468/pmsatLearned-N8" {
0 [label="0|a", shape=record, style=rounded];
1 [label="1|b", shape=record, style=rounded];
2 [label="2|c", shape=record, style=rounded];
3 [label="3|d", shape=record, style=rounded];
4 [label="4|g", shape=record, style=rounded];
5 [label="5|h", shape=record, style=rounded];
6 [label="6|b", shape=record, style=rounded];
7 [label="7|g", shape=record, style=rounded];
0 -> 1  [label="x"];
0 -> 3  [label="y"];
0 -> 6  [label="z"];
1 -> 7  [label="z"];
1 -> 6  [label="y"];
1 -> 5  [label="x"];
2 -> 7  [label="x"];
2 -> 0  [label="y"];
2 -> 5  [label="z"];
3 -> 0  [label="x"];
3 -> 3  [label="y"];
3 -> 1  [label="z"];
4 -> 4  [label="x"];
4 -> 7  [label="y"];
4 -> 6  [label="z"];
5 -> 0  [label="x"];
5 -> 3  [label="y"];
5 -> 4  [label="z"];
6 -> 2  [label="x"];
6 -> 3  [label="y"];
6 -> 6  [label="z"];
7 -> 3  [label="x"];
7 -> 1  [label="y"];
7 -> 7  [label="z"];
__start0 [label="", shape=none];
__start0 -> 1  [label=""];
}
