digraph "benchmarks-true-state-lstar-3seeds/n_states=10-n_outputs=6-glitch_percent=0.02/f7241c3c874f8563fc22f92113fb2a52/alergiaLearned" {
q0 [label="c"];
q1 [label="c"];
q2 [label="c"];
q3 [label="d"];
q4 [label="a"];
q5 [label="d"];
q6 [label="d"];
q0 -> q1  [label="z:0.96"];
q0 -> q3  [label="z:0.04"];
q0 -> q4  [label="z:0.0"];
q0 -> q2  [label="y:1.0"];
q0 -> q3  [label="y:0.0"];
q0 -> q3  [label="x:1.0"];
q0 -> q4  [label="x:0.0"];
q1 -> q4  [label="x:0.5652173913043478"];
q1 -> q5  [label="x:0.43478260869565216"];
q1 -> q3  [label="y:0.5294117647058824"];
q1 -> q0  [label="y:0.47058823529411764"];
q1 -> q1  [label="z:0.5"];
q1 -> q4  [label="z:0.05555555555555555"];
q1 -> q3  [label="z:0.4444444444444444"];
q2 -> q5  [label="x:1.0"];
q2 -> q1  [label="y:1.0"];
q2 -> q4  [label="z:1.0"];
q3 -> q6  [label="x:0.8333333333333334"];
q3 -> q0  [label="x:0.13333333333333333"];
q3 -> q4  [label="x:0.03333333333333333"];
q3 -> q4  [label="y:0.88"];
q3 -> q5  [label="y:0.08"];
q3 -> q0  [label="y:0.04"];
q3 -> q4  [label="z:0.8787878787878788"];
q3 -> q0  [label="z:0.09090909090909091"];
q3 -> q3  [label="z:0.030303030303030304"];
q4 -> q0  [label="x:0.9666666666666667"];
q4 -> q4  [label="x:0.03333333333333333"];
q4 -> q3  [label="y:0.6842105263157895"];
q4 -> q1  [label="y:0.3157894736842105"];
q4 -> q0  [label="z:1.0"];
q5 -> q4  [label="x:1.0"];
q5 -> q5  [label="x:0.0"];
q5 -> q1  [label="y:1.0"];
q5 -> q4  [label="y:0.0"];
q5 -> q1  [label="z:0.7272727272727273"];
q5 -> q3  [label="z:0.18181818181818182"];
q5 -> q4  [label="z:0.09090909090909091"];
q6 -> q1  [label="x:1.0"];
q6 -> q3  [label="y:1.0"];
q6 -> q3  [label="z:1.0"];
__start0 [label="", shape=none];
__start0 -> q0  [label=""];
}
