digraph "benchmarks-true-state-lstar-3seeds/n_states=14-n_outputs=2-glitch_percent=0.05/395fd4110e5999472b7d5586f4a2075a/alergiaLearned" {
q0 [label="b"];
q1 [label="b"];
q2 [label="a"];
q3 [label="a"];
q4 [label="b"];
q5 [label="b"];
q6 [label="b"];
q7 [label="b"];
q0 -> q1  [label="z:0.9642857142857143"];
q0 -> q3  [label="z:0.03571428571428571"];
q0 -> q2  [label="y:0.945054945054945"];
q0 -> q1  [label="y:0.054945054945054944"];
q0 -> q4  [label="x:0.9752066115702479"];
q0 -> q3  [label="x:0.024793388429752067"];
q1 -> q3  [label="x:0.9714285714285714"];
q1 -> q0  [label="x:0.02857142857142857"];
q1 -> q3  [label="y:0.96875"];
q1 -> q0  [label="y:0.03125"];
q1 -> q5  [label="z:0.9642857142857143"];
q1 -> q2  [label="z:0.03571428571428571"];
q2 -> q3  [label="x:0.8947368421052632"];
q2 -> q1  [label="x:0.10526315789473684"];
q2 -> q3  [label="y:0.7666666666666667"];
q2 -> q0  [label="y:0.23333333333333334"];
q2 -> q3  [label="z:0.8518518518518519"];
q2 -> q0  [label="z:0.14814814814814814"];
q3 -> q4  [label="y:0.9761904761904762"];
q3 -> q2  [label="y:0.023809523809523808"];
q3 -> q1  [label="x:0.6"];
q3 -> q2  [label="x:0.4"];
q3 -> q0  [label="z:0.7647058823529411"];
q3 -> q2  [label="z:0.23529411764705882"];
q4 -> q6  [label="x:1.0"];
q4 -> q2  [label="x:0.0"];
q4 -> q7  [label="z:1.0"];
q4 -> q6  [label="y:1.0"];
q4 -> q2  [label="y:0.0"];
q5 -> q2  [label="x:1.0"];
q5 -> q3  [label="y:0.9375"];
q5 -> q0  [label="y:0.0625"];
q5 -> q3  [label="z:1.0"];
q6 -> q5  [label="x:0.8809523809523809"];
q6 -> q3  [label="x:0.11904761904761904"];
q6 -> q1  [label="y:0.5"];
q6 -> q2  [label="y:0.5"];
q6 -> q0  [label="z:0.9230769230769231"];
q6 -> q2  [label="z:0.07692307692307693"];
q7 -> q0  [label="y:1.0"];
q7 -> q0  [label="z:1.0"];
q7 -> q0  [label="x:1.0"];
__start0 [label="", shape=none];
__start0 -> q0  [label=""];
}
