digraph "benchmarks-true-state-lstar-rc10seeds/n_states=16-n_outputs=3-glitch_percent=0.0/bde6350fd394e163df70831e33ee03d9/pmsatLearned_NOP-N16-STOC" {
0 [label="0|a", shape=record, style=rounded];
1 [label="1|a", shape=record, style=rounded];
2 [label="2|a", shape=record, style=rounded];
3 [label="3|c", shape=record, style=rounded];
4 [label="4|a", shape=record, style=rounded];
5 [label="5|b", shape=record, style=rounded];
6 [label="6|a", shape=record, style=rounded];
7 [label="7|a", shape=record, style=rounded];
8 [label="8|a", shape=record, style=rounded];
9 [label="9|a", shape=record, style=rounded];
10 [label="10|b", shape=record, style=rounded];
11 [label="11|a", shape=record, style=rounded];
12 [label="12|c", shape=record, style=rounded];
13 [label="13|c", shape=record, style=rounded];
14 [label="14|c", shape=record, style=rounded];
15 [label="15|a", shape=record, style=rounded];
0 -> 14  [label="x (14)"];
0 -> 5  [label="y (16)"];
0 -> 8  [label="z (9)"];
1 -> 6  [label="z (82)"];
1 -> 7  [label="y (84)"];
1 -> 15  [label="x (150)"];
2 -> 13  [label="x (20)"];
2 -> 9  [label="y (12)"];
2 -> 9  [label="z (9)"];
3 -> 9  [label="x (16)"];
3 -> 6  [label="y (15)"];
3 -> 1  [label="z (8)"];
4 -> 11  [label="x (12)"];
4 -> 4  [label="y (10)"];
4 -> 9  [label="z (8)"];
5 -> 11  [label="x (21)"];
5 -> 13  [label="y (20)"];
5 -> 7  [label="z (10)"];
6 -> 14  [label="x (32)"];
6 -> 10  [label="y (34)"];
6 -> 4  [label="z (27)"];
7 -> 11  [label="x (31)"];
7 -> 2  [label="y (28)"];
7 -> 13  [label="z (26)"];
8 -> 12  [label="x (29)"];
8 -> 3  [label="y (34)"];
8 -> 0  [label="z (30)"];
9 -> 3  [label="x (21)"];
9 -> 13  [label="y (22)"];
9 -> 5  [label="z (11)"];
10 -> 14  [label="x (20)"];
10 -> 15  [label="y (16)"];
10 -> 14  [label="z (9)"];
11 -> 14  [label="x (12)"];
11 -> 1  [label="y (20)"];
11 -> 12  [label="z (9)"];
12 -> 6  [label="x (11)"];
12 -> 0  [label="y (12)"];
12 -> 2  [label="z (8)"];
13 -> 10  [label="x (23)"];
13 -> 10  [label="y (17)"];
13 -> 0  [label="z (10)"];
14 -> 5  [label="x (18)"];
14 -> 2  [label="y (30)"];
14 -> 14  [label="z (12)"];
15 -> 8  [label="x (94)"];
15 -> 9  [label="y (31)"];
15 -> 5  [label="z (26)"];
__start0 [label="", shape=none];
__start0 -> 1  [label=""];
}
