digraph "benchmarks-true-state-lstar-3seeds/n_states=16-n_outputs=4-glitch_percent=0.1/4ddb68b9f8ad04038aae6da6f3fbcd29/alergiaLearned" {
q0 [label="a"];
q1 [label="a"];
q2 [label="c"];
q3 [label="c"];
q4 [label="a"];
q5 [label="c"];
q6 [label="b"];
q7 [label="d"];
q0 -> q1  [label="z:0.9152542372881356"];
q0 -> q5  [label="z:0.05084745762711865"];
q0 -> q6  [label="z:0.01694915254237288"];
q0 -> q7  [label="z:0.01694915254237288"];
q0 -> q2  [label="y:0.8620689655172413"];
q0 -> q0  [label="y:0.10344827586206896"];
q0 -> q6  [label="y:0.034482758620689655"];
q0 -> q3  [label="x:0.8876404494382022"];
q0 -> q4  [label="x:0.033707865168539325"];
q0 -> q7  [label="x:0.07865168539325842"];
q0 -> q6  [label="x:0.0"];
q1 -> q4  [label="x:0.8695652173913043"];
q1 -> q6  [label="x:0.13043478260869565"];
q1 -> q5  [label="z:0.8260869565217391"];
q1 -> q6  [label="z:0.17391304347826086"];
q1 -> q7  [label="z:0.0"];
q1 -> q6  [label="y:0.625"];
q1 -> q0  [label="y:0.375"];
q2 -> q7  [label="x:0.5517241379310345"];
q2 -> q0  [label="x:0.3793103448275862"];
q2 -> q6  [label="x:0.06896551724137931"];
q2 -> q2  [label="y:0.7083333333333334"];
q2 -> q0  [label="y:0.25"];
q2 -> q6  [label="y:0.041666666666666664"];
q2 -> q1  [label="z:0.6521739130434783"];
q2 -> q2  [label="z:0.17391304347826086"];
q2 -> q6  [label="z:0.043478260869565216"];
q2 -> q7  [label="z:0.13043478260869565"];
q3 -> q7  [label="x:1.0"];
q3 -> q6  [label="z:0.8235294117647058"];
q3 -> q2  [label="z:0.058823529411764705"];
q3 -> q4  [label="z:0.058823529411764705"];
q3 -> q7  [label="z:0.058823529411764705"];
q3 -> q4  [label="y:0.8666666666666667"];
q3 -> q6  [label="y:0.06666666666666667"];
q3 -> q2  [label="y:0.06666666666666667"];
q4 -> q0  [label="y:0.6666666666666666"];
q4 -> q6  [label="y:0.3333333333333333"];
q4 -> q0  [label="x:0.5"];
q4 -> q7  [label="x:0.5"];
q4 -> q6  [label="x:0.0"];
q4 -> q7  [label="z:0.75"];
q4 -> q0  [label="z:0.25"];
q5 -> q5  [label="y:1.0"];
q5 -> q6  [label="x:0.8333333333333334"];
q5 -> q7  [label="x:0.16666666666666666"];
q5 -> q2  [label="z:0.8571428571428571"];
q5 -> q6  [label="z:0.14285714285714285"];
q6 -> q2  [label="z:0.8181818181818182"];
q6 -> q7  [label="z:0.18181818181818182"];
q6 -> q7  [label="x:0.5625"];
q6 -> q6  [label="x:0.0625"];
q6 -> q2  [label="x:0.375"];
q6 -> q7  [label="y:0.6666666666666666"];
q6 -> q2  [label="y:0.08333333333333333"];
q6 -> q4  [label="y:0.25"];
q7 -> q2  [label="z:0.24"];
q7 -> q1  [label="z:0.76"];
q7 -> q6  [label="y:0.24"];
q7 -> q2  [label="y:0.68"];
q7 -> q7  [label="y:0.08"];
q7 -> q7  [label="x:0.75"];
q7 -> q4  [label="x:0.25"];
__start0 [label="", shape=none];
__start0 -> q0  [label=""];
}
