digraph "benchmarks-true-state-lstar-3seeds/n_states=14-n_outputs=3-glitch_percent=0.01/10c81e279ec7e9066df11949e40abd81/alergiaLearned" {
q0 [label="b"];
q1 [label="c"];
q2 [label="a"];
q3 [label="a"];
q4 [label="b"];
q5 [label="c"];
q6 [label="b"];
q7 [label="a"];
q0 -> q1  [label="z:0.8852459016393442"];
q0 -> q0  [label="z:0.06557377049180328"];
q0 -> q2  [label="z:0.04918032786885246"];
q0 -> q2  [label="y:0.8688524590163934"];
q0 -> q4  [label="y:0.08196721311475409"];
q0 -> q1  [label="y:0.04918032786885246"];
q0 -> q3  [label="x:0.9722222222222222"];
q0 -> q0  [label="x:0.027777777777777776"];
q1 -> q2  [label="x:1.0"];
q1 -> q4  [label="y:0.9523809523809523"];
q1 -> q1  [label="y:0.047619047619047616"];
q1 -> q4  [label="z:1.0"];
q2 -> q5  [label="x:0.8571428571428571"];
q2 -> q2  [label="x:0.14285714285714285"];
q2 -> q0  [label="x:0.0"];
q2 -> q4  [label="y:0.76"];
q2 -> q1  [label="y:0.24"];
q2 -> q2  [label="y:0.0"];
q2 -> q4  [label="z:0.8888888888888888"];
q2 -> q1  [label="z:0.07407407407407407"];
q2 -> q2  [label="z:0.037037037037037035"];
q3 -> q6  [label="x:1.0"];
q3 -> q7  [label="y:1.0"];
q3 -> q4  [label="z:1.0"];
q4 -> q7  [label="y:0.4"];
q4 -> q0  [label="y:0.4"];
q4 -> q1  [label="y:0.2"];
q4 -> q2  [label="x:0.5833333333333334"];
q4 -> q0  [label="x:0.4166666666666667"];
q4 -> q2  [label="z:0.4"];
q4 -> q0  [label="z:0.6"];
q5 -> q0  [label="x:0.8333333333333334"];
q5 -> q2  [label="x:0.16666666666666666"];
q5 -> q2  [label="y:0.8333333333333334"];
q5 -> q0  [label="y:0.16666666666666666"];
q5 -> q0  [label="z:1.0"];
q6 -> q7  [label="x:1.0"];
q6 -> q0  [label="y:1.0"];
q6 -> q0  [label="z:1.0"];
q7 -> q2  [label="x:1.0"];
q7 -> q0  [label="y:1.0"];
q7 -> q2  [label="z:0.5"];
q7 -> q0  [label="z:0.0"];
q7 -> q1  [label="z:0.5"];
__start0 [label="", shape=none];
__start0 -> q0  [label=""];
}
