digraph "benchmarks-true-state-lstar-3seeds/n_states=9-n_outputs=8-glitch_percent=0.1/8a981c9fe3f70c5cf790aa3c18fde20c/alergiaLearned" {
q0 [label="h"];
q1 [label="f"];
q2 [label="d"];
q3 [label="f"];
q4 [label="h"];
q5 [label="b"];
q6 [label="e"];
q7 [label="d"];
q8 [label="e"];
q0 -> q1  [label="z:0.8888888888888888"];
q0 -> q5  [label="z:0.05555555555555555"];
q0 -> q0  [label="z:0.05555555555555555"];
q0 -> q2  [label="y:0.926829268292683"];
q0 -> q5  [label="y:0.024390243902439025"];
q0 -> q1  [label="y:0.04878048780487805"];
q0 -> q3  [label="x:0.8596491228070176"];
q0 -> q4  [label="x:0.07017543859649122"];
q0 -> q6  [label="x:0.05263157894736842"];
q0 -> q2  [label="x:0.017543859649122806"];
q1 -> q1  [label="x:0.6"];
q1 -> q0  [label="x:0.3"];
q1 -> q6  [label="x:0.1"];
q1 -> q5  [label="y:0.5"];
q1 -> q2  [label="y:0.42857142857142855"];
q1 -> q1  [label="y:0.07142857142857142"];
q1 -> q6  [label="z:0.6363636363636364"];
q1 -> q1  [label="z:0.2727272727272727"];
q1 -> q5  [label="z:0.09090909090909091"];
q2 -> q4  [label="x:0.9166666666666666"];
q2 -> q2  [label="x:0.08333333333333333"];
q2 -> q7  [label="y:0.9473684210526315"];
q2 -> q1  [label="y:0.05263157894736842"];
q2 -> q6  [label="z:1.0"];
q3 -> q8  [label="x:0.8666666666666667"];
q3 -> q0  [label="x:0.13333333333333333"];
q3 -> q1  [label="y:0.8571428571428571"];
q3 -> q2  [label="y:0.07142857142857142"];
q3 -> q5  [label="y:0.07142857142857142"];
q3 -> q5  [label="z:0.9375"];
q3 -> q1  [label="z:0.0625"];
q4 -> q4  [label="z:1.0"];
q4 -> q1  [label="y:1.0"];
q4 -> q2  [label="x:1.0"];
q5 -> q6  [label="z:1.0"];
q5 -> q0  [label="x:1.0"];
q5 -> q5  [label="y:1.0"];
q6 -> q6  [label="x:1.0"];
q6 -> q1  [label="y:1.0"];
q6 -> q5  [label="z:1.0"];
q7 -> q1  [label="x:1.0"];
q7 -> q1  [label="y:1.0"];
q7 -> q0  [label="z:1.0"];
q8 -> q1  [label="y:1.0"];
q8 -> q5  [label="z:1.0"];
q8 -> q6  [label="x:1.0"];
__start0 [label="", shape=none];
__start0 -> q0  [label=""];
}
