digraph "benchmarks-true-state-lstar-3seeds/n_states=13-n_outputs=7-glitch_percent=0.05/0771ef84614d4edb64648897adc218ba/pmsatLearned-N13" {
0 [label="0|a", shape=record, style=rounded];
1 [label="1|b", shape=record, style=rounded];
2 [label="2|c", shape=record, style=rounded];
3 [label="3|d", shape=record, style=rounded];
4 [label="4|e", shape=record, style=rounded];
5 [label="5|f", shape=record, style=rounded];
6 [label="6|g", shape=record, style=rounded];
7 [label="7|c", shape=record, style=rounded];
8 [label="8|d", shape=record, style=rounded];
9 [label="9|g", shape=record, style=rounded];
10 [label="10|c", shape=record, style=rounded];
11 [label="11|c", shape=record, style=rounded];
12 [label="12|f", shape=record, style=rounded];
0 -> 4  [label="z"];
0 -> 8  [label="y"];
0 -> 7  [label="x"];
1 -> 5  [label="x"];
1 -> 0  [label="y"];
1 -> 6  [label="z"];
2 -> 6  [label="x"];
2 -> 9  [label="y"];
2 -> 10  [label="z"];
3 -> 0  [label="z"];
3 -> 2  [label="y"];
3 -> 12  [label="x"];
4 -> 12  [label="x"];
4 -> 4  [label="y"];
4 -> 10  [label="z"];
5 -> 6  [label="x"];
5 -> 4  [label="y"];
5 -> 10  [label="z"];
6 -> 1  [label="x"];
6 -> 2  [label="y"];
6 -> 4  [label="z"];
7 -> 2  [label="x"];
7 -> 5  [label="y"];
7 -> 4  [label="z"];
8 -> 6  [label="x"];
8 -> 8  [label="z"];
8 -> 7  [label="y"];
9 -> 0  [label="x"];
9 -> 5  [label="y"];
9 -> 3  [label="z"];
10 -> 7  [label="x"];
10 -> 1  [label="y"];
10 -> 12  [label="z"];
11 -> 1  [label="x"];
11 -> 10  [label="y"];
11 -> 10  [label="z"];
12 -> 11  [label="x"];
12 -> 1  [label="y"];
12 -> 5  [label="z"];
__start0 [label="", shape=none];
__start0 -> 3  [label=""];
}
