digraph "benchmarks-true-state-lstar-rc10seeds/n_states=2-n_outputs=2-glitch_percent=0.01/e200720234321855ddf98f06cd66ca2e/pmsatLearned_NOP-N2" {
0 [label="0|a", shape=record, style=rounded];
1 [label="1|b", shape=record, style=rounded];
0 -> 1  [label="z"];
0 -> 1  [label="y"];
0 -> 1  [label="x"];
1 -> 1  [label="x"];
1 -> 1  [label="y"];
1 -> 0  [label="z"];
__start0 [label="", shape=none];
__start0 -> 0  [label=""];
}
