digraph "benchmarks-true-state-lstar-rc10seeds/n_states=6-n_outputs=4-glitch_percent=0.0/e2d07899756f29fede7fb6c257392f91/pmsatLearned_NOP-N6" {
0 [label="0|a", shape=record, style=rounded];
1 [label="1|c", shape=record, style=rounded];
2 [label="2|c", shape=record, style=rounded];
3 [label="3|d", shape=record, style=rounded];
4 [label="4|d", shape=record, style=rounded];
5 [label="5|c", shape=record, style=rounded];
0 -> 5  [label="x"];
0 -> 1  [label="y"];
0 -> 3  [label="z"];
1 -> 3  [label="z"];
1 -> 5  [label="y"];
1 -> 2  [label="x"];
2 -> 0  [label="x"];
2 -> 4  [label="y"];
2 -> 2  [label="z"];
3 -> 3  [label="x"];
3 -> 4  [label="y"];
3 -> 2  [label="z"];
4 -> 5  [label="x"];
4 -> 4  [label="y"];
4 -> 0  [label="z"];
5 -> 1  [label="x"];
5 -> 1  [label="y"];
5 -> 1  [label="z"];
__start0 [label="", shape=none];
__start0 -> 1  [label=""];
}
