digraph "benchmarks-true-state-lstar-songp/n_states=14-n_outputs=4-glitch_percent=0.05-pmstrat='fm'/7210ef34159f2d3885a0bb56949e6149/pmsatLearned-N14-STOC" {
0 [label="0|a", shape=record, style=rounded];
1 [label="1|b", shape=record, style=rounded];
2 [label="2|c", shape=record, style=rounded];
3 [label="3|d", shape=record, style=rounded];
4 [label="4|c", shape=record, style=rounded];
5 [label="5|c", shape=record, style=rounded];
6 [label="6|d", shape=record, style=rounded];
7 [label="7|d", shape=record, style=rounded];
8 [label="8|a", shape=record, style=rounded];
9 [label="9|d", shape=record, style=rounded];
10 [label="10|d", shape=record, style=rounded];
11 [label="11|b", shape=record, style=rounded];
12 [label="12|a", shape=record, style=rounded];
13 [label="13|d", shape=record, style=rounded];
0 -> 5  [label="z (53)"];
0 -> 13  [label="y (52)"];
0 -> 2  [label="x (68)"];
0 -> 6  [label="!y [2]"];
0 -> 3  [label="!x [1]"];
0 -> 12  [label="!z [1]"];
0 -> 7  [label="!y [1]"];
1 -> 9  [label="x (6)"];
1 -> 4  [label="y (5)"];
1 -> 10  [label="z (7)"];
1 -> 4  [label="!z [1]"];
2 -> 4  [label="x (33)"];
2 -> 3  [label="y (18)"];
2 -> 12  [label="z (17)"];
2 -> 0  [label="!y [1]"];
3 -> 0  [label="x (5)"];
3 -> 6  [label="y (7)"];
3 -> 0  [label="z (5)"];
4 -> 1  [label="x (19)"];
4 -> 3  [label="y (9)"];
4 -> 2  [label="z (8)"];
4 -> 4  [label="!y [1]"];
4 -> 3  [label="!x [1]"];
5 -> 8  [label="x (18)"];
5 -> 6  [label="y (17)"];
5 -> 11  [label="z (19)"];
6 -> 4  [label="x (9)"];
6 -> 0  [label="y (8)"];
6 -> 2  [label="z (8)"];
7 -> 1  [label="x (6)"];
7 -> 5  [label="y (6)"];
7 -> 5  [label="z (5)"];
8 -> 6  [label="x (6)"];
8 -> 4  [label="y (6)"];
8 -> 4  [label="z (5)"];
9 -> 4  [label="x (4)"];
9 -> 8  [label="y (6)"];
9 -> 6  [label="z (5)"];
10 -> 2  [label="x (7)"];
10 -> 11  [label="y (5)"];
10 -> 11  [label="z (6)"];
11 -> 11  [label="x (9)"];
11 -> 6  [label="y (8)"];
11 -> 7  [label="z (8)"];
12 -> 1  [label="x (5)"];
12 -> 0  [label="y (4)"];
12 -> 11  [label="z (5)"];
13 -> 7  [label="x (14)"];
13 -> 9  [label="y (14)"];
13 -> 10  [label="z (15)"];
13 -> 3  [label="!z [1]"];
13 -> 5  [label="!x [1]"];
__start0 [label="", shape=none];
__start0 -> 0  [label=""];
}
