digraph "benchmarks-true-state-lstar-songp/n_states=17-n_outputs=7-glitch_percent=0.01-pmstrat='rc2'/8ff5531341669b1abe5850a956d7eabc/alergiaLearned" {
q0 [label="a"];
q1 [label="c"];
q2 [label="a"];
q3 [label="e"];
q4 [label="g"];
q5 [label="d"];
q6 [label="e"];
q7 [label="f"];
q8 [label="b"];
q9 [label="c"];
q10 [label="e"];
q11 [label="a"];
q0 -> q1  [label="z:0.9824561403508771"];
q0 -> q3  [label="z:0.017543859649122806"];
q0 -> q2  [label="y:0.896551724137931"];
q0 -> q4  [label="y:0.06896551724137931"];
q0 -> q5  [label="y:0.017241379310344827"];
q0 -> q3  [label="y:0.017241379310344827"];
q0 -> q3  [label="x:0.9615384615384616"];
q0 -> q0  [label="x:0.009615384615384616"];
q0 -> q4  [label="x:0.028846153846153848"];
q1 -> q6  [label="x:0.8095238095238095"];
q1 -> q5  [label="x:0.19047619047619047"];
q1 -> q7  [label="y:0.8095238095238095"];
q1 -> q1  [label="y:0.19047619047619047"];
q1 -> q8  [label="z:0.8095238095238095"];
q1 -> q5  [label="z:0.19047619047619047"];
q2 -> q4  [label="x:1.0"];
q2 -> q4  [label="y:1.0"];
q2 -> q9  [label="z:1.0"];
q3 -> q10  [label="x:0.8833333333333333"];
q3 -> q11  [label="x:0.06666666666666667"];
q3 -> q4  [label="x:0.05"];
q3 -> q5  [label="y:0.9142857142857143"];
q3 -> q7  [label="y:0.08571428571428572"];
q3 -> q7  [label="z:1.0"];
q4 -> q1  [label="y:0.5384615384615384"];
q4 -> q5  [label="y:0.46153846153846156"];
q4 -> q7  [label="x:1.0"];
q4 -> q3  [label="z:0.46153846153846156"];
q4 -> q1  [label="z:0.5384615384615384"];
q5 -> q5  [label="x:1.0"];
q5 -> q3  [label="y:0.375"];
q5 -> q5  [label="y:0.0"];
q5 -> q8  [label="y:0.625"];
q5 -> q0  [label="z:0.3125"];
q5 -> q7  [label="z:0.6875"];
q6 -> q4  [label="x:1.0"];
q6 -> q7  [label="y:1.0"];
q6 -> q7  [label="z:1.0"];
q7 -> q3  [label="x:0.35"];
q7 -> q8  [label="x:0.4"];
q7 -> q0  [label="x:0.25"];
q7 -> q4  [label="y:0.35"];
q7 -> q3  [label="y:0.4"];
q7 -> q1  [label="y:0.25"];
q7 -> q1  [label="z:0.35"];
q7 -> q3  [label="z:0.4"];
q7 -> q7  [label="z:0.25"];
q8 -> q4  [label="x:1.0"];
q8 -> q3  [label="y:1.0"];
q8 -> q0  [label="z:1.0"];
q9 -> q5  [label="x:1.0"];
q9 -> q1  [label="y:1.0"];
q9 -> q5  [label="z:1.0"];
q10 -> q11  [label="x:1.0"];
q10 -> q5  [label="y:1.0"];
q10 -> q7  [label="z:1.0"];
q11 -> q3  [label="y:1.0"];
q11 -> q0  [label="x:1.0"];
q11 -> q3  [label="z:1.0"];
__start0 [label="", shape=none];
__start0 -> q0  [label=""];
}
