digraph "benchmarks-true-state-lstar-3seeds/n_states=16-n_outputs=8-glitch_percent=0.0/2208dfd70d9543dec8a7d21b7f61211d/pmsatLearned-N16-STOC" {
0 [label="0|a", shape=record, style=rounded];
1 [label="1|b", shape=record, style=rounded];
2 [label="2|e", shape=record, style=rounded];
3 [label="3|f", shape=record, style=rounded];
4 [label="4|g", shape=record, style=rounded];
5 [label="5|h", shape=record, style=rounded];
6 [label="6|b", shape=record, style=rounded];
7 [label="7|e", shape=record, style=rounded];
8 [label="8|b", shape=record, style=rounded];
9 [label="9|a", shape=record, style=rounded];
10 [label="10|b", shape=record, style=rounded];
11 [label="11|e", shape=record, style=rounded];
12 [label="12|a", shape=record, style=rounded];
13 [label="13|h", shape=record, style=rounded];
14 [label="14|e", shape=record, style=rounded];
15 [label="15|e", shape=record, style=rounded];
0 -> 15  [label="x (6)"];
0 -> 9  [label="y (6)"];
0 -> 1  [label="z (6)"];
1 -> 8  [label="x (7)"];
1 -> 13  [label="y (7)"];
1 -> 2  [label="z (7)"];
2 -> 13  [label="z (55)"];
2 -> 9  [label="y (55)"];
2 -> 12  [label="x (91)"];
3 -> 12  [label="x (7)"];
3 -> 8  [label="y (7)"];
3 -> 5  [label="z (7)"];
4 -> 1  [label="x (7)"];
4 -> 4  [label="y (7)"];
4 -> 12  [label="z (7)"];
5 -> 13  [label="x (6)"];
5 -> 11  [label="y (6)"];
5 -> 4  [label="z (6)"];
6 -> 10  [label="x (8)"];
6 -> 2  [label="y (8)"];
6 -> 0  [label="z (8)"];
7 -> 11  [label="x (6)"];
7 -> 10  [label="y (6)"];
7 -> 14  [label="z (6)"];
8 -> 9  [label="x (8)"];
8 -> 9  [label="y (8)"];
8 -> 11  [label="z (8)"];
9 -> 1  [label="x (21)"];
9 -> 8  [label="y (21)"];
9 -> 4  [label="z (21)"];
10 -> 14  [label="x (19)"];
10 -> 7  [label="y (19)"];
10 -> 5  [label="z (19)"];
11 -> 6  [label="x (9)"];
11 -> 3  [label="y (9)"];
11 -> 6  [label="z (9)"];
12 -> 10  [label="x (55)"];
12 -> 0  [label="y (19)"];
12 -> 15  [label="z (19)"];
13 -> 11  [label="x (19)"];
13 -> 6  [label="y (19)"];
13 -> 3  [label="z (19)"];
14 -> 3  [label="x (6)"];
14 -> 8  [label="y (6)"];
14 -> 11  [label="z (6)"];
15 -> 6  [label="x (6)"];
15 -> 9  [label="y (6)"];
15 -> 7  [label="z (6)"];
__start0 [label="", shape=none];
__start0 -> 2  [label=""];
}
