digraph "benchmarks-true-state-lstar-songp/n_states=6-n_outputs=3-glitch_percent=0.05-pmstrat='fm'/dc3276e0903b96bb8c5a73cc4c0525be/alergiaLearned" {
q0 [label="a"];
q1 [label="b"];
q2 [label="b"];
q3 [label="a"];
q4 [label="c"];
q0 -> q1  [label="z:0.8333333333333334"];
q0 -> q3  [label="z:0.16666666666666666"];
q0 -> q1  [label="y:1.0"];
q0 -> q2  [label="x:0.9111111111111111"];
q0 -> q0  [label="x:0.08888888888888889"];
q1 -> q1  [label="x:0.5833333333333334"];
q1 -> q0  [label="x:0.4166666666666667"];
q1 -> q1  [label="y:1.0"];
q1 -> q4  [label="y:0.0"];
q1 -> q0  [label="z:0.5454545454545454"];
q1 -> q4  [label="z:0.45454545454545453"];
q1 -> q1  [label="z:0.0"];
q2 -> q3  [label="x:1.0"];
q2 -> q4  [label="y:0.9444444444444444"];
q2 -> q1  [label="y:0.05555555555555555"];
q2 -> q1  [label="z:1.0"];
q3 -> q0  [label="x:1.0"];
q3 -> q1  [label="y:1.0"];
q3 -> q0  [label="z:1.0"];
q4 -> q0  [label="x:1.0"];
q4 -> q0  [label="y:1.0"];
q4 -> q0  [label="z:1.0"];
__start0 [label="", shape=none];
__start0 -> q0  [label=""];
}
