digraph "benchmarks-true-state-lstar-3seeds/n_states=11-n_outputs=6-glitch_percent=0.02/64676adf1b096c57d9ccb37eedf2203a/alergiaLearned" {
q0 [label="e"];
q1 [label="d"];
q2 [label="d"];
q3 [label="b"];
q4 [label="e"];
q5 [label="c"];
q6 [label="e"];
q7 [label="f"];
q8 [label="d"];
q0 -> q1  [label="z:0.8823529411764706"];
q0 -> q4  [label="z:0.058823529411764705"];
q0 -> q7  [label="z:0.0"];
q0 -> q3  [label="z:0.058823529411764705"];
q0 -> q2  [label="y:1.0"];
q0 -> q5  [label="y:0.0"];
q0 -> q3  [label="x:0.9310344827586207"];
q0 -> q4  [label="x:0.017241379310344827"];
q0 -> q5  [label="x:0.034482758620689655"];
q0 -> q1  [label="x:0.0"];
q0 -> q7  [label="x:0.017241379310344827"];
q1 -> q6  [label="x:0.9"];
q1 -> q5  [label="x:0.1"];
q1 -> q0  [label="y:0.5"];
q1 -> q1  [label="y:0.3333333333333333"];
q1 -> q7  [label="y:0.16666666666666666"];
q1 -> q1  [label="z:0.8421052631578947"];
q1 -> q0  [label="z:0.15789473684210525"];
q2 -> q5  [label="x:1.0"];
q2 -> q7  [label="y:1.0"];
q2 -> q4  [label="z:1.0"];
q3 -> q7  [label="x:1.0"];
q3 -> q7  [label="z:1.0"];
q3 -> q1  [label="y:1.0"];
q4 -> q7  [label="x:0.8333333333333334"];
q4 -> q8  [label="x:0.16666666666666666"];
q4 -> q1  [label="y:1.0"];
q4 -> q3  [label="z:1.0"];
q5 -> q5  [label="y:1.0"];
q5 -> q1  [label="x:1.0"];
q5 -> q1  [label="z:1.0"];
q6 -> q1  [label="x:0.8"];
q6 -> q7  [label="x:0.2"];
q6 -> q5  [label="y:0.8333333333333334"];
q6 -> q1  [label="y:0.16666666666666666"];
q6 -> q7  [label="z:0.8333333333333334"];
q6 -> q3  [label="z:0.16666666666666666"];
q7 -> q7  [label="x:0.2777777777777778"];
q7 -> q0  [label="x:0.3888888888888889"];
q7 -> q1  [label="x:0.3333333333333333"];
q7 -> q0  [label="y:0.7058823529411765"];
q7 -> q5  [label="y:0.29411764705882354"];
q7 -> q1  [label="z:0.5882352941176471"];
q7 -> q0  [label="z:0.4117647058823529"];
q8 -> q1  [label="y:1.0"];
__start0 [label="", shape=none];
__start0 -> q0  [label=""];
}
