digraph "benchmarks-true-state-lstar-3seeds/n_states=9-n_outputs=4-glitch_percent=0.02/7aaf806514bf3593f57fdeb9cb5aec83/alergiaLearned" {
q0 [label="b"];
q1 [label="c"];
q2 [label="d"];
q3 [label="c"];
q4 [label="d"];
q5 [label="b"];
q6 [label="a"];
q7 [label="d"];
q0 -> q1  [label="z:0.9"];
q0 -> q4  [label="z:0.1"];
q0 -> q2  [label="y:1.0"];
q0 -> q3  [label="x:0.9433962264150944"];
q0 -> q4  [label="x:0.05660377358490566"];
q1 -> q1  [label="x:0.7777777777777778"];
q1 -> q2  [label="x:0.2222222222222222"];
q1 -> q1  [label="y:0.8"];
q1 -> q6  [label="y:0.2"];
q1 -> q2  [label="z:1.0"];
q2 -> q5  [label="x:0.9259259259259259"];
q2 -> q6  [label="x:0.037037037037037035"];
q2 -> q2  [label="x:0.037037037037037035"];
q2 -> q6  [label="y:1.0"];
q2 -> q0  [label="z:0.5"];
q2 -> q2  [label="z:0.4166666666666667"];
q2 -> q1  [label="z:0.08333333333333333"];
q3 -> q7  [label="x:1.0"];
q3 -> q6  [label="y:1.0"];
q3 -> q2  [label="z:1.0"];
q4 -> q2  [label="z:1.0"];
q4 -> q4  [label="x:1.0"];
q5 -> q2  [label="x:0.8333333333333334"];
q5 -> q1  [label="x:0.16666666666666666"];
q5 -> q2  [label="y:1.0"];
q5 -> q1  [label="z:1.0"];
q6 -> q6  [label="x:1.0"];
q6 -> q6  [label="y:0.5333333333333333"];
q6 -> q1  [label="y:0.4666666666666667"];
q6 -> q0  [label="z:0.5333333333333333"];
q6 -> q6  [label="z:0.4666666666666667"];
q7 -> q2  [label="x:1.0"];
q7 -> q6  [label="y:1.0"];
q7 -> q1  [label="z:1.0"];
__start0 [label="", shape=none];
__start0 -> q0  [label=""];
}
