digraph "benchmarks-true-state-lstar-songp/n_states=14-n_outputs=4-glitch_percent=0.0-pmstrat='fm'/3773f733a729cf318505cadba58c3ecb/pmsatLearned-N14-STOC" {
0 [label="0|a", shape=record, style=rounded];
1 [label="1|b", shape=record, style=rounded];
2 [label="2|c", shape=record, style=rounded];
3 [label="3|d", shape=record, style=rounded];
4 [label="4|d", shape=record, style=rounded];
5 [label="5|a", shape=record, style=rounded];
6 [label="6|d", shape=record, style=rounded];
7 [label="7|d", shape=record, style=rounded];
8 [label="8|d", shape=record, style=rounded];
9 [label="9|c", shape=record, style=rounded];
10 [label="10|c", shape=record, style=rounded];
11 [label="11|d", shape=record, style=rounded];
12 [label="12|b", shape=record, style=rounded];
13 [label="13|a", shape=record, style=rounded];
0 -> 10  [label="z (57)"];
0 -> 8  [label="y (57)"];
0 -> 9  [label="x (69)"];
1 -> 1  [label="x (9)"];
1 -> 7  [label="y (9)"];
1 -> 3  [label="z (9)"];
2 -> 12  [label="x (21)"];
2 -> 6  [label="y (9)"];
2 -> 9  [label="z (9)"];
3 -> 12  [label="x (6)"];
3 -> 10  [label="y (6)"];
3 -> 10  [label="z (6)"];
4 -> 9  [label="x (6)"];
4 -> 1  [label="y (6)"];
4 -> 1  [label="z (6)"];
5 -> 7  [label="x (6)"];
5 -> 2  [label="y (6)"];
5 -> 2  [label="z (6)"];
6 -> 0  [label="x (6)"];
6 -> 7  [label="y (6)"];
6 -> 0  [label="z (6)"];
7 -> 2  [label="x (9)"];
7 -> 0  [label="y (9)"];
7 -> 9  [label="z (9)"];
8 -> 3  [label="x (17)"];
8 -> 11  [label="y (17)"];
8 -> 4  [label="z (17)"];
9 -> 2  [label="x (33)"];
9 -> 6  [label="y (21)"];
9 -> 13  [label="z (21)"];
10 -> 5  [label="x (19)"];
10 -> 7  [label="y (19)"];
10 -> 1  [label="z (19)"];
11 -> 9  [label="x (6)"];
11 -> 5  [label="y (6)"];
11 -> 7  [label="z (6)"];
12 -> 11  [label="x (7)"];
12 -> 2  [label="y (7)"];
12 -> 4  [label="z (7)"];
13 -> 12  [label="x (5)"];
13 -> 0  [label="y (5)"];
13 -> 1  [label="z (5)"];
__start0 [label="", shape=none];
__start0 -> 0  [label=""];
}
