digraph "benchmarks-true-state-lstar-3seeds/n_states=14-n_outputs=4-glitch_percent=0.01/e59a99042308349d2b0e94fe36ae6874/pmsatLearned-N14-STOC" {
0 [label="0|a", shape=record, style=rounded];
1 [label="1|b", shape=record, style=rounded];
2 [label="2|c", shape=record, style=rounded];
3 [label="3|d", shape=record, style=rounded];
4 [label="4|a", shape=record, style=rounded];
5 [label="5|c", shape=record, style=rounded];
6 [label="6|d", shape=record, style=rounded];
7 [label="7|c", shape=record, style=rounded];
8 [label="8|c", shape=record, style=rounded];
9 [label="9|a", shape=record, style=rounded];
10 [label="10|a", shape=record, style=rounded];
11 [label="11|a", shape=record, style=rounded];
12 [label="12|c", shape=record, style=rounded];
13 [label="13|b", shape=record, style=rounded];
0 -> 11  [label="z (69)"];
0 -> 8  [label="y (64)"];
0 -> 12  [label="x (80)"];
0 -> 2  [label="!y [1]"];
0 -> 10  [label="!x [1]"];
1 -> 8  [label="x (17)"];
1 -> 6  [label="y (9)"];
1 -> 5  [label="z (9)"];
2 -> 12  [label="x (8)"];
2 -> 1  [label="y (6)"];
2 -> 1  [label="z (6)"];
3 -> 12  [label="x (12)"];
3 -> 7  [label="y (7)"];
3 -> 4  [label="z (7)"];
4 -> 6  [label="x (13)"];
4 -> 4  [label="y (9)"];
4 -> 6  [label="z (9)"];
5 -> 3  [label="x (30)"];
5 -> 11  [label="y (7)"];
5 -> 4  [label="z (8)"];
6 -> 13  [label="x (21)"];
6 -> 6  [label="y (11)"];
6 -> 13  [label="z (11)"];
7 -> 9  [label="x (11)"];
7 -> 10  [label="y (9)"];
7 -> 7  [label="z (8)"];
8 -> 1  [label="x (27)"];
8 -> 6  [label="y (22)"];
8 -> 13  [label="z (22)"];
9 -> 1  [label="x (21)"];
9 -> 13  [label="y (8)"];
9 -> 6  [label="z (8)"];
10 -> 9  [label="x (17)"];
10 -> 11  [label="y (7)"];
10 -> 5  [label="z (7)"];
11 -> 10  [label="x (34)"];
11 -> 4  [label="y (23)"];
11 -> 2  [label="z (24)"];
11 -> 9  [label="!x [1]"];
12 -> 5  [label="x (45)"];
12 -> 9  [label="y (24)"];
12 -> 7  [label="z (24)"];
13 -> 11  [label="x (19)"];
13 -> 3  [label="y (9)"];
13 -> 12  [label="z (9)"];
__start0 [label="", shape=none];
__start0 -> 0  [label=""];
}
