digraph "benchmarks-true-state-lstar-rc10seeds/n_states=9-n_outputs=2-glitch_percent=0.0/80067e2ec25f4a6298d5287daa5d5fc7/pmsatLearned_NOP-N9" {
0 [label="0|a", shape=record, style=rounded];
1 [label="1|b", shape=record, style=rounded];
2 [label="2|a", shape=record, style=rounded];
3 [label="3|a", shape=record, style=rounded];
4 [label="4|b", shape=record, style=rounded];
5 [label="5|a", shape=record, style=rounded];
6 [label="6|a", shape=record, style=rounded];
7 [label="7|b", shape=record, style=rounded];
8 [label="8|a", shape=record, style=rounded];
0 -> 7  [label="x"];
0 -> 5  [label="y"];
0 -> 7  [label="z"];
1 -> 0  [label="z"];
1 -> 3  [label="y"];
1 -> 5  [label="x"];
2 -> 6  [label="x"];
2 -> 5  [label="y"];
2 -> 5  [label="z"];
3 -> 7  [label="x"];
3 -> 4  [label="y"];
3 -> 7  [label="z"];
4 -> 2  [label="x"];
4 -> 5  [label="y"];
4 -> 8  [label="z"];
5 -> 6  [label="x"];
5 -> 2  [label="y"];
5 -> 8  [label="z"];
6 -> 0  [label="x"];
6 -> 3  [label="y"];
6 -> 5  [label="z"];
7 -> 0  [label="x"];
7 -> 1  [label="y"];
7 -> 7  [label="z"];
8 -> 0  [label="x"];
8 -> 7  [label="y"];
8 -> 5  [label="z"];
__start0 [label="", shape=none];
__start0 -> 1  [label=""];
}
