digraph "benchmarks-true-state-lstar-3seeds/n_states=10-n_outputs=7-glitch_percent=0.1/dae6f6287b4b0e8f1ac1d6dea24f3ab6/pmsatLearned-N10" {
0 [label="0|a", shape=record, style=rounded];
1 [label="1|b", shape=record, style=rounded];
2 [label="2|d", shape=record, style=rounded];
3 [label="3|e", shape=record, style=rounded];
4 [label="4|f", shape=record, style=rounded];
5 [label="5|g", shape=record, style=rounded];
6 [label="6|e", shape=record, style=rounded];
7 [label="7|a", shape=record, style=rounded];
8 [label="8|b", shape=record, style=rounded];
9 [label="9|e", shape=record, style=rounded];
0 -> 7  [label="z"];
0 -> 2  [label="y"];
0 -> 8  [label="x"];
1 -> 7  [label="x"];
1 -> 4  [label="y"];
1 -> 4  [label="z"];
2 -> 5  [label="x"];
2 -> 3  [label="z"];
2 -> 4  [label="y"];
3 -> 4  [label="x"];
3 -> 9  [label="y"];
3 -> 7  [label="z"];
4 -> 6  [label="x"];
4 -> 5  [label="y"];
4 -> 3  [label="z"];
5 -> 2  [label="y"];
5 -> 1  [label="z"];
5 -> 8  [label="x"];
6 -> 1  [label="x"];
6 -> 4  [label="y"];
6 -> 5  [label="z"];
7 -> 3  [label="x"];
7 -> 5  [label="y"];
7 -> 2  [label="z"];
8 -> 6  [label="x"];
8 -> 1  [label="y"];
8 -> 9  [label="z"];
9 -> 2  [label="x"];
9 -> 4  [label="y"];
9 -> 3  [label="z"];
__start0 [label="", shape=none];
__start0 -> 0  [label=""];
}
