digraph "benchmarks-true-state-lstar-songp/n_states=6-n_outputs=6-glitch_percent=0.1-pmstrat='rc2'/169822d40bf50fce033ecb4a52548775/pmsatLearned-N6" {
0 [label="0|a", shape=record, style=rounded];
1 [label="1|b", shape=record, style=rounded];
2 [label="2|c", shape=record, style=rounded];
3 [label="3|d", shape=record, style=rounded];
4 [label="4|f", shape=record, style=rounded];
5 [label="5|c", shape=record, style=rounded];
0 -> 3  [label="z"];
0 -> 2  [label="y"];
0 -> 5  [label="x"];
1 -> 1  [label="x"];
1 -> 5  [label="y"];
1 -> 0  [label="z"];
2 -> 1  [label="x"];
2 -> 4  [label="z"];
2 -> 3  [label="y"];
3 -> 3  [label="x"];
3 -> 3  [label="y"];
3 -> 1  [label="z"];
4 -> 0  [label="x"];
4 -> 0  [label="y"];
4 -> 1  [label="z"];
5 -> 1  [label="x"];
5 -> 4  [label="y"];
5 -> 3  [label="z"];
__start0 [label="", shape=none];
__start0 -> 0  [label=""];
}
