digraph "benchmarks-true-state-lstar-rc10seeds/n_states=12-n_outputs=8-glitch_percent=0.05/571709a53e70783cd142c014c8fdced8/pmsatLearned_NOP-N12-STOC" {
0 [label="0|a", shape=record, style=rounded];
1 [label="1|a", shape=record, style=rounded];
2 [label="2|e", shape=record, style=rounded];
3 [label="3|h", shape=record, style=rounded];
4 [label="4|c", shape=record, style=rounded];
5 [label="5|f", shape=record, style=rounded];
6 [label="6|c", shape=record, style=rounded];
7 [label="7|f", shape=record, style=rounded];
8 [label="8|g", shape=record, style=rounded];
9 [label="9|c", shape=record, style=rounded];
10 [label="10|g", shape=record, style=rounded];
11 [label="11|h", shape=record, style=rounded];
0 -> 1  [label="x (5)"];
0 -> 4  [label="y (7)"];
0 -> 9  [label="z (4)"];
1 -> 0  [label="x (17)"];
1 -> 6  [label="z (17)"];
1 -> 8  [label="y (16)"];
1 -> 11  [label="!x [1]"];
2 -> 11  [label="z (38)"];
2 -> 10  [label="!x [4]"];
2 -> 1  [label="y (50)"];
2 -> 3  [label="x (52)"];
2 -> 7  [label="!z [1]"];
2 -> 10  [label="!y [2]"];
2 -> 4  [label="!x [1]"];
3 -> 4  [label="x (17)"];
3 -> 9  [label="y (19)"];
3 -> 7  [label="z (15)"];
3 -> 2  [label="!x [1]"];
4 -> 5  [label="x (7)"];
4 -> 8  [label="y (7)"];
4 -> 6  [label="z (6)"];
5 -> 11  [label="y (7)"];
5 -> 8  [label="z (8)"];
5 -> 3  [label="x (7)"];
6 -> 11  [label="x (6)"];
6 -> 9  [label="z (7)"];
6 -> 11  [label="y (6)"];
7 -> 2  [label="x (5)"];
7 -> 4  [label="y (5)"];
7 -> 9  [label="z (6)"];
8 -> 5  [label="x (7)"];
8 -> 0  [label="y (5)"];
8 -> 10  [label="z (4)"];
8 -> 4  [label="!z [1]"];
9 -> 6  [label="x (9)"];
9 -> 9  [label="y (8)"];
9 -> 1  [label="z (9)"];
9 -> 6  [label="!z [1]"];
10 -> 10  [label="x (7)"];
10 -> 5  [label="y (8)"];
10 -> 10  [label="z (10)"];
11 -> 5  [label="y (20)"];
11 -> 7  [label="z (8)"];
11 -> 10  [label="x (16)"];
__start0 [label="", shape=none];
__start0 -> 2  [label=""];
}
