digraph "benchmarks-true-state-lstar-rc10seeds/n_states=10-n_outputs=8-glitch_percent=0.01/b51137333fc5b375c7e71705a86d5516/pmsatLearned_NOP-N10-STOC" {
0 [label="0|a", shape=record, style=rounded];
1 [label="1|b", shape=record, style=rounded];
2 [label="2|e", shape=record, style=rounded];
3 [label="3|f", shape=record, style=rounded];
4 [label="4|h", shape=record, style=rounded];
5 [label="5|g", shape=record, style=rounded];
6 [label="6|g", shape=record, style=rounded];
7 [label="7|g", shape=record, style=rounded];
8 [label="8|g", shape=record, style=rounded];
9 [label="9|f", shape=record, style=rounded];
0 -> 3  [label="x (9)"];
0 -> 0  [label="y (9)"];
0 -> 2  [label="z (9)"];
1 -> 5  [label="x (18)"];
1 -> 0  [label="y (18)"];
1 -> 9  [label="z (18)"];
2 -> 2  [label="x (11)"];
2 -> 1  [label="y (11)"];
2 -> 2  [label="z (10)"];
3 -> 8  [label="z (19)"];
3 -> 4  [label="y (54)"];
3 -> 1  [label="x (55)"];
3 -> 7  [label="!y [1]"];
4 -> 6  [label="x (20)"];
4 -> 7  [label="y (20)"];
4 -> 2  [label="z (21)"];
4 -> 4  [label="!z [1]"];
5 -> 2  [label="x (5)"];
5 -> 6  [label="y (5)"];
5 -> 4  [label="z (5)"];
6 -> 0  [label="x (6)"];
6 -> 7  [label="y (6)"];
6 -> 4  [label="z (5)"];
7 -> 4  [label="x (7)"];
7 -> 3  [label="y (7)"];
7 -> 8  [label="z (7)"];
8 -> 4  [label="x (6)"];
8 -> 0  [label="y (6)"];
8 -> 0  [label="z (6)"];
9 -> 2  [label="x (5)"];
9 -> 7  [label="y (5)"];
9 -> 2  [label="z (5)"];
__start0 [label="", shape=none];
__start0 -> 3  [label=""];
}
