digraph "benchmarks-true-state-lstar-3seeds/n_states=7-n_outputs=6-glitch_percent=0.1/b8916513aa57b1d57df101fdcebf8d43/pmsatLearned-N7" {
0 [label="0|b", shape=record, style=rounded];
1 [label="1|c", shape=record, style=rounded];
2 [label="2|d", shape=record, style=rounded];
3 [label="3|f", shape=record, style=rounded];
4 [label="4|f", shape=record, style=rounded];
5 [label="5|c", shape=record, style=rounded];
6 [label="6|d", shape=record, style=rounded];
0 -> 1  [label="x"];
0 -> 0  [label="y"];
0 -> 0  [label="z"];
1 -> 5  [label="x"];
1 -> 6  [label="y"];
1 -> 2  [label="z"];
2 -> 4  [label="z"];
2 -> 1  [label="y"];
2 -> 3  [label="x"];
3 -> 5  [label="x"];
3 -> 0  [label="y"];
3 -> 6  [label="z"];
4 -> 5  [label="x"];
4 -> 5  [label="y"];
4 -> 1  [label="z"];
5 -> 2  [label="y"];
5 -> 6  [label="z"];
5 -> 1  [label="x"];
6 -> 3  [label="x"];
6 -> 2  [label="z"];
6 -> 4  [label="y"];
__start0 [label="", shape=none];
__start0 -> 2  [label=""];
}
