digraph "benchmarks-true-state-lstar-rc10seeds/n_states=13-n_outputs=3-glitch_percent=0.02/24108b742346149faeda109aff7968a2/pmsatLearned_NOP-N13-STOC" {
0 [label="0|b", shape=record, style=rounded];
1 [label="1|b", shape=record, style=rounded];
2 [label="2|a", shape=record, style=rounded];
3 [label="3|a", shape=record, style=rounded];
4 [label="4|a", shape=record, style=rounded];
5 [label="5|c", shape=record, style=rounded];
6 [label="6|b", shape=record, style=rounded];
7 [label="7|a", shape=record, style=rounded];
8 [label="8|a", shape=record, style=rounded];
9 [label="9|c", shape=record, style=rounded];
10 [label="10|a", shape=record, style=rounded];
11 [label="11|c", shape=record, style=rounded];
12 [label="12|c", shape=record, style=rounded];
0 -> 9  [label="x (7)"];
0 -> 7  [label="y (9)"];
0 -> 7  [label="z (7)"];
1 -> 8  [label="z (67)"];
1 -> 5  [label="y (72)"];
1 -> 9  [label="x (66)"];
1 -> 4  [label="!y [1]"];
1 -> 0  [label="!x [1]"];
2 -> 6  [label="x (13)"];
2 -> 9  [label="y (8)"];
2 -> 4  [label="z (6)"];
3 -> 5  [label="x (16)"];
3 -> 5  [label="y (15)"];
3 -> 11  [label="z (10)"];
4 -> 1  [label="x (8)"];
4 -> 8  [label="y (12)"];
4 -> 0  [label="z (7)"];
5 -> 10  [label="x (30)"];
5 -> 7  [label="y (31)"];
5 -> 4  [label="z (24)"];
5 -> 8  [label="!z [1]"];
6 -> 4  [label="x (12)"];
6 -> 11  [label="y (9)"];
6 -> 9  [label="z (7)"];
7 -> 9  [label="x (14)"];
7 -> 2  [label="y (14)"];
7 -> 3  [label="z (8)"];
8 -> 0  [label="x (28)"];
8 -> 3  [label="y (28)"];
8 -> 11  [label="z (22)"];
8 -> 3  [label="!x [1]"];
8 -> 9  [label="!y [1]"];
9 -> 12  [label="x (29)"];
9 -> 6  [label="y (34)"];
9 -> 2  [label="z (26)"];
10 -> 9  [label="x (10)"];
10 -> 3  [label="y (8)"];
10 -> 8  [label="z (6)"];
11 -> 3  [label="x (9)"];
11 -> 10  [label="y (11)"];
11 -> 5  [label="z (8)"];
12 -> 9  [label="x (6)"];
12 -> 8  [label="y (7)"];
12 -> 3  [label="z (6)"];
__start0 [label="", shape=none];
__start0 -> 1  [label=""];
}
