digraph "benchmarks-true-state-lstar-rc10seeds/n_states=14-n_outputs=8-glitch_percent=0.0/e748310770cfe38edad6460df5440778/pmsatLearned_NOP-N14" {
0 [label="0|a", shape=record, style=rounded];
1 [label="1|a", shape=record, style=rounded];
2 [label="2|e", shape=record, style=rounded];
3 [label="3|b", shape=record, style=rounded];
4 [label="4|b", shape=record, style=rounded];
5 [label="5|g", shape=record, style=rounded];
6 [label="6|g", shape=record, style=rounded];
7 [label="7|d", shape=record, style=rounded];
8 [label="8|b", shape=record, style=rounded];
9 [label="9|c", shape=record, style=rounded];
10 [label="10|e", shape=record, style=rounded];
11 [label="11|g", shape=record, style=rounded];
12 [label="12|d", shape=record, style=rounded];
13 [label="13|c", shape=record, style=rounded];
0 -> 3  [label="x"];
0 -> 1  [label="y"];
0 -> 9  [label="z"];
1 -> 9  [label="x"];
1 -> 12  [label="y"];
1 -> 2  [label="z"];
2 -> 7  [label="x"];
2 -> 6  [label="y"];
2 -> 6  [label="z"];
3 -> 1  [label="x"];
3 -> 4  [label="y"];
3 -> 13  [label="z"];
4 -> 8  [label="x"];
4 -> 3  [label="y"];
4 -> 11  [label="z"];
5 -> 11  [label="z"];
5 -> 7  [label="y"];
5 -> 3  [label="x"];
6 -> 6  [label="x"];
6 -> 10  [label="y"];
6 -> 5  [label="z"];
7 -> 12  [label="x"];
7 -> 2  [label="y"];
7 -> 10  [label="z"];
8 -> 5  [label="x"];
8 -> 3  [label="y"];
8 -> 11  [label="z"];
9 -> 5  [label="x"];
9 -> 9  [label="y"];
9 -> 9  [label="z"];
10 -> 13  [label="x"];
10 -> 12  [label="y"];
10 -> 9  [label="z"];
11 -> 6  [label="x"];
11 -> 8  [label="y"];
11 -> 0  [label="z"];
12 -> 1  [label="x"];
12 -> 8  [label="y"];
12 -> 7  [label="z"];
13 -> 12  [label="x"];
13 -> 5  [label="y"];
13 -> 2  [label="z"];
__start0 [label="", shape=none];
__start0 -> 5  [label=""];
}
