digraph "benchmarks-true-state-lstar-songp/n_states=11-n_outputs=2-glitch_percent=0.01-pmstrat='fm'/fec3be094b22d2f7fb2b323f5f1e8b61/pmsatLearned-N11" {
0 [label="0|a", shape=record, style=rounded];
1 [label="1|b", shape=record, style=rounded];
2 [label="2|b", shape=record, style=rounded];
3 [label="3|b", shape=record, style=rounded];
4 [label="4|b", shape=record, style=rounded];
5 [label="5|b", shape=record, style=rounded];
6 [label="6|b", shape=record, style=rounded];
7 [label="7|a", shape=record, style=rounded];
8 [label="8|b", shape=record, style=rounded];
9 [label="9|a", shape=record, style=rounded];
10 [label="10|a", shape=record, style=rounded];
0 -> 1  [label="z"];
0 -> 3  [label="y"];
0 -> 4  [label="x"];
1 -> 8  [label="x"];
1 -> 6  [label="y"];
1 -> 7  [label="z"];
2 -> 9  [label="x"];
2 -> 1  [label="y"];
2 -> 7  [label="z"];
3 -> 5  [label="x"];
3 -> 10  [label="y"];
3 -> 9  [label="z"];
4 -> 2  [label="x"];
4 -> 7  [label="y"];
4 -> 6  [label="z"];
5 -> 8  [label="x"];
5 -> 6  [label="y"];
5 -> 0  [label="z"];
6 -> 3  [label="y"];
6 -> 7  [label="z"];
6 -> 2  [label="x"];
7 -> 8  [label="x"];
7 -> 3  [label="y"];
7 -> 9  [label="z"];
8 -> 2  [label="x"];
8 -> 6  [label="y"];
8 -> 9  [label="z"];
9 -> 0  [label="x"];
9 -> 7  [label="y"];
9 -> 2  [label="z"];
10 -> 3  [label="x"];
10 -> 0  [label="y"];
10 -> 7  [label="z"];
__start0 [label="", shape=none];
__start0 -> 0  [label=""];
}
