digraph "benchmarks-true-state-lstar-songp/n_states=9-n_outputs=7-glitch_percent=0.05-pmstrat='lsu'/af802df8dccb15fd8926d164817340e1/alergiaLearned" {
q0 [label="a"];
q1 [label="f"];
q2 [label="d"];
q3 [label="f"];
q4 [label="c"];
q5 [label="g"];
q6 [label="b"];
q7 [label="f"];
q0 -> q1  [label="z:1.0"];
q0 -> q2  [label="y:0.9803921568627451"];
q0 -> q5  [label="y:0.0196078431372549"];
q0 -> q3  [label="x:0.9264705882352942"];
q0 -> q4  [label="x:0.07352941176470588"];
q1 -> q4  [label="x:0.6666666666666666"];
q1 -> q0  [label="x:0.05555555555555555"];
q1 -> q1  [label="x:0.2777777777777778"];
q1 -> q4  [label="y:0.9130434782608695"];
q1 -> q1  [label="y:0.08695652173913043"];
q1 -> q1  [label="z:1.0"];
q2 -> q6  [label="x:1.0"];
q2 -> q5  [label="y:0.8695652173913043"];
q2 -> q4  [label="y:0.08695652173913043"];
q2 -> q1  [label="y:0.043478260869565216"];
q2 -> q1  [label="z:1.0"];
q3 -> q4  [label="x:1.0"];
q3 -> q4  [label="y:1.0"];
q3 -> q7  [label="z:1.0"];
q4 -> q4  [label="z:1.0"];
q4 -> q0  [label="x:0.45161290322580644"];
q4 -> q4  [label="x:0.5483870967741935"];
q4 -> q4  [label="y:0.6363636363636364"];
q4 -> q1  [label="y:0.36363636363636365"];
q5 -> q6  [label="x:1.0"];
q5 -> q1  [label="y:1.0"];
q5 -> q4  [label="z:1.0"];
q6 -> q1  [label="x:1.0"];
q6 -> q7  [label="z:1.0"];
q6 -> q4  [label="y:1.0"];
q7 -> q1  [label="x:1.0"];
q7 -> q1  [label="y:1.0"];
q7 -> q1  [label="z:1.0"];
__start0 [label="", shape=none];
__start0 -> q0  [label=""];
}
