digraph "benchmarks-true-state-lstar-3seeds/n_states=4-n_outputs=3-glitch_percent=0.02/46bcad99f502236d49d467b2ccec2f96/pmsatLearned-N4-STOC" {
0 [label="0|a", shape=record, style=rounded];
1 [label="1|b", shape=record, style=rounded];
2 [label="2|c", shape=record, style=rounded];
3 [label="3|c", shape=record, style=rounded];
0 -> 3  [label="x (7)"];
0 -> 1  [label="y (8)"];
0 -> 1  [label="z (8)"];
1 -> 0  [label="z (19)"];
1 -> 3  [label="y (19)"];
1 -> 2  [label="x (21)"];
1 -> 2  [label="!z [1]"];
2 -> 1  [label="x (6)"];
2 -> 0  [label="y (7)"];
2 -> 0  [label="z (6)"];
3 -> 3  [label="x (7)"];
3 -> 0  [label="y (6)"];
3 -> 2  [label="z (6)"];
__start0 [label="", shape=none];
__start0 -> 1  [label=""];
}
