digraph "benchmarks-true-state-lstar-songp/n_states=11-n_outputs=8-glitch_percent=0.05-pmstrat='lsu'/cd28d167b991a53b02880d65ee9a6db0/alergiaLearned" {
q0 [label="a"];
q1 [label="h"];
q2 [label="g"];
q3 [label="f"];
q4 [label="h"];
q5 [label="e"];
q6 [label="c"];
q7 [label="b"];
q8 [label="a"];
q9 [label="f"];
q0 -> q1  [label="z:0.9117647058823529"];
q0 -> q5  [label="z:0.029411764705882353"];
q0 -> q3  [label="z:0.058823529411764705"];
q0 -> q2  [label="y:0.9811320754716981"];
q0 -> q6  [label="y:0.018867924528301886"];
q0 -> q3  [label="x:0.9152542372881356"];
q0 -> q4  [label="x:0.06779661016949153"];
q0 -> q0  [label="x:0.01694915254237288"];
q1 -> q4  [label="x:1.0"];
q1 -> q5  [label="y:0.8888888888888888"];
q1 -> q2  [label="y:0.1111111111111111"];
q1 -> q6  [label="z:0.5"];
q1 -> q0  [label="z:0.5"];
q2 -> q1  [label="x:1.0"];
q2 -> q7  [label="y:0.9047619047619048"];
q2 -> q6  [label="y:0.047619047619047616"];
q2 -> q5  [label="y:0.047619047619047616"];
q2 -> q8  [label="z:1.0"];
q3 -> q9  [label="x:0.8888888888888888"];
q3 -> q8  [label="x:0.1111111111111111"];
q3 -> q6  [label="y:0.8823529411764706"];
q3 -> q2  [label="y:0.058823529411764705"];
q3 -> q1  [label="y:0.058823529411764705"];
q3 -> q5  [label="z:0.9411764705882353"];
q3 -> q6  [label="z:0.058823529411764705"];
q4 -> q0  [label="z:1.0"];
q4 -> q3  [label="x:1.0"];
q4 -> q5  [label="y:1.0"];
q5 -> q6  [label="z:1.0"];
q5 -> q3  [label="x:1.0"];
q5 -> q2  [label="y:1.0"];
q6 -> q4  [label="x:1.0"];
q6 -> q0  [label="z:1.0"];
q6 -> q2  [label="y:1.0"];
q7 -> q2  [label="x:1.0"];
q7 -> q0  [label="y:1.0"];
q7 -> q6  [label="z:1.0"];
q8 -> q0  [label="x:1.0"];
q8 -> q6  [label="y:1.0"];
q8 -> q3  [label="z:1.0"];
q9 -> q0  [label="x:1.0"];
q9 -> q1  [label="y:1.0"];
q9 -> q6  [label="z:1.0"];
__start0 [label="", shape=none];
__start0 -> q0  [label=""];
}
