digraph "benchmarks-true-state-lstar-3seeds/n_states=5-n_outputs=2-glitch_percent=0.02/676c0272fab167f6c3506a921c1f5a53/pmsatLearned-N5-STOC" {
0 [label="0|a", shape=record, style=rounded];
1 [label="1|b", shape=record, style=rounded];
2 [label="2|b", shape=record, style=rounded];
3 [label="3|b", shape=record, style=rounded];
4 [label="4|b", shape=record, style=rounded];
0 -> 2  [label="x (27)"];
0 -> 1  [label="z (8)"];
0 -> 3  [label="y (8)"];
0 -> 1  [label="!x [1]"];
1 -> 3  [label="z (33)"];
1 -> 4  [label="y (33)"];
1 -> 0  [label="x (65)"];
1 -> 1  [label="!x [1]"];
2 -> 4  [label="x (23)"];
2 -> 1  [label="y (18)"];
2 -> 2  [label="z (16)"];
3 -> 2  [label="x (11)"];
3 -> 2  [label="y (11)"];
3 -> 4  [label="z (14)"];
4 -> 4  [label="x (19)"];
4 -> 2  [label="y (14)"];
4 -> 1  [label="z (15)"];
__start0 [label="", shape=none];
__start0 -> 1  [label=""];
}
