digraph "benchmarks-true-state-lstar-3seeds/n_states=12-n_outputs=2-glitch_percent=0.0/3804d2e76c6a90c6c9a041b15d33a879/alergiaLearned" {
q0 [label="b"];
q1 [label="a"];
q2 [label="b"];
q3 [label="b"];
q4 [label="b"];
q5 [label="a"];
q6 [label="a"];
q7 [label="b"];
q8 [label="b"];
q9 [label="a"];
q0 -> q1  [label="z:0.9529411764705882"];
q0 -> q0  [label="z:0.047058823529411764"];
q0 -> q2  [label="y:1.0"];
q0 -> q3  [label="x:0.9166666666666666"];
q0 -> q1  [label="x:0.08333333333333333"];
q1 -> q4  [label="x:0.9803921568627451"];
q1 -> q1  [label="x:0.0196078431372549"];
q1 -> q5  [label="y:1.0"];
q1 -> q0  [label="y:0.0"];
q1 -> q0  [label="z:0.9545454545454546"];
q1 -> q1  [label="z:0.045454545454545456"];
q2 -> q6  [label="x:0.9555555555555556"];
q2 -> q0  [label="x:0.044444444444444446"];
q2 -> q7  [label="y:1.0"];
q2 -> q1  [label="z:0.9111111111111111"];
q2 -> q0  [label="z:0.08888888888888889"];
q3 -> q8  [label="x:0.8918918918918919"];
q3 -> q1  [label="x:0.10810810810810811"];
q3 -> q9  [label="y:0.9285714285714286"];
q3 -> q0  [label="y:0.07142857142857142"];
q3 -> q7  [label="z:1.0"];
q4 -> q3  [label="x:0.8181818181818182"];
q4 -> q1  [label="x:0.18181818181818182"];
q4 -> q0  [label="y:1.0"];
q4 -> q6  [label="z:0.8888888888888888"];
q4 -> q0  [label="z:0.1111111111111111"];
q5 -> q5  [label="x:1.0"];
q5 -> q1  [label="y:0.9090909090909091"];
q5 -> q0  [label="y:0.09090909090909091"];
q5 -> q6  [label="z:0.7222222222222222"];
q5 -> q0  [label="z:0.2777777777777778"];
q6 -> q5  [label="x:1.0"];
q6 -> q3  [label="y:1.0"];
q6 -> q0  [label="z:1.0"];
q7 -> q5  [label="x:1.0"];
q7 -> q2  [label="y:1.0"];
q7 -> q0  [label="z:1.0"];
q8 -> q6  [label="x:1.0"];
q8 -> q2  [label="y:1.0"];
q8 -> q0  [label="z:1.0"];
q9 -> q1  [label="x:1.0"];
q9 -> q5  [label="y:1.0"];
q9 -> q0  [label="z:1.0"];
__start0 [label="", shape=none];
__start0 -> q0  [label=""];
}
