digraph "benchmarks-true-state-lstar-3seeds/n_states=5-n_outputs=3-glitch_percent=0.02/cd686a1ddcaeb05ba67b51ccf72e1916/RealModel" {
s1 [label="s1|a", shape=record, style=rounded];
s2 [label="s2|b", shape=record, style=rounded];
s3 [label="s3|b", shape=record, style=rounded];
s4 [label="s4|a", shape=record, style=rounded];
s5 [label="s5|b", shape=record, style=rounded];
s1 -> s2  [label="x"];
s1 -> s5  [label="y"];
s1 -> s3  [label="z"];
s2 -> s4  [label="x"];
s2 -> s2  [label="y"];
s2 -> s4  [label="z"];
s3 -> s2  [label="x"];
s3 -> s5  [label="y"];
s3 -> s3  [label="z"];
s4 -> s5  [label="x"];
s4 -> s3  [label="y"];
s4 -> s4  [label="z"];
s5 -> s1  [label="x"];
s5 -> s5  [label="y"];
s5 -> s5  [label="z"];
__start0 [label="", shape=none];
__start0 -> s1  [label=""];
}
