digraph "benchmarks-true-state-lstar-3seeds/n_states=6-n_outputs=6-glitch_percent=0.1/2b6548cc514b09f7369006c9b274ea0f/RealModel" {
s1 [label="s1|e", shape=record, style=rounded];
s2 [label="s2|c", shape=record, style=rounded];
s3 [label="s3|b", shape=record, style=rounded];
s4 [label="s4|e", shape=record, style=rounded];
s5 [label="s5|f", shape=record, style=rounded];
s6 [label="s6|e", shape=record, style=rounded];
s1 -> s4  [label="x"];
s1 -> s3  [label="y"];
s1 -> s6  [label="z"];
s2 -> s2  [label="x"];
s2 -> s4  [label="y"];
s2 -> s2  [label="z"];
s3 -> s6  [label="x"];
s3 -> s1  [label="y"];
s3 -> s4  [label="z"];
s4 -> s5  [label="x"];
s4 -> s2  [label="y"];
s4 -> s2  [label="z"];
s5 -> s5  [label="x"];
s5 -> s5  [label="y"];
s5 -> s5  [label="z"];
s6 -> s6  [label="x"];
s6 -> s2  [label="y"];
s6 -> s2  [label="z"];
__start0 [label="", shape=none];
__start0 -> s1  [label=""];
}
