digraph "pmsatLearned-N8-STOC" {
0 [label="0|a", shape=record, style=rounded];
1 [label="1|b", shape=record, style=rounded];
2 [label="2|c", shape=record, style=rounded];
3 [label="3|e", shape=record, style=rounded];
4 [label="4|e", shape=record, style=rounded];
5 [label="5|c", shape=record, style=rounded];
6 [label="6|a", shape=record, style=rounded];
7 [label="7|e", shape=record, style=rounded];
0 -> 0  [label="x (42)"];
0 -> 4  [label="y (37)"];
0 -> 7  [label="z (42)"];
1 -> 0  [label="x (99)"];
1 -> 3  [label="y (88)"];
1 -> 2  [label="z (92)"];
1 -> 2  [label="!x [1]"];
1 -> 4  [label="!x [1] t1"];
2 -> 2  [label="x (208)"];
2 -> 5  [label="y (184)"];
2 -> 3  [label="z (185)"];
2 -> 4  [label="!y [1]"];
2 -> 4  [label="!x [1]"];
2 -> 3  [label="!x [1] t1"];
3 -> 7  [label="z (195)"];
3 -> 2  [label="!y [1]"];
3 -> 1  [label="y (211)"];
3 -> 4  [label="x (216)"];
3 -> 1  [label="!z [1]"];
3 -> 3  [label="!x [1]"];
3 -> 5  [label="!y [1] t1"];
3 -> 2  [label="!x [2]"];
4 -> 2  [label="x (159)"];
4 -> 5  [label="y (173)"];
4 -> 6  [label="z (153)"];
4 -> 3  [label="!z [1]"];
4 -> 4  [label="!y [1]"];
4 -> 2  [label="!y [1] t1"];
4 -> 5  [label="!z [2]"];
5 -> 6  [label="x (180)"];
5 -> 4  [label="y (199)"];
5 -> 5  [label="z (185)"];
5 -> 2  [label="!x [1]"];
5 -> 2  [label="!z [1]"];
6 -> 2  [label="x (85)"];
6 -> 4  [label="y (95)"];
6 -> 2  [label="z (105)"];
6 -> 5  [label="!y [2]"];
6 -> 3  [label="!z [1]"];
6 -> 6  [label="!z [1] t1"];
7 -> 7  [label="x (111)"];
7 -> 1  [label="z (108)"];
7 -> 5  [label="y (95)"];
7 -> 5  [label="!z [1]"];
__start0 [label="", shape=none];
__start0 -> 3  [label=""];
}
