digraph "pmsatLearned-N8-STOC" {
0 [label="0|a", shape=record, style=rounded];
1 [label="1|c", shape=record, style=rounded];
2 [label="2|d", shape=record, style=rounded];
3 [label="3|d", shape=record, style=rounded];
4 [label="4|c", shape=record, style=rounded];
5 [label="5|d", shape=record, style=rounded];
6 [label="6|a", shape=record, style=rounded];
7 [label="7|d", shape=record, style=rounded];
0 -> 2  [label="x (39)"];
0 -> 2  [label="y (45)"];
0 -> 1  [label="z (53)"];
1 -> 4  [label="x (39)"];
1 -> 3  [label="y (45)"];
1 -> 3  [label="z (35)"];
2 -> 4  [label="z (84)"];
2 -> 6  [label="y (110)"];
2 -> 5  [label="x (118)"];
2 -> 2  [label="!z [1]"];
2 -> 0  [label="!x [1]"];
2 -> 0  [label="!y [1]"];
2 -> 3  [label="!x [1] t1"];
3 -> 0  [label="x (26)"];
3 -> 6  [label="y (42)"];
3 -> 4  [label="z (42)"];
4 -> 0  [label="x (84)"];
4 -> 4  [label="y (81)"];
4 -> 7  [label="z (73)"];
5 -> 0  [label="x (50)"];
5 -> 1  [label="y (48)"];
5 -> 3  [label="z (43)"];
5 -> 3  [label="!x [2]"];
5 -> 2  [label="!y [1]"];
6 -> 7  [label="x (47)"];
6 -> 4  [label="y (35)"];
6 -> 1  [label="z (36)"];
6 -> 2  [label="!y [2]"];
7 -> 5  [label="x (42)"];
7 -> 2  [label="y (33)"];
7 -> 2  [label="z (30)"];
7 -> 4  [label="!z [1]"];
__start0 [label="", shape=none];
__start0 -> 2  [label=""];
}
