digraph "benchmarks-true-state-lstar-rc10seeds/n_states=9-n_outputs=9-glitch_percent=0.02/917a51f88bb4d4f1c610b37d108f2339/pmsatLearned_NOP-N9" {
0 [label="0|h", shape=record, style=rounded];
1 [label="1|b", shape=record, style=rounded];
2 [label="2|f", shape=record, style=rounded];
3 [label="3|e", shape=record, style=rounded];
4 [label="4|i", shape=record, style=rounded];
5 [label="5|g", shape=record, style=rounded];
6 [label="6|g", shape=record, style=rounded];
7 [label="7|i", shape=record, style=rounded];
8 [label="8|f", shape=record, style=rounded];
0 -> 6  [label="x"];
0 -> 8  [label="y"];
0 -> 8  [label="z"];
1 -> 6  [label="x"];
1 -> 2  [label="y"];
1 -> 8  [label="z"];
2 -> 1  [label="z"];
2 -> 8  [label="y"];
2 -> 7  [label="x"];
3 -> 3  [label="x"];
3 -> 4  [label="z"];
3 -> 4  [label="y"];
4 -> 7  [label="x"];
4 -> 4  [label="y"];
4 -> 2  [label="z"];
5 -> 6  [label="x"];
5 -> 8  [label="z"];
5 -> 6  [label="y"];
6 -> 8  [label="x"];
6 -> 6  [label="y"];
6 -> 4  [label="z"];
7 -> 3  [label="x"];
7 -> 5  [label="y"];
7 -> 4  [label="z"];
8 -> 0  [label="x"];
8 -> 7  [label="z"];
8 -> 6  [label="y"];
__start0 [label="", shape=none];
__start0 -> 2  [label=""];
}
