digraph "benchmarks-true-state-lstar-3seeds/n_states=5-n_outputs=3-glitch_percent=0.1/827930c4e15be19d262dbc429c986e92/pmsatLearned-N5" {
0 [label="0|a", shape=record, style=rounded];
1 [label="1|b", shape=record, style=rounded];
2 [label="2|c", shape=record, style=rounded];
3 [label="3|c", shape=record, style=rounded];
4 [label="4|c", shape=record, style=rounded];
0 -> 2  [label="x"];
0 -> 1  [label="y"];
0 -> 3  [label="z"];
1 -> 1  [label="x"];
1 -> 4  [label="y"];
1 -> 4  [label="z"];
2 -> 1  [label="z"];
2 -> 4  [label="y"];
2 -> 3  [label="x"];
3 -> 0  [label="x"];
3 -> 1  [label="y"];
3 -> 1  [label="z"];
4 -> 2  [label="x"];
4 -> 3  [label="y"];
4 -> 1  [label="z"];
__start0 [label="", shape=none];
__start0 -> 2  [label=""];
}
