digraph "benchmarks-true-state-lstar-rc10seeds/n_states=5-n_outputs=5-glitch_percent=0.05/85b616ff782b9fbb70349f95274338a2/pmsatLearned_NOP-N5" {
0 [label="0|a", shape=record, style=rounded];
1 [label="1|c", shape=record, style=rounded];
2 [label="2|c", shape=record, style=rounded];
3 [label="3|d", shape=record, style=rounded];
4 [label="4|a", shape=record, style=rounded];
0 -> 3  [label="z"];
0 -> 2  [label="y"];
0 -> 1  [label="x"];
1 -> 4  [label="x"];
1 -> 1  [label="y"];
1 -> 4  [label="z"];
2 -> 0  [label="x"];
2 -> 2  [label="y"];
2 -> 2  [label="z"];
3 -> 1  [label="x"];
3 -> 3  [label="z"];
3 -> 2  [label="y"];
4 -> 2  [label="x"];
4 -> 3  [label="y"];
4 -> 4  [label="z"];
__start0 [label="", shape=none];
__start0 -> 0  [label=""];
}
