digraph "benchmarks-true-state-lstar-songp/n_states=6-n_outputs=5-glitch_percent=0.01-pmstrat='rc2'/7e0b0760902b6984011f80a20a26a0b2/pmsatLearned-N6-STOC" {
0 [label="0|a", shape=record, style=rounded];
1 [label="1|b", shape=record, style=rounded];
2 [label="2|c", shape=record, style=rounded];
3 [label="3|d", shape=record, style=rounded];
4 [label="4|a", shape=record, style=rounded];
5 [label="5|c", shape=record, style=rounded];
0 -> 3  [label="z (20)"];
0 -> 4  [label="y (20)"];
0 -> 2  [label="x (45)"];
0 -> 5  [label="!z [1]"];
1 -> 3  [label="x (6)"];
1 -> 5  [label="y (6)"];
1 -> 0  [label="z (6)"];
2 -> 5  [label="x (20)"];
2 -> 1  [label="y (20)"];
2 -> 2  [label="z (8)"];
3 -> 3  [label="x (8)"];
3 -> 3  [label="y (8)"];
3 -> 5  [label="z (7)"];
4 -> 1  [label="x (5)"];
4 -> 2  [label="y (5)"];
4 -> 2  [label="z (5)"];
5 -> 0  [label="x (7)"];
5 -> 0  [label="y (7)"];
5 -> 0  [label="z (7)"];
__start0 [label="", shape=none];
__start0 -> 0  [label=""];
}
