digraph "benchmarks-true-state-lstar-rc10seeds/n_states=8-n_outputs=2-glitch_percent=0.01/eb6ced2ad74b499b54d205404e000e91/pmsatLearned_NOP-N8-STOC" {
0 [label="0|a", shape=record, style=rounded];
1 [label="1|b", shape=record, style=rounded];
2 [label="2|a", shape=record, style=rounded];
3 [label="3|a", shape=record, style=rounded];
4 [label="4|b", shape=record, style=rounded];
5 [label="5|a", shape=record, style=rounded];
6 [label="6|a", shape=record, style=rounded];
7 [label="7|b", shape=record, style=rounded];
0 -> 4  [label="x (10)"];
0 -> 3  [label="y (14)"];
0 -> 4  [label="z (8)"];
1 -> 0  [label="z (29)"];
1 -> 2  [label="y (47)"];
1 -> 3  [label="x (92)"];
1 -> 1  [label="!z [1]"];
2 -> 4  [label="x (29)"];
2 -> 2  [label="y (12)"];
2 -> 4  [label="z (15)"];
3 -> 7  [label="x (47)"];
3 -> 5  [label="y (36)"];
3 -> 6  [label="z (39)"];
4 -> 1  [label="x (24)"];
4 -> 4  [label="y (18)"];
4 -> 2  [label="z (18)"];
5 -> 3  [label="x (19)"];
5 -> 3  [label="y (13)"];
5 -> 5  [label="z (16)"];
6 -> 4  [label="x (8)"];
6 -> 5  [label="z (6)"];
6 -> 3  [label="y (8)"];
7 -> 5  [label="x (18)"];
7 -> 0  [label="y (8)"];
7 -> 3  [label="z (7)"];
__start0 [label="", shape=none];
__start0 -> 1  [label=""];
}
