digraph "benchmarks-true-state-lstar-rc10seeds/n_states=9-n_outputs=9-glitch_percent=0.05/efe79f852050f69b900a3c30ba66f705/pmsatLearned_NOP-N9-STOC" {
0 [label="0|d", shape=record, style=rounded];
1 [label="1|d", shape=record, style=rounded];
2 [label="2|i", shape=record, style=rounded];
3 [label="3|e", shape=record, style=rounded];
4 [label="4|d", shape=record, style=rounded];
5 [label="5|i", shape=record, style=rounded];
6 [label="6|g", shape=record, style=rounded];
7 [label="7|i", shape=record, style=rounded];
8 [label="8|c", shape=record, style=rounded];
0 -> 1  [label="x (5)"];
0 -> 6  [label="y (5)"];
0 -> 4  [label="z (6)"];
0 -> 5  [label="!y [1]"];
1 -> 3  [label="z (20)"];
1 -> 8  [label="!y [1]"];
1 -> 7  [label="y (44)"];
1 -> 6  [label="x (52)"];
1 -> 0  [label="!x [2]"];
1 -> 4  [label="!z [1]"];
1 -> 4  [label="!x [1]"];
2 -> 3  [label="x (6)"];
2 -> 3  [label="z (6)"];
2 -> 5  [label="y (5)"];
3 -> 7  [label="x (9)"];
3 -> 2  [label="z (8)"];
3 -> 1  [label="y (7)"];
4 -> 4  [label="x (9)"];
4 -> 4  [label="y (8)"];
4 -> 0  [label="z (9)"];
5 -> 3  [label="x (7)"];
5 -> 8  [label="y (6)"];
5 -> 1  [label="z (7)"];
6 -> 0  [label="x (14)"];
6 -> 4  [label="z (16)"];
6 -> 8  [label="y (15)"];
6 -> 3  [label="!y [1]"];
7 -> 5  [label="x (18)"];
7 -> 2  [label="y (18)"];
7 -> 4  [label="z (6)"];
8 -> 1  [label="x (6)"];
8 -> 3  [label="y (5)"];
8 -> 5  [label="z (6)"];
__start0 [label="", shape=none];
__start0 -> 1  [label=""];
}
