digraph "benchmarks-true-state-lstar-rc10seeds/n_states=4-n_outputs=2-glitch_percent=0.0/aa5914610412d06e71b49e458925df40/pmsatLearned_NOP-N4-STOC" {
0 [label="0|a", shape=record, style=rounded];
1 [label="1|b", shape=record, style=rounded];
2 [label="2|a", shape=record, style=rounded];
3 [label="3|a", shape=record, style=rounded];
0 -> 1  [label="z (28)"];
0 -> 2  [label="y (26)"];
0 -> 3  [label="x (27)"];
1 -> 1  [label="x (15)"];
1 -> 1  [label="y (10)"];
1 -> 1  [label="z (15)"];
2 -> 0  [label="x (12)"];
2 -> 3  [label="y (7)"];
2 -> 1  [label="z (10)"];
3 -> 2  [label="x (11)"];
3 -> 3  [label="y (8)"];
3 -> 0  [label="z (12)"];
__start0 [label="", shape=none];
__start0 -> 0  [label=""];
}
