digraph "benchmarks-true-state-lstar-3seeds/n_states=9-n_outputs=4-glitch_percent=0.0/7d5e2615802eacfdea102c56bfd50dfa/pmsatLearned-N9-STOC" {
0 [label="0|a", shape=record, style=rounded];
1 [label="1|b", shape=record, style=rounded];
2 [label="2|c", shape=record, style=rounded];
3 [label="3|d", shape=record, style=rounded];
4 [label="4|c", shape=record, style=rounded];
5 [label="5|d", shape=record, style=rounded];
6 [label="6|d", shape=record, style=rounded];
7 [label="7|a", shape=record, style=rounded];
8 [label="8|b", shape=record, style=rounded];
0 -> 0  [label="x (8)"];
0 -> 0  [label="y (8)"];
0 -> 8  [label="z (8)"];
1 -> 2  [label="z (18)"];
1 -> 6  [label="y (42)"];
1 -> 4  [label="x (54)"];
2 -> 4  [label="x (8)"];
2 -> 4  [label="y (8)"];
2 -> 5  [label="z (8)"];
3 -> 5  [label="x (6)"];
3 -> 7  [label="y (6)"];
3 -> 2  [label="z (6)"];
4 -> 3  [label="x (19)"];
4 -> 7  [label="y (19)"];
4 -> 5  [label="z (19)"];
5 -> 1  [label="x (8)"];
5 -> 7  [label="y (8)"];
5 -> 6  [label="z (8)"];
6 -> 8  [label="x (18)"];
6 -> 0  [label="y (18)"];
6 -> 8  [label="z (6)"];
7 -> 7  [label="x (8)"];
7 -> 2  [label="y (8)"];
7 -> 0  [label="z (8)"];
8 -> 5  [label="x (7)"];
8 -> 3  [label="y (7)"];
8 -> 2  [label="z (7)"];
__start0 [label="", shape=none];
__start0 -> 1  [label=""];
}
