digraph "benchmarks-true-state-lstar-3seeds/n_states=8-n_outputs=2-glitch_percent=0.0/ce01a7c308e23101ce57006f0dc7b813/pmsatLearned-N8-STOC" {
0 [label="0|a", shape=record, style=rounded];
1 [label="1|b", shape=record, style=rounded];
2 [label="2|b", shape=record, style=rounded];
3 [label="3|a", shape=record, style=rounded];
4 [label="4|a", shape=record, style=rounded];
5 [label="5|b", shape=record, style=rounded];
6 [label="6|a", shape=record, style=rounded];
7 [label="7|b", shape=record, style=rounded];
0 -> 4  [label="x (13)"];
0 -> 6  [label="y (9)"];
0 -> 0  [label="z (9)"];
1 -> 5  [label="z (24)"];
1 -> 2  [label="y (38)"];
1 -> 4  [label="x (83)"];
2 -> 6  [label="x (24)"];
2 -> 6  [label="y (7)"];
2 -> 4  [label="z (7)"];
3 -> 5  [label="x (12)"];
3 -> 5  [label="y (6)"];
3 -> 4  [label="z (6)"];
4 -> 3  [label="x (37)"];
4 -> 7  [label="y (29)"];
4 -> 0  [label="z (25)"];
5 -> 1  [label="x (13)"];
5 -> 7  [label="y (8)"];
5 -> 0  [label="z (8)"];
6 -> 1  [label="x (15)"];
6 -> 6  [label="y (9)"];
6 -> 0  [label="z (9)"];
7 -> 7  [label="x (22)"];
7 -> 2  [label="y (8)"];
7 -> 4  [label="z (8)"];
__start0 [label="", shape=none];
__start0 -> 1  [label=""];
}
