digraph "benchmarks-true-state-lstar-3seeds/n_states=12-n_outputs=6-glitch_percent=0.1/57c897bfbbc51664d52c134c15d51b7b/alergiaLearned" {
q0 [label="a"];
q1 [label="c"];
q2 [label="a"];
q3 [label="a"];
q4 [label="c"];
q5 [label="f"];
q6 [label="d"];
q7 [label="e"];
q0 -> q1  [label="z:1.0"];
q0 -> q5  [label="z:0.0"];
q0 -> q2  [label="y:0.9491525423728814"];
q0 -> q4  [label="y:0.03389830508474576"];
q0 -> q5  [label="y:0.01694915254237288"];
q0 -> q3  [label="x:0.8620689655172413"];
q0 -> q6  [label="x:0.034482758620689655"];
q0 -> q7  [label="x:0.10344827586206896"];
q1 -> q6  [label="x:1.0"];
q1 -> q1  [label="x:0.0"];
q1 -> q5  [label="y:1.0"];
q1 -> q7  [label="y:0.0"];
q1 -> q4  [label="z:0.6666666666666666"];
q1 -> q7  [label="z:0.3333333333333333"];
q2 -> q7  [label="x:0.6666666666666666"];
q2 -> q1  [label="x:0.05555555555555555"];
q2 -> q0  [label="x:0.2777777777777778"];
q2 -> q2  [label="y:0.631578947368421"];
q2 -> q5  [label="y:0.3684210526315789"];
q2 -> q4  [label="z:0.6818181818181818"];
q2 -> q0  [label="z:0.09090909090909091"];
q2 -> q7  [label="z:0.22727272727272727"];
q3 -> q7  [label="x:1.0"];
q3 -> q4  [label="y:1.0"];
q3 -> q5  [label="z:0.9444444444444444"];
q3 -> q7  [label="z:0.05555555555555555"];
q4 -> q7  [label="y:0.7142857142857143"];
q4 -> q5  [label="y:0.2857142857142857"];
q4 -> q1  [label="x:0.9090909090909091"];
q4 -> q7  [label="x:0.09090909090909091"];
q4 -> q0  [label="z:0.5555555555555556"];
q4 -> q7  [label="z:0.4444444444444444"];
q5 -> q4  [label="y:1.0"];
q5 -> q0  [label="x:0.45454545454545453"];
q5 -> q7  [label="x:0.5454545454545454"];
q5 -> q5  [label="z:1.0"];
q6 -> q0  [label="x:1.0"];
q6 -> q5  [label="y:1.0"];
q6 -> q1  [label="z:1.0"];
q7 -> q7  [label="x:0.46153846153846156"];
q7 -> q6  [label="x:0.5384615384615384"];
q7 -> q1  [label="y:0.5555555555555556"];
q7 -> q0  [label="y:0.4444444444444444"];
q7 -> q0  [label="z:0.36363636363636365"];
q7 -> q1  [label="z:0.09090909090909091"];
q7 -> q7  [label="z:0.5454545454545454"];
__start0 [label="", shape=none];
__start0 -> q0  [label=""];
}
