digraph "benchmarks-true-state-lstar-rc10seeds/n_states=8-n_outputs=4-glitch_percent=0.02/343a12adfe61bf4bce27a15a7e394a2a/pmsatLearned_NOP-N8-STOC" {
0 [label="0|d", shape=record, style=rounded];
1 [label="1|d", shape=record, style=rounded];
2 [label="2|b", shape=record, style=rounded];
3 [label="3|b", shape=record, style=rounded];
4 [label="4|a", shape=record, style=rounded];
5 [label="5|a", shape=record, style=rounded];
6 [label="6|a", shape=record, style=rounded];
7 [label="7|a", shape=record, style=rounded];
0 -> 1  [label="z (21)"];
0 -> 2  [label="y (35)"];
0 -> 7  [label="x (71)"];
0 -> 5  [label="!x [1]"];
0 -> 5  [label="!z [1]"];
1 -> 7  [label="x (15)"];
1 -> 5  [label="y (10)"];
1 -> 6  [label="z (10)"];
2 -> 5  [label="x (25)"];
2 -> 1  [label="y (7)"];
2 -> 4  [label="z (7)"];
2 -> 2  [label="!x [1]"];
3 -> 7  [label="x (17)"];
3 -> 1  [label="y (7)"];
3 -> 4  [label="z (5)"];
3 -> 6  [label="!y [1]"];
4 -> 2  [label="x (11)"];
4 -> 5  [label="y (6)"];
4 -> 7  [label="z (8)"];
5 -> 3  [label="x (12)"];
5 -> 6  [label="y (8)"];
5 -> 1  [label="z (8)"];
6 -> 7  [label="x (16)"];
6 -> 7  [label="y (8)"];
6 -> 1  [label="z (8)"];
7 -> 6  [label="x (45)"];
7 -> 3  [label="y (30)"];
7 -> 4  [label="z (26)"];
7 -> 7  [label="!x [1]"];
__start0 [label="", shape=none];
__start0 -> 0  [label=""];
}
