digraph "benchmarks-true-state-lstar-rc10seeds/n_states=16-n_outputs=3-glitch_percent=0.0/1843742a96168a7c0a4a8a04f117671a/pmsatLearned_NOP-N16-STOC" {
0 [label="0|a", shape=record, style=rounded];
1 [label="1|a", shape=record, style=rounded];
2 [label="2|c", shape=record, style=rounded];
3 [label="3|a", shape=record, style=rounded];
4 [label="4|c", shape=record, style=rounded];
5 [label="5|a", shape=record, style=rounded];
6 [label="6|a", shape=record, style=rounded];
7 [label="7|c", shape=record, style=rounded];
8 [label="8|c", shape=record, style=rounded];
9 [label="9|b", shape=record, style=rounded];
10 [label="10|c", shape=record, style=rounded];
11 [label="11|a", shape=record, style=rounded];
12 [label="12|a", shape=record, style=rounded];
13 [label="13|c", shape=record, style=rounded];
14 [label="14|b", shape=record, style=rounded];
15 [label="15|c", shape=record, style=rounded];
0 -> 1  [label="z (70)"];
0 -> 14  [label="y (66)"];
0 -> 9  [label="x (113)"];
1 -> 15  [label="x (30)"];
1 -> 13  [label="y (33)"];
1 -> 6  [label="z (29)"];
2 -> 1  [label="x (11)"];
2 -> 13  [label="y (13)"];
2 -> 15  [label="z (8)"];
3 -> 1  [label="x (15)"];
3 -> 10  [label="y (12)"];
3 -> 9  [label="z (10)"];
4 -> 5  [label="x (11)"];
4 -> 2  [label="y (8)"];
4 -> 1  [label="z (8)"];
5 -> 2  [label="x (29)"];
5 -> 8  [label="y (32)"];
5 -> 4  [label="z (24)"];
6 -> 15  [label="x (13)"];
6 -> 4  [label="y (7)"];
6 -> 10  [label="z (7)"];
7 -> 10  [label="x (7)"];
7 -> 9  [label="y (7)"];
7 -> 12  [label="z (6)"];
8 -> 3  [label="x (9)"];
8 -> 5  [label="y (11)"];
8 -> 3  [label="z (7)"];
9 -> 5  [label="x (76)"];
9 -> 11  [label="y (29)"];
9 -> 12  [label="z (25)"];
10 -> 8  [label="x (13)"];
10 -> 15  [label="y (10)"];
10 -> 3  [label="z (9)"];
11 -> 9  [label="x (11)"];
11 -> 1  [label="y (13)"];
11 -> 9  [label="z (8)"];
12 -> 15  [label="x (9)"];
12 -> 6  [label="y (7)"];
12 -> 4  [label="z (7)"];
13 -> 13  [label="x (11)"];
13 -> 3  [label="y (11)"];
13 -> 2  [label="z (8)"];
14 -> 7  [label="x (22)"];
14 -> 10  [label="y (21)"];
14 -> 3  [label="z (21)"];
15 -> 11  [label="x (15)"];
15 -> 5  [label="y (23)"];
15 -> 11  [label="z (10)"];
__start0 [label="", shape=none];
__start0 -> 0  [label=""];
}
