digraph "benchmarks-true-state-lstar-3seeds/n_states=3-n_outputs=3-glitch_percent=0.02/6457c6e13d78cf7c053e6cb78a7c7d82/pmsatLearned-N3-STOC" {
0 [label="0|a", shape=record, style=rounded];
1 [label="1|b", shape=record, style=rounded];
2 [label="2|a", shape=record, style=rounded];
0 -> 2  [label="z (8)"];
0 -> 1  [label="y (20)"];
0 -> 2  [label="x (20)"];
1 -> 2  [label="x (7)"];
1 -> 1  [label="y (6)"];
1 -> 1  [label="z (7)"];
2 -> 0  [label="x (7)"];
2 -> 0  [label="y (7)"];
2 -> 0  [label="z (7)"];
__start0 [label="", shape=none];
__start0 -> 0  [label=""];
}
