digraph "benchmarks-true-state-lstar-3seeds/n_states=17-n_outputs=7-glitch_percent=0.01/284db697a8a83fd146a3befa9e0e197d/pmsatLearned-N17" {
0 [label="0|b", shape=record, style=rounded];
1 [label="1|c", shape=record, style=rounded];
2 [label="2|d", shape=record, style=rounded];
3 [label="3|e", shape=record, style=rounded];
4 [label="4|f", shape=record, style=rounded];
5 [label="5|g", shape=record, style=rounded];
6 [label="6|d", shape=record, style=rounded];
7 [label="7|g", shape=record, style=rounded];
8 [label="8|b", shape=record, style=rounded];
9 [label="9|g", shape=record, style=rounded];
10 [label="10|g", shape=record, style=rounded];
11 [label="11|e", shape=record, style=rounded];
12 [label="12|f", shape=record, style=rounded];
13 [label="13|e", shape=record, style=rounded];
14 [label="14|e", shape=record, style=rounded];
15 [label="15|b", shape=record, style=rounded];
16 [label="16|b", shape=record, style=rounded];
0 -> 11  [label="z"];
0 -> 1  [label="y"];
0 -> 9  [label="x"];
1 -> 6  [label="x"];
1 -> 5  [label="y"];
1 -> 3  [label="z"];
2 -> 4  [label="x"];
2 -> 2  [label="y"];
2 -> 0  [label="z"];
3 -> 3  [label="x"];
3 -> 8  [label="y"];
3 -> 2  [label="z"];
4 -> 4  [label="x"];
4 -> 3  [label="y"];
4 -> 4  [label="z"];
5 -> 0  [label="x"];
5 -> 5  [label="y"];
5 -> 3  [label="z"];
6 -> 2  [label="x"];
6 -> 8  [label="y"];
6 -> 12  [label="z"];
7 -> 4  [label="x"];
7 -> 14  [label="y"];
7 -> 9  [label="z"];
8 -> 2  [label="x"];
8 -> 10  [label="y"];
8 -> 0  [label="z"];
9 -> 10  [label="x"];
9 -> 7  [label="y"];
9 -> 8  [label="z"];
10 -> 16  [label="x"];
10 -> 2  [label="y"];
10 -> 15  [label="z"];
11 -> 13  [label="x"];
11 -> 12  [label="y"];
11 -> 14  [label="z"];
12 -> 10  [label="x"];
12 -> 9  [label="y"];
12 -> 3  [label="z"];
13 -> 0  [label="x"];
13 -> 11  [label="y"];
13 -> 11  [label="z"];
14 -> 12  [label="x"];
14 -> 8  [label="y"];
14 -> 9  [label="z"];
15 -> 11  [label="x"];
15 -> 5  [label="y"];
15 -> 12  [label="z"];
16 -> 2  [label="x"];
16 -> 12  [label="y"];
16 -> 3  [label="z"];
__start0 [label="", shape=none];
__start0 -> 0  [label=""];
}
