digraph "benchmarks-true-state-lstar-rc10seeds/n_states=16-n_outputs=8-glitch_percent=0.01/cbf37bcd054c85bf615eb24347f1f987/pmsatLearned_NOP-N16-STOC" {
0 [label="0|e", shape=record, style=rounded];
1 [label="1|c", shape=record, style=rounded];
2 [label="2|h", shape=record, style=rounded];
3 [label="3|c", shape=record, style=rounded];
4 [label="4|a", shape=record, style=rounded];
5 [label="5|f", shape=record, style=rounded];
6 [label="6|c", shape=record, style=rounded];
7 [label="7|b", shape=record, style=rounded];
8 [label="8|d", shape=record, style=rounded];
9 [label="9|c", shape=record, style=rounded];
10 [label="10|d", shape=record, style=rounded];
11 [label="11|d", shape=record, style=rounded];
12 [label="12|d", shape=record, style=rounded];
13 [label="13|b", shape=record, style=rounded];
14 [label="14|h", shape=record, style=rounded];
15 [label="15|g", shape=record, style=rounded];
0 -> 6  [label="x (17)"];
0 -> 1  [label="y (16)"];
0 -> 8  [label="z (17)"];
0 -> 2  [label="!z [1]"];
1 -> 6  [label="x (5)"];
1 -> 14  [label="y (5)"];
1 -> 2  [label="z (4)"];
2 -> 5  [label="x (8)"];
2 -> 3  [label="y (8)"];
2 -> 8  [label="z (8)"];
3 -> 4  [label="x (20)"];
3 -> 2  [label="y (19)"];
3 -> 11  [label="z (20)"];
4 -> 10  [label="x (5)"];
4 -> 8  [label="y (5)"];
4 -> 11  [label="z (5)"];
5 -> 15  [label="z (57)"];
5 -> 0  [label="y (57)"];
5 -> 7  [label="x (93)"];
6 -> 3  [label="x (6)"];
6 -> 8  [label="y (6)"];
6 -> 9  [label="z (6)"];
7 -> 3  [label="x (54)"];
7 -> 13  [label="y (19)"];
7 -> 9  [label="z (17)"];
7 -> 2  [label="!y [1]"];
7 -> 5  [label="!x [1]"];
8 -> 5  [label="x (9)"];
8 -> 3  [label="y (9)"];
8 -> 11  [label="z (9)"];
9 -> 5  [label="x (5)"];
9 -> 15  [label="z (6)"];
9 -> 12  [label="y (5)"];
10 -> 15  [label="x (7)"];
10 -> 10  [label="y (8)"];
10 -> 13  [label="z (8)"];
11 -> 8  [label="x (9)"];
11 -> 10  [label="y (9)"];
11 -> 5  [label="z (9)"];
12 -> 11  [label="x (7)"];
12 -> 11  [label="y (8)"];
12 -> 7  [label="z (8)"];
13 -> 7  [label="x (7)"];
13 -> 2  [label="y (7)"];
13 -> 2  [label="z (7)"];
14 -> 12  [label="x (6)"];
14 -> 12  [label="y (6)"];
14 -> 13  [label="z (6)"];
15 -> 14  [label="x (19)"];
15 -> 12  [label="y (19)"];
15 -> 10  [label="z (19)"];
__start0 [label="", shape=none];
__start0 -> 5  [label=""];
}
