digraph "benchmarks-true-state-lstar-3seeds/n_states=13-n_outputs=2-glitch_percent=0.01/052b967145a60ea6f336ff748eeac1fa/pmsatLearned-N13-STOC" {
0 [label="0|a", shape=record, style=rounded];
1 [label="1|b", shape=record, style=rounded];
2 [label="2|b", shape=record, style=rounded];
3 [label="3|a", shape=record, style=rounded];
4 [label="4|b", shape=record, style=rounded];
5 [label="5|a", shape=record, style=rounded];
6 [label="6|b", shape=record, style=rounded];
7 [label="7|a", shape=record, style=rounded];
8 [label="8|a", shape=record, style=rounded];
9 [label="9|a", shape=record, style=rounded];
10 [label="10|b", shape=record, style=rounded];
11 [label="11|a", shape=record, style=rounded];
12 [label="12|b", shape=record, style=rounded];
0 -> 5  [label="z (105)"];
0 -> 7  [label="y (98)"];
0 -> 8  [label="x (99)"];
0 -> 1  [label="!y [1]"];
0 -> 8  [label="!z [1]"];
0 -> 4  [label="!x [1]"];
1 -> 5  [label="x (20)"];
1 -> 9  [label="y (14)"];
1 -> 2  [label="z (13)"];
2 -> 4  [label="x (14)"];
2 -> 11  [label="y (11)"];
2 -> 8  [label="z (12)"];
3 -> 4  [label="x (12)"];
3 -> 0  [label="y (15)"];
3 -> 8  [label="z (12)"];
4 -> 12  [label="x (38)"];
4 -> 5  [label="y (26)"];
4 -> 4  [label="z (12)"];
5 -> 4  [label="x (44)"];
5 -> 1  [label="y (37)"];
5 -> 12  [label="z (42)"];
5 -> 3  [label="!y [1]"];
6 -> 6  [label="x (20)"];
6 -> 10  [label="y (19)"];
6 -> 4  [label="z (10)"];
7 -> 11  [label="x (39)"];
7 -> 2  [label="y (37)"];
7 -> 6  [label="z (39)"];
7 -> 0  [label="!y [1]"];
8 -> 10  [label="x (47)"];
8 -> 9  [label="y (40)"];
8 -> 3  [label="z (34)"];
8 -> 9  [label="!z [1]"];
9 -> 8  [label="x (19)"];
9 -> 7  [label="y (14)"];
9 -> 4  [label="z (19)"];
9 -> 2  [label="!y [1]"];
10 -> 6  [label="x (18)"];
10 -> 9  [label="y (15)"];
10 -> 12  [label="z (12)"];
11 -> 7  [label="x (19)"];
11 -> 3  [label="y (16)"];
11 -> 5  [label="z (15)"];
12 -> 1  [label="x (26)"];
12 -> 11  [label="y (23)"];
12 -> 9  [label="z (10)"];
__start0 [label="", shape=none];
__start0 -> 0  [label=""];
}
