digraph "benchmarks-true-state-lstar-3seeds/n_states=6-n_outputs=2-glitch_percent=0.05/8f9dc5658c23adc88aee19bf3f8bca4e/pmsatLearned-N6" {
0 [label="0|a", shape=record, style=rounded];
1 [label="1|b", shape=record, style=rounded];
2 [label="2|b", shape=record, style=rounded];
3 [label="3|b", shape=record, style=rounded];
4 [label="4|a", shape=record, style=rounded];
5 [label="5|a", shape=record, style=rounded];
0 -> 2  [label="x"];
0 -> 2  [label="y"];
0 -> 3  [label="z"];
1 -> 0  [label="z"];
1 -> 3  [label="y"];
1 -> 5  [label="x"];
2 -> 2  [label="x"];
2 -> 0  [label="y"];
2 -> 0  [label="z"];
3 -> 2  [label="y"];
3 -> 0  [label="z"];
3 -> 4  [label="x"];
4 -> 4  [label="x"];
4 -> 3  [label="y"];
4 -> 2  [label="z"];
5 -> 4  [label="x"];
5 -> 5  [label="z"];
5 -> 2  [label="y"];
__start0 [label="", shape=none];
__start0 -> 1  [label=""];
}
