digraph "benchmarks-true-state-lstar-3seeds/n_states=11-n_outputs=2-glitch_percent=0.05/7bf578c2805e6c43359e965166f1d7fd/rpniGroundTruth" {
s0 [label="s0|b", shape=record, style=rounded];
s1 [label="s1|b", shape=record, style=rounded];
s2 [label="s2|b", shape=record, style=rounded];
s3 [label="s3|a", shape=record, style=rounded];
s4 [label="s4|b", shape=record, style=rounded];
s5 [label="s5|a", shape=record, style=rounded];
s6 [label="s6|a", shape=record, style=rounded];
s7 [label="s7|a", shape=record, style=rounded];
s8 [label="s8|b", shape=record, style=rounded];
s9 [label="s9|a", shape=record, style=rounded];
s10 [label="s10|b", shape=record, style=rounded];
s0 -> s1  [label="z"];
s0 -> s2  [label="x"];
s0 -> s3  [label="y"];
s1 -> s1  [label="y"];
s1 -> s4  [label="x"];
s1 -> s5  [label="z"];
s2 -> s6  [label="y"];
s2 -> s5  [label="x"];
s2 -> s7  [label="z"];
s3 -> s8  [label="y"];
s3 -> s9  [label="z"];
s3 -> s10  [label="x"];
s4 -> s6  [label="x"];
s4 -> s4  [label="z"];
s4 -> s2  [label="y"];
s5 -> s4  [label="y"];
s5 -> s10  [label="x"];
s5 -> s8  [label="z"];
s6 -> s6  [label="z"];
s6 -> s5  [label="x"];
s6 -> s5  [label="y"];
s7 -> s7  [label="z"];
s7 -> s0  [label="y"];
s7 -> s3  [label="x"];
s8 -> s6  [label="x"];
s8 -> s4  [label="y"];
s8 -> s9  [label="z"];
s9 -> s1  [label="z"];
s9 -> s2  [label="x"];
s9 -> s1  [label="y"];
s10 -> s3  [label="y"];
s10 -> s6  [label="x"];
s10 -> s7  [label="z"];
__start0 [label="", shape=none];
__start0 -> s0  [label=""];
}
