digraph "benchmarks-true-state-lstar-3seeds/n_states=12-n_outputs=7-glitch_percent=0.01/f0f41d0fe607ae6dcdd11ac0ea138034/RealModel" {
s1 [label="s1|d", shape=record, style=rounded];
s2 [label="s2|g", shape=record, style=rounded];
s3 [label="s3|c", shape=record, style=rounded];
s4 [label="s4|c", shape=record, style=rounded];
s5 [label="s5|f", shape=record, style=rounded];
s6 [label="s6|b", shape=record, style=rounded];
s7 [label="s7|f", shape=record, style=rounded];
s8 [label="s8|d", shape=record, style=rounded];
s9 [label="s9|g", shape=record, style=rounded];
s10 [label="s10|c", shape=record, style=rounded];
s11 [label="s11|a", shape=record, style=rounded];
s12 [label="s12|e", shape=record, style=rounded];
s1 -> s7  [label="x"];
s1 -> s5  [label="y"];
s1 -> s12  [label="z"];
s2 -> s6  [label="x"];
s2 -> s12  [label="y"];
s2 -> s11  [label="z"];
s3 -> s6  [label="x"];
s3 -> s10  [label="y"];
s3 -> s10  [label="z"];
s4 -> s7  [label="x"];
s4 -> s11  [label="y"];
s4 -> s2  [label="z"];
s5 -> s2  [label="x"];
s5 -> s10  [label="y"];
s5 -> s9  [label="z"];
s6 -> s12  [label="x"];
s6 -> s2  [label="y"];
s6 -> s4  [label="z"];
s7 -> s3  [label="x"];
s7 -> s4  [label="y"];
s7 -> s8  [label="z"];
s8 -> s2  [label="x"];
s8 -> s12  [label="y"];
s8 -> s10  [label="z"];
s9 -> s6  [label="x"];
s9 -> s5  [label="y"];
s9 -> s7  [label="z"];
s10 -> s7  [label="x"];
s10 -> s1  [label="y"];
s10 -> s4  [label="z"];
s11 -> s8  [label="x"];
s11 -> s5  [label="y"];
s11 -> s12  [label="z"];
s12 -> s6  [label="x"];
s12 -> s11  [label="y"];
s12 -> s2  [label="z"];
__start0 [label="", shape=none];
__start0 -> s1  [label=""];
}
