digraph "benchmarks-true-state-lstar-3seeds/n_states=14-n_outputs=8-glitch_percent=0.05/a5259519bde286640a485f08f191c5bd/pmsatLearned-N14-STOC" {
0 [label="0|a", shape=record, style=rounded];
1 [label="1|b", shape=record, style=rounded];
2 [label="2|e", shape=record, style=rounded];
3 [label="3|f", shape=record, style=rounded];
4 [label="4|g", shape=record, style=rounded];
5 [label="5|h", shape=record, style=rounded];
6 [label="6|e", shape=record, style=rounded];
7 [label="7|h", shape=record, style=rounded];
8 [label="8|a", shape=record, style=rounded];
9 [label="9|e", shape=record, style=rounded];
10 [label="10|b", shape=record, style=rounded];
11 [label="11|b", shape=record, style=rounded];
12 [label="12|b", shape=record, style=rounded];
13 [label="13|e", shape=record, style=rounded];
0 -> 1  [label="x (9)"];
0 -> 9  [label="y (6)"];
0 -> 6  [label="z (6)"];
1 -> 3  [label="x (10)"];
1 -> 4  [label="y (6)"];
1 -> 2  [label="z (6)"];
2 -> 6  [label="z (65)"];
2 -> 10  [label="y (66)"];
2 -> 9  [label="x (89)"];
2 -> 5  [label="!z [1]"];
2 -> 12  [label="!y [2]"];
2 -> 1  [label="!z [2]"];
2 -> 2  [label="!x [1]"];
2 -> 4  [label="!x [4]"];
3 -> 2  [label="x (14)"];
3 -> 7  [label="y (6)"];
3 -> 9  [label="z (9)"];
3 -> 9  [label="!x [1]"];
4 -> 7  [label="x (35)"];
4 -> 5  [label="y (7)"];
4 -> 3  [label="z (6)"];
4 -> 12  [label="!y [1]"];
5 -> 12  [label="x (10)"];
5 -> 11  [label="y (7)"];
5 -> 8  [label="z (6)"];
6 -> 11  [label="x (29)"];
6 -> 8  [label="y (21)"];
6 -> 5  [label="z (24)"];
6 -> 9  [label="!z [2]"];
6 -> 6  [label="!x [1]"];
7 -> 11  [label="x (18)"];
7 -> 10  [label="y (7)"];
7 -> 8  [label="z (7)"];
7 -> 13  [label="!x [1]"];
8 -> 6  [label="x (10)"];
8 -> 3  [label="y (8)"];
8 -> 12  [label="z (7)"];
9 -> 4  [label="x (48)"];
9 -> 3  [label="z (27)"];
9 -> 13  [label="y (23)"];
9 -> 5  [label="!x [2]"];
10 -> 0  [label="x (23)"];
10 -> 1  [label="z (19)"];
10 -> 12  [label="y (19)"];
10 -> 4  [label="!y [1]"];
11 -> 6  [label="x (21)"];
11 -> 9  [label="y (6)"];
11 -> 9  [label="z (6)"];
11 -> 4  [label="!x [1]"];
12 -> 9  [label="y (11)"];
12 -> 4  [label="z (9)"];
12 -> 12  [label="x (22)"];
13 -> 12  [label="y (5)"];
13 -> 2  [label="z (6)"];
13 -> 7  [label="x (6)"];
__start0 [label="", shape=none];
__start0 -> 2  [label=""];
}
