digraph "benchmarks-true-state-lstar-rc10seeds/n_states=13-n_outputs=5-glitch_percent=0.05/744b3309b89e027bebb22a4866afd2e0/pmsatLearned_NOP-N13-STOC" {
0 [label="0|a", shape=record, style=rounded];
1 [label="1|a", shape=record, style=rounded];
2 [label="2|c", shape=record, style=rounded];
3 [label="3|b", shape=record, style=rounded];
4 [label="4|d", shape=record, style=rounded];
5 [label="5|c", shape=record, style=rounded];
6 [label="6|b", shape=record, style=rounded];
7 [label="7|d", shape=record, style=rounded];
8 [label="8|c", shape=record, style=rounded];
9 [label="9|b", shape=record, style=rounded];
10 [label="10|d", shape=record, style=rounded];
11 [label="11|e", shape=record, style=rounded];
12 [label="12|d", shape=record, style=rounded];
0 -> 7  [label="x (17)"];
0 -> 4  [label="y (19)"];
0 -> 8  [label="z (18)"];
0 -> 11  [label="!z [1]"];
0 -> 0  [label="!y [1]"];
1 -> 1  [label="x (8)"];
1 -> 2  [label="z (7)"];
1 -> 0  [label="y (6)"];
2 -> 11  [label="z (52)"];
2 -> 0  [label="y (50)"];
2 -> 5  [label="x (48)"];
2 -> 12  [label="!y [1]"];
2 -> 5  [label="!z [1]"];
2 -> 1  [label="!z [3]"];
2 -> 4  [label="!y [2]"];
2 -> 4  [label="!x [1]"];
3 -> 9  [label="x (8)"];
3 -> 3  [label="y (9)"];
3 -> 5  [label="z (8)"];
4 -> 12  [label="x (5)"];
4 -> 1  [label="y (7)"];
4 -> 9  [label="z (6)"];
5 -> 10  [label="x (17)"];
5 -> 12  [label="y (16)"];
5 -> 1  [label="z (13)"];
5 -> 0  [label="!y [1]"];
5 -> 0  [label="!x [1]"];
6 -> 11  [label="x (6)"];
6 -> 1  [label="y (7)"];
6 -> 3  [label="z (6)"];
7 -> 12  [label="x (5)"];
7 -> 1  [label="y (4)"];
7 -> 0  [label="z (6)"];
8 -> 4  [label="x (6)"];
8 -> 3  [label="y (7)"];
8 -> 11  [label="z (6)"];
9 -> 11  [label="x (8)"];
9 -> 0  [label="z (8)"];
9 -> 8  [label="y (7)"];
10 -> 7  [label="x (6)"];
10 -> 9  [label="y (6)"];
10 -> 8  [label="z (6)"];
11 -> 6  [label="x (18)"];
11 -> 3  [label="y (18)"];
11 -> 9  [label="z (20)"];
11 -> 3  [label="!z [1]"];
12 -> 6  [label="x (7)"];
12 -> 10  [label="y (7)"];
12 -> 6  [label="z (7)"];
__start0 [label="", shape=none];
__start0 -> 2  [label=""];
}
