digraph "pmsatLearned-N8-STOC" {
0 [label="0|b", shape=record, style=rounded];
1 [label="1|c", shape=record, style=rounded];
2 [label="2|d", shape=record, style=rounded];
3 [label="3|e", shape=record, style=rounded];
4 [label="4|d", shape=record, style=rounded];
5 [label="5|b", shape=record, style=rounded];
6 [label="6|d", shape=record, style=rounded];
7 [label="7|d", shape=record, style=rounded];
0 -> 5  [label="z (50)"];
0 -> 1  [label="y (59)"];
0 -> 6  [label="x (107)"];
1 -> 2  [label="x (28)"];
1 -> 5  [label="y (10)"];
1 -> 5  [label="z (15)"];
2 -> 0  [label="x (23)"];
2 -> 2  [label="y (23)"];
2 -> 6  [label="z (25)"];
2 -> 5  [label="!z [1]"];
3 -> 5  [label="x (26)"];
3 -> 0  [label="y (31)"];
3 -> 7  [label="z (21)"];
4 -> 4  [label="x (37)"];
4 -> 6  [label="y (38)"];
4 -> 6  [label="z (42)"];
4 -> 4  [label="!y [1]"];
5 -> 4  [label="x (23)"];
5 -> 2  [label="y (33)"];
5 -> 6  [label="z (25)"];
5 -> 6  [label="!y [1]"];
6 -> 7  [label="x (58)"];
6 -> 4  [label="y (82)"];
6 -> 3  [label="z (77)"];
7 -> 7  [label="x (27)"];
7 -> 6  [label="y (30)"];
7 -> 3  [label="z (27)"];
__start0 [label="", shape=none];
__start0 -> 0  [label=""];
}
