digraph "benchmarks-true-state-lstar-3seeds/n_states=14-n_outputs=2-glitch_percent=0.05/324479390a632b3e4c031972af9824be/alergiaLearned" {
q0 [label="a"];
q1 [label="b"];
q2 [label="b"];
q3 [label="a"];
q4 [label="a"];
q5 [label="b"];
q0 -> q1  [label="z:0.9710144927536232"];
q0 -> q0  [label="z:0.028985507246376812"];
q0 -> q2  [label="y:0.971830985915493"];
q0 -> q4  [label="y:0.028169014084507043"];
q0 -> q3  [label="x:0.975609756097561"];
q0 -> q1  [label="x:0.024390243902439025"];
q1 -> q4  [label="x:0.8863636363636364"];
q1 -> q1  [label="x:0.11363636363636363"];
q1 -> q4  [label="y:0.7878787878787878"];
q1 -> q1  [label="y:0.21212121212121213"];
q1 -> q1  [label="z:1.0"];
q1 -> q0  [label="z:0.0"];
q2 -> q5  [label="x:1.0"];
q2 -> q4  [label="y:0.7777777777777778"];
q2 -> q1  [label="y:0.2222222222222222"];
q2 -> q4  [label="z:1.0"];
q3 -> q4  [label="x:0.9130434782608695"];
q3 -> q1  [label="x:0.08695652173913043"];
q3 -> q4  [label="y:1.0"];
q3 -> q2  [label="z:0.95"];
q3 -> q0  [label="z:0.05"];
q4 -> q1  [label="x:0.7971014492753623"];
q4 -> q0  [label="x:0.2028985507246377"];
q4 -> q4  [label="z:0.6571428571428571"];
q4 -> q1  [label="z:0.34285714285714286"];
q4 -> q3  [label="y:0.8378378378378378"];
q4 -> q1  [label="y:0.16216216216216217"];
q5 -> q3  [label="x:1.0"];
q5 -> q0  [label="y:1.0"];
q5 -> q2  [label="z:0.8"];
q5 -> q0  [label="z:0.2"];
__start0 [label="", shape=none];
__start0 -> q0  [label=""];
}
