{
    "is_sat": true,
    "num_states": 9,
    "automata_type": "moore",
    "solve_time": 0.0465092658996582,
    "solve_perf_counter": 0.04650581200257875,
    "input_alphabet": [
        "SASB",
        "SMES",
        "SMRE",
        "SPUL",
        "SRDY",
        "WAIT"
    ],
    "output_alphabet": [
        "Remote Error",
        "Remote Measure-Blackening",
        "Remote Ready",
        "Remote Ready-Purge",
        "Remote Ready-for-Sucking",
        "Remote Set-Ready",
        "Remote Set-Ready-for-Sucking",
        "Remote Standard-Measurement",
        "Remote Synchronized-Measurement"
    ],
    "optimal_solution": true,
    "timed_out": false,
    "num_vars": 8466,
    "num_hard": 102544,
    "num_soft": 789,
    "cost": 52,
    "glitch_steps": [
        [
            0,
            156
        ],
        [
            0,
            159
        ],
        [
            0,
            191
        ],
        [
            0,
            194
        ],
        [
            0,
            198
        ],
        [
            0,
            234
        ],
        [
            0,
            247
        ],
        [
            0,
            252
        ],
        [
            0,
            255
        ],
        [
            0,
            295
        ],
        [
            0,
            299
        ],
        [
            0,
            351
        ],
        [
            0,
            367
        ],
        [
            0,
            370
        ],
        [
            0,
            373
        ],
        [
            0,
            375
        ],
        [
            0,
            388
        ],
        [
            0,
            395
        ],
        [
            0,
            402
        ],
        [
            0,
            404
        ],
        [
            0,
            411
        ],
        [
            0,
            413
        ],
        [
            0,
            415
        ],
        [
            0,
            417
        ],
        [
            0,
            419
        ],
        [
            0,
            426
        ],
        [
            0,
            472
        ],
        [
            0,
            476
        ],
        [
            0,
            497
        ],
        [
            0,
            500
        ],
        [
            0,
            507
        ],
        [
            0,
            510
        ],
        [
            0,
            513
        ],
        [
            0,
            521
        ],
        [
            0,
            524
        ],
        [
            0,
            532
        ],
        [
            0,
            535
        ],
        [
            0,
            576
        ],
        [
            0,
            598
        ],
        [
            0,
            605
        ],
        [
            0,
            612
        ],
        [
            0,
            619
        ],
        [
            0,
            626
        ],
        [
            0,
            629
        ],
        [
            0,
            632
        ],
        [
            0,
            635
        ],
        [
            0,
            638
        ],
        [
            0,
            641
        ],
        [
            0,
            644
        ],
        [
            0,
            757
        ],
        [
            0,
            765
        ],
        [
            0,
            779
        ]
    ],
    "dominant_reachable_states": 8,
    "glitched_delta_freq": [
        23,
        4,
        25
    ],
    "dominant_delta_freq": [
        3,
        3,
        7,
        12,
        10,
        4,
        17,
        14,
        3,
        15,
        3,
        3,
        3,
        29,
        3,
        6,
        14,
        3,
        3,
        30,
        3,
        3,
        33,
        102,
        3,
        3,
        36,
        3,
        33,
        19,
        9,
        50,
        5,
        49,
        4,
        9,
        12,
        3,
        3,
        10,
        28,
        3,
        6,
        12,
        3,
        18,
        15,
        20,
        3,
        25,
        11,
        10,
        3,
        3
    ],
    "bisimilar_to_pmsat_with_states": 9
}