digraph "benchmarks-true-state-lstar-3seeds/n_states=17-n_outputs=8-glitch_percent=0.02/8f2d7bcdaa11645b2a2deba8412c591a/pmsatLearned-N17-STOC" {
0 [label="0|b", shape=record, style=rounded];
1 [label="1|c", shape=record, style=rounded];
2 [label="2|d", shape=record, style=rounded];
3 [label="3|e", shape=record, style=rounded];
4 [label="4|f", shape=record, style=rounded];
5 [label="5|h", shape=record, style=rounded];
6 [label="6|b", shape=record, style=rounded];
7 [label="7|h", shape=record, style=rounded];
8 [label="8|f", shape=record, style=rounded];
9 [label="9|f", shape=record, style=rounded];
10 [label="10|d", shape=record, style=rounded];
11 [label="11|f", shape=record, style=rounded];
12 [label="12|f", shape=record, style=rounded];
13 [label="13|f", shape=record, style=rounded];
14 [label="14|d", shape=record, style=rounded];
15 [label="15|d", shape=record, style=rounded];
16 [label="16|b", shape=record, style=rounded];
0 -> 14  [label="x (7)"];
0 -> 16  [label="y (6)"];
0 -> 11  [label="z (7)"];
1 -> 9  [label="x (5)"];
1 -> 2  [label="y (5)"];
1 -> 7  [label="z (5)"];
2 -> 16  [label="x (56)"];
2 -> 8  [label="y (31)"];
2 -> 6  [label="z (20)"];
2 -> 13  [label="!y [1]"];
3 -> 5  [label="x (5)"];
3 -> 12  [label="y (5)"];
3 -> 5  [label="z (5)"];
4 -> 15  [label="x (7)"];
4 -> 6  [label="y (6)"];
4 -> 13  [label="z (7)"];
5 -> 11  [label="z (54)"];
5 -> 10  [label="y (53)"];
5 -> 2  [label="x (100)"];
5 -> 9  [label="!z [1]"];
5 -> 7  [label="!y [1]"];
5 -> 8  [label="!y [2]"];
5 -> 16  [label="!x [1]"];
6 -> 0  [label="x (5)"];
6 -> 4  [label="y (6)"];
6 -> 14  [label="z (6)"];
7 -> 0  [label="x (9)"];
7 -> 2  [label="y (9)"];
7 -> 8  [label="z (8)"];
8 -> 0  [label="x (21)"];
8 -> 8  [label="y (8)"];
8 -> 2  [label="z (9)"];
9 -> 10  [label="y (7)"];
9 -> 11  [label="z (6)"];
9 -> 8  [label="x (5)"];
10 -> 13  [label="x (19)"];
10 -> 7  [label="y (18)"];
10 -> 12  [label="z (19)"];
11 -> 15  [label="x (19)"];
11 -> 4  [label="y (18)"];
11 -> 14  [label="z (17)"];
11 -> 6  [label="!y [1]"];
12 -> 2  [label="x (7)"];
12 -> 10  [label="y (7)"];
12 -> 8  [label="z (7)"];
13 -> 4  [label="x (7)"];
13 -> 7  [label="y (6)"];
13 -> 14  [label="z (6)"];
14 -> 12  [label="x (8)"];
14 -> 7  [label="z (8)"];
14 -> 15  [label="y (7)"];
15 -> 15  [label="x (8)"];
15 -> 7  [label="y (7)"];
15 -> 10  [label="z (8)"];
15 -> 12  [label="!z [1]"];
16 -> 3  [label="x (18)"];
16 -> 9  [label="y (17)"];
16 -> 1  [label="z (18)"];
__start0 [label="", shape=none];
__start0 -> 5  [label=""];
}
