digraph "benchmarks-true-state-lstar-3seeds/n_states=7-n_outputs=2-glitch_percent=0.01/ea8447b723e2a8674d8d23f9ee59a2cf/pmsatLearned-N7-STOC" {
0 [label="0|a", shape=record, style=rounded];
1 [label="1|b", shape=record, style=rounded];
2 [label="2|a", shape=record, style=rounded];
3 [label="3|a", shape=record, style=rounded];
4 [label="4|a", shape=record, style=rounded];
5 [label="5|b", shape=record, style=rounded];
6 [label="6|b", shape=record, style=rounded];
0 -> 5  [label="x (7)"];
0 -> 5  [label="y (6)"];
0 -> 6  [label="z (6)"];
1 -> 6  [label="z (23)"];
1 -> 0  [label="y (22)"];
1 -> 4  [label="x (73)"];
2 -> 5  [label="x (19)"];
2 -> 4  [label="z (8)"];
2 -> 5  [label="y (7)"];
3 -> 3  [label="x (14)"];
3 -> 4  [label="y (8)"];
3 -> 2  [label="z (8)"];
4 -> 2  [label="x (40)"];
4 -> 5  [label="y (29)"];
4 -> 3  [label="z (24)"];
4 -> 5  [label="!x [1]"];
5 -> 4  [label="x (23)"];
5 -> 1  [label="y (10)"];
5 -> 4  [label="z (10)"];
6 -> 2  [label="x (11)"];
6 -> 6  [label="y (9)"];
6 -> 3  [label="z (8)"];
__start0 [label="", shape=none];
__start0 -> 1  [label=""];
}
