digraph "benchmarks-true-state-lstar-rc10seeds/n_states=5-n_outputs=5-glitch_percent=0.02/3a015ce01d72fc0aa193272c016acb0d/pmsatLearned_NOP-N5" {
0 [label="0|e", shape=record, style=rounded];
1 [label="1|c", shape=record, style=rounded];
2 [label="2|d", shape=record, style=rounded];
3 [label="3|a", shape=record, style=rounded];
4 [label="4|d", shape=record, style=rounded];
0 -> 3  [label="x"];
0 -> 4  [label="y"];
0 -> 1  [label="z"];
1 -> 4  [label="z"];
1 -> 2  [label="y"];
1 -> 0  [label="x"];
2 -> 0  [label="x"];
2 -> 1  [label="y"];
2 -> 1  [label="z"];
3 -> 4  [label="x"];
3 -> 1  [label="y"];
3 -> 2  [label="z"];
4 -> 1  [label="x"];
4 -> 2  [label="y"];
4 -> 0  [label="z"];
__start0 [label="", shape=none];
__start0 -> 1  [label=""];
}
