digraph "pmsatLearned-N6-STOC" {
0 [label="0|a", shape=record, style=rounded];
1 [label="1|c", shape=record, style=rounded];
2 [label="2|d", shape=record, style=rounded];
3 [label="3|e", shape=record, style=rounded];
4 [label="4|a", shape=record, style=rounded];
5 [label="5|a", shape=record, style=rounded];
0 -> 5  [label="x (9)"];
0 -> 1  [label="y (9)"];
0 -> 0  [label="z (8)"];
1 -> 0  [label="x (7)"];
1 -> 5  [label="y (7)"];
1 -> 3  [label="z (7)"];
2 -> 1  [label="x (18)"];
2 -> 4  [label="y (17)"];
2 -> 3  [label="z (6)"];
3 -> 0  [label="z (19)"];
3 -> 5  [label="y (20)"];
3 -> 2  [label="x (42)"];
4 -> 4  [label="x (7)"];
4 -> 0  [label="y (6)"];
4 -> 0  [label="z (7)"];
5 -> 2  [label="x (7)"];
5 -> 1  [label="y (7)"];
5 -> 4  [label="z (7)"];
5 -> 0  [label="!y [1]"];
__start0 [label="", shape=none];
__start0 -> 3  [label=""];
}
