digraph "benchmarks-true-state-lstar-songp/n_states=14-n_outputs=9-glitch_percent=0.1-pmstrat='rc2'/6562f5352a497722dba1f5b8373d54b8/alergiaLearned" {
q0 [label="a"];
q1 [label="e"];
q2 [label="h"];
q3 [label="h"];
q4 [label="a"];
q5 [label="i"];
q6 [label="b"];
q7 [label="g"];
q8 [label="f"];
q9 [label="h"];
q10 [label="c"];
q11 [label="f"];
q0 -> q1  [label="z:0.9038461538461539"];
q0 -> q5  [label="z:0.09615384615384616"];
q0 -> q7  [label="z:0.0"];
q0 -> q2  [label="y:0.8448275862068966"];
q0 -> q4  [label="y:0.10344827586206896"];
q0 -> q6  [label="y:0.05172413793103448"];
q0 -> q7  [label="y:0.0"];
q0 -> q3  [label="x:0.9253731343283582"];
q0 -> q7  [label="x:0.05970149253731343"];
q0 -> q0  [label="x:0.014925373134328358"];
q1 -> q7  [label="x:1.0"];
q1 -> q4  [label="y:0.8823529411764706"];
q1 -> q1  [label="y:0.11764705882352941"];
q1 -> q8  [label="z:0.8947368421052632"];
q1 -> q7  [label="z:0.10526315789473684"];
q2 -> q9  [label="x:0.9333333333333333"];
q2 -> q8  [label="x:0.06666666666666667"];
q2 -> q10  [label="y:0.8888888888888888"];
q2 -> q7  [label="y:0.05555555555555555"];
q2 -> q6  [label="y:0.05555555555555555"];
q2 -> q5  [label="z:1.0"];
q3 -> q6  [label="y:0.8666666666666667"];
q3 -> q0  [label="y:0.06666666666666667"];
q3 -> q5  [label="y:0.06666666666666667"];
q3 -> q5  [label="z:0.9285714285714286"];
q3 -> q0  [label="z:0.07142857142857142"];
q3 -> q11  [label="x:0.8214285714285714"];
q3 -> q0  [label="x:0.03571428571428571"];
q3 -> q7  [label="x:0.14285714285714285"];
q4 -> q7  [label="x:1.0"];
q4 -> q7  [label="z:1.0"];
q4 -> q7  [label="y:1.0"];
q5 -> q0  [label="x:0.625"];
q5 -> q5  [label="x:0.375"];
q5 -> q1  [label="z:0.5454545454545454"];
q5 -> q10  [label="z:0.45454545454545453"];
q5 -> q0  [label="y:0.3076923076923077"];
q5 -> q5  [label="y:0.6923076923076923"];
q6 -> q0  [label="z:0.8"];
q6 -> q10  [label="z:0.2"];
q6 -> q9  [label="x:1.0"];
q6 -> q1  [label="y:1.0"];
q7 -> q7  [label="y:0.4166666666666667"];
q7 -> q2  [label="y:0.5833333333333334"];
q7 -> q7  [label="x:0.6"];
q7 -> q5  [label="x:0.4"];
q7 -> q5  [label="z:1.0"];
q8 -> q0  [label="x:0.8"];
q8 -> q7  [label="x:0.2"];
q8 -> q1  [label="y:0.6"];
q8 -> q2  [label="y:0.2"];
q8 -> q5  [label="y:0.2"];
q8 -> q7  [label="z:0.6666666666666666"];
q8 -> q10  [label="z:0.3333333333333333"];
q9 -> q0  [label="x:1.0"];
q9 -> q7  [label="y:1.0"];
q9 -> q10  [label="z:1.0"];
q10 -> q8  [label="x:0.8571428571428571"];
q10 -> q7  [label="x:0.14285714285714285"];
q10 -> q8  [label="y:0.8333333333333334"];
q10 -> q5  [label="y:0.16666666666666666"];
q10 -> q1  [label="z:1.0"];
q11 -> q7  [label="x:1.0"];
q11 -> q5  [label="y:0.8"];
q11 -> q8  [label="y:0.2"];
q11 -> q10  [label="z:1.0"];
__start0 [label="", shape=none];
__start0 -> q0  [label=""];
}
