digraph "pmsatLearned-N8-STOC" {
0 [label="0|a", shape=record, style=rounded];
1 [label="1|b", shape=record, style=rounded];
2 [label="2|c", shape=record, style=rounded];
3 [label="3|e", shape=record, style=rounded];
4 [label="4|c", shape=record, style=rounded];
5 [label="5|e", shape=record, style=rounded];
6 [label="6|e", shape=record, style=rounded];
7 [label="7|a", shape=record, style=rounded];
0 -> 6  [label="z (165)"];
0 -> 5  [label="y (192)"];
0 -> 7  [label="x (208)"];
0 -> 2  [label="!x [4]"];
0 -> 3  [label="!x [2]"];
0 -> 4  [label="!x [1]"];
0 -> 2  [label="!y [1]"];
0 -> 1  [label="!x [1] t1"];
1 -> 5  [label="x (181)"];
1 -> 5  [label="y (167)"];
1 -> 7  [label="z (166)"];
1 -> 3  [label="!z [1]"];
1 -> 6  [label="!y [1]"];
1 -> 6  [label="!x [1]"];
2 -> 6  [label="x (178)"];
2 -> 3  [label="y (178)"];
2 -> 6  [label="z (167)"];
2 -> 2  [label="!x [2]"];
2 -> 0  [label="!z [1]"];
2 -> 7  [label="!z [1] t1"];
2 -> 2  [label="!y [1]"];
2 -> 6  [label="!y [1] t1"];
2 -> 3  [label="!x [1]"];
3 -> 3  [label="x (356)"];
3 -> 6  [label="y (337)"];
3 -> 1  [label="z (386)"];
3 -> 4  [label="!y [3]"];
3 -> 2  [label="!x [1]"];
4 -> 3  [label="x (173)"];
4 -> 3  [label="y (152)"];
4 -> 3  [label="z (144)"];
5 -> 1  [label="x (184)"];
5 -> 6  [label="y (155)"];
5 -> 6  [label="z (146)"];
6 -> 2  [label="x (358)"];
6 -> 4  [label="y (314)"];
6 -> 7  [label="z (367)"];
6 -> 3  [label="!z [2]"];
6 -> 3  [label="!y [3]"];
6 -> 5  [label="!y [1]"];
6 -> 6  [label="!z [1]"];
6 -> 6  [label="!y [1] t1"];
7 -> 4  [label="x (224)"];
7 -> 2  [label="y (225)"];
7 -> 3  [label="z (220)"];
7 -> 1  [label="!z [2]"];
__start0 [label="", shape=none];
__start0 -> 0  [label=""];
}
