digraph "benchmarks-true-state-lstar-3seeds/n_states=10-n_outputs=5-glitch_percent=0.01/6335e48fc906abab9a64e691881feedf/pmsatLearned-N10" {
0 [label="0|b", shape=record, style=rounded];
1 [label="1|c", shape=record, style=rounded];
2 [label="2|d", shape=record, style=rounded];
3 [label="3|e", shape=record, style=rounded];
4 [label="4|c", shape=record, style=rounded];
5 [label="5|b", shape=record, style=rounded];
6 [label="6|e", shape=record, style=rounded];
7 [label="7|b", shape=record, style=rounded];
8 [label="8|e", shape=record, style=rounded];
9 [label="9|e", shape=record, style=rounded];
0 -> 8  [label="x"];
0 -> 1  [label="y"];
0 -> 7  [label="z"];
1 -> 6  [label="x"];
1 -> 9  [label="y"];
1 -> 9  [label="z"];
2 -> 4  [label="x"];
2 -> 4  [label="y"];
2 -> 1  [label="z"];
3 -> 8  [label="z"];
3 -> 7  [label="y"];
3 -> 6  [label="x"];
4 -> 3  [label="x"];
4 -> 2  [label="y"];
4 -> 9  [label="z"];
5 -> 3  [label="x"];
5 -> 0  [label="y"];
5 -> 9  [label="z"];
6 -> 0  [label="x"];
6 -> 9  [label="y"];
6 -> 4  [label="z"];
7 -> 2  [label="x"];
7 -> 1  [label="y"];
7 -> 5  [label="z"];
8 -> 6  [label="x"];
8 -> 3  [label="y"];
8 -> 1  [label="z"];
9 -> 5  [label="x"];
9 -> 7  [label="y"];
9 -> 7  [label="z"];
__start0 [label="", shape=none];
__start0 -> 3  [label=""];
}
