digraph "benchmarks-true-state-lstar-3seeds/n_states=16-n_outputs=5-glitch_percent=0.01/e552e10f6019ea4cf531637eb1df55aa/pmsatLearned-N16-STOC" {
0 [label="0|a", shape=record, style=rounded];
1 [label="1|b", shape=record, style=rounded];
2 [label="2|c", shape=record, style=rounded];
3 [label="3|d", shape=record, style=rounded];
4 [label="4|e", shape=record, style=rounded];
5 [label="5|b", shape=record, style=rounded];
6 [label="6|a", shape=record, style=rounded];
7 [label="7|a", shape=record, style=rounded];
8 [label="8|a", shape=record, style=rounded];
9 [label="9|a", shape=record, style=rounded];
10 [label="10|e", shape=record, style=rounded];
11 [label="11|a", shape=record, style=rounded];
12 [label="12|a", shape=record, style=rounded];
13 [label="13|e", shape=record, style=rounded];
14 [label="14|e", shape=record, style=rounded];
15 [label="15|e", shape=record, style=rounded];
0 -> 15  [label="z (67)"];
0 -> 6  [label="y (66)"];
0 -> 14  [label="x (113)"];
0 -> 13  [label="!x [1]"];
0 -> 8  [label="!x [2]"];
1 -> 1  [label="x (20)"];
1 -> 8  [label="y (10)"];
1 -> 10  [label="z (10)"];
1 -> 15  [label="!x [1]"];
2 -> 14  [label="x (16)"];
2 -> 9  [label="y (6)"];
2 -> 12  [label="z (7)"];
3 -> 1  [label="x (12)"];
3 -> 9  [label="y (5)"];
3 -> 1  [label="z (6)"];
4 -> 9  [label="x (13)"];
4 -> 15  [label="y (7)"];
4 -> 14  [label="z (7)"];
5 -> 14  [label="x (15)"];
5 -> 6  [label="y (8)"];
5 -> 1  [label="z (7)"];
6 -> 2  [label="x (30)"];
6 -> 7  [label="y (25)"];
6 -> 1  [label="z (25)"];
6 -> 6  [label="!x [1]"];
7 -> 6  [label="x (6)"];
7 -> 11  [label="y (7)"];
7 -> 8  [label="z (6)"];
8 -> 3  [label="x (33)"];
8 -> 10  [label="y (27)"];
8 -> 5  [label="z (24)"];
9 -> 5  [label="x (16)"];
9 -> 6  [label="y (9)"];
9 -> 12  [label="z (10)"];
10 -> 15  [label="x (18)"];
10 -> 12  [label="y (8)"];
10 -> 8  [label="z (8)"];
11 -> 10  [label="x (15)"];
11 -> 14  [label="y (8)"];
11 -> 9  [label="z (8)"];
12 -> 11  [label="x (13)"];
12 -> 13  [label="y (9)"];
12 -> 4  [label="z (9)"];
13 -> 2  [label="x (9)"];
13 -> 5  [label="y (7)"];
13 -> 6  [label="z (7)"];
14 -> 8  [label="x (82)"];
14 -> 13  [label="y (24)"];
14 -> 12  [label="z (25)"];
14 -> 10  [label="!y [1]"];
15 -> 4  [label="x (34)"];
15 -> 9  [label="y (23)"];
15 -> 11  [label="z (23)"];
__start0 [label="", shape=none];
__start0 -> 0  [label=""];
}
