digraph "benchmarks-true-state-lstar-3seeds/n_states=13-n_outputs=9-glitch_percent=0.05/1d64d7dcaca455d59fbab5bb80b018db/rpniGroundTruth" {
s0 [label="s0|e", shape=record, style=rounded];
s1 [label="s1|f", shape=record, style=rounded];
s2 [label="s2|a", shape=record, style=rounded];
s3 [label="s3|i", shape=record, style=rounded];
s4 [label="s4|g", shape=record, style=rounded];
s5 [label="s5|a", shape=record, style=rounded];
s6 [label="s6|h", shape=record, style=rounded];
s7 [label="s7|g", shape=record, style=rounded];
s8 [label="s8|f", shape=record, style=rounded];
s9 [label="s9|h", shape=record, style=rounded];
s10 [label="s10|c", shape=record, style=rounded];
s11 [label="s11|c", shape=record, style=rounded];
s12 [label="s12|c", shape=record, style=rounded];
s0 -> s1  [label="x"];
s0 -> s2  [label="y"];
s0 -> s3  [label="z"];
s1 -> s4  [label="y"];
s1 -> s5  [label="z"];
s1 -> s6  [label="x"];
s2 -> s7  [label="y"];
s2 -> s8  [label="z"];
s2 -> s9  [label="x"];
s3 -> s10  [label="y"];
s3 -> s11  [label="z"];
s3 -> s12  [label="x"];
s4 -> s12  [label="x"];
s4 -> s12  [label="z"];
s4 -> s6  [label="y"];
s5 -> s2  [label="y"];
s5 -> s5  [label="x"];
s5 -> s0  [label="z"];
s6 -> s9  [label="x"];
s6 -> s8  [label="z"];
s6 -> s11  [label="y"];
s7 -> s11  [label="z"];
s7 -> s5  [label="y"];
s7 -> s4  [label="x"];
s8 -> s3  [label="z"];
s8 -> s7  [label="x"];
s8 -> s10  [label="y"];
s9 -> s5  [label="y"];
s9 -> s4  [label="x"];
s9 -> s2  [label="z"];
s10 -> s10  [label="y"];
s10 -> s11  [label="x"];
s10 -> s1  [label="z"];
s11 -> s2  [label="z"];
s11 -> s8  [label="y"];
s11 -> s3  [label="x"];
s12 -> s3  [label="x"];
s12 -> s10  [label="z"];
s12 -> s5  [label="y"];
__start0 [label="", shape=none];
__start0 -> s0  [label=""];
}
