digraph "benchmarks-true-state-lstar-rc10seeds/n_states=15-n_outputs=7-glitch_percent=0.01/fda0fd347e298d1a888a9fc430298f7d/pmsatLearned_NOP-N15" {
0 [label="0|g", shape=record, style=rounded];
1 [label="1|c", shape=record, style=rounded];
2 [label="2|e", shape=record, style=rounded];
3 [label="3|e", shape=record, style=rounded];
4 [label="4|d", shape=record, style=rounded];
5 [label="5|a", shape=record, style=rounded];
6 [label="6|e", shape=record, style=rounded];
7 [label="7|c", shape=record, style=rounded];
8 [label="8|d", shape=record, style=rounded];
9 [label="9|d", shape=record, style=rounded];
10 [label="10|a", shape=record, style=rounded];
11 [label="11|d", shape=record, style=rounded];
12 [label="12|d", shape=record, style=rounded];
13 [label="13|c", shape=record, style=rounded];
14 [label="14|e", shape=record, style=rounded];
0 -> 3  [label="x"];
0 -> 2  [label="y"];
0 -> 2  [label="z"];
1 -> 14  [label="z"];
1 -> 10  [label="y"];
1 -> 2  [label="x"];
2 -> 9  [label="x"];
2 -> 6  [label="y"];
2 -> 0  [label="z"];
3 -> 3  [label="x"];
3 -> 10  [label="y"];
3 -> 6  [label="z"];
4 -> 6  [label="x"];
4 -> 11  [label="y"];
4 -> 5  [label="z"];
5 -> 0  [label="x"];
5 -> 2  [label="y"];
5 -> 4  [label="z"];
6 -> 14  [label="x"];
6 -> 1  [label="y"];
6 -> 6  [label="z"];
7 -> 11  [label="x"];
7 -> 7  [label="y"];
7 -> 6  [label="z"];
8 -> 3  [label="x"];
8 -> 11  [label="y"];
8 -> 3  [label="z"];
9 -> 7  [label="x"];
9 -> 11  [label="y"];
9 -> 13  [label="z"];
10 -> 8  [label="x"];
10 -> 4  [label="y"];
10 -> 13  [label="z"];
11 -> 6  [label="x"];
11 -> 0  [label="y"];
11 -> 8  [label="z"];
12 -> 4  [label="x"];
12 -> 1  [label="y"];
12 -> 9  [label="z"];
13 -> 14  [label="x"];
13 -> 14  [label="y"];
13 -> 5  [label="z"];
14 -> 5  [label="x"];
14 -> 12  [label="y"];
14 -> 3  [label="z"];
__start0 [label="", shape=none];
__start0 -> 1  [label=""];
}
