digraph "benchmarks-true-state-lstar-rc10seeds/n_states=14-n_outputs=2-glitch_percent=0.01/e944ffd42af7f889ec5059112aa4acca/pmsatLearned_NOP-N14-STOC" {
0 [label="0|a", shape=record, style=rounded];
1 [label="1|a", shape=record, style=rounded];
2 [label="2|b", shape=record, style=rounded];
3 [label="3|b", shape=record, style=rounded];
4 [label="4|b", shape=record, style=rounded];
5 [label="5|a", shape=record, style=rounded];
6 [label="6|b", shape=record, style=rounded];
7 [label="7|b", shape=record, style=rounded];
8 [label="8|b", shape=record, style=rounded];
9 [label="9|a", shape=record, style=rounded];
10 [label="10|a", shape=record, style=rounded];
11 [label="11|a", shape=record, style=rounded];
12 [label="12|b", shape=record, style=rounded];
13 [label="13|b", shape=record, style=rounded];
0 -> 7  [label="z (83)"];
0 -> 13  [label="y (88)"];
0 -> 10  [label="!x [1]"];
0 -> 9  [label="x (112)"];
1 -> 3  [label="x (27)"];
1 -> 11  [label="y (17)"];
1 -> 10  [label="z (11)"];
2 -> 0  [label="x (13)"];
2 -> 9  [label="y (10)"];
2 -> 1  [label="z (8)"];
3 -> 9  [label="x (23)"];
3 -> 10  [label="y (14)"];
3 -> 3  [label="z (9)"];
4 -> 11  [label="x (26)"];
4 -> 1  [label="y (14)"];
4 -> 8  [label="z (11)"];
5 -> 2  [label="x (12)"];
5 -> 9  [label="y (8)"];
5 -> 4  [label="z (7)"];
6 -> 4  [label="x (15)"];
6 -> 0  [label="y (12)"];
6 -> 13  [label="z (8)"];
7 -> 6  [label="x (34)"];
7 -> 12  [label="y (28)"];
7 -> 5  [label="z (27)"];
7 -> 9  [label="!x [1]"];
8 -> 1  [label="x (12)"];
8 -> 11  [label="y (7)"];
8 -> 6  [label="z (8)"];
9 -> 10  [label="x (60)"];
9 -> 11  [label="y (43)"];
9 -> 2  [label="z (27)"];
10 -> 1  [label="x (48)"];
10 -> 4  [label="y (18)"];
10 -> 1  [label="z (10)"];
11 -> 10  [label="x (27)"];
11 -> 4  [label="y (16)"];
11 -> 0  [label="z (10)"];
12 -> 7  [label="x (9)"];
12 -> 7  [label="y (7)"];
12 -> 5  [label="z (7)"];
13 -> 8  [label="y (25)"];
13 -> 3  [label="z (30)"];
13 -> 4  [label="x (29)"];
13 -> 6  [label="!x [1]"];
13 -> 11  [label="!y [1]"];
__start0 [label="", shape=none];
__start0 -> 0  [label=""];
}
