digraph "benchmarks-true-state-lstar-songp/n_states=9-n_outputs=3-glitch_percent=0.0-pmstrat='fm'/ee5feaa46b3c831f6cc46dfc34996377/pmsatLearned-N9" {
0 [label="0|a", shape=record, style=rounded];
1 [label="1|b", shape=record, style=rounded];
2 [label="2|c", shape=record, style=rounded];
3 [label="3|c", shape=record, style=rounded];
4 [label="4|b", shape=record, style=rounded];
5 [label="5|a", shape=record, style=rounded];
6 [label="6|c", shape=record, style=rounded];
7 [label="7|b", shape=record, style=rounded];
8 [label="8|a", shape=record, style=rounded];
0 -> 4  [label="z"];
0 -> 1  [label="y"];
0 -> 5  [label="x"];
1 -> 8  [label="x"];
1 -> 6  [label="y"];
1 -> 5  [label="z"];
2 -> 6  [label="x"];
2 -> 5  [label="y"];
2 -> 3  [label="z"];
3 -> 0  [label="x"];
3 -> 7  [label="y"];
3 -> 7  [label="z"];
4 -> 2  [label="x"];
4 -> 2  [label="y"];
4 -> 6  [label="z"];
5 -> 3  [label="x"];
5 -> 7  [label="y"];
5 -> 2  [label="z"];
6 -> 4  [label="x"];
6 -> 6  [label="y"];
6 -> 2  [label="z"];
7 -> 2  [label="x"];
7 -> 6  [label="y"];
7 -> 7  [label="z"];
8 -> 6  [label="x"];
8 -> 2  [label="y"];
8 -> 5  [label="z"];
__start0 [label="", shape=none];
__start0 -> 0  [label=""];
}
