digraph "benchmarks-true-state-lstar-3seeds/n_states=6-n_outputs=2-glitch_percent=0.1/81d896412bc53869919aa0104d248ff0/pmsatLearned-N6-STOC" {
0 [label="0|a", shape=record, style=rounded];
1 [label="1|b", shape=record, style=rounded];
2 [label="2|b", shape=record, style=rounded];
3 [label="3|b", shape=record, style=rounded];
4 [label="4|b", shape=record, style=rounded];
5 [label="5|b", shape=record, style=rounded];
0 -> 1  [label="x (10)"];
0 -> 1  [label="y (9)"];
0 -> 3  [label="z (8)"];
1 -> 3  [label="z (36)"];
1 -> 2  [label="y (38)"];
1 -> 5  [label="x (72)"];
1 -> 3  [label="!x [1]"];
1 -> 0  [label="!x [2]"];
2 -> 1  [label="x (15)"];
2 -> 1  [label="y (9)"];
2 -> 1  [label="z (12)"];
3 -> 3  [label="x (15)"];
3 -> 4  [label="y (15)"];
3 -> 5  [label="z (7)"];
3 -> 0  [label="!x [1]"];
4 -> 2  [label="x (11)"];
4 -> 0  [label="z (16)"];
4 -> 4  [label="y (8)"];
5 -> 0  [label="x (31)"];
5 -> 4  [label="y (26)"];
5 -> 5  [label="z (6)"];
5 -> 0  [label="!z [2]"];
5 -> 1  [label="!x [1]"];
__start0 [label="", shape=none];
__start0 -> 1  [label=""];
}
