digraph "benchmarks-true-state-lstar-rc10seeds/n_states=9-n_outputs=8-glitch_percent=0.01/e593e00cc996dd0d93ed448493813db5/pmsatLearned_NOP-N9-STOC" {
0 [label="0|e", shape=record, style=rounded];
1 [label="1|b", shape=record, style=rounded];
2 [label="2|f", shape=record, style=rounded];
3 [label="3|a", shape=record, style=rounded];
4 [label="4|a", shape=record, style=rounded];
5 [label="5|b", shape=record, style=rounded];
6 [label="6|g", shape=record, style=rounded];
7 [label="7|f", shape=record, style=rounded];
8 [label="8|c", shape=record, style=rounded];
0 -> 2  [label="x (5)"];
0 -> 3  [label="y (5)"];
0 -> 3  [label="z (5)"];
1 -> 2  [label="z (19)"];
1 -> 3  [label="y (43)"];
1 -> 8  [label="x (55)"];
2 -> 1  [label="x (7)"];
2 -> 5  [label="y (7)"];
2 -> 6  [label="z (7)"];
3 -> 7  [label="x (23)"];
3 -> 6  [label="y (21)"];
3 -> 3  [label="z (10)"];
4 -> 3  [label="x (7)"];
4 -> 1  [label="y (7)"];
4 -> 3  [label="z (7)"];
5 -> 4  [label="x (7)"];
5 -> 4  [label="y (7)"];
5 -> 7  [label="z (7)"];
6 -> 7  [label="x (5)"];
6 -> 8  [label="y (6)"];
6 -> 8  [label="z (6)"];
7 -> 8  [label="x (7)"];
7 -> 5  [label="y (6)"];
7 -> 2  [label="z (7)"];
8 -> 0  [label="x (20)"];
8 -> 5  [label="y (19)"];
8 -> 4  [label="z (20)"];
__start0 [label="", shape=none];
__start0 -> 1  [label=""];
}
