digraph "benchmarks-true-state-lstar-rc10seeds/n_states=8-n_outputs=2-glitch_percent=0.01/8523c4f5b5d81c262dee0223225e2e42/pmsatLearned_NOP-N8-STOC" {
0 [label="0|b", shape=record, style=rounded];
1 [label="1|a", shape=record, style=rounded];
2 [label="2|a", shape=record, style=rounded];
3 [label="3|a", shape=record, style=rounded];
4 [label="4|b", shape=record, style=rounded];
5 [label="5|a", shape=record, style=rounded];
6 [label="6|a", shape=record, style=rounded];
7 [label="7|a", shape=record, style=rounded];
0 -> 4  [label="z (29)"];
0 -> 5  [label="y (57)"];
0 -> 6  [label="x (103)"];
1 -> 6  [label="x (17)"];
1 -> 4  [label="y (23)"];
1 -> 7  [label="z (11)"];
2 -> 1  [label="x (20)"];
2 -> 3  [label="y (24)"];
2 -> 4  [label="z (12)"];
3 -> 6  [label="x (17)"];
3 -> 6  [label="y (26)"];
3 -> 4  [label="z (14)"];
4 -> 6  [label="x (21)"];
4 -> 2  [label="y (20)"];
4 -> 3  [label="z (12)"];
5 -> 2  [label="x (39)"];
5 -> 4  [label="y (16)"];
5 -> 7  [label="z (12)"];
6 -> 3  [label="x (50)"];
6 -> 1  [label="y (62)"];
6 -> 7  [label="z (50)"];
6 -> 0  [label="!y [1]"];
7 -> 5  [label="x (16)"];
7 -> 2  [label="y (13)"];
7 -> 6  [label="z (10)"];
__start0 [label="", shape=none];
__start0 -> 0  [label=""];
}
