digraph "benchmarks-true-state-lstar-3seeds/n_states=12-n_outputs=6-glitch_percent=0.01/9751d17f87dedfbb819ad2d644e222fa/RealModel" {
s1 [label="s1|b", shape=record, style=rounded];
s2 [label="s2|e", shape=record, style=rounded];
s3 [label="s3|e", shape=record, style=rounded];
s4 [label="s4|b", shape=record, style=rounded];
s5 [label="s5|b", shape=record, style=rounded];
s6 [label="s6|b", shape=record, style=rounded];
s7 [label="s7|e", shape=record, style=rounded];
s8 [label="s8|c", shape=record, style=rounded];
s9 [label="s9|d", shape=record, style=rounded];
s10 [label="s10|e", shape=record, style=rounded];
s11 [label="s11|d", shape=record, style=rounded];
s12 [label="s12|f", shape=record, style=rounded];
s1 -> s10  [label="x"];
s1 -> s11  [label="y"];
s1 -> s7  [label="z"];
s2 -> s3  [label="x"];
s2 -> s8  [label="y"];
s2 -> s1  [label="z"];
s3 -> s1  [label="x"];
s3 -> s2  [label="y"];
s3 -> s12  [label="z"];
s4 -> s6  [label="x"];
s4 -> s8  [label="y"];
s4 -> s11  [label="z"];
s5 -> s6  [label="x"];
s5 -> s10  [label="y"];
s5 -> s5  [label="z"];
s6 -> s10  [label="x"];
s6 -> s2  [label="y"];
s6 -> s3  [label="z"];
s7 -> s6  [label="x"];
s7 -> s12  [label="y"];
s7 -> s1  [label="z"];
s8 -> s8  [label="x"];
s8 -> s11  [label="y"];
s8 -> s3  [label="z"];
s9 -> s4  [label="x"];
s9 -> s1  [label="y"];
s9 -> s8  [label="z"];
s10 -> s8  [label="x"];
s10 -> s5  [label="y"];
s10 -> s4  [label="z"];
s11 -> s9  [label="x"];
s11 -> s2  [label="y"];
s11 -> s3  [label="z"];
s12 -> s9  [label="x"];
s12 -> s8  [label="y"];
s12 -> s1  [label="z"];
__start0 [label="", shape=none];
__start0 -> s1  [label=""];
}
