digraph "benchmarks-true-state-lstar-rc10seeds/n_states=17-n_outputs=6-glitch_percent=0.01/0f81c2c8dd26dddff191f477335ff890/pmsatLearned_NOP-N17" {
0 [label="0|c", shape=record, style=rounded];
1 [label="1|e", shape=record, style=rounded];
2 [label="2|b", shape=record, style=rounded];
3 [label="3|f", shape=record, style=rounded];
4 [label="4|e", shape=record, style=rounded];
5 [label="5|c", shape=record, style=rounded];
6 [label="6|a", shape=record, style=rounded];
7 [label="7|d", shape=record, style=rounded];
8 [label="8|b", shape=record, style=rounded];
9 [label="9|b", shape=record, style=rounded];
10 [label="10|f", shape=record, style=rounded];
11 [label="11|d", shape=record, style=rounded];
12 [label="12|b", shape=record, style=rounded];
13 [label="13|f", shape=record, style=rounded];
14 [label="14|e", shape=record, style=rounded];
15 [label="15|e", shape=record, style=rounded];
16 [label="16|f", shape=record, style=rounded];
0 -> 13  [label="x"];
0 -> 12  [label="y"];
0 -> 16  [label="z"];
1 -> 1  [label="x"];
1 -> 15  [label="y"];
1 -> 9  [label="z"];
2 -> 9  [label="x"];
2 -> 4  [label="y"];
2 -> 12  [label="z"];
3 -> 11  [label="x"];
3 -> 7  [label="y"];
3 -> 16  [label="z"];
4 -> 11  [label="z"];
4 -> 13  [label="y"];
4 -> 9  [label="x"];
5 -> 14  [label="x"];
5 -> 0  [label="y"];
5 -> 8  [label="z"];
6 -> 9  [label="x"];
6 -> 4  [label="y"];
6 -> 10  [label="z"];
7 -> 1  [label="x"];
7 -> 10  [label="y"];
7 -> 10  [label="z"];
8 -> 10  [label="x"];
8 -> 13  [label="y"];
8 -> 5  [label="z"];
9 -> 12  [label="x"];
9 -> 8  [label="y"];
9 -> 16  [label="z"];
10 -> 1  [label="x"];
10 -> 4  [label="y"];
10 -> 12  [label="z"];
11 -> 5  [label="x"];
11 -> 2  [label="y"];
11 -> 7  [label="z"];
12 -> 14  [label="x"];
12 -> 15  [label="y"];
12 -> 3  [label="z"];
13 -> 1  [label="x"];
13 -> 6  [label="y"];
13 -> 0  [label="z"];
14 -> 11  [label="x"];
14 -> 1  [label="y"];
14 -> 1  [label="z"];
15 -> 15  [label="x"];
15 -> 13  [label="y"];
15 -> 7  [label="z"];
16 -> 10  [label="x"];
16 -> 7  [label="y"];
16 -> 7  [label="z"];
__start0 [label="", shape=none];
__start0 -> 4  [label=""];
}
