digraph "benchmarks-true-state-lstar-3seeds/n_states=7-n_outputs=2-glitch_percent=0.02/739143eafa64934cee4934ad2eddfa37/pmsatLearned-N7-STOC" {
0 [label="0|a", shape=record, style=rounded];
1 [label="1|b", shape=record, style=rounded];
2 [label="2|b", shape=record, style=rounded];
3 [label="3|b", shape=record, style=rounded];
4 [label="4|a", shape=record, style=rounded];
5 [label="5|a", shape=record, style=rounded];
6 [label="6|a", shape=record, style=rounded];
0 -> 3  [label="z (23)"];
0 -> 5  [label="y (23)"];
0 -> 6  [label="x (77)"];
0 -> 4  [label="!z [1]"];
0 -> 3  [label="!y [1]"];
1 -> 1  [label="x (12)"];
1 -> 0  [label="y (8)"];
1 -> 5  [label="z (7)"];
2 -> 0  [label="x (17)"];
2 -> 1  [label="y (8)"];
2 -> 4  [label="z (8)"];
3 -> 2  [label="x (13)"];
3 -> 3  [label="y (9)"];
3 -> 5  [label="z (10)"];
4 -> 4  [label="x (18)"];
4 -> 5  [label="y (8)"];
4 -> 3  [label="z (8)"];
5 -> 6  [label="x (14)"];
5 -> 2  [label="y (9)"];
5 -> 3  [label="z (9)"];
6 -> 2  [label="x (32)"];
6 -> 1  [label="y (21)"];
6 -> 4  [label="z (24)"];
6 -> 5  [label="!x [1]"];
__start0 [label="", shape=none];
__start0 -> 0  [label=""];
}
