digraph "benchmarks-true-state-lstar-3seeds/n_states=10-n_outputs=2-glitch_percent=0.05/61b24e8f77c684c2f0921790978e265b/rpniGroundTruth" {
s0 [label="s0|b", shape=record, style=rounded];
s1 [label="s1|b", shape=record, style=rounded];
s2 [label="s2|a", shape=record, style=rounded];
s3 [label="s3|a", shape=record, style=rounded];
s4 [label="s4|b", shape=record, style=rounded];
s5 [label="s5|a", shape=record, style=rounded];
s6 [label="s6|b", shape=record, style=rounded];
s7 [label="s7|b", shape=record, style=rounded];
s8 [label="s8|a", shape=record, style=rounded];
s9 [label="s9|b", shape=record, style=rounded];
s0 -> s1  [label="y"];
s0 -> s2  [label="x"];
s0 -> s3  [label="z"];
s1 -> s4  [label="y"];
s1 -> s5  [label="z"];
s1 -> s6  [label="x"];
s2 -> s7  [label="x"];
s2 -> s8  [label="z"];
s2 -> s9  [label="y"];
s3 -> s9  [label="x"];
s3 -> s3  [label="y"];
s3 -> s3  [label="z"];
s4 -> s2  [label="x"];
s4 -> s4  [label="z"];
s4 -> s1  [label="y"];
s5 -> s6  [label="z"];
s5 -> s1  [label="y"];
s5 -> s3  [label="x"];
s6 -> s8  [label="y"];
s6 -> s7  [label="z"];
s6 -> s4  [label="x"];
s7 -> s7  [label="y"];
s7 -> s7  [label="z"];
s7 -> s8  [label="x"];
s8 -> s0  [label="x"];
s8 -> s2  [label="y"];
s8 -> s9  [label="z"];
s9 -> s8  [label="z"];
s9 -> s9  [label="y"];
s9 -> s3  [label="x"];
__start0 [label="", shape=none];
__start0 -> s0  [label=""];
}
