digraph "benchmarks-true-state-lstar-3seeds/n_states=10-n_outputs=4-glitch_percent=0.01/f3f61e1a731e014aeafdf063b9c2ab85/alergiaLearned" {
q0 [label="c"];
q1 [label="c"];
q2 [label="c"];
q3 [label="d"];
q4 [label="a"];
q5 [label="d"];
q0 -> q1  [label="z:0.92"];
q0 -> q3  [label="z:0.08"];
q0 -> q4  [label="z:0.0"];
q0 -> q2  [label="y:0.9852941176470589"];
q0 -> q4  [label="y:0.014705882352941176"];
q0 -> q3  [label="y:0.0"];
q0 -> q3  [label="x:1.0"];
q0 -> q4  [label="x:0.0"];
q1 -> q4  [label="x:0.5909090909090909"];
q1 -> q5  [label="x:0.4090909090909091"];
q1 -> q3  [label="y:0.5625"];
q1 -> q0  [label="y:0.4375"];
q1 -> q1  [label="z:0.5294117647058824"];
q1 -> q4  [label="z:0.058823529411764705"];
q1 -> q3  [label="z:0.4117647058823529"];
q2 -> q5  [label="x:1.0"];
q2 -> q1  [label="y:1.0"];
q2 -> q4  [label="z:1.0"];
q3 -> q5  [label="x:0.896551724137931"];
q3 -> q1  [label="x:0.06896551724137931"];
q3 -> q4  [label="x:0.034482758620689655"];
q3 -> q4  [label="y:0.8846153846153846"];
q3 -> q5  [label="y:0.07692307692307693"];
q3 -> q0  [label="y:0.038461538461538464"];
q3 -> q4  [label="z:0.9375"];
q3 -> q3  [label="z:0.03125"];
q3 -> q0  [label="z:0.03125"];
q4 -> q5  [label="y:0.6842105263157895"];
q4 -> q1  [label="y:0.3157894736842105"];
q4 -> q0  [label="x:1.0"];
q4 -> q0  [label="z:1.0"];
q5 -> q4  [label="x:0.5333333333333333"];
q5 -> q0  [label="x:0.4666666666666667"];
q5 -> q5  [label="x:0.0"];
q5 -> q1  [label="y:0.46153846153846156"];
q5 -> q3  [label="y:0.5384615384615384"];
q5 -> q4  [label="y:0.0"];
q5 -> q1  [label="z:0.4444444444444444"];
q5 -> q3  [label="z:0.5555555555555556"];
q5 -> q4  [label="z:0.0"];
__start0 [label="", shape=none];
__start0 -> q0  [label=""];
}
