digraph "benchmarks-true-state-lstar-3seeds/n_states=10-n_outputs=4-glitch_percent=0.01/f3f61e1a731e014aeafdf063b9c2ab85/pmsatLearned-N10" {
0 [label="0|a", shape=record, style=rounded];
1 [label="1|c", shape=record, style=rounded];
2 [label="2|d", shape=record, style=rounded];
3 [label="3|c", shape=record, style=rounded];
4 [label="4|d", shape=record, style=rounded];
5 [label="5|c", shape=record, style=rounded];
6 [label="6|a", shape=record, style=rounded];
7 [label="7|c", shape=record, style=rounded];
8 [label="8|d", shape=record, style=rounded];
9 [label="9|a", shape=record, style=rounded];
0 -> 5  [label="x"];
0 -> 2  [label="y"];
0 -> 1  [label="z"];
1 -> 7  [label="z"];
1 -> 3  [label="y"];
1 -> 4  [label="x"];
2 -> 5  [label="x"];
2 -> 4  [label="y"];
2 -> 8  [label="z"];
3 -> 8  [label="x"];
3 -> 5  [label="y"];
3 -> 9  [label="z"];
4 -> 2  [label="x"];
4 -> 0  [label="y"];
4 -> 6  [label="z"];
5 -> 4  [label="x"];
5 -> 5  [label="y"];
5 -> 4  [label="z"];
6 -> 1  [label="x"];
6 -> 2  [label="y"];
6 -> 7  [label="z"];
7 -> 6  [label="x"];
7 -> 2  [label="y"];
7 -> 3  [label="z"];
8 -> 6  [label="x"];
8 -> 7  [label="y"];
8 -> 7  [label="z"];
9 -> 1  [label="x"];
9 -> 7  [label="y"];
9 -> 7  [label="z"];
__start0 [label="", shape=none];
__start0 -> 1  [label=""];
}
