digraph alergiaLearned {
q0 [label="b"];
q1 [label="b"];
q2 [label="b"];
q3 [label="d"];
q4 [label="d"];
q5 [label="a"];
q6 [label="c"];
q7 [label="e"];
q8 [label="b"];
q9 [label="d"];
q10 [label="b"];
q0 -> q1  [label="z:0.9558823529411765"];
q0 -> q5  [label="z:0.014705882352941176"];
q0 -> q3  [label="z:0.014705882352941176"];
q0 -> q7  [label="z:0.014705882352941176"];
q0 -> q2  [label="y:0.9393939393939394"];
q0 -> q4  [label="y:0.010101010101010102"];
q0 -> q5  [label="y:0.020202020202020204"];
q0 -> q6  [label="y:0.010101010101010102"];
q0 -> q7  [label="y:0.020202020202020204"];
q0 -> q3  [label="x:0.9907407407407407"];
q0 -> q6  [label="x:0.009259259259259259"];
q1 -> q4  [label="x:0.8666666666666667"];
q1 -> q2  [label="x:0.06666666666666667"];
q1 -> q5  [label="x:0.06666666666666667"];
q1 -> q7  [label="y:0.896551724137931"];
q1 -> q5  [label="y:0.034482758620689655"];
q1 -> q3  [label="y:0.034482758620689655"];
q1 -> q0  [label="y:0.0"];
q1 -> q6  [label="y:0.034482758620689655"];
q1 -> q4  [label="z:0.96"];
q1 -> q7  [label="z:0.04"];
q2 -> q5  [label="x:0.9722222222222222"];
q2 -> q6  [label="x:0.027777777777777776"];
q2 -> q6  [label="y:1.0"];
q2 -> q4  [label="z:1.0"];
q3 -> q8  [label="x:1.0"];
q3 -> q5  [label="x:0.0"];
q3 -> q9  [label="y:0.9666666666666667"];
q3 -> q0  [label="y:0.03333333333333333"];
q3 -> q5  [label="z:1.0"];
q3 -> q3  [label="z:0.0"];
q4 -> q1  [label="z:0.2727272727272727"];
q4 -> q5  [label="z:0.24242424242424243"];
q4 -> q4  [label="z:0.48484848484848486"];
q4 -> q6  [label="x:0.1956521739130435"];
q4 -> q7  [label="x:0.2391304347826087"];
q4 -> q5  [label="x:0.2391304347826087"];
q4 -> q1  [label="x:0.32608695652173914"];
q4 -> q3  [label="x:0.0"];
q4 -> q4  [label="y:0.5116279069767442"];
q4 -> q0  [label="y:0.16279069767441862"];
q4 -> q6  [label="y:0.023255813953488372"];
q4 -> q5  [label="y:0.3023255813953488"];
q5 -> q2  [label="y:0.4444444444444444"];
q5 -> q5  [label="y:0.3055555555555556"];
q5 -> q3  [label="y:0.25"];
q5 -> q6  [label="x:0.41935483870967744"];
q5 -> q5  [label="x:0.3548387096774194"];
q5 -> q0  [label="x:0.22580645161290322"];
q5 -> q10  [label="z:0.8421052631578947"];
q5 -> q3  [label="z:0.15789473684210525"];
q6 -> q3  [label="x:0.9166666666666666"];
q6 -> q5  [label="x:0.08333333333333333"];
q6 -> q1  [label="y:0.03571428571428571"];
q6 -> q4  [label="y:0.9642857142857143"];
q6 -> q3  [label="z:1.0"];
q7 -> q1  [label="x:1.0"];
q7 -> q4  [label="y:1.0"];
q7 -> q4  [label="z:1.0"];
q8 -> q4  [label="x:1.0"];
q8 -> q1  [label="y:0.6"];
q8 -> q5  [label="y:0.4"];
q8 -> q0  [label="z:0.5"];
q8 -> q7  [label="z:0.5"];
q9 -> q5  [label="x:1.0"];
q9 -> q8  [label="y:1.0"];
q9 -> q4  [label="z:1.0"];
q10 -> q1  [label="x:0.7777777777777778"];
q10 -> q3  [label="x:0.2222222222222222"];
q10 -> q4  [label="y:0.8571428571428571"];
q10 -> q5  [label="y:0.14285714285714285"];
q10 -> q4  [label="z:0.8571428571428571"];
q10 -> q7  [label="z:0.14285714285714285"];
__start0 [label="", shape=none];
__start0 -> q0  [label=""];
}
