digraph "benchmarks-true-state-lstar-3seeds/n_states=9-n_outputs=7-glitch_percent=0.0/8d629451f833d745be6fd0a1787abb1d/pmsatLearned-N9" {
0 [label="0|a", shape=record, style=rounded];
1 [label="1|c", shape=record, style=rounded];
2 [label="2|d", shape=record, style=rounded];
3 [label="3|e", shape=record, style=rounded];
4 [label="4|g", shape=record, style=rounded];
5 [label="5|a", shape=record, style=rounded];
6 [label="6|g", shape=record, style=rounded];
7 [label="7|e", shape=record, style=rounded];
8 [label="8|c", shape=record, style=rounded];
0 -> 2  [label="z"];
0 -> 3  [label="y"];
0 -> 1  [label="x"];
1 -> 4  [label="x"];
1 -> 8  [label="y"];
1 -> 7  [label="z"];
2 -> 4  [label="x"];
2 -> 7  [label="y"];
2 -> 0  [label="z"];
3 -> 5  [label="x"];
3 -> 6  [label="y"];
3 -> 8  [label="z"];
4 -> 5  [label="x"];
4 -> 2  [label="y"];
4 -> 1  [label="z"];
5 -> 0  [label="x"];
5 -> 7  [label="y"];
5 -> 6  [label="z"];
6 -> 5  [label="x"];
6 -> 1  [label="y"];
6 -> 8  [label="z"];
7 -> 4  [label="x"];
7 -> 8  [label="y"];
7 -> 7  [label="z"];
8 -> 7  [label="x"];
8 -> 7  [label="y"];
8 -> 4  [label="z"];
__start0 [label="", shape=none];
__start0 -> 0  [label=""];
}
