digraph "benchmarks-true-state-lstar-rc10seeds/n_states=6-n_outputs=4-glitch_percent=0.0/52c9033214b2fa1712da4d1cb71e47ff/pmsatLearned_NOP-N6-STOC" {
0 [label="0|b", shape=record, style=rounded];
1 [label="1|c", shape=record, style=rounded];
2 [label="2|d", shape=record, style=rounded];
3 [label="3|c", shape=record, style=rounded];
4 [label="4|d", shape=record, style=rounded];
5 [label="5|c", shape=record, style=rounded];
0 -> 5  [label="x (6)"];
0 -> 4  [label="y (6)"];
0 -> 4  [label="z (6)"];
1 -> 0  [label="x (6)"];
1 -> 1  [label="y (6)"];
1 -> 2  [label="z (6)"];
2 -> 5  [label="z (20)"];
2 -> 4  [label="y (20)"];
2 -> 3  [label="x (44)"];
3 -> 0  [label="x (19)"];
3 -> 1  [label="y (19)"];
3 -> 5  [label="z (7)"];
4 -> 2  [label="x (7)"];
4 -> 5  [label="y (7)"];
4 -> 5  [label="z (7)"];
5 -> 3  [label="x (9)"];
5 -> 3  [label="y (9)"];
5 -> 2  [label="z (9)"];
__start0 [label="", shape=none];
__start0 -> 2  [label=""];
}
