digraph "benchmarks-true-state-lstar-songp/n_states=3-n_outputs=3-glitch_percent=0.05-pmstrat='lsu'/85e1bab40797be759b4b8afdeae3d666/pmsatLearned-N3" {
0 [label="0|a", shape=record, style=rounded];
1 [label="1|b", shape=record, style=rounded];
2 [label="2|c", shape=record, style=rounded];
0 -> 1  [label="z"];
0 -> 2  [label="y"];
0 -> 1  [label="x"];
1 -> 2  [label="x"];
1 -> 2  [label="y"];
1 -> 0  [label="z"];
2 -> 1  [label="x"];
2 -> 2  [label="y"];
2 -> 1  [label="z"];
__start0 [label="", shape=none];
__start0 -> 0  [label=""];
}
