digraph "benchmarks-true-state-lstar-3seeds/n_states=5-n_outputs=5-glitch_percent=0.02/9cb3d651aa6e882c182712360a522ff2/rpniGroundTruth" {
s0 [label="s0|c", shape=record, style=rounded];
s1 [label="s1|d", shape=record, style=rounded];
s2 [label="s2|d", shape=record, style=rounded];
s3 [label="s3|c", shape=record, style=rounded];
s4 [label="s4|a", shape=record, style=rounded];
s0 -> s1  [label="z"];
s0 -> s2  [label="y"];
s0 -> s3  [label="x"];
s1 -> s4  [label="z"];
s1 -> s2  [label="x"];
s1 -> s0  [label="y"];
s2 -> s0  [label="x"];
s2 -> s2  [label="y"];
s2 -> s0  [label="z"];
s3 -> s4  [label="x"];
s3 -> s0  [label="z"];
s3 -> s3  [label="y"];
s4 -> s0  [label="x"];
s4 -> s1  [label="y"];
s4 -> s2  [label="z"];
__start0 [label="", shape=none];
__start0 -> s0  [label=""];
}
