digraph "benchmarks-true-state-lstar-songp/n_states=12-n_outputs=8-glitch_percent=0.05-pmstrat='fm'/980ddde3f157f3a59711b3737451a299/pmsatLearned-N12" {
0 [label="0|a", shape=record, style=rounded];
1 [label="1|b", shape=record, style=rounded];
2 [label="2|c", shape=record, style=rounded];
3 [label="3|e", shape=record, style=rounded];
4 [label="4|f", shape=record, style=rounded];
5 [label="5|g", shape=record, style=rounded];
6 [label="6|h", shape=record, style=rounded];
7 [label="7|a", shape=record, style=rounded];
8 [label="8|g", shape=record, style=rounded];
9 [label="9|h", shape=record, style=rounded];
10 [label="10|h", shape=record, style=rounded];
11 [label="11|f", shape=record, style=rounded];
0 -> 3  [label="z"];
0 -> 10  [label="y"];
0 -> 9  [label="x"];
1 -> 4  [label="x"];
1 -> 3  [label="y"];
1 -> 7  [label="z"];
2 -> 3  [label="y"];
2 -> 0  [label="z"];
2 -> 6  [label="x"];
3 -> 7  [label="x"];
3 -> 11  [label="y"];
3 -> 2  [label="z"];
4 -> 6  [label="x"];
4 -> 5  [label="y"];
4 -> 7  [label="z"];
5 -> 5  [label="x"];
5 -> 0  [label="y"];
5 -> 2  [label="z"];
6 -> 0  [label="x"];
6 -> 2  [label="y"];
6 -> 4  [label="z"];
7 -> 5  [label="x"];
7 -> 5  [label="z"];
7 -> 3  [label="y"];
8 -> 4  [label="x"];
8 -> 5  [label="y"];
8 -> 2  [label="z"];
9 -> 4  [label="x"];
9 -> 8  [label="y"];
9 -> 2  [label="z"];
10 -> 5  [label="x"];
10 -> 6  [label="y"];
10 -> 1  [label="z"];
11 -> 11  [label="x"];
11 -> 11  [label="y"];
11 -> 11  [label="z"];
__start0 [label="", shape=none];
__start0 -> 0  [label=""];
}
