digraph "benchmarks-true-state-lstar-songp/n_states=15-n_outputs=2-glitch_percent=0.02-pmstrat='lsu'/44499d8c5eaae3b1fa2bdf626558af59/alergiaLearned" {
q0 [label="a"];
q1 [label="b"];
q2 [label="a"];
q3 [label="a"];
q4 [label="b"];
q5 [label="a"];
q6 [label="a"];
q7 [label="a"];
q0 -> q1  [label="z:1.0"];
q0 -> q2  [label="y:0.9784172661870504"];
q0 -> q4  [label="y:0.02158273381294964"];
q0 -> q3  [label="x:0.9786096256684492"];
q0 -> q1  [label="x:0.0213903743315508"];
q1 -> q4  [label="x:0.9333333333333333"];
q1 -> q6  [label="x:0.06666666666666667"];
q1 -> q5  [label="y:1.0"];
q1 -> q1  [label="y:0.0"];
q1 -> q4  [label="z:0.975609756097561"];
q1 -> q0  [label="z:0.024390243902439025"];
q2 -> q4  [label="x:0.8771929824561403"];
q2 -> q0  [label="x:0.12280701754385964"];
q2 -> q4  [label="y:0.8627450980392157"];
q2 -> q0  [label="y:0.13725490196078433"];
q2 -> q4  [label="z:1.0"];
q3 -> q4  [label="x:0.98"];
q3 -> q2  [label="x:0.02"];
q3 -> q7  [label="y:0.9782608695652174"];
q3 -> q4  [label="y:0.021739130434782608"];
q3 -> q4  [label="z:1.0"];
q4 -> q4  [label="x:0.28"];
q4 -> q2  [label="x:0.72"];
q4 -> q0  [label="y:0.45121951219512196"];
q4 -> q4  [label="y:0.5487804878048781"];
q4 -> q4  [label="z:0.8484848484848485"];
q4 -> q0  [label="z:0.15151515151515152"];
q5 -> q4  [label="x:1.0"];
q5 -> q3  [label="y:1.0"];
q5 -> q4  [label="z:1.0"];
q6 -> q4  [label="y:1.0"];
q7 -> q4  [label="x:1.0"];
q7 -> q0  [label="y:0.9285714285714286"];
q7 -> q1  [label="y:0.07142857142857142"];
q7 -> q4  [label="z:1.0"];
__start0 [label="", shape=none];
__start0 -> q0  [label=""];
}
