digraph "benchmarks-true-state-lstar-rc10seeds/n_states=11-n_outputs=4-glitch_percent=0.0/b5fdc5633123a5ebe55b4119df1f05e4/pmsatLearned_NOP-N11-STOC" {
0 [label="0|b", shape=record, style=rounded];
1 [label="1|d", shape=record, style=rounded];
2 [label="2|c", shape=record, style=rounded];
3 [label="3|c", shape=record, style=rounded];
4 [label="4|b", shape=record, style=rounded];
5 [label="5|b", shape=record, style=rounded];
6 [label="6|d", shape=record, style=rounded];
7 [label="7|a", shape=record, style=rounded];
8 [label="8|c", shape=record, style=rounded];
9 [label="9|a", shape=record, style=rounded];
10 [label="10|d", shape=record, style=rounded];
0 -> 5  [label="x (9)"];
0 -> 5  [label="y (9)"];
0 -> 0  [label="z (9)"];
1 -> 0  [label="x (6)"];
1 -> 3  [label="y (6)"];
1 -> 7  [label="z (6)"];
2 -> 10  [label="z (30)"];
2 -> 9  [label="y (54)"];
2 -> 6  [label="x (54)"];
3 -> 0  [label="x (8)"];
3 -> 6  [label="y (8)"];
3 -> 3  [label="z (8)"];
4 -> 9  [label="x (7)"];
4 -> 2  [label="y (7)"];
4 -> 4  [label="z (7)"];
5 -> 8  [label="x (8)"];
5 -> 3  [label="y (8)"];
5 -> 1  [label="z (8)"];
6 -> 5  [label="x (19)"];
6 -> 0  [label="y (19)"];
6 -> 4  [label="z (19)"];
7 -> 6  [label="x (6)"];
7 -> 10  [label="y (6)"];
7 -> 10  [label="z (6)"];
8 -> 0  [label="x (6)"];
8 -> 9  [label="y (6)"];
8 -> 4  [label="z (6)"];
9 -> 8  [label="x (19)"];
9 -> 1  [label="y (19)"];
9 -> 7  [label="z (19)"];
10 -> 3  [label="x (20)"];
10 -> 10  [label="y (8)"];
10 -> 5  [label="z (8)"];
__start0 [label="", shape=none];
__start0 -> 2  [label=""];
}
