digraph "benchmarks-true-state-lstar-3seeds/n_states=13-n_outputs=6-glitch_percent=0.01/816834ccc091b57122bae947de5b737b/pmsatLearned-N13-STOC" {
0 [label="0|a", shape=record, style=rounded];
1 [label="1|b", shape=record, style=rounded];
2 [label="2|d", shape=record, style=rounded];
3 [label="3|e", shape=record, style=rounded];
4 [label="4|f", shape=record, style=rounded];
5 [label="5|b", shape=record, style=rounded];
6 [label="6|a", shape=record, style=rounded];
7 [label="7|e", shape=record, style=rounded];
8 [label="8|e", shape=record, style=rounded];
9 [label="9|a", shape=record, style=rounded];
10 [label="10|a", shape=record, style=rounded];
11 [label="11|e", shape=record, style=rounded];
12 [label="12|e", shape=record, style=rounded];
0 -> 2  [label="z (52)"];
0 -> 3  [label="y (52)"];
0 -> 9  [label="x (52)"];
0 -> 5  [label="!x [1]"];
0 -> 5  [label="!z [1]"];
0 -> 4  [label="!y [1]"];
1 -> 6  [label="x (7)"];
1 -> 1  [label="y (7)"];
1 -> 7  [label="z (7)"];
2 -> 6  [label="x (21)"];
2 -> 12  [label="y (21)"];
2 -> 5  [label="z (19)"];
2 -> 1  [label="!x [1]"];
3 -> 1  [label="x (21)"];
3 -> 10  [label="y (22)"];
3 -> 7  [label="z (23)"];
4 -> 9  [label="x (6)"];
4 -> 3  [label="y (6)"];
4 -> 3  [label="z (6)"];
5 -> 5  [label="x (7)"];
5 -> 2  [label="y (8)"];
5 -> 7  [label="z (8)"];
6 -> 10  [label="x (9)"];
6 -> 6  [label="y (9)"];
6 -> 12  [label="z (8)"];
7 -> 5  [label="x (8)"];
7 -> 1  [label="y (8)"];
7 -> 3  [label="z (8)"];
8 -> 2  [label="x (5)"];
8 -> 3  [label="y (5)"];
8 -> 6  [label="z (4)"];
9 -> 11  [label="x (19)"];
9 -> 4  [label="y (18)"];
9 -> 8  [label="z (18)"];
9 -> 3  [label="!z [1]"];
10 -> 2  [label="x (6)"];
10 -> 4  [label="y (6)"];
10 -> 11  [label="z (6)"];
11 -> 6  [label="x (6)"];
11 -> 3  [label="y (6)"];
11 -> 5  [label="z (6)"];
12 -> 9  [label="x (6)"];
12 -> 2  [label="y (6)"];
12 -> 7  [label="z (6)"];
__start0 [label="", shape=none];
__start0 -> 0  [label=""];
}
