digraph "benchmarks-true-state-lstar-rc10seeds/n_states=13-n_outputs=6-glitch_percent=0.01/e463b529d17f8d415bbf4bd179e6a5f1/pmsatLearned_NOP-N13" {
0 [label="0|f", shape=record, style=rounded];
1 [label="1|c", shape=record, style=rounded];
2 [label="2|c", shape=record, style=rounded];
3 [label="3|d", shape=record, style=rounded];
4 [label="4|b", shape=record, style=rounded];
5 [label="5|a", shape=record, style=rounded];
6 [label="6|b", shape=record, style=rounded];
7 [label="7|c", shape=record, style=rounded];
8 [label="8|e", shape=record, style=rounded];
9 [label="9|d", shape=record, style=rounded];
10 [label="10|a", shape=record, style=rounded];
11 [label="11|d", shape=record, style=rounded];
12 [label="12|b", shape=record, style=rounded];
0 -> 8  [label="x"];
0 -> 11  [label="y"];
0 -> 9  [label="z"];
1 -> 12  [label="x"];
1 -> 3  [label="y"];
1 -> 11  [label="z"];
2 -> 5  [label="z"];
2 -> 7  [label="y"];
2 -> 6  [label="x"];
3 -> 3  [label="x"];
3 -> 5  [label="y"];
3 -> 2  [label="z"];
4 -> 0  [label="x"];
4 -> 9  [label="y"];
4 -> 5  [label="z"];
5 -> 10  [label="x"];
5 -> 12  [label="y"];
5 -> 4  [label="z"];
6 -> 0  [label="x"];
6 -> 11  [label="y"];
6 -> 3  [label="z"];
7 -> 8  [label="x"];
7 -> 1  [label="y"];
7 -> 9  [label="z"];
8 -> 12  [label="x"];
8 -> 3  [label="y"];
8 -> 5  [label="z"];
9 -> 1  [label="x"];
9 -> 6  [label="y"];
9 -> 0  [label="z"];
10 -> 0  [label="x"];
10 -> 3  [label="y"];
10 -> 6  [label="z"];
11 -> 10  [label="x"];
11 -> 7  [label="y"];
11 -> 10  [label="z"];
12 -> 11  [label="x"];
12 -> 6  [label="y"];
12 -> 4  [label="z"];
__start0 [label="", shape=none];
__start0 -> 2  [label=""];
}
