digraph "benchmarks-true-state-lstar-3seeds/n_states=4-n_outputs=3-glitch_percent=0.0/3ef1383f2f8c62a6884b3dbc07a81a3b/alergiaLearned" {
q0 [label="a"];
q1 [label="a"];
q2 [label="c"];
q0 -> q1  [label="z:1.0"];
q0 -> q2  [label="y:0.8636363636363636"];
q0 -> q0  [label="y:0.13636363636363635"];
q0 -> q2  [label="x:0.8636363636363636"];
q0 -> q0  [label="x:0.13636363636363635"];
q1 -> q0  [label="x:1.0"];
q1 -> q0  [label="y:1.0"];
q1 -> q0  [label="z:1.0"];
q2 -> q2  [label="x:0.5833333333333334"];
q2 -> q0  [label="x:0.4166666666666667"];
q2 -> q0  [label="y:1.0"];
q2 -> q2  [label="z:1.0"];
__start0 [label="", shape=none];
__start0 -> q0  [label=""];
}
