digraph "benchmarks-true-state-lstar-3seeds/n_states=8-n_outputs=2-glitch_percent=0.05/bd5f978b8d12907a90a1ce2c9e122dc0/rpniGroundTruth" {
s0 [label="s0|b", shape=record, style=rounded];
s1 [label="s1|a", shape=record, style=rounded];
s2 [label="s2|a", shape=record, style=rounded];
s3 [label="s3|a", shape=record, style=rounded];
s4 [label="s4|a", shape=record, style=rounded];
s5 [label="s5|b", shape=record, style=rounded];
s6 [label="s6|a", shape=record, style=rounded];
s7 [label="s7|b", shape=record, style=rounded];
s0 -> s1  [label="x"];
s0 -> s2  [label="y"];
s0 -> s3  [label="z"];
s1 -> s4  [label="z"];
s1 -> s5  [label="x"];
s1 -> s6  [label="y"];
s2 -> s7  [label="z"];
s2 -> s2  [label="y"];
s2 -> s7  [label="x"];
s3 -> s7  [label="z"];
s3 -> s1  [label="y"];
s3 -> s7  [label="x"];
s4 -> s1  [label="y"];
s4 -> s7  [label="x"];
s4 -> s6  [label="z"];
s5 -> s6  [label="x"];
s5 -> s1  [label="z"];
s5 -> s3  [label="y"];
s6 -> s1  [label="x"];
s6 -> s1  [label="y"];
s6 -> s6  [label="z"];
s7 -> s0  [label="x"];
s7 -> s2  [label="z"];
s7 -> s7  [label="y"];
__start0 [label="", shape=none];
__start0 -> s0  [label=""];
}
