digraph "benchmarks-true-state-lstar-rc10seeds/n_states=5-n_outputs=2-glitch_percent=0.02/ab9676788a7d014c8a74b2fc60d37acb/pmsatLearned_NOP-N5" {
0 [label="0|a", shape=record, style=rounded];
1 [label="1|a", shape=record, style=rounded];
2 [label="2|b", shape=record, style=rounded];
3 [label="3|a", shape=record, style=rounded];
4 [label="4|a", shape=record, style=rounded];
0 -> 3  [label="z"];
0 -> 1  [label="y"];
0 -> 2  [label="x"];
1 -> 1  [label="x"];
1 -> 3  [label="y"];
1 -> 1  [label="z"];
2 -> 4  [label="x"];
2 -> 2  [label="y"];
2 -> 3  [label="z"];
3 -> 0  [label="x"];
3 -> 0  [label="y"];
3 -> 0  [label="z"];
4 -> 2  [label="x"];
4 -> 3  [label="y"];
4 -> 0  [label="z"];
__start0 [label="", shape=none];
__start0 -> 0  [label=""];
}
