digraph "benchmarks-true-state-lstar-3seeds/n_states=6-n_outputs=4-glitch_percent=0.1/edc0440b6961b51936a97a7612fb45de/alergiaLearned" {
q0 [label="c"];
q1 [label="d"];
q2 [label="c"];
q3 [label="d"];
q4 [label="a"];
q0 -> q1  [label="z:0.8947368421052632"];
q0 -> q0  [label="z:0.10526315789473684"];
q0 -> q2  [label="y:0.9583333333333334"];
q0 -> q4  [label="y:0.041666666666666664"];
q0 -> q3  [label="x:0.9090909090909091"];
q0 -> q4  [label="x:0.09090909090909091"];
q1 -> q1  [label="x:1.0"];
q1 -> q0  [label="y:1.0"];
q1 -> q0  [label="z:1.0"];
q2 -> q4  [label="x:1.0"];
q2 -> q0  [label="y:1.0"];
q2 -> q0  [label="z:0.8888888888888888"];
q2 -> q1  [label="z:0.1111111111111111"];
q3 -> q4  [label="y:1.0"];
q3 -> q2  [label="z:1.0"];
q3 -> q4  [label="x:1.0"];
q4 -> q4  [label="y:1.0"];
q4 -> q0  [label="z:1.0"];
q4 -> q4  [label="x:0.3333333333333333"];
q4 -> q0  [label="x:0.6666666666666666"];
__start0 [label="", shape=none];
__start0 -> q0  [label=""];
}
