digraph "benchmarks-true-state-lstar-3seeds/n_states=13-n_outputs=4-glitch_percent=0.02/180421b7bf4bbf2e406bd0204acb5a06/RealModel" {
s1 [label="s1|c", shape=record, style=rounded];
s2 [label="s2|a", shape=record, style=rounded];
s3 [label="s3|d", shape=record, style=rounded];
s4 [label="s4|d", shape=record, style=rounded];
s5 [label="s5|c", shape=record, style=rounded];
s6 [label="s6|c", shape=record, style=rounded];
s7 [label="s7|d", shape=record, style=rounded];
s8 [label="s8|d", shape=record, style=rounded];
s9 [label="s9|a", shape=record, style=rounded];
s10 [label="s10|d", shape=record, style=rounded];
s11 [label="s11|a", shape=record, style=rounded];
s12 [label="s12|a", shape=record, style=rounded];
s13 [label="s13|a", shape=record, style=rounded];
s1 -> s6  [label="x"];
s1 -> s10  [label="y"];
s1 -> s12  [label="z"];
s2 -> s4  [label="x"];
s2 -> s1  [label="y"];
s2 -> s9  [label="z"];
s3 -> s9  [label="x"];
s3 -> s5  [label="y"];
s3 -> s2  [label="z"];
s4 -> s4  [label="x"];
s4 -> s4  [label="y"];
s4 -> s13  [label="z"];
s5 -> s12  [label="x"];
s5 -> s1  [label="y"];
s5 -> s3  [label="z"];
s6 -> s2  [label="x"];
s6 -> s9  [label="y"];
s6 -> s8  [label="z"];
s7 -> s9  [label="x"];
s7 -> s10  [label="y"];
s7 -> s13  [label="z"];
s8 -> s6  [label="x"];
s8 -> s10  [label="y"];
s8 -> s6  [label="z"];
s9 -> s6  [label="x"];
s9 -> s12  [label="y"];
s9 -> s12  [label="z"];
s10 -> s7  [label="x"];
s10 -> s4  [label="y"];
s10 -> s5  [label="z"];
s11 -> s10  [label="x"];
s11 -> s7  [label="y"];
s11 -> s9  [label="z"];
s12 -> s13  [label="x"];
s12 -> s11  [label="y"];
s12 -> s3  [label="z"];
s13 -> s6  [label="x"];
s13 -> s2  [label="y"];
s13 -> s6  [label="z"];
__start0 [label="", shape=none];
__start0 -> s1  [label=""];
}
