digraph "benchmarks-true-state-lstar-rc10seeds/n_states=13-n_outputs=7-glitch_percent=0.0/bd07f06660ca56366ad4e03fe390f558/pmsatLearned_NOP-N13-STOC" {
0 [label="0|d", shape=record, style=rounded];
1 [label="1|a", shape=record, style=rounded];
2 [label="2|e", shape=record, style=rounded];
3 [label="3|d", shape=record, style=rounded];
4 [label="4|c", shape=record, style=rounded];
5 [label="5|f", shape=record, style=rounded];
6 [label="6|g", shape=record, style=rounded];
7 [label="7|b", shape=record, style=rounded];
8 [label="8|b", shape=record, style=rounded];
9 [label="9|b", shape=record, style=rounded];
10 [label="10|a", shape=record, style=rounded];
11 [label="11|e", shape=record, style=rounded];
12 [label="12|a", shape=record, style=rounded];
0 -> 2  [label="x (7)"];
0 -> 12  [label="y (7)"];
0 -> 6  [label="z (7)"];
1 -> 2  [label="x (5)"];
1 -> 6  [label="y (5)"];
1 -> 10  [label="z (5)"];
2 -> 1  [label="x (23)"];
2 -> 0  [label="y (23)"];
2 -> 4  [label="z (23)"];
3 -> 5  [label="z (54)"];
3 -> 2  [label="y (54)"];
3 -> 12  [label="x (54)"];
4 -> 3  [label="x (7)"];
4 -> 10  [label="y (7)"];
4 -> 7  [label="z (7)"];
5 -> 7  [label="x (20)"];
5 -> 6  [label="y (20)"];
5 -> 11  [label="z (20)"];
6 -> 5  [label="x (9)"];
6 -> 5  [label="y (9)"];
6 -> 11  [label="z (9)"];
7 -> 2  [label="x (6)"];
7 -> 0  [label="y (6)"];
7 -> 0  [label="z (6)"];
8 -> 4  [label="x (6)"];
8 -> 11  [label="y (6)"];
8 -> 2  [label="z (6)"];
9 -> 8  [label="x (6)"];
9 -> 2  [label="y (6)"];
9 -> 4  [label="z (6)"];
10 -> 2  [label="x (8)"];
10 -> 10  [label="y (8)"];
10 -> 6  [label="z (8)"];
11 -> 6  [label="x (7)"];
11 -> 9  [label="y (7)"];
11 -> 5  [label="z (7)"];
12 -> 10  [label="x (18)"];
12 -> 8  [label="y (18)"];
12 -> 9  [label="z (18)"];
__start0 [label="", shape=none];
__start0 -> 3  [label=""];
}
