digraph "benchmarks-true-state-lstar-3seeds/n_states=13-n_outputs=7-glitch_percent=0.0/bd07f06660ca56366ad4e03fe390f558/rpniGroundTruth" {
s0 [label="s0|d", shape=record, style=rounded];
s1 [label="s1|a", shape=record, style=rounded];
s2 [label="s2|f", shape=record, style=rounded];
s3 [label="s3|e", shape=record, style=rounded];
s4 [label="s4|b", shape=record, style=rounded];
s5 [label="s5|a", shape=record, style=rounded];
s6 [label="s6|b", shape=record, style=rounded];
s7 [label="s7|e", shape=record, style=rounded];
s8 [label="s8|b", shape=record, style=rounded];
s9 [label="s9|g", shape=record, style=rounded];
s10 [label="s10|c", shape=record, style=rounded];
s11 [label="s11|a", shape=record, style=rounded];
s12 [label="s12|d", shape=record, style=rounded];
s0 -> s1  [label="x"];
s0 -> s2  [label="z"];
s0 -> s3  [label="y"];
s1 -> s4  [label="y"];
s1 -> s5  [label="x"];
s1 -> s6  [label="z"];
s2 -> s7  [label="z"];
s2 -> s8  [label="x"];
s2 -> s9  [label="y"];
s3 -> s10  [label="z"];
s3 -> s11  [label="x"];
s3 -> s12  [label="y"];
s4 -> s7  [label="y"];
s4 -> s3  [label="z"];
s4 -> s10  [label="x"];
s5 -> s9  [label="z"];
s5 -> s3  [label="x"];
s5 -> s5  [label="y"];
s6 -> s4  [label="x"];
s6 -> s10  [label="z"];
s6 -> s3  [label="y"];
s7 -> s9  [label="x"];
s7 -> s2  [label="z"];
s7 -> s6  [label="y"];
s8 -> s3  [label="x"];
s8 -> s12  [label="z"];
s8 -> s12  [label="y"];
s9 -> s2  [label="x"];
s9 -> s2  [label="y"];
s9 -> s7  [label="z"];
s10 -> s0  [label="x"];
s10 -> s5  [label="y"];
s10 -> s8  [label="z"];
s11 -> s9  [label="y"];
s11 -> s5  [label="z"];
s11 -> s3  [label="x"];
s12 -> s3  [label="x"];
s12 -> s1  [label="y"];
s12 -> s9  [label="z"];
__start0 [label="", shape=none];
__start0 -> s0  [label=""];
}
