digraph "benchmarks-true-state-lstar-3seeds/n_states=6-n_outputs=4-glitch_percent=0.0/372aa35b2b44ad4d5b0277b03a3624ff/pmsatLearned-N6-STOC" {
0 [label="0|a", shape=record, style=rounded];
1 [label="1|c", shape=record, style=rounded];
2 [label="2|d", shape=record, style=rounded];
3 [label="3|c", shape=record, style=rounded];
4 [label="4|d", shape=record, style=rounded];
5 [label="5|c", shape=record, style=rounded];
0 -> 2  [label="x (6)"];
0 -> 5  [label="y (6)"];
0 -> 4  [label="z (6)"];
1 -> 2  [label="z (21)"];
1 -> 4  [label="y (21)"];
1 -> 3  [label="x (45)"];
2 -> 5  [label="x (8)"];
2 -> 5  [label="y (8)"];
2 -> 1  [label="z (8)"];
3 -> 5  [label="x (17)"];
3 -> 0  [label="y (17)"];
3 -> 1  [label="z (5)"];
4 -> 2  [label="x (7)"];
4 -> 1  [label="y (7)"];
4 -> 2  [label="z (7)"];
5 -> 0  [label="x (8)"];
5 -> 1  [label="y (8)"];
5 -> 4  [label="z (8)"];
__start0 [label="", shape=none];
__start0 -> 1  [label=""];
}
