digraph "benchmarks-true-state-lstar-rc10seeds/n_states=9-n_outputs=2-glitch_percent=0.0/7b7d1c111d9d41aad3514c0dc1e68513/pmsatLearned_NOP-N9-STOC" {
0 [label="0|a", shape=record, style=rounded];
1 [label="1|b", shape=record, style=rounded];
2 [label="2|b", shape=record, style=rounded];
3 [label="3|b", shape=record, style=rounded];
4 [label="4|a", shape=record, style=rounded];
5 [label="5|b", shape=record, style=rounded];
6 [label="6|a", shape=record, style=rounded];
7 [label="7|a", shape=record, style=rounded];
8 [label="8|a", shape=record, style=rounded];
0 -> 8  [label="x (7)"];
0 -> 4  [label="y (9)"];
0 -> 2  [label="z (7)"];
1 -> 0  [label="z (23)"];
1 -> 2  [label="y (60)"];
1 -> 3  [label="x (69)"];
2 -> 4  [label="x (30)"];
2 -> 8  [label="y (34)"];
2 -> 4  [label="z (10)"];
3 -> 5  [label="x (35)"];
3 -> 6  [label="y (31)"];
3 -> 7  [label="z (25)"];
4 -> 6  [label="x (11)"];
4 -> 3  [label="y (13)"];
4 -> 3  [label="z (9)"];
5 -> 0  [label="x (10)"];
5 -> 2  [label="y (9)"];
5 -> 2  [label="z (7)"];
6 -> 1  [label="x (12)"];
6 -> 5  [label="y (10)"];
6 -> 3  [label="z (7)"];
7 -> 7  [label="x (11)"];
7 -> 7  [label="y (11)"];
7 -> 4  [label="z (8)"];
8 -> 1  [label="x (12)"];
8 -> 3  [label="y (13)"];
8 -> 2  [label="z (7)"];
__start0 [label="", shape=none];
__start0 -> 1  [label=""];
}
