digraph "benchmarks-true-state-lstar-rc10seeds/n_states=10-n_outputs=5-glitch_percent=0.05/f1894c672a4d173651df71e9e20dc0b6/pmsatLearned_NOP-N10-STOC" {
0 [label="0|c", shape=record, style=rounded];
1 [label="1|e", shape=record, style=rounded];
2 [label="2|b", shape=record, style=rounded];
3 [label="3|d", shape=record, style=rounded];
4 [label="4|b", shape=record, style=rounded];
5 [label="5|c", shape=record, style=rounded];
6 [label="6|c", shape=record, style=rounded];
7 [label="7|d", shape=record, style=rounded];
8 [label="8|c", shape=record, style=rounded];
9 [label="9|a", shape=record, style=rounded];
0 -> 7  [label="x (5)"];
0 -> 4  [label="y (5)"];
0 -> 1  [label="z (5)"];
1 -> 9  [label="x (7)"];
1 -> 3  [label="y (7)"];
1 -> 2  [label="z (6)"];
2 -> 5  [label="x (5)"];
2 -> 0  [label="y (4)"];
2 -> 4  [label="z (6)"];
3 -> 2  [label="z (16)"];
3 -> 8  [label="y (53)"];
3 -> 4  [label="x (52)"];
3 -> 7  [label="!y [1]"];
3 -> 0  [label="!z [1]"];
3 -> 6  [label="!x [1]"];
4 -> 6  [label="x (19)"];
4 -> 5  [label="y (19)"];
4 -> 1  [label="z (20)"];
4 -> 6  [label="!z [1]"];
5 -> 5  [label="x (9)"];
5 -> 4  [label="y (8)"];
5 -> 6  [label="z (7)"];
6 -> 9  [label="y (8)"];
6 -> 4  [label="x (6)"];
6 -> 5  [label="z (6)"];
7 -> 5  [label="x (6)"];
7 -> 4  [label="y (7)"];
7 -> 1  [label="z (7)"];
8 -> 9  [label="x (16)"];
8 -> 7  [label="y (16)"];
8 -> 0  [label="z (17)"];
8 -> 8  [label="!x [1]"];
9 -> 6  [label="x (8)"];
9 -> 7  [label="y (7)"];
9 -> 9  [label="z (8)"];
__start0 [label="", shape=none];
__start0 -> 3  [label=""];
}
