digraph "benchmarks-true-state-lstar-3seeds/n_states=16-n_outputs=3-glitch_percent=0.01/3a23e5741876aa0bb581fd19720d5157/rpniGroundTruth" {
s0 [label="s0|b", shape=record, style=rounded];
s1 [label="s1|b", shape=record, style=rounded];
s2 [label="s2|a", shape=record, style=rounded];
s3 [label="s3|b", shape=record, style=rounded];
s4 [label="s4|b", shape=record, style=rounded];
s5 [label="s5|c", shape=record, style=rounded];
s6 [label="s6|c", shape=record, style=rounded];
s7 [label="s7|c", shape=record, style=rounded];
s8 [label="s8|b", shape=record, style=rounded];
s9 [label="s9|c", shape=record, style=rounded];
s10 [label="s10|b", shape=record, style=rounded];
s11 [label="s11|a", shape=record, style=rounded];
s12 [label="s12|b", shape=record, style=rounded];
s13 [label="s13|b", shape=record, style=rounded];
s14 [label="s14|c", shape=record, style=rounded];
s15 [label="s15|a", shape=record, style=rounded];
s16 [label="s16|a", shape=record, style=rounded];
s17 [label="s17|b", shape=record, style=rounded];
s0 -> s1  [label="x"];
s0 -> s2  [label="y"];
s0 -> s3  [label="z"];
s1 -> s4  [label="y"];
s1 -> s5  [label="x"];
s1 -> s6  [label="z"];
s2 -> s7  [label="z"];
s2 -> s8  [label="x"];
s2 -> s9  [label="y"];
s3 -> s10  [label="z"];
s3 -> s11  [label="y"];
s3 -> s12  [label="x"];
s4 -> s5  [label="y"];
s4 -> s8  [label="z"];
s4 -> s5  [label="x"];
s5 -> s13  [label="y"];
s5 -> s14  [label="x"];
s5 -> s15  [label="z"];
s6 -> s12  [label="x"];
s6 -> s2  [label="z"];
s6 -> s3  [label="y"];
s7 -> s6  [label="x"];
s7 -> s3  [label="y"];
s7 -> s8  [label="z"];
s8 -> s6  [label="z"];
s8 -> s13  [label="x"];
s8 -> s8  [label="y"];
s9 -> s14  [label="z"];
s9 -> s5  [label="x"];
s9 -> s15  [label="y"];
s10 -> s0  [label="x"];
s10 -> s5  [label="y"];
s10 -> s5  [label="z"];
s11 -> s5  [label="y"];
s11 -> s0  [label="z"];
s11 -> s1  [label="x"];
s12 -> s6  [label="z"];
s12 -> s12  [label="x"];
s12 -> s11  [label="y"];
s13 -> s14  [label="y"];
s13 -> s3  [label="z"];
s13 -> s15  [label="x"];
s14 -> s2  [label="x"];
s14 -> s16  [label="y"];
s14 -> s17  [label="z"];
s15 -> s6  [label="x"];
s15 -> s12  [label="y"];
s15 -> s15  [label="z"];
s16 -> s5  [label="y"];
s16 -> s4  [label="x"];
s16 -> s10  [label="z"];
s17 -> s3  [label="x"];
s17 -> s14  [label="y"];
s17 -> s5  [label="z"];
__start0 [label="", shape=none];
__start0 -> s0  [label=""];
}
