digraph "benchmarks-true-state-lstar-3seeds/n_states=12-n_outputs=3-glitch_percent=0.1/6f9b5bbf27682e6a57a3cfa31d944ea9/pmsatLearned-N12-STOC" {
0 [label="0|a", shape=record, style=rounded];
1 [label="1|b", shape=record, style=rounded];
2 [label="2|c", shape=record, style=rounded];
3 [label="3|c", shape=record, style=rounded];
4 [label="4|a", shape=record, style=rounded];
5 [label="5|a", shape=record, style=rounded];
6 [label="6|c", shape=record, style=rounded];
7 [label="7|c", shape=record, style=rounded];
8 [label="8|a", shape=record, style=rounded];
9 [label="9|c", shape=record, style=rounded];
10 [label="10|b", shape=record, style=rounded];
11 [label="11|b", shape=record, style=rounded];
0 -> 6  [label="z (43)"];
0 -> 1  [label="y (52)"];
0 -> 2  [label="x (49)"];
0 -> 11  [label="!x [1]"];
0 -> 9  [label="!y [2]"];
0 -> 5  [label="!y [1]"];
0 -> 3  [label="!z [1]"];
0 -> 4  [label="!z [2]"];
1 -> 10  [label="x (17)"];
1 -> 7  [label="y (19)"];
1 -> 3  [label="z (17)"];
1 -> 7  [label="!z [1]"];
2 -> 4  [label="y (14)"];
2 -> 5  [label="z (15)"];
2 -> 11  [label="x (13)"];
2 -> 0  [label="!y [1]"];
3 -> 4  [label="x (4)"];
3 -> 7  [label="y (7)"];
3 -> 7  [label="z (5)"];
4 -> 8  [label="x (6)"];
4 -> 9  [label="y (5)"];
4 -> 4  [label="z (6)"];
5 -> 8  [label="x (5)"];
5 -> 11  [label="y (4)"];
5 -> 1  [label="z (6)"];
6 -> 8  [label="x (18)"];
6 -> 0  [label="z (6)"];
6 -> 9  [label="y (14)"];
7 -> 3  [label="x (5)"];
7 -> 11  [label="y (8)"];
7 -> 0  [label="z (5)"];
7 -> 10  [label="!x [1]"];
8 -> 9  [label="x (8)"];
8 -> 7  [label="y (6)"];
8 -> 3  [label="z (6)"];
9 -> 10  [label="x (6)"];
9 -> 11  [label="y (3)"];
9 -> 0  [label="z (6)"];
10 -> 5  [label="x (5)"];
10 -> 8  [label="y (5)"];
10 -> 11  [label="z (6)"];
11 -> 11  [label="x (8)"];
11 -> 1  [label="y (9)"];
11 -> 6  [label="z (8)"];
__start0 [label="", shape=none];
__start0 -> 0  [label=""];
}
