digraph "benchmarks-true-state-lstar-rc10seeds/n_states=5-n_outputs=3-glitch_percent=0.01/a22198cd44b95ed038cccd7bc6a08d93/pmsatLearned_NOP-N5-STOC" {
0 [label="0|a", shape=record, style=rounded];
1 [label="1|c", shape=record, style=rounded];
2 [label="2|c", shape=record, style=rounded];
3 [label="3|a", shape=record, style=rounded];
4 [label="4|a", shape=record, style=rounded];
0 -> 4  [label="z (22)"];
0 -> 3  [label="y (24)"];
0 -> 1  [label="x (42)"];
1 -> 2  [label="x (27)"];
1 -> 3  [label="y (19)"];
1 -> 4  [label="z (9)"];
2 -> 1  [label="x (6)"];
2 -> 4  [label="y (10)"];
2 -> 0  [label="z (6)"];
3 -> 3  [label="x (11)"];
3 -> 3  [label="y (27)"];
3 -> 1  [label="z (10)"];
4 -> 3  [label="x (8)"];
4 -> 1  [label="y (18)"];
4 -> 4  [label="z (8)"];
__start0 [label="", shape=none];
__start0 -> 0  [label=""];
}
